v -0.077382 -0.029478 -0.020725
v -0.076605 -0.021367 -0.020141
v -0.076509 -0.019162 -0.020088
v -0.075826 -0.031311 -0.019272
v -0.074973 -0.032542 -0.018471
v -0.074450 -0.010761 -0.018334
v -0.074137 -0.009293 -0.018070
v -0.073960 -0.008467 -0.017922
v -0.073554 -0.006919 -0.017574
v -0.073246 -0.005763 -0.017310
v -0.072913 -0.004590 -0.017023
v -0.072371 -0.029633 -0.026768
v -0.071926 -0.019413 -0.026521
v -0.071069 -0.038173 -0.014809
v -0.071052 0.002309 -0.015428
v -0.070850 -0.038332 -0.014605
v -0.070242 0.004676 -0.014723
v -0.069658 -0.008781 -0.024610
v -0.069338 -0.039683 -0.013200
v -0.068230 -0.003426 -0.023388
v -0.068026 0.011489 -0.012801
v -0.067872 0.011960 -0.012668
v -0.067826 0.012095 -0.012627
v -0.067413 0.013250 -0.012267
v -0.066686 0.002009 -0.022058
v -0.066175 0.015713 -0.011173
v -0.065164 -0.038126 -0.020036
v -0.065025 -0.042247 -0.009211
v -0.064513 0.013071 -0.016501
v -0.064148 -0.038861 -0.019094
v -0.063436 -0.019136 -0.032311
v -0.063044 -0.043425 -0.007378
v -0.062931 0.012976 -0.018793
v -0.062901 -0.029135 -0.031665
v -0.062705 0.013520 -0.018594
v -0.062676 0.024439 -0.008106
v -0.062085 0.025814 -0.007586
v -0.061956 0.026048 -0.007471
v -0.061748 -0.008636 -0.030930
v -0.061314 -0.044430 -0.005779
v -0.061226 -0.005723 -0.030498
v -0.060586 0.028161 -0.006250
v -0.060501 -0.008454 -0.030617
v -0.059984 0.029310 -0.005718
v -0.059859 0.012992 -0.021584
v -0.059025 -0.038011 -0.024922
v -0.059022 -0.044994 -0.003671
v -0.058983 0.002108 -0.028567
v -0.058978 0.031255 -0.004827
v -0.058319 -0.018335 -0.030565
v -0.057828 -0.045304 -0.002573
v -0.057591 -0.037278 -0.026675
v -0.057344 -0.045549 -0.002127
v -0.057203 0.024388 -0.013727
v -0.057183 -0.028199 -0.029370
v -0.056930 -0.037907 -0.026060
v -0.056605 0.025475 -0.013196
v -0.056556 0.035939 -0.002683
v -0.056134 -0.043523 -0.011683
v -0.055778 0.037331 -0.001992
v -0.055704 0.011251 -0.025708
v -0.055636 0.037538 -0.001865
v -0.054964 0.024521 -0.014760
v -0.054568 0.013224 -0.024699
v -0.054393 0.039315 -0.000755
v -0.053572 -0.046734 0.001346
v -0.053497 0.003039 -0.026097
v -0.052456 0.036091 -0.005327
v -0.052282 -0.006826 -0.024987
v -0.051031 -0.016691 -0.023918
v -0.050603 -0.044959 -0.006597
v -0.050255 0.035261 -0.007536
v -0.050050 0.046840 0.003104
v -0.049895 -0.026554 -0.022723
v -0.049598 0.036224 -0.006949
v -0.049586 0.047632 0.003516
v -0.049503 0.047765 0.003590
v -0.049440 -0.043132 -0.019120
v -0.049296 0.047651 0.003391
v -0.049146 0.019227 -0.019828
v -0.048880 0.048555 0.004148
v -0.048789 -0.036416 -0.021495
v -0.048360 -0.046094 -0.004526
v -0.048113 0.049707 0.004832
v -0.047695 -0.008659 0.006130
v -0.047695 -0.008659 0.006130
v -0.047691 -0.008138 0.006126
v -0.047665 -0.004949 0.006100
v -0.047651 -0.003333 0.006086
v -0.047642 -0.002167 0.006077
v -0.047641 -0.002167 0.006076
v -0.047628 -0.000479 0.006063
v -0.047580 0.050552 0.005307
v -0.047579 0.005600 0.006013
v -0.047576 0.005986 0.006010
v -0.047575 0.006055 0.006009
v -0.047575 0.006055 0.006009
v -0.047575 0.006055 0.006009
v -0.047554 0.008659 0.005988
v -0.047554 0.008659 0.005988
v -0.047554 0.008659 0.005988
v -0.047553 0.008659 0.005988
v -0.047528 -0.008529 0.006281
v -0.047417 0.014548 -0.020566
v -0.047203 -0.051196 0.007247
v -0.046561 -0.007778 0.007154
v -0.046372 0.004687 -0.019271
v -0.046330 0.025202 -0.017344
v -0.046105 -0.007424 0.007565
v -0.046070 -0.052770 0.008309
v -0.045439 -0.003464 0.008114
v -0.045439 -0.003464 0.008114
v -0.045439 -0.003464 0.008114
v -0.045405 0.000708 0.008080
v -0.045404 0.000879 0.008079
v -0.045403 0.000879 0.008078
v -0.045403 0.000879 0.008078
v -0.045401 0.001167 0.008076
v -0.045401 0.001249 0.008076
v -0.045400 0.001250 0.008075
v -0.045383 0.003464 0.008058
v -0.045382 0.003464 0.008057
v -0.045353 -0.006839 0.008245
v -0.045233 -0.005177 -0.018080
v -0.045223 -0.045385 -0.015224
v -0.045181 -0.054746 0.009154
v -0.045168 -0.054776 0.009167
v -0.044861 0.006540 0.008486
v -0.044035 -0.002374 0.009382
v -0.043864 -0.002240 0.009537
v -0.043837 0.044460 -0.001804
v -0.043833 -0.002216 0.009566
v -0.043832 -0.002216 0.009565
v -0.043832 -0.002216 0.009565
v -0.043745 0.002175 0.009577
v -0.043745 0.002175 0.009577
v -0.043745 0.002175 0.009577
v -0.043743 -0.015046 -0.017271
v -0.043651 0.005587 0.009609
v -0.043541 -0.005431 0.009883
v -0.043541 -0.005431 0.009883
v -0.043541 -0.005431 0.009883
v -0.043455 0.005433 0.009791
v -0.043337 0.033713 -0.014737
v -0.043155 0.057569 0.009248
v -0.043108 -0.053387 0.000398
v -0.042899 -0.004932 0.010463
v -0.042842 0.001465 0.010414
v -0.042714 -0.004788 0.010630
v -0.042680 -0.004762 0.010661
v -0.042680 -0.004762 0.010660
v -0.042680 -0.004762 0.010661
v -0.042638 -0.001288 0.010645
v -0.042638 -0.001288 0.010645
v -0.042607 -0.024909 -0.016076
v -0.042325 0.058960 0.009986
v -0.042031 0.059457 0.010248
v -0.041958 -0.000759 0.011259
v -0.041834 0.004157 0.011295
v -0.041750 0.015300 -0.015785
v -0.041747 0.000603 0.011430
v -0.041570 0.000464 0.011595
v -0.041471 -0.034772 -0.014881
v -0.041448 0.036424 -0.013050
v -0.041394 -0.000321 0.011768
v -0.041300 -0.000248 0.011853
v -0.041273 -0.049112 -0.011549
v -0.041120 -0.044622 -0.012828
v -0.041015 0.026052 -0.015387
v -0.040981 0.000000 0.012142
v -0.040981 0.000000 0.012142
v -0.040968 0.048291 0.000763
v -0.040912 -0.003388 0.012258
v -0.040646 0.008140 -0.014681
v -0.040624 0.003204 0.012419
v -0.040623 0.003204 0.012419
v -0.040380 -0.002975 0.012738
v -0.040291 -0.002906 0.012818
v -0.040111 0.006029 -0.014146
v -0.039864 0.016188 -0.014209
v -0.039762 0.015300 -0.014101
v -0.039524 -0.002310 0.013511
v -0.039324 0.000752 -0.013359
v -0.039324 0.015300 -0.013359
v -0.039278 0.015300 -0.013659
v -0.039245 0.006214 -0.013438
v -0.039231 0.006801 -0.013452
v -0.039187 0.010307 -0.013496
v -0.039147 0.015092 -0.013536
v -0.039146 0.015300 -0.013537
v -0.038988 -0.062545 0.004314
v -0.038960 -0.062571 0.004339
v -0.038728 0.006325 -0.013014
v -0.038718 -0.061223 0.015174
v -0.038712 -0.061229 0.015179
v -0.037592 -0.003538 -0.011819
v -0.037417 0.053635 0.003931
v -0.037291 0.066164 0.014482
v -0.037041 -0.061771 0.016718
v -0.036904 0.000277 0.015871
v -0.036881 -0.061800 0.016864
v -0.036880 0.042570 -0.008964
v -0.036776 -0.000174 0.015994
v -0.036752 0.066893 0.014965
v -0.036552 0.000000 0.016197
v -0.036552 0.000000 0.016197
v -0.036456 -0.013401 -0.010624
v -0.035788 -0.053375 -0.006460
v -0.035343 0.068668 0.016227
v -0.035319 -0.023264 -0.009429
v -0.035274 -0.061747 0.018335
v -0.035229 0.037566 -0.009536
v -0.035173 0.068903 0.016379
v -0.034183 -0.033127 -0.008234
v -0.034031 0.070374 0.017402
v -0.033779 -0.060882 0.019690
v -0.033713 0.027696 -0.008757
v -0.033573 0.060080 0.007349
v -0.033538 -0.008659 -0.008027
v -0.033529 -0.007502 -0.008036
v -0.033513 -0.005627 -0.008052
v -0.033489 -0.002612 -0.008077
v -0.033482 -0.001788 -0.008083
v -0.033472 -0.000572 -0.008093
v -0.033458 0.001184 -0.008108
v -0.033406 0.007526 -0.008160
v -0.033396 0.008659 -0.008169
v -0.033289 0.071331 0.018065
v -0.033102 -0.055135 -0.003973
v -0.033083 0.071596 0.018250
v -0.033047 -0.042990 -0.007039
v -0.032953 -0.052836 -0.004705
v -0.032873 -0.008142 -0.007426
v -0.032611 0.072198 0.018673
v -0.032576 0.017833 -0.007562
v -0.032280 0.007780 -0.007133
v -0.031968 0.073018 0.019249
v -0.031796 0.048722 -0.004406
v -0.031669 -0.059661 0.021603
v -0.031598 -0.007152 -0.006274
v -0.031589 -0.059621 0.021675
v -0.031440 0.007970 -0.006367
v -0.031332 0.007034 -0.006254
v -0.031282 -0.003464 -0.006043
v -0.031271 -0.002111 -0.006054
v -0.031266 -0.001448 -0.006059
v -0.031262 -0.000959 -0.006063
v -0.031235 0.002267 -0.006090
v -0.031225 0.003464 -0.006100
v -0.031218 -0.065087 0.011468
v -0.031071 0.063459 0.009587
v -0.030891 0.003201 -0.005789
v -0.030467 0.002867 -0.005396
v -0.030304 -0.001893 -0.005172
v -0.030256 0.049978 -0.003015
v -0.030235 0.075229 0.020801
v -0.030218 -0.002637 -0.005082
v -0.030088 -0.055866 0.022991
v -0.030063 0.075372 0.020957
v -0.029969 0.075464 0.021041
v -0.029854 -0.005797 -0.004699
v -0.029841 -0.002344 -0.004741
v -0.029809 0.049086 -0.003286
v -0.029168 -0.011756 -0.003977
v -0.029165 -0.059205 0.022806
v -0.028874 -0.001593 -0.003867
v -0.028833 -0.001561 -0.003830
v -0.028287 0.060674 0.007223
v -0.028135 -0.001019 -0.003200
v -0.028114 -0.060993 0.007051
v -0.028095 0.001000 -0.003195
v -0.028072 -0.055154 0.024825
v -0.028032 -0.021619 -0.002782
v -0.027948 0.039211 -0.002882
v -0.027877 -0.004260 -0.002913
v -0.027586 -0.000592 -0.002704
v -0.027411 0.003948 -0.002615
v -0.026925 0.003565 -0.002164
v -0.026895 -0.031482 -0.001587
v -0.026824 0.000000 -0.002015
v -0.026650 0.029345 -0.001863
v -0.026278 -0.041337 0.000175
v -0.026025 -0.051662 0.002452
v -0.025986 -0.051185 0.002291
v -0.025723 -0.054324 0.026963
v -0.025581 -0.002476 -0.000839
v -0.025337 0.072236 0.016172
v -0.025289 0.019478 -0.000915
v -0.025189 -0.002171 -0.000484
v -0.024541 0.071683 0.015436
v -0.024251 0.001461 0.000317
v -0.024152 0.009615 0.000280
v -0.024056 -0.050727 0.004241
v -0.023869 -0.047759 0.028558
v -0.023769 -0.064840 0.018284
v -0.023752 0.072416 0.016147
v -0.023620 -0.047102 0.028776
v -0.023537 -0.047066 0.028851
v -0.023504 -0.047689 0.028794
v -0.023290 0.054409 0.003294
v -0.023109 0.000562 0.001377
v -0.022991 -0.000463 0.001501
v -0.022882 -0.000379 0.001600
v -0.022590 -0.000152 0.001863
v -0.022415 0.073734 0.017351
v -0.022395 0.000000 0.002040
v -0.021880 -0.010111 0.002670
v -0.021733 -0.057563 0.029295
v -0.021354 0.050711 0.002087
v -0.021136 -0.008659 -0.020429
v -0.021136 0.008659 -0.020429
v -0.020968 -0.059345 0.013854
v -0.020744 -0.019974 0.003865
v -0.020593 0.040855 0.003692
v -0.020166 0.072939 0.017050
v -0.020079 -0.029829 0.005575
v -0.019655 -0.039680 0.007548
v -0.019516 0.072714 0.016949
v -0.019315 -0.044999 0.008491
v -0.019175 -0.049532 0.009460
v -0.019137 0.030986 0.004537
v -0.019016 -0.003464 -0.018309
v -0.019016 0.003464 -0.018309
v -0.018804 -0.004357 0.005396
v -0.018705 -0.036474 0.033109
v -0.018513 -0.038114 0.033311
v -0.018001 0.021123 0.005732
v -0.017994 -0.008880 0.009135
v -0.017752 -0.044592 0.034109
v -0.017691 -0.033660 0.033994
v -0.017235 -0.036183 0.034118
v -0.016908 0.062202 0.009015
v -0.016865 0.011260 0.006927
v -0.016776 0.062035 0.008909
v -0.016761 0.062020 0.008907
v -0.016733 0.062399 0.009172
v -0.016722 -0.008430 0.011643
v -0.016597 0.062243 0.009063
v -0.016437 -0.063575 0.024977
v -0.016352 -0.005810 0.010590
v -0.016102 -0.046046 0.035316
v -0.015746 -0.011073 0.011227
v -0.015728 0.001397 0.008122
v -0.015225 -0.025569 0.036125
v -0.015155 -0.019991 0.036101
v -0.014855 0.064492 0.035052
v -0.014773 0.000000 -0.014066
v -0.014706 -0.018583 0.036490
v -0.014452 -0.055918 0.035950
v -0.014434 -0.030319 0.036923
v -0.014370 0.002057 0.012281
v -0.014063 -0.038352 0.013196
v -0.013999 -0.057695 0.020848
v -0.013875 0.012288 0.012575
v -0.013853 -0.015913 0.037229
v -0.013789 0.017014 0.009653
v -0.013572 -0.015076 0.037474
v -0.013456 -0.018330 0.010512
v -0.012797 -0.011231 0.038122
v -0.012764 0.042490 0.009747
v -0.012745 -0.038029 0.014608
v -0.012719 -0.004386 0.038087
v -0.012683 -0.037668 0.014449
v -0.012320 -0.028193 0.011707
v -0.012299 0.003108 0.018983
v -0.012238 -0.037940 0.014860
v -0.012230 0.012950 0.016473
v -0.012210 -0.004650 0.038557
v -0.012034 0.052321 0.006514
v -0.011990 -0.014815 0.038124
v -0.011913 -0.017628 0.014839
v -0.011892 -0.047887 0.016112
v -0.011849 0.032631 0.011184
v -0.011477 0.016774 0.014700
v -0.011324 -0.007090 0.039407
v -0.011297 -0.006753 0.020325
v -0.011224 0.069587 0.016399
v -0.010942 0.005756 0.039555
v -0.010713 0.022768 0.012379
v -0.010712 0.002461 0.039818
v -0.010670 -0.024682 0.039119
v -0.010615 0.008014 0.039819
v -0.010531 0.000000 -0.009824
v -0.010124 0.004462 0.040324
v -0.009940 -0.016620 0.021279
v -0.009856 0.067610 0.015387
v -0.009605 -0.034544 0.040391
v -0.009285 -0.060758 0.031482
v -0.009164 0.056755 0.040383
v -0.009149 0.057199 0.040390
v -0.008972 0.054615 0.040593
v -0.008661 0.050806 0.040937
v -0.008432 0.015074 0.041707
v -0.008375 0.015290 0.041756
v -0.008337 0.046822 0.041296
v -0.008318 -0.044409 0.041422
v -0.008121 0.016512 0.041969
v -0.008094 0.044693 0.041552
v -0.008085 0.017998 0.041979
v -0.008067 0.018708 0.041984
v -0.008064 0.063867 0.014349
v -0.007771 0.066586 0.021005
v -0.007500 0.036892 0.042218
v -0.007326 0.034747 0.042411
v -0.007278 0.031835 0.042501
v -0.007195 0.026841 0.042655
v -0.007172 -0.056042 0.027999
v -0.007005 0.058961 0.035156
v -0.006957 -0.022463 0.019454
v -0.006612 0.004780 0.027379
v -0.006414 0.064570 0.018586
v -0.006154 0.060049 0.032454
v -0.006095 0.056162 0.032570
v -0.006045 0.014614 0.024324
v -0.006036 0.065159 0.023090
v -0.005927 0.060853 0.030908
v -0.005860 0.061095 0.030442
v -0.005845 0.064338 0.025211
v -0.005681 0.063136 0.026961
v -0.005664 0.053982 0.014164
v -0.005577 0.016375 0.038419
v -0.005456 0.055748 0.028543
v -0.005350 0.054691 0.019716
v -0.005204 0.046244 0.033541
v -0.005092 0.005791 0.034278
v -0.005041 -0.046235 0.023235
v -0.005032 -0.026548 0.018354
v -0.004892 -0.005093 0.027936
v -0.004638 0.045890 0.030086
v -0.004525 -0.043574 0.022011
v -0.004406 0.020303 0.021119
v -0.004323 -0.036404 0.020016
v -0.004303 -0.054322 0.039472
v -0.004268 0.044815 0.020861
v -0.004079 0.036378 0.034726
v -0.003910 0.044108 0.014684
v -0.003886 0.034264 0.017094
v -0.003614 -0.014959 0.028977
v -0.003579 0.016252 0.035499
v -0.003448 0.018394 0.035585
v -0.003425 0.024413 0.019026
v -0.003268 0.026441 0.035623
v -0.003266 0.036023 0.031024
v -0.003131 -0.013198 0.043055
v -0.003071 -0.003355 0.040553
v -0.002942 0.034995 0.022229
v -0.002398 -0.055629 0.037707
v -0.002313 -0.023055 0.044598
v -0.001977 0.026157 0.032051
v -0.001415 -0.054371 0.036318
v -0.001305 -0.000208 0.037839
v -0.001263 -0.054062 0.038722
v -0.001238 0.025260 0.023941
v -0.001018 -0.032921 0.045619
v 0.000238 -0.003412 0.036940
v 0.000413 -0.021534 0.026187
v 0.000477 -0.003072 0.039515
v 0.001328 -0.044575 0.030887
v 0.002144 -0.024901 0.025123
v 0.002228 -0.013289 0.037203
v 0.002570 -0.042826 0.044136
v 0.002672 -0.041138 0.028562
v 0.002920 -0.012640 0.041902
v 0.003198 -0.034763 0.026408
v 0.003730 -0.043917 0.043134
v 0.004090 -0.042735 0.043446
v 0.004345 -0.022438 0.043361
v 0.004864 -0.032440 0.043993
v 0.005071 -0.042869 0.041405
v 0.007957 -0.022111 0.033103
v 0.008530 -0.023241 0.032755
v 0.009148 -0.022994 0.034207
v 0.009609 -0.036449 0.034841
v 0.009803 -0.033106 0.033801
v 0.010394 -0.032832 0.035503

f 2 1 4 
f 12 1 2 
f 12 4 1 
f 3 2 5 
f 13 2 3 
f 5 2 4 
f 13 12 2 
f 6 3 5 
f 3 6 13 
f 27 5 4 
f 12 27 4 
f 5 28 6 
f 14 16 5 
f 27 14 5 
f 16 19 5 
f 5 19 28 
f 6 7 18 
f 7 6 28 
f 13 6 18 
f 9 8 7 
f 7 8 18 
f 216 9 7 
f 7 28 32 
f 7 32 40 
f 7 40 47 
f 7 47 51 
f 7 51 53 
f 66 7 53 
f 7 66 105 
f 7 105 216 
f 9 18 8 
f 20 9 10 
f 10 9 216 
f 20 18 9 
f 10 11 20 
f 11 10 216 
f 11 15 25 
f 15 11 216 
f 11 25 20 
f 34 12 13 
f 34 27 12 
f 13 18 31 
f 31 34 13 
f 27 16 14 
f 17 25 15 
f 17 15 216 
f 30 19 16 
f 27 30 16 
f 33 17 21 
f 17 216 21 
f 33 25 17 
f 18 20 39 
f 39 31 18 
f 28 19 30 
f 48 20 25 
f 20 41 39 
f 41 20 48 
f 23 22 21 
f 33 21 22 
f 23 21 26 
f 21 272 26 
f 21 216 258 
f 258 272 21 
f 29 22 23 
f 29 33 22 
f 26 24 23 
f 23 24 29 
f 24 26 29 
f 33 48 25 
f 26 54 29 
f 36 54 26 
f 36 26 272 
f 46 30 27 
f 52 27 34 
f 52 46 27 
f 32 28 30 
f 33 29 35 
f 54 35 29 
f 59 32 30 
f 46 78 30 
f 30 78 59 
f 31 50 34 
f 39 43 31 
f 43 50 31 
f 59 40 32 
f 35 45 33 
f 45 48 33 
f 50 55 34 
f 55 52 34 
f 64 45 35 
f 80 35 54 
f 80 64 35 
f 38 37 36 
f 37 54 36 
f 38 36 86 
f 86 36 272 
f 57 37 38 
f 57 54 37 
f 57 38 42 
f 42 38 87 
f 38 86 87 
f 41 43 39 
f 40 59 47 
f 41 67 43 
f 41 48 67 
f 72 42 44 
f 44 42 88 
f 57 42 72 
f 88 42 87 
f 43 70 50 
f 43 67 69 
f 69 70 43 
f 44 49 68 
f 44 89 49 
f 72 44 68 
f 89 44 88 
f 45 61 48 
f 64 61 45 
f 56 46 52 
f 46 56 78 
f 51 47 71 
f 47 59 71 
f 61 67 48 
f 49 58 68 
f 49 98 58 
f 89 92 49 
f 49 92 94 
f 49 94 95 
f 95 97 49 
f 97 98 49 
f 50 74 55 
f 70 74 50 
f 71 53 51 
f 56 52 55 
f 83 66 53 
f 71 83 53 
f 57 63 54 
f 80 54 63 
f 56 55 82 
f 82 55 74 
f 82 78 56 
f 108 63 57 
f 144 57 72 
f 108 57 144 
f 68 58 60 
f 58 128 60 
f 58 98 100 
f 58 100 101 
f 58 101 102 
f 102 128 58 
f 59 78 71 
f 68 60 62 
f 60 139 62 
f 60 128 139 
f 61 64 104 
f 61 104 67 
f 75 62 65 
f 65 62 143 
f 68 62 75 
f 62 139 143 
f 108 80 63 
f 80 104 64 
f 65 73 131 
f 65 159 73 
f 75 65 131 
f 65 143 159 
f 66 83 105 
f 67 124 69 
f 67 104 107 
f 107 124 67 
f 72 68 75 
f 69 138 70 
f 124 138 69 
f 70 155 74 
f 138 155 70 
f 71 78 125 
f 167 83 71 
f 125 167 71 
f 164 72 75 
f 144 72 164 
f 73 76 131 
f 73 200 76 
f 73 159 176 
f 176 200 73 
f 74 163 82 
f 155 163 74 
f 75 131 164 
f 79 76 77 
f 76 298 77 
f 76 79 131 
f 76 200 206 
f 206 298 76 
f 79 77 81 
f 77 298 81 
f 125 78 82 
f 79 81 172 
f 131 79 172 
f 80 169 104 
f 80 108 169 
f 81 84 172 
f 81 298 84 
f 125 82 168 
f 168 82 163 
f 105 83 146 
f 83 167 146 
f 84 93 197 
f 298 93 84 
f 84 197 172 
f 87 86 85 
f 86 103 85 
f 90 87 85 
f 90 85 119 
f 103 140 85 
f 115 85 111 
f 111 85 140 
f 119 85 115 
f 103 86 272 
f 90 88 87 
f 90 89 88 
f 90 91 89 
f 92 89 91 
f 91 90 92 
f 94 92 90 
f 94 90 96 
f 90 119 96 
f 93 145 197 
f 93 326 145 
f 298 326 93 
f 95 94 96 
f 97 95 96 
f 98 97 96 
f 99 98 96 
f 96 121 99 
f 96 119 121 
f 100 98 99 
f 101 100 99 
f 99 102 101 
f 99 128 102 
f 121 135 99 
f 99 143 128 
f 99 135 175 
f 175 143 99 
f 103 106 140 
f 106 103 272 
f 104 174 107 
f 160 174 104 
f 180 160 104 
f 104 169 180 
f 110 105 146 
f 216 105 110 
f 106 109 123 
f 109 106 272 
f 106 123 140 
f 107 196 124 
f 107 174 179 
f 179 183 107 
f 183 196 107 
f 144 169 108 
f 109 272 123 
f 110 191 126 
f 110 126 194 
f 146 191 110 
f 110 194 199 
f 216 110 199 
f 111 113 112 
f 114 111 112 
f 113 111 129 
f 115 111 114 
f 132 129 111 
f 132 111 140 
f 114 112 113 
f 113 129 114 
f 116 115 114 
f 116 114 129 
f 117 115 116 
f 115 117 118 
f 115 118 120 
f 119 115 121 
f 115 120 121 
f 129 117 116 
f 118 117 129 
f 118 130 120 
f 118 129 130 
f 121 120 122 
f 136 122 120 
f 130 133 120 
f 133 134 120 
f 136 120 134 
f 122 136 121 
f 121 136 135 
f 123 141 140 
f 123 272 141 
f 124 207 138 
f 196 207 124 
f 168 167 125 
f 191 127 126 
f 126 127 194 
f 127 191 194 
f 143 139 128 
f 129 132 130 
f 130 132 133 
f 131 202 164 
f 131 172 238 
f 131 238 202 
f 132 134 133 
f 134 132 154 
f 140 150 132 
f 132 150 153 
f 153 154 132 
f 136 134 137 
f 137 134 148 
f 134 154 148 
f 135 136 137 
f 137 148 135 
f 161 135 148 
f 162 135 161 
f 170 135 162 
f 135 170 175 
f 138 210 155 
f 207 210 138 
f 140 141 142 
f 147 140 142 
f 150 140 147 
f 142 141 272 
f 147 142 272 
f 175 159 143 
f 144 164 212 
f 144 212 169 
f 145 156 197 
f 326 156 145 
f 146 167 208 
f 229 191 146 
f 208 229 146 
f 149 150 147 
f 149 147 294 
f 147 272 294 
f 154 158 148 
f 148 158 161 
f 151 150 149 
f 149 297 151 
f 149 294 297 
f 152 150 151 
f 173 150 152 
f 153 150 170 
f 150 205 170 
f 173 178 150 
f 178 205 150 
f 151 298 152 
f 297 298 151 
f 152 298 173 
f 158 154 153 
f 158 153 165 
f 166 165 153 
f 166 153 170 
f 155 214 163 
f 210 214 155 
f 156 157 218 
f 326 157 156 
f 156 218 197 
f 198 218 157 
f 326 198 157 
f 161 158 165 
f 175 176 159 
f 184 174 160 
f 181 160 180 
f 160 181 184 
f 161 165 162 
f 162 165 166 
f 171 162 166 
f 170 162 171 
f 163 231 168 
f 214 231 163 
f 202 212 164 
f 171 166 170 
f 208 167 168 
f 208 168 232 
f 232 168 231 
f 169 235 180 
f 169 212 217 
f 217 235 169 
f 170 205 175 
f 197 238 172 
f 173 177 178 
f 173 298 177 
f 184 179 174 
f 200 176 175 
f 200 175 205 
f 177 298 178 
f 182 205 178 
f 182 178 298 
f 184 183 179 
f 180 185 181 
f 180 190 185 
f 180 242 190 
f 235 242 180 
f 181 185 184 
f 203 205 182 
f 182 298 203 
f 183 184 186 
f 193 183 186 
f 193 196 183 
f 190 184 185 
f 186 184 187 
f 187 184 188 
f 188 184 189 
f 190 189 184 
f 187 193 186 
f 188 193 187 
f 188 189 193 
f 189 190 193 
f 190 227 193 
f 190 242 227 
f 194 191 192 
f 192 191 283 
f 191 229 283 
f 195 194 192 
f 192 250 195 
f 270 250 192 
f 192 283 270 
f 193 225 196 
f 226 225 193 
f 227 226 193 
f 194 195 199 
f 195 250 199 
f 196 220 207 
f 221 220 196 
f 222 221 196 
f 223 222 196 
f 196 224 223 
f 196 225 224 
f 197 218 268 
f 197 255 238 
f 300 255 197 
f 268 300 197 
f 251 198 204 
f 326 204 198 
f 251 218 198 
f 216 199 201 
f 250 201 199 
f 206 200 205 
f 216 201 211 
f 211 201 250 
f 202 263 212 
f 202 238 263 
f 206 205 203 
f 203 298 206 
f 251 204 209 
f 326 209 204 
f 207 273 210 
f 207 220 219 
f 219 264 207 
f 264 273 207 
f 232 229 208 
f 290 209 213 
f 326 213 209 
f 251 209 290 
f 210 279 214 
f 273 279 210 
f 216 211 295 
f 295 211 250 
f 212 281 217 
f 212 263 274 
f 274 281 212 
f 213 215 287 
f 326 215 213 
f 290 213 287 
f 214 282 231 
f 279 282 214 
f 215 228 287 
f 215 348 228 
f 326 325 215 
f 325 330 215 
f 330 344 215 
f 344 345 215 
f 345 348 215 
f 258 216 239 
f 295 239 216 
f 217 288 235 
f 281 288 217 
f 268 218 251 
f 220 310 219 
f 233 264 219 
f 219 310 233 
f 221 310 220 
f 310 221 222 
f 310 222 223 
f 310 223 224 
f 310 224 225 
f 310 225 226 
f 310 226 227 
f 227 242 236 
f 236 383 227 
f 310 227 311 
f 227 383 311 
f 228 230 287 
f 228 380 230 
f 228 348 355 
f 355 362 228 
f 362 380 228 
f 229 232 283 
f 287 230 234 
f 230 380 234 
f 231 284 232 
f 282 284 231 
f 232 284 283 
f 240 264 233 
f 233 310 240 
f 287 234 237 
f 234 399 237 
f 380 378 234 
f 378 382 234 
f 382 399 234 
f 235 292 242 
f 288 292 235 
f 242 243 236 
f 243 383 236 
f 287 237 256 
f 237 405 256 
f 399 400 237 
f 237 400 405 
f 255 263 238 
f 258 239 241 
f 265 241 239 
f 265 239 295 
f 261 264 240 
f 261 240 383 
f 240 310 383 
f 258 241 265 
f 242 277 243 
f 242 278 277 
f 292 278 242 
f 243 277 383 
f 254 244 245 
f 245 244 322 
f 257 244 254 
f 244 257 347 
f 244 347 322 
f 246 254 245 
f 246 245 322 
f 247 254 246 
f 322 247 246 
f 248 252 247 
f 322 248 247 
f 252 254 247 
f 249 252 248 
f 248 323 249 
f 322 323 248 
f 323 252 249 
f 250 270 295 
f 268 251 332 
f 251 290 336 
f 251 336 332 
f 252 253 254 
f 323 253 252 
f 253 267 254 
f 253 271 267 
f 271 253 347 
f 253 323 347 
f 254 262 257 
f 266 262 254 
f 267 266 254 
f 263 255 309 
f 255 300 309 
f 287 256 259 
f 256 405 259 
f 262 347 257 
f 258 265 272 
f 259 260 296 
f 259 405 260 
f 287 259 296 
f 260 305 296 
f 260 315 305 
f 260 318 315 
f 346 318 260 
f 405 346 260 
f 261 275 264 
f 383 275 261 
f 266 347 262 
f 263 314 274 
f 309 314 263 
f 264 313 273 
f 275 307 264 
f 307 313 264 
f 285 272 265 
f 285 265 308 
f 308 265 295 
f 347 266 267 
f 271 269 267 
f 347 267 269 
f 332 300 268 
f 271 276 269 
f 276 347 269 
f 293 270 283 
f 293 320 270 
f 270 312 295 
f 320 312 270 
f 271 280 276 
f 280 271 347 
f 294 272 285 
f 273 316 279 
f 313 316 273 
f 274 321 281 
f 314 321 274 
f 286 307 275 
f 383 286 275 
f 347 276 280 
f 278 383 277 
f 292 291 278 
f 291 383 278 
f 279 317 282 
f 316 317 279 
f 281 327 288 
f 321 327 281 
f 317 284 282 
f 284 293 283 
f 319 293 284 
f 319 284 317 
f 294 285 308 
f 289 307 286 
f 383 289 286 
f 290 287 296 
f 288 333 292 
f 327 333 288 
f 302 307 289 
f 302 289 383 
f 290 296 318 
f 318 386 290 
f 386 336 290 
f 292 301 291 
f 383 291 301 
f 306 301 292 
f 292 343 306 
f 333 343 292 
f 319 320 293 
f 294 299 297 
f 299 294 308 
f 339 308 295 
f 295 312 339 
f 315 296 305 
f 318 296 315 
f 297 299 298 
f 329 298 299 
f 298 329 326 
f 299 308 349 
f 329 299 341 
f 341 299 349 
f 300 334 309 
f 300 332 334 
f 383 301 306 
f 303 307 302 
f 303 302 383 
f 304 324 303 
f 304 303 383 
f 324 307 303 
f 306 343 304 
f 306 304 383 
f 343 324 304 
f 307 358 313 
f 340 307 324 
f 340 328 307 
f 328 358 307 
f 349 308 339 
f 309 360 314 
f 309 334 335 
f 335 338 309 
f 309 338 369 
f 369 360 309 
f 311 323 310 
f 322 310 323 
f 310 322 383 
f 323 311 383 
f 320 353 312 
f 312 353 339 
f 313 364 316 
f 358 364 313 
f 314 373 321 
f 360 373 314 
f 364 317 316 
f 317 352 319 
f 363 352 317 
f 363 317 364 
f 346 377 318 
f 377 386 318 
f 352 320 319 
f 352 361 320 
f 372 353 320 
f 361 372 320 
f 321 379 327 
f 373 379 321 
f 383 322 347 
f 323 383 347 
f 340 324 343 
f 331 325 326 
f 325 331 330 
f 331 326 329 
f 356 333 327 
f 379 356 327 
f 340 337 328 
f 337 342 328 
f 328 342 358 
f 331 329 341 
f 330 331 350 
f 330 350 344 
f 331 341 396 
f 350 331 387 
f 387 331 396 
f 335 334 332 
f 338 335 332 
f 338 332 336 
f 343 333 354 
f 374 354 333 
f 374 333 356 
f 338 336 401 
f 336 386 401 
f 351 337 340 
f 342 337 385 
f 351 365 337 
f 365 376 337 
f 337 376 385 
f 338 420 369 
f 401 420 338 
f 388 349 339 
f 339 353 388 
f 343 351 340 
f 341 349 433 
f 396 341 433 
f 342 371 358 
f 342 385 371 
f 351 343 354 
f 344 381 345 
f 381 344 350 
f 348 345 370 
f 345 381 370 
f 346 402 377 
f 389 390 346 
f 392 389 346 
f 390 408 346 
f 405 392 346 
f 346 415 402 
f 408 412 346 
f 412 416 346 
f 346 418 415 
f 346 416 417 
f 346 417 419 
f 346 419 418 
f 355 348 370 
f 433 349 388 
f 381 350 387 
f 354 365 351 
f 363 361 352 
f 372 407 353 
f 353 407 388 
f 367 365 354 
f 374 367 354 
f 362 355 357 
f 355 370 357 
f 374 356 379 
f 362 357 359 
f 359 357 370 
f 358 427 364 
f 371 427 358 
f 359 368 362 
f 359 375 368 
f 359 370 375 
f 369 436 360 
f 437 373 360 
f 436 437 360 
f 366 361 363 
f 430 361 366 
f 426 372 361 
f 430 426 361 
f 451 362 368 
f 451 380 362 
f 366 363 364 
f 366 364 432 
f 432 364 427 
f 367 410 365 
f 365 428 376 
f 410 428 365 
f 432 430 366 
f 431 367 374 
f 414 410 367 
f 414 367 431 
f 445 368 375 
f 451 368 445 
f 420 436 369 
f 375 370 444 
f 370 381 448 
f 444 370 448 
f 385 409 371 
f 371 409 427 
f 426 407 372 
f 373 441 379 
f 437 441 373 
f 374 379 431 
f 445 375 444 
f 376 438 385 
f 428 438 376 
f 386 377 402 
f 380 384 378 
f 378 425 382 
f 384 425 378 
f 379 441 431 
f 451 384 380 
f 381 387 454 
f 448 381 454 
f 382 393 399 
f 393 382 439 
f 382 425 439 
f 451 425 384 
f 438 409 385 
f 386 411 401 
f 386 402 411 
f 387 396 461 
f 454 387 461 
f 388 407 447 
f 447 433 388 
f 389 408 390 
f 392 391 389 
f 413 389 391 
f 413 408 389 
f 424 391 392 
f 413 391 424 
f 405 395 392 
f 424 392 395 
f 393 394 399 
f 394 393 421 
f 393 439 421 
f 394 397 399 
f 421 397 394 
f 403 398 395 
f 424 395 398 
f 405 403 395 
f 433 461 396 
f 397 442 399 
f 421 442 397 
f 435 398 403 
f 424 398 435 
f 399 442 400 
f 400 406 405 
f 400 442 406 
f 420 401 411 
f 411 402 415 
f 405 404 403 
f 435 403 404 
f 442 404 405 
f 435 404 442 
f 442 405 406 
f 426 450 407 
f 407 450 447 
f 412 408 413 
f 427 409 459 
f 456 409 438 
f 409 456 459 
f 410 414 439 
f 425 410 439 
f 425 455 410 
f 410 455 428 
f 415 422 411 
f 423 420 411 
f 411 422 423 
f 413 416 412 
f 416 413 417 
f 413 422 417 
f 429 422 413 
f 424 429 413 
f 449 414 431 
f 440 439 414 
f 449 440 414 
f 415 418 422 
f 422 419 417 
f 419 422 418 
f 436 420 423 
f 440 421 439 
f 421 440 442 
f 422 429 423 
f 423 429 434 
f 434 436 423 
f 443 429 424 
f 435 443 424 
f 425 451 455 
f 462 426 430 
f 458 450 426 
f 458 426 462 
f 427 464 432 
f 459 464 427 
f 428 460 438 
f 455 460 428 
f 429 443 434 
f 430 432 462 
f 441 453 431 
f 449 431 453 
f 432 464 462 
f 452 433 447 
f 452 461 433 
f 437 436 434 
f 446 437 434 
f 434 443 446 
f 442 449 435 
f 449 443 435 
f 441 437 446 
f 460 456 438 
f 449 442 440 
f 453 441 446 
f 443 449 446 
f 444 463 445 
f 448 467 444 
f 467 463 444 
f 457 451 445 
f 463 457 445 
f 446 449 453 
f 450 452 447 
f 454 468 448 
f 468 467 448 
f 465 452 450 
f 469 450 458 
f 465 450 469 
f 451 457 455 
f 452 465 461 
f 461 466 454 
f 466 468 454 
f 460 455 457 
f 459 456 471 
f 470 456 460 
f 456 470 471 
f 463 460 457 
f 473 458 462 
f 469 458 473 
f 459 474 464 
f 471 474 459 
f 470 460 463 
f 466 461 465 
f 462 464 473 
f 472 463 467 
f 470 463 472 
f 464 474 473 
f 469 466 465 
f 466 475 468 
f 469 475 466 
f 475 467 468 
f 472 467 475 
f 469 473 475 
f 470 472 471 
f 474 471 472 
f 475 474 472 
f 474 475 473 


