####
#
#	OBJ File Generated by LightWave3D
#	LightWave3D OBJ Export v2.2
#
####
#	Object: thino.lwo
#
#	                Vertices: 571
#	                  Points: 0
#	                   Lines: 0
#	                   Faces: 1138
#	               Materials: 2
#
####

o thino.lwo

#	             Vertex list

v 8.30744 21.6117 -11.0785
v -1.63144 4.70955 -38.9517
v 3.9086 13.8357 -33.9517
v 1.61144 4.70955 -38.9517
v -4.1986 13.8357 -33.9517
v 2.59568 24.8121 17.3771
v -8.32672 23.6117 3.14395
v 8.30744 23.6117 3.14395
v 9.31112 -23.3121 -11.0723
v -9.33472 -23.3098 5.43075
v -2.61496 24.8121 17.3771
v -8.32672 21.6117 -11.0785
v 9.31472 -23.3098 5.43075
v -9.3304 -23.3121 -11.0723
v -4.33015 -12.5189 58.9767
v -4.90286 -16.9588 53.9567
v -4.71565 -17.14 54.531
v -3.49676 -15.4755 60.1264
v -3.98723 -17.6346 56.9016
v -3.89509 -17.6686 57.2188
v -3.63848 -17.7412 58.1198
v -2.829 -17.5938 61.2093
v -11.5414 9.09291 37.2784
v -4.91219 5.00923 53.0008
v -4.95359 -3.43328 62.6082
v -0.000477514 14.4092 71.2334
v -2.98355 -17.6706 60.5897
v -7.39954 27.8527 49.0767
v -8.75606 22.6691 50.8134
v -7.42403 25.7008 50.7832
v -7.43686 27.1867 49.7781
v 3.63811 -17.7412 58.1198
v -8.0259 18.6347 49.4565
v -8.19736 19.3328 49.9578
v -7.10269 22.2412 51.4081
v -7.37913 24.8707 51.1223
v -7.30973 24.0053 51.3421
v -0.000477514 -17.2984 55.1133
v -4.34648 -17.4337 55.7032
v -4.53019 -17.2984 55.1133
v -6.65829 19.7862 50.5823
v -8.64176 21.7877 50.7836
v -6.96972 21.3794 51.2528
v 3.98628 -17.6346 56.9016
v -8.97593 26.7332 49.1536
v -6.30896 18.4757 49.4822
v 4.88965 -20.2907 51.8254
v -4.89002 -20.2907 51.8254
v -9.46057 -5.08423 44.8636
v -9.04883 -8.41479 44.2086
v -8.45338 -10.3456 45.1482
v -8.11454 -11.0167 45.9626
v -7.46836 -11.5447 48.0075
v -7.20533 -11.3658 49.0983
v -8.84471 -2.79705 48.635
v -11.5414 -9.4432 34.3186
v -8.53445 -2.91604 49.7046
v -7.85968 -3.9962 51.4943
v -7.04845 -7.05514 52.4949
v -6.85308 -9.25752 51.7788
v -6.88632 -10.1818 51.0505
v -7.00646 -10.9009 50.1362
v 3.14064 -17.7237 59.9701
v -3.30372 -17.7532 59.3515
v -3.14159 -17.7237 59.9701
v -4.16569 -17.5459 56.2995
v 3.30277 -17.7532 59.3515
v 2.98259 -17.6706 60.5897
v 3.4684 -17.759 58.7344
v -3.46935 -17.759 58.7344
v -0.000477514 -16.9588 53.9567
v -6.48625 19.0882 50.081
v -6.82042 20.5553 50.9756
v -7.21641 23.1226 51.4379
v -7.40421 27.8114 49.1331
v -7.44328 26.4782 50.3321
v -6.22148 18.1187 39.2406
v -6.22264 13.8113 42.3709
v -8.94386 27.3579 48.5086
v -8.35949 20.1018 50.3512
v -8.50879 20.9259 50.6283
v -8.84879 23.5518 50.7176
v -8.91878 24.4172 50.4978
v -8.95027 27.2294 48.6413
v -8.96368 25.2473 50.1588
v -8.98293 26.0248 49.7076
v -3.84901 -17.6856 57.3775
v 3.84864 -17.6856 57.3775
v -3.80352 -17.7016 57.5363
v 4.88499 15.0133 43.6395
v -4.88653 10.0936 47.2149
v 4.88382 19.3156 40.5129
v -4.88478 19.3156 40.5129
v -6.99247 -7.07193 48.7745
v -7.75179 -7.0893 49.2975
v -4.8842 20.4839 39.664
v -7.21233 -7.8906 47.4247
v -7.13418 -7.92069 47.6954
v -8.25859 -7.43342 47.2003
v -7.74129 -8.06264 48.7006
v -7.08228 -6.49894 48.8156
v -7.63807 -6.28565 46.8998
v -8.3624 -6.59051 47.3662
v -7.71097 -7.88062 48.932
v -6.98663 -7.5758 48.4655
v -7.7028 -7.64664 49.1163
v -8.20669 -6.01172 48.3207
v -8.35424 -6.35661 47.5506
v -8.12796 -6.04181 48.5914
v -8.31283 -7.14791 47.1849
v -8.04339 -6.14534 48.8381
v -7.95708 -6.31514 49.0443
v -8.18803 -7.69755 47.2868
v -7.8766 -6.5398 49.1957
v -7.80661 -6.8038 49.282
v -8.02181 -8.09185 47.6444
v -7.7168 -7.37679 49.2409
v -7.93667 -8.19542 47.8912
v -7.85852 -8.22563 48.1619
v -7.79145 -8.18024 48.4379
v -7.38321 -7.61723 46.9718
v -7.29748 -7.78711 47.1779
v -7.23333 -6.01028 48.5779
v -7.15226 -6.23494 48.7293
v -7.6299 -6.05175 47.0841
v -7.53426 -7.12861 46.734
v -4.88537 15.0133 43.6395
v -11.5414 2.46214 42.0999
v -7.48235 -5.70686 47.8543
v -8.27318 -6.05698 48.0445
v -7.54884 -5.75209 47.5782
v -8.32333 -6.17462 47.7819
v -8.34841 -6.8604 47.2415
v -8.10754 -7.92201 47.4382
v -7.46428 -7.39261 46.8204
v -7.84802 18.0223 48.8577
v 7.39916 27.8527 49.0767
v 7.40324 27.8114 49.1331
v 7.37875 24.8707 51.1223
v 8.19698 19.3328 49.9578
v 8.5084 20.9259 50.6283
v 8.84841 23.5518 50.7176
v 8.96272 25.2473 50.1588
v 8.98196 26.0248 49.7076
v 7.75141 -7.0893 49.2975
v 7.02708 -6.78445 48.831
v 7.9567 -6.31514 49.0443
v 7.3181 -5.84044 48.3718
v 7.23236 -6.01028 48.5779
v 7.85756 -8.22563 48.1619
v 7.13322 -7.92069 47.6954
v 7.93629 -8.19542 47.8912
v 7.01658 -7.7577 48.2342
v 7.06674 -7.87538 47.9714
v 8.32295 -6.17462 47.7819
v 7.87622 -6.5398 49.1957
v 7.80623 -6.8038 49.282
v 7.15188 -6.23494 48.7293
v 7.63769 -6.28565 46.8998
v 7.71059 -7.88062 48.932
v 6.97751 -7.3419 48.6499
v 8.12757 -6.04181 48.5914
v 7.40324 -5.73695 48.1249
v 8.35327 -6.35661 47.5506
v 8.36202 -6.59051 47.3662
v 8.20572 -6.01172 48.3207
v 8.31245 -7.14791 47.1849
v 8.25763 -7.43342 47.2003
v 8.10716 -7.92201 47.4382
v 7.71584 -7.37679 49.2409
v 7.70184 -7.64664 49.1163
v 7.79107 -8.18024 48.4379
v 8.02143 -8.09185 47.6444
v 6.98625 -7.5758 48.4655
v 7.74091 -8.06264 48.7006
v 6.9915 -7.07193 48.7745
v 4.88382 20.4839 39.664
v 11.541 9.09291 37.2784
v 8.04243 -6.14534 48.8381
v 7.48198 -5.70686 47.8543
v 7.54846 -5.75209 47.5782
v 7.59862 -5.86977 47.3154
v 8.27279 -6.05698 48.0445
v 6.22226 13.8113 42.3709
v 8.34803 -6.8604 47.2415
v 8.18765 -7.69755 47.2868
v 2.8432 -19.8941 59.6516
v -2.84416 -19.8941 59.6516
v 2.82863 -17.5938 61.2093
v 3.89472 -17.6686 57.2188
v 3.80257 -17.7016 57.5363
v 4.52924 -17.2984 55.1133
v 4.34611 -17.4337 55.7032
v 4.16474 -17.5459 56.2995
v 3.49231 -15.4814 60.1347
v 4.88616 10.0936 47.2149
v 4.91123 5.00923 53.0008
v 8.94289 27.3579 48.5086
v 6.2211 18.1187 39.2406
v 7.30876 24.0053 51.3421
v 8.7551 22.6691 50.8134
v 7.21604 23.1226 51.4379
v 8.91781 24.4172 50.4978
v 7.4429 26.4782 50.3321
v 8.97555 26.7332 49.1536
v 7.4359 27.1867 49.7781
v 8.02493 18.6347 49.4565
v 6.65733 19.7862 50.5823
v 8.64137 21.7877 50.7836
v 7.42365 25.7008 50.7832
v 8.35911 20.1018 50.3512
v 7.10173 22.2412 51.4081
v 8.9493 27.2294 48.6413
v 8.82683 -2.90578 48.6273
v 11.541 2.46214 42.0999
v 7.8663 -4.07517 51.4154
v 7.28602 -5.95794 52.3315
v 4.95323 -3.43328 62.6082
v 9.37329 -6.17605 44.4693
v 11.541 -9.4432 34.3186
v 9.39487 -4.23491 45.6598
v 8.44542 -10.2667 45.227
v 8.11533 -10.921 46.0213
v 4.9019 -16.9588 53.9567
v 4.71469 -17.14 54.531
v -0.000477514 -17.14 54.531
v 6.30799 18.4757 49.4822
v 7.84764 18.0223 48.8577
v 6.48587 19.0882 50.081
v 6.81946 20.5553 50.9756
v 6.96876 21.3794 51.2528
v -0.000477514 13.2891 55.4173
v 4.33095 -12.5064 58.9779
v 3.68768 -12.2356 58.5637
v 2.84904 -15.2106 59.7205
v 4.27088 -15.4148 57.2989
v 3.62761 -15.1441 56.8845
v -3.68688 -12.2481 58.5624
v -4.27008 -15.4095 57.3081
v -2.85291 -15.2047 59.7121
v -3.62682 -15.1386 56.8938
v 9.06361 -4.56756 48.0029
v 8.47283 -4.79429 50.0401
v 8.15615 -4.19709 51.602
v 8.25296 -5.23033 50.5692
v 7.84531 -5.06252 52.1853
v 7.36533 -7.1799 52.5775
v 7.72575 -7.21763 51.2193
v 7.59862 -8.64849 50.7541
v 7.22828 -8.28771 52.3598
v 9.19308 -4.86958 47.3285
v 9.27065 -5.3367 46.7346
v 9.16567 -7.36805 45.7963
v 9.31555 -8.50585 44.4974
v 8.8455 -8.77888 46.0576
v 8.41859 -9.79134 46.9754
v 8.19989 -10.0571 47.6091
v 7.99869 -10.1345 48.3039
v 7.17404 -9.32758 51.8794
v 7.51755 -11.3834 49.2656
v 9.52609 -7.40573 44.4379
v 9.66314 -6.29805 44.6559
v 9.23682 -7.28381 44.2514
v 9.42753 -5.13621 44.9496
v 9.7168 -5.25813 45.1362
v 9.68414 -4.35683 45.8464
v 9.56691 -3.65558 46.7378
v 9.08402 -3.08038 47.5634
v 9.27765 -3.53368 46.5513
v 9.37387 -3.20229 47.75
v 9.11668 -3.02773 48.8138
v 8.814 -3.14389 49.8567
v 8.52474 -3.02189 49.6701
v 8.19698 -3.42081 50.6211
v 8.48683 -3.54273 50.8077
v 7.57587 -6.07986 52.5181
v 7.55546 -4.94056 51.9988
v 7.07548 -7.05794 52.3911
v 6.93843 -8.16571 52.1731
v 6.88478 -9.20566 51.6928
v 7.20729 -10.2289 51.1692
v 6.91744 -10.1069 50.9826
v 7.03466 -10.8082 50.0911
v 7.32393 -10.9301 50.2777
v 7.22828 -11.2615 49.0791
v 7.77474 -11.558 48.2018
v 7.48489 -11.436 48.0153
v 8.07742 -11.4419 47.1589
v 7.78757 -11.3199 46.9722
v 8.4046 -11.043 46.2078
v 8.75627 -9.40128 44.6436
v 9.04612 -9.5232 44.8302
v 8.73527 -10.3886 45.4135
v 9.02629 -8.38393 44.3108
v -9.69502 -6.27273 44.5575
v -9.55447 -7.40862 44.3342
v -9.26287 -6.62577 45.9248
v -9.33868 -8.53674 44.3951
v -9.17072 -7.36857 45.7788
v -9.06224 -9.5801 44.7364
v -8.41897 -9.80754 46.9656
v -8.74323 -10.4676 45.3347
v -8.4044 -11.1387 46.1492
v -7.82411 -10.0358 49.016
v -7.69464 -9.73177 49.6946
v -7.19775 -8.31307 52.458
v -7.14235 -9.37944 51.9654
v -9.39817 -3.09796 47.7307
v -9.13456 -2.91893 48.8215
v -9.75042 -5.20615 45.0502
v -9.06866 -4.55001 47.9996
v -8.8243 -3.03804 49.8912
v -8.48838 -3.44706 50.8663
v -8.25218 -5.21701 50.5826
v -7.83052 -5.00566 52.2792
v -7.59375 -8.6573 50.7686
v -7.61591 -9.26154 50.2924
v -9.10832 -2.97605 47.5441
v -9.59645 -3.56289 46.6927
v -9.3066 -3.4409 46.5061
v -9.42674 -4.16002 45.5918
v -9.71659 -4.28194 45.7784
v -9.40517 -6.15072 44.3709
v -9.26461 -7.2867 44.1476
v -8.77239 -9.4581 44.5498
v -7.77862 -11.4257 46.9378
v -8.06847 -11.5477 47.1245
v -7.75821 -11.6667 48.194
v -7.4946 -11.4877 49.2849
v -7.29631 -11.0229 50.3228
v -7.17617 -10.3037 51.2371
v -6.9079 -8.19107 52.2714
v -7.3383 -7.17697 52.6814
v -7.26424 -5.92693 52.4338
v -7.54126 -4.88366 52.0926
v -7.55409 -6.04897 52.6204
v -8.14954 -4.11816 51.6808
v -8.19852 -3.32514 50.6798
v -8.06031 -4.37484 46.588
v -8.16062 -5.44935 45.514
v -8.12446 -6.1467 45.1919
v -7.59899 -5.86977 47.3154
v -7.89176 -7.62719 45.0856
v -7.62407 -6.55566 46.775
v -7.71097 -8.30936 45.3088
v -7.5885 -6.8431 46.7186
v -7.28057 -9.32848 46.2326
v -7.06712 -7.87538 47.9714
v -7.01696 -7.7577 48.2342
v -7.33539 -4.29911 49.317
v -7.11377 -4.73795 49.8496
v -7.40362 -5.73695 48.1249
v -7.31906 -5.84044 48.3718
v -6.90557 -5.31819 50.2408
v -6.72478 -6.00039 50.4639
v -7.02804 -6.78445 48.831
v -6.97847 -7.3419 48.6499
v -6.58364 -6.73808 50.5038
v -6.68629 -9.55664 48.2829
v -6.4775 -8.78256 49.5595
v -6.55623 -9.25271 48.9616
v -7.55525 -4.03165 48.6793
v -8.4738 -4.77825 50.05
v -8.69366 -4.51071 49.4123
v -7.75821 -3.95384 47.9799
v -7.93025 -4.07092 47.2667
v -8.89662 -4.43291 48.7129
v -9.19813 -4.85391 47.321
v -9.27686 -5.32414 46.7232
v -8.13904 -4.84499 45.9901
v -9.29902 -5.9285 46.247
v -8.0329 -6.8895 45.0458
v -9.02958 -8.10626 45.8186
v -8.64059 -9.36867 46.433
v -8.84879 -8.78842 46.0418
v -7.50218 -8.8896 45.7
v -8.19911 -10.0749 47.6032
v -6.85833 -9.67374 47.5696
v -7.06128 -9.59593 46.8703
v -7.99615 -10.1528 48.3026
v -6.45592 -8.17824 50.0356
v -6.49208 -7.48085 50.3578
v -7.6299 -7.95995 51.0907
v -7.72205 -7.21715 51.2368
v -7.86318 -6.47954 51.1969
v -8.04398 -5.79725 50.9738
v 7.11456 -4.75123 49.8363
v 6.90752 -5.32773 50.225
v 7.0819 -6.49894 48.8156
v 6.7279 -6.00565 50.4467
v 7.06207 -9.57803 46.8761
v 6.49637 -7.47655 50.3412
v 6.46021 -8.16943 50.0211
v 6.48237 -8.76986 49.548
v 6.56052 -9.23707 48.954
v 8.13282 -4.85769 46.0017
v 8.02727 -6.88899 45.0633
v 7.62894 -6.05175 47.0841
v 7.62369 -6.55566 46.775
v 7.58812 -6.8431 46.7186
v 7.5333 -7.12861 46.734
v 7.46331 -7.39261 46.8204
v 7.38283 -7.61723 46.9718
v 7.2971 -7.78711 47.1779
v 7.21195 -7.8906 47.4247
v 7.75491 -3.97219 47.9786
v 8.89273 -4.45125 48.7116
v 7.55312 -4.04952 48.6736
v 8.69095 -4.5285 49.4065
v 7.33501 -4.31528 49.3072
v 8.04593 -5.80691 50.958
v 7.86572 -6.48471 51.1797
v 6.58735 -6.73856 50.4863
v 7.63477 -7.95565 51.0741
v 7.69834 -9.71613 49.687
v 7.62019 -9.24893 50.2809
v 7.82723 -10.0181 49.0126
v 6.68941 -9.53913 48.2797
v 6.86028 -9.6554 47.5709
v 7.28019 -9.31228 46.2424
v 7.50064 -8.87632 45.7133
v 7.70767 -8.2997 45.3246
v 8.63846 -9.35538 46.4463
v 7.8873 -7.6219 45.1029
v 9.02512 -8.101 45.8358
v 8.11883 -6.15097 45.2085
v 8.1544 -5.45812 45.5285
v 9.25665 -6.63007 45.9414
v 9.29281 -5.93718 46.2615
v 8.05468 -4.39051 46.5955
v 7.92579 -4.08842 47.2699
v -6.03929 20.7906 23.9568
v 6.02 20.7906 23.9568
v -5.43383 -13.7028 33.2698
v 5.43247 -13.7028 33.2698
v 23.774 -32.0538 -18.9124
v 23.774 -25.4975 -13.5845
v 13.578 -40.0033 -17.8044
v 24.598 -40.0033 -33.4718
v 25.316 -40.0033 -17.8044
v 15.121 -32.0538 -18.9124
v 15.121 -25.4975 -13.5845
v 23.774 -10.5886 -10.2485
v 23.774 -2.74034 -28.9461
v 23.774 -10.4906 -34.2639
v 14.296 -40.0033 -33.4718
v 16.786 -40.0033 -14.0841
v 15.121 -35.1341 -32.0268
v 23.774 -35.1341 -32.0268
v 23.774 -2.74034 -18.0389
v 22.028 -40.0033 -14.0841
v 23.774 -18.8117 -31.4085
v 23.774 -18.0214 -10.8647
v 20.7065 -18.0214 -10.8647
v 19.1773 -18.8117 -31.4085
v 23.774 -22.7063 -31.556
v 13.6185 -20.1842 -31.2105
v -23.794 -32.0538 -18.9124
v -23.794 -25.4975 -13.5845
v -13.598 -40.0033 -17.8044
v -24.618 -40.0033 -33.4718
v -25.336 -40.0033 -17.8044
v -15.141 -32.0538 -18.9124
v -15.141 -25.4975 -13.5845
v -23.794 -10.5886 -10.2485
v -23.794 -2.74034 -28.9461
v -23.794 -10.4906 -34.2639
v -14.316 -40.0033 -33.4718
v -16.806 -40.0033 -14.0841
v -15.141 -35.1341 -32.0268
v -23.794 -35.1341 -32.0268
v -23.794 -2.74034 -18.0389
v -22.048 -40.0033 -14.0841
v -23.794 -18.8117 -31.4085
v -23.794 -18.0214 -10.8647
v -20.7265 -18.0214 -10.8647
v -19.1973 -18.8117 -31.4085
v -11.2013 -15.5343 -31.5288
v -12.4812 -5.05083 -34.7577
v -14.0219 4.02077 -28.9461
v -15.0362 3.75077 -18.0389
v -16.1824 -5.33927 -11.5969
v -16.5523 -14.2138 -11.4175
v -16.0515 -16.4571 -11.8543
v -23.794 -22.7063 -31.556
v -13.6385 -20.1842 -31.2105
v 15.2379 -17.6568 -9.60955
v 16.5323 -14.2138 -11.4175
v 16.0315 -16.4571 -11.8543
v 16.6227 9.28065 -9.60955
v 16.1624 -5.33927 -11.5969
v 15.0162 3.75077 -18.0389
v 10.5419 -16.739 -33.9568
v 11.1813 -15.5343 -31.5288
v 10.9917 4.36545 -37.4521
v 12.4612 -5.05083 -34.7577
v 14.0019 4.02077 -28.9461
v -16.642 9.28065 -9.60955
v -11.0079 4.36545 -37.4521
v -15.242 -17.6568 -9.60955
v -10.5259 -16.739 -33.9568
v 14.998 -31.1158 25.8812
v 14.998 -36.7587 13.6815
v 23.642 -28.91 9.09131
v 21.996 -40.0589 29.7512
v 23.642 -31.1158 25.8812
v 16.615 -40.0589 29.7512
v 23.642 -36.7587 13.6815
v 23.642 0.539181 21.2576
v 23.642 -0.561864 11.2291
v 24.089 -40.0589 12.6218
v 25.117 -40.0589 26.5618
v 14.55 -40.0589 12.6218
v 13.523 -40.0589 26.5618
v 14.998 -28.91 9.09131
v 23.642 -8.70518 7.56884
v 23.642 -4.55858 26.9258
v 23.642 -7.6851 26.0069
v 23.642 -15.115 8.74021
v 14.998 -15.115 8.74021
v 20.0085 -15.115 8.74021
v 23.642 -10.7516 25.9904
v 14.5205 -10.7516 25.9904
v 23.642 -17.1416 8.79179
v 15.5979 -17.1416 8.79179
v 19.5227 -7.68511 26.0068
v -14.998 -31.1158 25.8812
v -14.998 -36.7587 13.6815
v -23.642 -28.91 9.09131
v -21.996 -40.0589 29.7512
v -23.642 -31.1158 25.8812
v -16.615 -40.0589 29.7512
v -23.642 -36.7587 13.6815
v -23.642 0.539181 21.2576
v -23.642 -0.561864 11.2291
v -24.089 -40.0589 12.6218
v -25.117 -40.0589 26.5618
v -14.55 -40.0589 12.6218
v -13.523 -40.0589 26.5618
v -14.998 -28.91 9.09131
v -23.642 -8.70518 7.56884
v -23.642 -4.55858 26.9258
v -23.642 -7.6851 26.0069
v -23.642 -15.115 8.74021
v -14.998 -15.115 8.74021
v -20.0085 -15.115 8.74021
v -23.642 -10.7516 25.9904
v -14.5205 -10.7516 25.9904
v -23.642 -17.1416 8.79179
v -15.5979 -17.1416 8.79179
v -19.5227 -7.68511 26.0068
v -14.4939 5.62188 21.1809
v -13.3117 -7.74223 26.0065
v -13.4568 -1.7494 27.1907
v -14.971 -14.0358 8.60207
v -15.808 5.08529 10.6208
v -15.8096 -2.68062 7.11488
v -12.88 -6.4766 30.406
v 12.878 -6.4766 30.406
v 13.3117 -7.74223 26.0065
v 14.2388 6.28229 23.2195
v 14.4939 5.62188 21.1809
v 13.4568 -1.7494 27.1907
v 14.971 -14.0358 8.60207
v 16.6227 9.28065 6.24735
v 15.808 5.08529 10.6208
v 15.8096 -2.68062 7.11488
v -15.242 -17.6568 4.77115
v 15.2379 -17.6568 4.77115
v -16.642 9.28065 6.24735
v -14.2581 6.28229 23.2195

#	               Face list

f 3 490 495
f 3 1 490
f 4 3 495
f 5 2 499
f 487 13 9
f 487 569 13
f 10 500 14
f 568 500 10
f 498 5 499
f 12 5 498
f 490 565 569
f 487 490 569
f 7 6 8
f 11 6 7
f 12 7 1
f 7 8 1
f 500 501 14
f 13 14 9
f 13 10 14
f 434 568 10
f 434 558 568
f 432 7 570
f 432 570 571
f 11 7 432
f 570 498 568
f 498 500 568
f 7 498 570
f 7 12 498
f 8 433 565
f 565 433 561
f 8 6 433
f 6 11 433
f 11 432 433
f 490 8 565
f 1 8 490
f 434 10 13
f 435 434 13
f 559 435 569
f 569 435 13
f 501 493 9
f 14 501 9
f 493 487 9
f 2 5 4
f 5 3 4
f 15 25 16
f 239 15 16
f 239 16 17
f 239 17 40
f 18 239 40
f 18 40 39
f 18 39 66
f 18 66 19
f 18 19 20
f 25 15 22
f 15 18 22
f 22 18 20
f 22 20 87
f 22 87 89
f 22 89 21
f 22 21 70
f 64 22 70
f 65 22 64
f 27 22 65
f 188 16 48
f 96 432 571
f 23 96 571
f 56 434 48
f 56 558 434
f 23 571 558
f 128 23 558
f 128 558 56
f 24 91 128
f 24 128 25
f 26 25 218
f 26 24 25
f 91 232 196
f 232 91 24
f 79 93 77
f 79 28 93
f 189 27 68
f 189 22 27
f 75 79 84
f 75 28 79
f 74 37 29
f 37 82 29
f 36 30 83
f 30 85 83
f 31 45 76
f 76 45 86
f 20 190 88
f 87 20 88
f 89 191 32
f 21 89 32
f 72 34 33
f 41 34 72
f 35 74 42
f 74 29 42
f 30 76 85
f 76 86 85
f 37 36 82
f 36 83 82
f 73 81 80
f 43 81 73
f 38 192 193
f 39 38 193
f 40 38 39
f 93 46 127
f 41 80 34
f 73 80 41
f 43 42 81
f 35 42 43
f 19 44 190
f 20 19 190
f 75 84 31
f 31 84 45
f 93 28 46
f 28 72 46
f 218 25 189
f 25 22 189
f 48 435 47
f 434 435 48
f 321 320 56
f 49 321 56
f 323 49 56
f 324 323 56
f 50 324 56
f 50 56 325
f 325 56 48
f 51 325 48
f 52 51 48
f 326 52 48
f 53 326 48
f 54 53 48
f 62 54 48
f 25 62 48
f 16 25 48
f 128 55 25
f 55 128 318
f 318 128 320
f 320 128 56
f 55 57 25
f 57 338 25
f 25 338 58
f 25 58 335
f 25 335 334
f 25 334 59
f 25 59 332
f 25 332 60
f 25 60 61
f 25 61 62
f 40 226 38
f 17 226 40
f 63 64 67
f 63 65 64
f 66 194 44
f 19 66 44
f 67 70 69
f 67 64 70
f 68 65 63
f 68 27 65
f 21 32 69
f 70 21 69
f 39 193 194
f 66 39 194
f 46 33 136
f 72 33 46
f 17 71 226
f 16 71 17
f 28 41 72
f 28 73 41
f 28 43 73
f 28 35 43
f 28 74 35
f 28 37 74
f 28 36 37
f 28 75 36
f 75 30 36
f 75 76 30
f 75 31 76
f 136 77 78
f 79 77 136
f 33 79 136
f 34 79 33
f 80 79 34
f 81 79 80
f 42 79 81
f 29 79 42
f 82 79 29
f 83 79 82
f 85 79 83
f 84 79 85
f 86 84 85
f 45 84 86
f 87 88 191
f 89 87 191
f 356 101 95
f 101 115 95
f 90 91 196
f 90 92 91
f 92 177 91
f 177 96 91
f 96 127 91
f 96 93 127
f 94 356 117
f 356 95 117
f 123 353 112
f 353 111 112
f 433 432 96
f 433 96 177
f 98 348 119
f 348 120 119
f 122 97 118
f 116 122 118
f 97 98 119
f 118 97 119
f 346 126 99
f 110 346 99
f 348 349 120
f 349 100 120
f 342 125 108
f 132 342 108
f 101 124 115
f 124 114 115
f 102 344 133
f 103 102 133
f 105 357 104
f 357 106 104
f 352 129 109
f 129 107 109
f 130 132 108
f 130 108 103
f 107 130 103
f 107 103 133
f 109 107 133
f 109 133 110
f 111 109 110
f 111 110 99
f 112 111 99
f 112 99 113
f 114 112 113
f 114 113 134
f 115 114 134
f 115 134 116
f 95 115 116
f 95 116 118
f 117 95 118
f 117 118 119
f 106 117 119
f 120 106 119
f 104 106 120
f 100 104 120
f 121 122 116
f 134 121 116
f 124 123 114
f 123 112 114
f 125 102 103
f 108 125 103
f 349 105 100
f 105 104 100
f 357 94 106
f 94 117 106
f 126 135 113
f 99 126 113
f 93 96 77
f 77 96 23
f 78 77 23
f 78 23 128
f 127 78 91
f 91 78 128
f 353 352 111
f 352 109 111
f 129 131 130
f 107 129 130
f 131 342 132
f 130 131 132
f 127 46 78
f 344 346 110
f 133 344 110
f 135 121 134
f 113 135 134
f 46 136 78
f 224 71 187
f 71 188 187
f 71 16 188
f 200 137 202
f 139 137 200
f 138 137 139
f 210 138 139
f 204 138 210
f 206 138 204
f 199 228 184
f 199 198 228
f 198 207 228
f 198 140 207
f 198 211 140
f 198 141 211
f 198 209 141
f 198 201 209
f 198 142 201
f 198 203 142
f 198 143 203
f 198 213 143
f 213 144 143
f 213 205 144
f 157 389 145
f 389 146 145
f 145 146 170
f 146 176 170
f 179 148 147
f 148 149 147
f 154 151 150
f 172 154 150
f 404 173 152
f 405 404 152
f 405 152 150
f 151 405 150
f 400 167 168
f 401 400 168
f 153 154 172
f 175 153 172
f 398 182 164
f 182 155 164
f 156 158 157
f 158 389 157
f 399 159 185
f 159 165 185
f 161 174 160
f 171 161 160
f 166 180 162
f 180 163 162
f 155 183 164
f 164 183 165
f 183 166 165
f 165 166 185
f 166 162 185
f 185 162 167
f 162 179 167
f 167 179 168
f 179 147 168
f 168 147 186
f 147 156 186
f 186 156 169
f 156 157 169
f 169 157 173
f 157 145 173
f 173 145 152
f 145 170 152
f 152 170 150
f 170 171 150
f 171 172 150
f 171 160 172
f 160 175 172
f 403 169 173
f 404 403 173
f 147 149 156
f 149 158 156
f 159 398 165
f 398 164 165
f 174 153 175
f 160 174 175
f 176 161 171
f 170 176 171
f 401 168 186
f 402 401 186
f 199 184 178
f 177 199 178
f 177 92 199
f 178 196 215
f 184 196 178
f 184 90 196
f 162 163 179
f 163 148 179
f 181 180 183
f 180 166 183
f 182 181 155
f 181 183 155
f 227 90 184
f 399 185 167
f 400 399 167
f 402 186 169
f 403 402 169
f 228 227 184
f 187 48 47
f 187 188 48
f 233 218 189
f 195 233 189
f 195 189 190
f 190 189 88
f 88 189 191
f 191 189 32
f 32 189 69
f 189 67 69
f 189 63 67
f 189 68 63
f 218 233 224
f 233 236 224
f 224 236 225
f 225 236 192
f 236 195 192
f 192 195 193
f 193 195 194
f 194 195 44
f 44 195 190
f 224 187 47
f 433 177 561
f 177 178 561
f 559 220 435
f 435 220 47
f 561 178 559
f 178 215 559
f 559 215 220
f 215 197 218
f 196 197 215
f 197 26 218
f 196 232 197
f 92 198 199
f 137 198 92
f 198 138 213
f 137 138 198
f 142 200 201
f 200 202 201
f 143 210 203
f 210 139 203
f 205 204 144
f 205 206 204
f 140 229 207
f 140 208 229
f 201 202 209
f 202 212 209
f 144 204 143
f 204 210 143
f 203 139 142
f 139 200 142
f 141 230 211
f 141 231 230
f 227 92 90
f 211 208 140
f 211 230 208
f 209 231 141
f 209 212 231
f 213 206 205
f 213 138 206
f 137 92 227
f 229 137 227
f 215 269 220
f 215 268 269
f 215 214 268
f 214 215 218
f 273 214 218
f 274 273 218
f 274 218 216
f 216 218 277
f 277 218 217
f 217 218 278
f 278 218 279
f 279 218 280
f 280 218 282
f 282 218 283
f 220 291 47
f 294 291 220
f 263 294 220
f 219 263 220
f 264 219 220
f 221 264 220
f 269 221 220
f 291 222 47
f 222 223 47
f 223 289 47
f 289 287 47
f 287 285 47
f 285 283 47
f 283 224 47
f 283 218 224
f 226 225 192
f 226 192 38
f 207 227 228
f 207 229 227
f 71 224 225
f 71 225 226
f 208 137 229
f 230 137 208
f 231 137 230
f 212 137 231
f 202 137 212
f 24 26 197
f 232 24 197
f 237 234 235
f 234 237 236
f 233 234 236
f 234 233 195
f 235 234 195
f 237 235 236
f 236 235 195
f 238 241 240
f 241 238 239
f 238 15 239
f 240 241 239
f 240 239 18
f 238 240 18
f 15 238 18
f 267 270 266
f 266 270 265
f 270 271 265
f 265 271 262
f 271 272 262
f 272 251 262
f 272 242 251
f 272 275 242
f 275 407 242
f 407 275 409
f 409 275 243
f 275 244 243
f 243 244 245
f 244 246 245
f 245 246 411
f 411 246 412
f 246 276 412
f 412 276 248
f 276 247 248
f 248 247 414
f 414 247 249
f 247 250 249
f 249 250 416
f 416 250 415
f 262 252 261
f 251 252 262
f 252 429 261
f 429 428 261
f 261 428 254
f 428 253 254
f 253 425 254
f 254 425 292
f 425 255 292
f 292 255 293
f 255 423 293
f 423 256 293
f 293 256 290
f 256 257 290
f 290 257 288
f 257 258 288
f 258 417 288
f 417 415 288
f 288 415 286
f 415 250 286
f 250 259 286
f 259 260 286
f 259 281 260
f 281 284 260
f 263 261 254
f 294 263 254
f 219 262 261
f 263 219 261
f 219 264 262
f 264 265 262
f 264 221 265
f 221 266 265
f 221 269 266
f 269 267 266
f 269 268 267
f 268 270 267
f 268 214 270
f 214 271 270
f 271 214 272
f 214 273 272
f 272 273 275
f 273 274 275
f 275 274 244
f 274 216 244
f 244 216 246
f 216 277 246
f 246 277 276
f 277 217 276
f 276 217 247
f 217 278 247
f 247 278 250
f 278 279 250
f 279 280 259
f 250 279 259
f 280 282 281
f 259 280 281
f 282 283 284
f 281 282 284
f 283 285 260
f 284 283 260
f 285 287 286
f 260 285 286
f 289 288 286
f 287 289 286
f 223 290 288
f 289 223 288
f 222 293 290
f 223 222 290
f 291 292 293
f 222 291 293
f 294 254 292
f 291 294 292
f 369 368 295
f 369 295 296
f 371 369 296
f 297 371 296
f 297 296 298
f 299 297 298
f 373 299 298
f 373 298 300
f 375 373 300
f 375 300 302
f 374 375 302
f 301 374 302
f 301 302 303
f 377 301 303
f 380 377 303
f 380 303 327
f 304 380 327
f 305 304 327
f 305 327 328
f 306 305 328
f 307 306 328
f 329 307 328
f 331 307 329
f 330 331 329
f 308 319 322
f 308 322 310
f 309 308 310
f 309 310 295
f 312 309 295
f 368 312 295
f 311 312 368
f 313 312 311
f 367 313 311
f 313 367 364
f 337 313 364
f 337 364 363
f 337 363 314
f 315 337 314
f 315 314 386
f 315 386 385
f 336 315 385
f 336 385 384
f 333 336 384
f 333 384 383
f 333 383 316
f 306 333 316
f 306 316 317
f 306 317 305
f 338 57 313
f 57 312 313
f 57 55 312
f 55 309 312
f 55 318 308
f 309 55 308
f 318 320 319
f 308 318 319
f 320 321 322
f 319 320 322
f 321 49 310
f 322 321 310
f 49 323 295
f 310 49 295
f 323 324 296
f 295 323 296
f 324 50 298
f 296 324 298
f 50 325 300
f 298 50 300
f 325 51 302
f 300 325 302
f 51 52 303
f 302 51 303
f 52 326 327
f 303 52 327
f 326 53 328
f 327 326 328
f 53 54 328
f 54 329 328
f 54 62 329
f 62 330 329
f 62 61 330
f 61 331 330
f 61 60 331
f 60 307 331
f 60 332 307
f 332 306 307
f 332 59 306
f 59 333 306
f 59 334 333
f 334 336 333
f 334 335 336
f 335 315 336
f 335 58 315
f 58 337 315
f 58 338 337
f 338 313 337
f 366 339 370
f 366 370 340
f 365 366 340
f 365 340 341
f 362 365 341
f 362 341 372
f 350 362 372
f 342 350 372
f 125 342 372
f 125 372 343
f 102 125 343
f 344 102 343
f 344 343 345
f 346 344 345
f 126 346 345
f 135 126 345
f 135 345 376
f 121 135 376
f 122 121 376
f 97 122 376
f 97 376 347
f 98 97 347
f 348 98 347
f 349 348 347
f 351 350 131
f 131 350 342
f 129 351 131
f 351 129 352
f 351 352 353
f 354 351 353
f 354 353 123
f 354 123 124
f 354 124 101
f 355 354 101
f 355 101 356
f 355 356 94
f 355 94 357
f 358 355 357
f 358 357 105
f 358 105 349
f 358 349 347
f 358 347 379
f 382 358 379
f 382 379 378
f 381 382 378
f 359 381 378
f 360 381 359
f 361 360 359
f 350 351 314
f 363 350 314
f 362 350 363
f 364 362 363
f 365 362 364
f 367 365 364
f 366 365 311
f 365 367 311
f 339 366 368
f 366 311 368
f 370 339 369
f 339 368 369
f 340 370 371
f 370 369 371
f 341 340 297
f 340 371 297
f 372 341 299
f 341 297 299
f 343 372 373
f 372 299 373
f 345 343 375
f 343 373 375
f 376 345 374
f 345 375 374
f 347 376 301
f 376 374 301
f 379 347 377
f 347 301 377
f 378 379 380
f 379 377 380
f 359 378 380
f 304 359 380
f 361 359 304
f 305 361 304
f 360 361 305
f 317 360 305
f 381 360 317
f 316 381 317
f 382 381 316
f 383 382 316
f 358 382 383
f 384 358 383
f 355 358 384
f 385 355 384
f 354 355 385
f 386 354 385
f 351 354 386
f 314 351 386
f 410 181 182
f 410 387 181
f 387 180 181
f 180 387 163
f 163 387 148
f 387 388 148
f 148 388 149
f 149 388 158
f 158 388 389
f 388 390 389
f 389 390 146
f 146 390 176
f 176 390 161
f 390 413 161
f 161 413 174
f 174 413 153
f 153 413 420
f 420 413 391
f 413 392 391
f 391 392 419
f 392 393 419
f 393 418 419
f 393 394 418
f 394 395 418
f 430 431 396
f 396 431 427
f 431 406 427
f 427 406 426
f 406 408 426
f 426 408 397
f 408 410 397
f 410 182 397
f 182 398 397
f 397 398 424
f 398 159 424
f 159 399 424
f 424 399 422
f 399 400 422
f 400 401 422
f 401 402 422
f 422 402 421
f 402 403 421
f 403 404 421
f 404 405 421
f 421 405 420
f 405 151 420
f 151 154 420
f 154 153 420
f 406 431 242
f 407 406 242
f 406 407 409
f 408 406 409
f 408 409 243
f 410 408 243
f 410 243 245
f 387 410 245
f 387 245 411
f 388 387 411
f 388 411 412
f 390 388 412
f 390 412 248
f 413 390 248
f 413 248 414
f 392 413 414
f 393 392 249
f 392 414 249
f 394 393 416
f 393 249 416
f 395 394 415
f 394 416 415
f 418 395 417
f 395 415 417
f 419 418 258
f 418 417 258
f 257 391 258
f 391 419 258
f 256 420 257
f 420 391 257
f 423 421 256
f 421 420 256
f 255 422 423
f 422 421 423
f 425 424 255
f 424 422 255
f 253 397 425
f 397 424 425
f 428 426 253
f 426 397 253
f 427 426 428
f 429 427 428
f 396 427 429
f 252 396 429
f 430 396 252
f 251 430 252
f 431 430 251
f 242 431 251
f 12 1 3
f 5 12 3
f 441 438 447
f 440 436 451
f 448 446 438
f 441 448 438
f 439 449 440
f 449 436 440
f 496 444 445
f 497 444 496
f 436 442 441
f 437 442 436
f 439 440 451
f 446 439 451
f 446 451 447
f 438 446 447
f 448 439 446
f 448 449 439
f 451 436 447
f 436 441 447
f 454 489 442
f 437 454 442
f 453 454 437
f 497 492 444
f 444 492 450
f 443 491 488
f 488 489 454
f 453 443 454
f 443 488 454
f 496 445 494
f 494 445 455
f 445 452 455
f 456 436 449
f 456 437 436
f 456 453 437
f 444 450 445
f 445 450 452
f 450 443 452
f 443 453 452
f 452 453 456
f 441 457 448
f 442 457 441
f 489 457 442
f 489 494 457
f 457 452 456
f 455 452 457
f 494 455 457
f 457 456 448
f 456 449 448
usemtl Default
f 494 489 487
f 493 494 487
usemtl default
f 496 494 493
f 489 488 487
f 488 491 487
f 491 490 487
f 492 490 491
f 497 490 492
f 495 490 497
f 495 496 493
f 495 497 496
f 460 463 469
f 458 462 473
f 468 470 460
f 470 463 460
f 471 461 462
f 458 471 462
f 466 480 479
f 466 479 467
f 464 458 463
f 464 459 458
f 462 461 473
f 461 468 473
f 473 468 469
f 468 460 469
f 461 470 468
f 471 470 461
f 458 473 469
f 463 458 469
f 476 459 464
f 484 476 464
f 476 475 459
f 481 472 482
f 482 472 465
f 481 480 466
f 481 466 472
f 482 465 483
f 484 483 476
f 483 465 476
f 465 475 476
f 467 479 478
f 474 467 477
f 467 478 477
f 458 485 471
f 459 485 458
f 475 485 459
f 472 466 467
f 472 467 474
f 465 472 474
f 475 474 485
f 475 465 474
f 486 463 470
f 486 464 463
f 478 484 486
f 486 484 464
f 474 486 485
f 477 478 486
f 474 477 486
f 485 486 470
f 471 485 470
usemtl Default
f 478 501 500
f 484 478 500
usemtl default
f 478 479 501
f 483 484 500
f 482 483 500
f 498 482 500
f 498 481 482
f 498 480 481
f 498 499 480
f 480 499 479
f 479 499 501
f 504 508 503
f 515 504 503
f 512 506 505
f 502 513 514
f 502 503 513
f 511 506 512
f 508 506 511
f 506 502 505
f 505 502 507
f 511 512 505
f 513 511 505
f 513 505 507
f 514 513 507
f 502 514 507
f 508 511 513
f 503 508 513
f 506 522 502
f 522 523 502
f 521 519 524
f 521 524 525
f 520 521 525
f 525 524 504
f 525 504 515
f 504 506 508
f 504 522 506
f 524 522 504
f 510 509 516
f 509 517 516
f 516 517 519
f 517 518 519
f 518 522 519
f 519 522 524
f 567 510 516
f 566 510 567
f 566 562 510
f 562 509 510
f 562 563 517
f 509 562 517
f 518 517 526
f 517 563 526
f 526 563 560
f 567 516 564
f 521 516 519
f 564 521 520
f 564 516 521
f 526 560 523
f 522 526 523
f 518 526 522
f 525 515 502
f 523 525 502
usemtl Default
f 523 560 564
f 523 520 525
f 523 564 520
usemtl default
f 562 561 563
f 565 561 562
f 565 562 566
f 565 566 567
f 565 567 569
f 567 564 569
f 564 560 569
f 563 561 559
f 560 559 569
f 563 559 560
f 533 529 528
f 529 540 528
f 531 537 530
f 538 527 539
f 528 527 538
f 531 536 537
f 531 533 536
f 527 530 532
f 527 531 530
f 537 536 530
f 536 538 530
f 530 538 532
f 538 539 532
f 539 527 532
f 536 533 538
f 533 528 538
f 548 547 527
f 547 531 527
f 546 545 550
f 549 546 550
f 544 546 549
f 529 550 540
f 549 550 529
f 531 529 533
f 547 529 531
f 547 549 529
f 534 535 541
f 542 534 541
f 542 541 544
f 543 542 544
f 547 544 549
f 547 543 544
f 535 557 541
f 535 556 557
f 534 552 535
f 552 556 535
f 552 534 542
f 554 552 542
f 554 551 553
f 554 542 551
f 542 543 551
f 541 557 555
f 541 546 544
f 541 555 546
f 546 555 545
f 551 543 547
f 551 547 548
f 553 551 548
f 540 550 527
f 550 548 527
usemtl Default
f 553 548 555
f 545 548 550
f 555 548 545
usemtl default
f 571 552 554
f 571 570 552
f 552 570 556
f 556 570 557
f 557 570 568
f 555 557 568
f 553 555 568
f 571 554 558
f 558 553 568
f 558 554 553
f 502 515 503
f 540 527 528
usemtl Default
f 4 495 493
f 499 2 501
f 4 493 501
f 2 4 501
usemtl default
f 450 492 491
f 450 491 443

#	             End of file
