####
#
#	OBJ File Generated by LightWave3D
#	LightWave3D OBJ Export v2.2
#
####
#	Object: 1
#
#	                Vertices: 120
#	                  Points: 0
#	                   Lines: 0
#	                   Faces: 168
#	               Materials: 1
#
####

o 1

#	             Vertex list

v 2.98917 -1.58591 5.35195
v 4.13219 -1.58591 5.35195
v 2.98917 -0.267347 5.35195
v 4.13219 -0.267347 5.35195
v 2.98917 -0.397928 4.79413
v 4.13219 -0.397928 4.79413
v 2.98917 -0.763797 4.3468
v 4.13219 -0.763797 4.3468
v 2.98917 -1.2925 4.09856
v 4.13219 -1.2925 4.09856
v 2.98917 -1.87932 4.09856
v 4.13219 -1.87932 4.09856
v 2.98917 -2.40802 4.3468
v 4.13219 -2.40802 4.3468
v 2.98917 -2.7739 4.79413
v 4.13219 -2.7739 4.79413
v 2.98917 -2.90448 5.35195
v 4.13219 -2.90448 5.35195
v 2.98917 -2.7739 5.90975
v 4.13219 -2.7739 5.90975
v 2.98917 -2.40802 6.35707
v 4.13219 -2.40802 6.35707
v 2.98917 -1.87932 6.60531
v 4.13219 -1.87932 6.60531
v 2.98917 -1.2925 6.60531
v 4.13219 -1.2925 6.60531
v 2.98917 -0.763797 6.35707
v 4.13219 -0.763797 6.35707
v 2.98917 -0.397928 5.90975
v 4.13219 -0.397928 5.90975
v 4.14143 -0.267584 -4.34178
v 2.97995 -0.267584 -4.34178
v 4.14143 -0.63937 -3.88723
v 2.97995 -0.63937 -3.88723
v 4.14143 -1.17661 -3.63499
v 2.97995 -1.17661 -3.63499
v 4.14143 -1.77289 -3.63499
v 2.97995 -1.77289 -3.63499
v 4.14143 -2.31014 -3.88723
v 2.97995 -2.31014 -3.88723
v 4.14143 -2.68192 -4.34178
v 2.97995 -2.68192 -4.34178
v 4.14143 -2.81461 -4.90858
v 2.97995 -2.81461 -4.90858
v 4.14143 -2.68192 -5.47539
v 2.97995 -2.68192 -5.47539
v 4.14143 -2.31014 -5.92995
v 2.97995 -2.31014 -5.92995
v 4.14143 -1.77289 -6.1822
v 2.97995 -1.77289 -6.1822
v 4.14143 -1.17661 -6.1822
v 2.97995 -1.17661 -6.1822
v 4.14143 -0.63937 -5.92995
v 2.97995 -0.63937 -5.92995
v 4.14143 -0.267584 -5.47539
v 2.97995 -0.267584 -5.47539
v 4.14143 -0.134891 -4.90858
v 2.97995 -0.134891 -4.90858
v 4.14143 -1.47476 -4.90858
v 2.97995 -1.47476 -4.90858
v -2.98917 -1.58591 5.35195
v -4.13219 -1.58591 5.35195
v -2.98917 -0.267347 5.35195
v -4.13219 -0.267347 5.35195
v -2.98917 -0.397928 4.79413
v -4.13219 -0.397928 4.79413
v -2.98917 -0.763797 4.3468
v -4.13219 -0.763797 4.3468
v -2.98917 -1.2925 4.09856
v -4.13219 -1.2925 4.09856
v -2.98917 -1.87932 4.09856
v -4.13219 -1.87932 4.09856
v -2.98917 -2.40802 4.3468
v -4.13219 -2.40802 4.3468
v -2.98917 -2.7739 4.79413
v -4.13219 -2.7739 4.79413
v -2.98917 -2.90448 5.35195
v -4.13219 -2.90448 5.35195
v -2.98917 -2.7739 5.90975
v -4.13219 -2.7739 5.90975
v -2.98917 -2.40802 6.35707
v -4.13219 -2.40802 6.35707
v -2.98917 -1.87932 6.60531
v -4.13219 -1.87932 6.60531
v -2.98917 -1.2925 6.60531
v -4.13219 -1.2925 6.60531
v -2.98917 -0.763797 6.35707
v -4.13219 -0.763797 6.35707
v -2.98917 -0.397928 5.90975
v -4.13219 -0.397928 5.90975
v -4.14143 -0.267584 -4.34178
v -2.97995 -0.267584 -4.34178
v -4.14143 -0.63937 -3.88723
v -2.97995 -0.63937 -3.88723
v -4.14143 -1.17661 -3.63499
v -2.97995 -1.17661 -3.63499
v -4.14143 -1.77289 -3.63499
v -2.97995 -1.77289 -3.63499
v -4.14143 -2.31014 -3.88723
v -2.97995 -2.31014 -3.88723
v -4.14143 -2.68192 -4.34178
v -2.97995 -2.68192 -4.34178
v -4.14143 -2.81461 -4.90858
v -2.97995 -2.81461 -4.90858
v -4.14143 -2.68192 -5.47539
v -2.97995 -2.68192 -5.47539
v -4.14143 -2.31014 -5.92995
v -2.97995 -2.31014 -5.92995
v -4.14143 -1.77289 -6.1822
v -2.97995 -1.77289 -6.1822
v -4.14143 -1.17661 -6.1822
v -2.97995 -1.17661 -6.1822
v -4.14143 -0.63937 -5.92995
v -2.97995 -0.63937 -5.92995
v -4.14143 -0.267584 -5.47539
v -2.97995 -0.267584 -5.47539
v -4.14143 -0.134891 -4.90858
v -2.97995 -0.134891 -4.90858
v -4.14143 -1.47476 -4.90858
v -2.97995 -1.47476 -4.90858

#	               Face list

usemtl None
f 1 3 5
f 2 6 4
f 3 4 6 5
f 1 5 7
f 2 8 6
f 5 6 8 7
f 1 7 9
f 2 10 8
f 7 8 10 9
f 1 9 11
f 2 12 10
f 9 10 12 11
f 1 11 13
f 2 14 12
f 11 12 14 13
f 1 13 15
f 2 16 14
f 13 14 16 15
f 1 15 17
f 2 18 16
f 15 16 18 17
f 1 17 19
f 2 20 18
f 17 18 20 19
f 1 19 21
f 2 22 20
f 19 20 22 21
f 1 21 23
f 2 24 22
f 21 22 24 23
f 1 23 25
f 2 26 24
f 23 24 26 25
f 1 25 27
f 2 28 26
f 25 26 28 27
f 1 27 29
f 2 30 28
f 27 28 30 29
f 1 29 3
f 2 4 30
f 29 30 4 3
f 59 57 31
f 42 41 39 40
f 59 47 49
f 32 31 57 58
f 59 39 41
f 52 51 49 50
f 34 33 31 32
f 60 42 40
f 59 49 51
f 59 31 33
f 44 43 41 42
f 60 52 50
f 60 34 32
f 59 41 43
f 54 53 51 52
f 36 35 33 34
f 60 44 42
f 59 51 53
f 59 33 35
f 46 45 43 44
f 60 54 52
f 60 36 34
f 59 43 45
f 56 55 53 54
f 38 37 35 36
f 60 46 44
f 59 53 55
f 59 35 37
f 48 47 45 46
f 60 56 54
f 60 38 36
f 59 45 47
f 58 57 55 56
f 40 39 37 38
f 60 48 46
f 59 55 57
f 59 37 39
f 50 49 47 48
f 60 58 56
f 60 32 58
f 60 40 38
f 60 50 48
f 63 61 65
f 66 62 64
f 66 64 63 65
f 65 61 67
f 68 62 66
f 68 66 65 67
f 67 61 69
f 70 62 68
f 70 68 67 69
f 69 61 71
f 72 62 70
f 72 70 69 71
f 71 61 73
f 74 62 72
f 74 72 71 73
f 73 61 75
f 76 62 74
f 76 74 73 75
f 75 61 77
f 78 62 76
f 78 76 75 77
f 77 61 79
f 80 62 78
f 80 78 77 79
f 79 61 81
f 82 62 80
f 82 80 79 81
f 81 61 83
f 84 62 82
f 84 82 81 83
f 83 61 85
f 86 62 84
f 86 84 83 85
f 85 61 87
f 88 62 86
f 88 86 85 87
f 87 61 89
f 90 62 88
f 90 88 87 89
f 89 61 63
f 64 62 90
f 64 90 89 63
f 117 119 91
f 99 101 102 100
f 107 119 109
f 117 91 92 118
f 99 119 101
f 109 111 112 110
f 91 93 94 92
f 102 120 100
f 109 119 111
f 91 119 93
f 101 103 104 102
f 112 120 110
f 94 120 92
f 101 119 103
f 111 113 114 112
f 93 95 96 94
f 104 120 102
f 111 119 113
f 93 119 95
f 103 105 106 104
f 114 120 112
f 96 120 94
f 103 119 105
f 113 115 116 114
f 95 97 98 96
f 106 120 104
f 113 119 115
f 95 119 97
f 105 107 108 106
f 116 120 114
f 98 120 96
f 105 119 107
f 115 117 118 116
f 97 99 100 98
f 108 120 106
f 115 119 117
f 97 119 99
f 107 109 110 108
f 118 120 116
f 92 120 118
f 100 120 98
f 110 120 108

#	             End of file
