v -0.068906 0.010329 -0.014732
v -0.068362 0.007465 -0.014220
v -0.068298 0.007197 -0.014159
v -0.067454 -0.024624 -0.013572
v -0.067451 -0.020048 -0.013534
v -0.067436 -0.015948 -0.013489
v -0.067383 -0.013538 -0.013418
v -0.067169 0.013298 -0.013007
v -0.067141 -0.024679 -0.013265
v -0.066562 -0.001198 -0.012521
v -0.066532 -0.005281 -0.012522
v -0.066459 -0.002949 -0.012432
v -0.066455 -0.002889 -0.012428
v -0.066414 -0.024781 -0.014760
v -0.065868 -0.025063 -0.012020
v -0.065301 0.016491 -0.011151
v -0.064221 0.010984 -0.021116
v -0.064138 0.018057 -0.009999
v -0.062226 -0.024597 -0.019428
v -0.062125 -0.002405 -0.018015
v -0.062102 -0.024940 -0.019309
v -0.061979 -0.013430 -0.019102
v -0.061704 -0.002285 -0.018748
v -0.061638 -0.002624 -0.018686
v -0.060831 -0.025658 -0.018068
v -0.059933 -0.026208 -0.006210
v -0.058918 0.022991 -0.004844
v -0.058830 0.018238 -0.015776
v -0.057464 0.024336 -0.003409
v -0.056713 0.024875 -0.002668
v -0.056448 0.025063 -0.002407
v -0.055967 -0.001270 -0.027121
v -0.055875 -0.005785 -0.027065
v -0.055769 0.009934 -0.026842
v -0.055666 -0.012854 -0.026912
v -0.055197 -0.024565 -0.026541
v -0.055078 -0.024826 -0.026426
v -0.054994 0.026018 -0.000974
v -0.054932 -0.027436 -0.012298
v -0.054884 -0.024693 -0.026522
v -0.054253 -0.025282 -0.025621
v -0.054178 -0.027226 -0.000575
v -0.053964 -0.027265 -0.000365
v -0.053915 -0.002342 -0.026389
v -0.052474 0.027839 0.001510
v -0.052234 -0.027331 0.001330
v -0.052095 0.024469 -0.009126
v -0.050868 0.025339 -0.007916
v -0.050536 0.017308 -0.021657
v -0.050134 -0.015900 -0.024534
v -0.049740 0.029816 0.004205
v -0.049658 0.006446 -0.023899
v -0.047550 -0.026391 -0.019057
v -0.046957 -0.030184 0.006482
v -0.046919 -0.027743 -0.004445
v -0.046752 -0.007118 -0.021152
v -0.046441 0.015227 -0.020348
v -0.045440 -0.030800 0.007965
v -0.045202 0.035268 0.008696
v -0.044641 0.024179 -0.015825
v -0.044252 0.024000 -0.015749
v -0.044129 0.029766 -0.001277
v -0.044108 0.024767 -0.015298
v -0.043972 0.036783 0.009912
v -0.043845 -0.020683 -0.018404
v -0.043807 0.036831 0.010075
v -0.043781 0.036838 0.010100
v -0.043369 0.001663 -0.017770
v -0.041018 -0.035875 0.012262
v -0.040463 -0.011901 -0.015022
v -0.040293 -0.028662 -0.011960
v -0.040135 -0.038139 0.013111
v -0.039987 0.010445 -0.014387
v -0.039888 -0.030597 0.002428
v -0.039337 0.008659 0.014246
v -0.039337 0.008659 0.014246
v -0.039337 0.008659 0.014246
v -0.039296 -0.002194 0.014205
v -0.039296 -0.002194 0.014205
v -0.039296 -0.002194 0.014205
v -0.039277 -0.007018 0.014186
v -0.038908 0.007628 0.014659
v -0.038491 0.034019 0.015266
v -0.038432 0.036787 0.004362
v -0.038315 0.036819 0.004477
v -0.038179 -0.025471 -0.011639
v -0.038149 0.030596 -0.009412
v -0.037850 0.007460 0.015695
v -0.037559 -0.004465 0.015891
v -0.037173 0.002513 0.016322
v -0.037167 0.000879 0.016316
v -0.037166 0.000879 0.016315
v -0.037150 -0.003464 0.016299
v -0.037150 -0.003464 0.016299
v -0.037150 -0.003464 0.016299
v -0.037150 -0.003464 0.016299
v -0.037080 -0.003120 -0.011640
v -0.037024 0.033273 0.016699
v -0.036909 0.006176 0.016608
v -0.036899 0.003953 0.016600
v -0.036869 -0.003236 0.016576
v -0.036858 -0.005714 0.016568
v -0.036780 -0.006639 0.016638
v -0.036709 -0.045798 0.016412
v -0.036688 -0.045838 0.016433
v -0.036604 0.019227 -0.011005
v -0.036474 0.006351 0.017036
v -0.036437 0.002869 0.017045
v -0.035865 -0.005897 0.017540
v -0.035797 -0.041088 0.006359
v -0.035793 -0.002364 0.017638
v -0.035697 0.002272 0.017766
v -0.035689 -0.047707 0.017398
v -0.035627 0.005669 0.017860
v -0.035573 0.002172 0.017888
v -0.035573 0.002172 0.017888
v -0.035573 0.002172 0.017888
v -0.035367 -0.005493 0.018031
v -0.035340 -0.001997 0.018084
v -0.035310 0.001961 0.018143
v -0.035293 -0.005433 0.018105
v -0.035293 -0.005433 0.018105
v -0.035293 -0.005433 0.018105
v -0.035284 0.005392 0.018195
v -0.035079 0.032283 0.018598
v -0.034650 0.004881 0.018813
v -0.034595 0.001384 0.018840
v -0.034552 -0.001358 0.018862
v -0.034498 -0.004789 0.018888
v -0.034470 -0.001291 0.018943
v -0.034470 -0.001291 0.018943
v -0.034465 0.004732 0.018993
v -0.034387 0.001216 0.019043
v -0.034333 -0.001180 0.019077
v -0.034257 -0.004593 0.019126
v -0.034174 -0.016684 -0.008892
v -0.033783 -0.050446 0.019246
v -0.033736 -0.032749 -0.005562
v -0.033698 0.005662 -0.008258
v -0.033655 -0.048686 0.014547
v -0.033222 0.028009 -0.007623
v -0.033221 -0.051096 0.019792
v -0.033078 -0.046765 0.008982
v -0.032878 0.000000 0.020513
v -0.032878 0.000000 0.020513
v -0.032598 0.003227 0.020812
v -0.032598 0.003227 0.020812
v -0.032107 -0.030256 -0.005288
v -0.031881 0.037183 -0.003217
v -0.031692 0.030560 0.021905
v -0.031620 0.002439 0.021765
v -0.031620 0.002439 0.021765
v -0.031620 0.002439 0.021765
v -0.031516 0.033361 0.011117
v -0.031379 -0.053070 0.021584
v -0.031125 0.037363 -0.002475
v -0.031102 -0.002034 0.022240
v -0.031101 -0.002034 0.022239
v -0.031101 -0.002034 0.022239
v -0.030946 0.036782 -0.003112
v -0.030891 -0.049460 0.011107
v -0.030791 -0.007903 -0.005510
v -0.030316 0.014444 -0.004875
v -0.030207 0.029860 0.023356
v -0.029986 -0.054010 0.022942
v -0.029795 -0.054052 0.023129
v -0.029342 0.000603 0.023984
v -0.029253 -0.000535 0.024062
v -0.028993 -0.041544 -0.000978
v -0.028594 0.000000 0.024713
v -0.028594 0.000000 0.024713
v -0.028562 -0.054417 0.024335
v -0.027885 -0.021467 -0.002763
v -0.027409 0.000879 -0.002128
v -0.026933 0.023226 -0.001493
v -0.025716 -0.046986 0.002194
v -0.025229 -0.035034 0.000241
v -0.025194 0.008659 0.000103
v -0.025186 0.006651 0.000095
v -0.025174 0.003612 0.000083
v -0.025158 -0.000833 0.000067
v -0.025139 -0.005661 0.000048
v -0.025128 -0.008659 0.000037
v -0.025020 -0.054503 0.027807
v -0.024765 0.027434 0.028673
v -0.024635 0.030116 0.017839
v -0.024598 0.008179 0.000683
v -0.024503 -0.012686 0.000620
v -0.024436 -0.053813 0.017402
v -0.024220 0.034181 0.004272
v -0.024039 0.032004 0.002387
v -0.024027 0.009661 0.001254
v -0.023727 -0.048982 0.004130
v -0.023605 -0.054537 0.029194
v -0.023551 -0.054011 0.018269
v -0.023524 0.007313 0.001730
v -0.023317 -0.048607 0.004002
v -0.023283 -0.007163 0.001857
v -0.023249 0.026815 0.030155
v -0.023033 0.003464 0.002182
v -0.023028 0.002264 0.002177
v -0.023021 0.000248 0.002170
v -0.023010 -0.002466 0.002159
v -0.023007 -0.003464 0.002156
v -0.022629 0.003139 0.002575
v -0.022374 -0.002951 0.002780
v -0.022289 0.002864 0.002907
v -0.022079 -0.054592 0.030690
v -0.021963 -0.006092 0.003159
v -0.021596 -0.026250 0.003367
v -0.021480 -0.002226 0.003662
v -0.021119 -0.053421 0.014305
v -0.020920 -0.054129 0.031829
v -0.020845 -0.005186 0.004262
v -0.020770 -0.050748 0.007015
v -0.020713 -0.001604 0.004418
v -0.020644 0.018443 0.004637
v -0.020162 -0.004632 0.004935
v -0.020017 -0.001040 0.005105
v -0.019983 0.001006 0.005154
v -0.019472 -0.000598 0.005643
v -0.019417 0.004003 0.005732
v -0.019408 0.000542 0.005714
v -0.018735 0.000000 0.006370
v -0.018690 -0.039815 0.006115
v -0.018393 0.003177 0.006729
v -0.018214 -0.017469 0.006749
v -0.017853 0.024270 0.035426
v -0.017738 0.004878 0.007384
v -0.017608 0.027248 0.024706
v -0.017547 -0.002511 0.007515
v -0.017426 0.030708 0.010906
v -0.017354 0.027224 0.008113
v -0.017297 0.024036 0.035969
v -0.017161 0.002184 0.007930
v -0.016784 -0.052067 0.010913
v -0.016480 -0.054266 0.025199
v -0.016361 -0.001549 0.008686
v -0.016343 0.023633 0.036902
v -0.016302 0.001492 0.008767
v -0.016158 -0.052497 0.036510
v -0.015850 0.001127 0.009207
v -0.015685 -0.050865 0.036987
v -0.015610 -0.000940 0.009427
v -0.015307 -0.031033 0.009497
v -0.014831 -0.008687 0.010132
v -0.014451 0.000000 0.010570
v -0.014355 0.013660 0.010766
v -0.014041 -0.045203 0.038641
v -0.013368 -0.043264 0.039315
v -0.012899 -0.008659 -0.012192
v -0.012899 0.008659 -0.012192
v -0.012401 -0.044598 0.012244
v -0.011925 -0.022252 0.012879
v -0.011449 0.000095 0.013514
v -0.011251 -0.035971 0.041446
v -0.011109 -0.052119 0.030481
v -0.011095 0.020705 0.042025
v -0.010973 0.022442 0.014149
v -0.010795 0.026815 0.017378
v -0.010779 -0.003464 -0.010072
v -0.010779 0.003464 -0.010072
v -0.010655 -0.033974 0.042045
v -0.010613 0.024298 0.031542
v -0.009632 0.019946 0.043453
v -0.009107 -0.053246 0.018431
v -0.009018 -0.035816 0.015627
v -0.008543 -0.013470 0.016261
v -0.008067 0.008877 0.016896
v -0.007992 -0.043136 0.033604
v -0.007823 -0.027224 0.044873
v -0.007021 -0.025383 0.045672
v -0.006536 0.000000 -0.005829
v -0.006112 -0.049381 0.018374
v -0.005636 -0.027035 0.019009
v -0.005230 -0.033882 0.036382
v -0.005160 -0.004688 0.019644
v -0.005058 0.015267 0.047903
v -0.004684 0.017659 0.020278
v -0.004669 -0.051639 0.022794
v -0.004078 0.023144 0.023936
v -0.004001 -0.018776 0.048683
v -0.003838 0.020778 0.038158
v -0.003829 0.013902 0.049098
v -0.003614 -0.017952 0.049069
v -0.003153 -0.016971 0.049528
v -0.002730 -0.040599 0.021756
v -0.002294 0.000000 -0.001587
v -0.002254 -0.018253 0.022391
v -0.001778 0.004094 0.023026
v -0.001650 0.009233 0.051198
v -0.001515 -0.025353 0.040089
v -0.001220 -0.042908 0.026241
v -0.000357 -0.010193 0.052320
v -0.000336 0.006416 0.052466
v 0.000398 -0.008317 0.053074
v 0.000620 0.004343 0.053388
v 0.000653 -0.031818 0.025139
v 0.000804 0.000278 0.053538
v 0.000887 0.003114 0.053640
v 0.001007 0.002574 0.053753
v 0.001129 -0.009471 0.025773
v 0.001473 0.000461 0.029208
v 0.001605 0.012876 0.026408
v 0.001860 0.014460 0.043697
v 0.002009 -0.034010 0.029474
v 0.002179 -0.002833 0.029875
v 0.002347 0.018713 0.030201
v 0.002411 -0.016985 0.044001
v 0.002412 -0.000705 0.031297
v 0.004035 -0.023036 0.028521
v 0.004316 0.009653 0.032064
v 0.005212 0.008072 0.035272
v 0.005430 -0.025258 0.032894
v 0.005910 -0.008292 0.047496
v 0.006290 0.004852 0.047968
v 0.006464 -0.014261 0.032875
v 0.006475 -0.005505 0.039697
v 0.006550 -0.012596 0.034087
v 0.006846 0.002351 0.048494
v 0.007312 -0.015335 0.034814
v 0.007828 0.003261 0.045148

f 8 1 2 
f 2 1 17 
f 17 1 8 
f 8 2 3 
f 3 2 23 
f 23 2 17 
f 8 3 10 
f 20 10 3 
f 20 3 23 
f 5 4 9 
f 14 4 5 
f 9 4 14 
f 6 5 15 
f 5 6 19 
f 15 5 9 
f 14 5 19 
f 6 11 7 
f 6 7 22 
f 15 11 6 
f 19 6 22 
f 7 11 22 
f 8 10 42 
f 17 8 16 
f 8 18 16 
f 27 18 8 
f 27 8 42 
f 25 9 14 
f 25 15 9 
f 10 20 13 
f 42 10 13 
f 13 12 11 
f 24 11 12 
f 26 13 11 
f 15 26 11 
f 24 22 11 
f 24 12 13 
f 24 13 20 
f 42 13 26 
f 14 19 21 
f 25 14 21 
f 25 39 15 
f 39 26 15 
f 28 17 16 
f 28 16 18 
f 32 23 17 
f 34 17 28 
f 34 32 17 
f 18 27 28 
f 37 21 19 
f 36 19 22 
f 36 37 19 
f 20 23 24 
f 41 25 21 
f 37 41 21 
f 24 33 22 
f 22 33 35 
f 35 36 22 
f 33 24 23 
f 32 33 23 
f 25 41 39 
f 42 26 39 
f 28 27 47 
f 30 29 27 
f 27 29 47 
f 31 30 27 
f 31 27 42 
f 49 34 28 
f 49 28 47 
f 30 47 29 
f 48 30 31 
f 48 47 30 
f 38 31 42 
f 31 38 48 
f 44 33 32 
f 34 52 32 
f 52 44 32 
f 35 33 44 
f 49 57 34 
f 57 52 34 
f 35 50 36 
f 35 44 50 
f 40 37 36 
f 50 40 36 
f 40 41 37 
f 38 42 45 
f 38 45 62 
f 38 62 48 
f 39 41 53 
f 43 42 39 
f 55 43 39 
f 55 39 53 
f 53 41 40 
f 65 40 50 
f 53 40 65 
f 43 45 42 
f 46 45 43 
f 55 46 43 
f 50 44 56 
f 52 56 44 
f 54 45 46 
f 45 51 62 
f 51 45 105 
f 58 45 54 
f 69 45 58 
f 45 69 72 
f 72 105 45 
f 54 46 55 
f 47 48 60 
f 60 49 47 
f 48 63 60 
f 87 48 62 
f 63 48 87 
f 61 57 49 
f 60 61 49 
f 56 65 50 
f 62 51 59 
f 83 59 51 
f 76 51 79 
f 98 51 76 
f 79 51 80 
f 80 51 81 
f 81 51 105 
f 98 83 51 
f 68 56 52 
f 57 68 52 
f 71 55 53 
f 53 65 71 
f 74 54 55 
f 74 58 54 
f 74 55 71 
f 70 65 56 
f 68 70 56 
f 61 73 57 
f 73 68 57 
f 69 58 74 
f 84 62 59 
f 66 64 59 
f 84 59 64 
f 67 66 59 
f 67 59 83 
f 63 61 60 
f 63 141 61 
f 106 73 61 
f 61 141 106 
f 87 62 84 
f 63 87 141 
f 64 66 84 
f 70 86 65 
f 65 86 71 
f 67 85 66 
f 66 85 84 
f 83 85 67 
f 97 70 68 
f 73 97 68 
f 110 72 69 
f 110 69 74 
f 136 86 70 
f 97 136 70 
f 138 74 71 
f 71 86 138 
f 72 104 105 
f 104 72 110 
f 139 97 73 
f 106 139 73 
f 110 74 138 
f 75 77 76 
f 78 75 76 
f 75 88 77 
f 75 78 93 
f 82 75 91 
f 100 75 82 
f 88 75 115 
f 91 75 93 
f 115 75 100 
f 77 98 76 
f 78 76 79 
f 77 88 98 
f 80 78 79 
f 78 80 81 
f 89 78 81 
f 93 78 89 
f 89 81 105 
f 90 82 91 
f 100 82 90 
f 154 85 83 
f 154 83 98 
f 84 85 149 
f 149 87 84 
f 85 156 149 
f 154 156 85 
f 136 148 86 
f 86 148 138 
f 160 141 87 
f 149 160 87 
f 88 99 98 
f 99 88 115 
f 93 89 102 
f 102 89 105 
f 91 92 90 
f 92 101 90 
f 100 90 101 
f 93 92 91 
f 94 92 93 
f 96 92 94 
f 96 101 92 
f 94 93 95 
f 93 96 95 
f 101 96 93 
f 130 101 93 
f 93 102 121 
f 130 93 121 
f 94 95 96 
f 162 136 97 
f 139 162 97 
f 98 99 107 
f 107 114 98 
f 98 114 125 
f 154 98 125 
f 107 99 115 
f 101 108 100 
f 115 100 108 
f 101 111 108 
f 130 111 101 
f 102 105 103 
f 102 103 121 
f 109 103 105 
f 109 121 103 
f 140 105 104 
f 140 104 110 
f 109 105 113 
f 140 113 105 
f 163 139 106 
f 141 163 106 
f 107 146 114 
f 146 107 115 
f 112 108 111 
f 112 115 108 
f 118 109 113 
f 118 121 109 
f 169 110 138 
f 140 110 143 
f 110 169 143 
f 112 111 116 
f 116 111 119 
f 130 119 111 
f 116 115 112 
f 118 113 122 
f 123 122 113 
f 123 113 137 
f 113 140 137 
f 125 114 124 
f 114 126 124 
f 146 126 114 
f 115 116 117 
f 120 115 117 
f 127 115 120 
f 133 115 127 
f 144 115 133 
f 115 144 146 
f 117 116 119 
f 120 117 119 
f 122 121 118 
f 119 128 120 
f 130 128 119 
f 127 120 128 
f 121 122 123 
f 129 121 123 
f 135 121 129 
f 130 121 144 
f 157 121 135 
f 144 121 157 
f 129 123 137 
f 124 126 125 
f 125 126 132 
f 147 125 132 
f 152 125 147 
f 150 125 152 
f 154 125 150 
f 146 132 126 
f 127 128 131 
f 133 127 131 
f 130 131 128 
f 135 129 137 
f 134 131 130 
f 144 134 130 
f 133 131 134 
f 146 147 132 
f 145 133 134 
f 144 133 145 
f 145 134 144 
f 135 137 142 
f 142 158 135 
f 157 135 158 
f 173 148 136 
f 162 173 136 
f 137 140 161 
f 142 137 161 
f 138 148 169 
f 174 162 139 
f 163 174 139 
f 140 143 161 
f 160 175 141 
f 175 163 141 
f 142 161 155 
f 155 172 142 
f 184 158 142 
f 172 184 142 
f 193 161 143 
f 143 169 176 
f 176 193 143 
f 144 151 146 
f 144 157 151 
f 152 147 146 
f 152 146 151 
f 148 177 169 
f 173 177 148 
f 156 160 149 
f 153 150 152 
f 153 167 150 
f 154 150 186 
f 164 150 167 
f 150 164 186 
f 153 152 151 
f 167 153 151 
f 151 157 170 
f 167 151 170 
f 190 156 154 
f 186 190 154 
f 155 161 189 
f 166 155 165 
f 165 155 189 
f 166 172 155 
f 160 156 191 
f 156 190 191 
f 157 158 159 
f 168 157 159 
f 170 157 168 
f 159 158 184 
f 168 159 184 
f 191 175 160 
f 193 189 161 
f 188 173 162 
f 174 188 162 
f 178 174 163 
f 175 192 163 
f 192 178 163 
f 167 171 164 
f 164 171 184 
f 185 164 184 
f 186 164 185 
f 189 166 165 
f 195 172 166 
f 189 195 166 
f 171 167 170 
f 170 168 171 
f 171 168 184 
f 176 169 177 
f 172 195 184 
f 210 177 173 
f 188 210 173 
f 179 174 178 
f 179 180 174 
f 180 181 174 
f 181 182 174 
f 182 183 174 
f 183 188 174 
f 191 217 175 
f 217 192 175 
f 176 177 197 
f 197 193 176 
f 197 177 225 
f 210 225 177 
f 179 178 252 
f 192 187 178 
f 187 288 178 
f 178 288 252 
f 180 179 252 
f 181 180 252 
f 182 181 252 
f 182 251 183 
f 251 182 252 
f 183 198 188 
f 251 198 183 
f 199 185 184 
f 184 195 194 
f 234 184 194 
f 228 199 184 
f 228 184 234 
f 186 185 230 
f 185 199 230 
f 232 190 186 
f 230 232 186 
f 196 187 192 
f 196 288 187 
f 209 188 198 
f 209 227 188 
f 227 210 188 
f 215 189 193 
f 212 195 189 
f 215 212 189 
f 191 190 233 
f 190 232 233 
f 233 217 191 
f 222 196 192 
f 217 229 192 
f 229 222 192 
f 197 215 193 
f 194 195 237 
f 213 194 208 
f 208 194 237 
f 234 194 213 
f 212 237 195 
f 222 288 196 
f 236 215 197 
f 253 197 225 
f 236 197 253 
f 209 198 288 
f 198 251 288 
f 230 199 228 
f 201 200 205 
f 201 262 200 
f 262 205 200 
f 202 201 205 
f 262 201 202 
f 202 205 203 
f 262 202 203 
f 203 206 204 
f 262 203 204 
f 203 205 206 
f 206 273 204 
f 262 204 261 
f 204 273 261 
f 205 211 206 
f 207 211 205 
f 262 207 205 
f 211 273 206 
f 216 211 207 
f 207 220 216 
f 220 207 273 
f 207 262 273 
f 237 213 208 
f 209 214 227 
f 214 209 288 
f 245 225 210 
f 227 245 210 
f 216 273 211 
f 236 212 215 
f 212 236 237 
f 234 213 243 
f 237 257 213 
f 243 213 241 
f 257 241 213 
f 218 227 214 
f 288 218 214 
f 220 219 216 
f 219 273 216 
f 248 229 217 
f 233 248 217 
f 246 227 218 
f 231 246 218 
f 288 231 218 
f 220 223 219 
f 223 221 219 
f 221 273 219 
f 223 220 273 
f 223 224 221 
f 273 221 224 
f 229 226 222 
f 226 288 222 
f 224 223 273 
f 245 253 225 
f 235 226 229 
f 235 288 226 
f 254 245 227 
f 246 254 227 
f 230 228 264 
f 228 234 264 
f 240 235 229 
f 242 240 229 
f 247 242 229 
f 255 247 229 
f 248 255 229 
f 260 232 230 
f 264 260 230 
f 238 246 231 
f 238 231 288 
f 233 232 259 
f 232 260 259 
f 259 248 233 
f 239 234 243 
f 234 239 264 
f 240 288 235 
f 236 266 237 
f 236 253 266 
f 280 257 237 
f 266 280 237 
f 244 246 238 
f 244 238 288 
f 239 243 258 
f 264 239 258 
f 288 240 242 
f 257 243 241 
f 288 242 247 
f 257 249 243 
f 291 243 249 
f 258 243 265 
f 265 243 278 
f 278 243 284 
f 284 243 291 
f 247 246 244 
f 247 244 288 
f 267 253 245 
f 254 267 245 
f 255 246 247 
f 268 254 246 
f 255 268 246 
f 269 255 248 
f 259 269 248 
f 256 249 250 
f 250 249 257 
f 291 249 256 
f 270 256 250 
f 270 250 257 
f 252 262 251 
f 261 251 262 
f 251 261 288 
f 262 252 288 
f 253 274 266 
f 267 274 253 
f 275 267 254 
f 268 275 254 
f 277 268 255 
f 269 277 255 
f 276 263 256 
f 291 256 263 
f 276 256 270 
f 280 270 257 
f 264 258 283 
f 258 265 283 
f 259 260 279 
f 279 269 259 
f 281 260 264 
f 260 281 279 
f 288 261 273 
f 262 288 273 
f 276 271 263 
f 291 263 271 
f 283 281 264 
f 283 265 278 
f 274 280 266 
f 287 274 267 
f 275 287 267 
f 289 275 268 
f 277 289 268 
f 290 277 269 
f 279 290 269 
f 293 276 270 
f 293 270 280 
f 291 271 272 
f 292 272 271 
f 292 271 276 
f 291 272 282 
f 292 282 272 
f 280 274 293 
f 274 287 293 
f 298 287 275 
f 289 298 275 
f 306 292 276 
f 306 276 293 
f 302 289 277 
f 290 302 277 
f 283 278 305 
f 278 284 305 
f 279 281 304 
f 304 290 279 
f 308 281 283 
f 281 308 304 
f 291 282 285 
f 309 285 282 
f 309 282 292 
f 305 308 283 
f 305 284 291 
f 285 286 294 
f 309 286 285 
f 291 285 295 
f 285 294 296 
f 295 285 297 
f 285 296 299 
f 297 285 300 
f 300 285 299 
f 309 294 286 
f 293 287 306 
f 287 298 306 
f 311 298 289 
f 302 311 289 
f 303 302 290 
f 303 290 312 
f 290 304 312 
f 305 291 295 
f 314 292 306 
f 314 309 292 
f 315 296 294 
f 315 294 309 
f 295 297 316 
f 305 295 316 
f 315 299 296 
f 297 300 316 
f 306 298 314 
f 298 311 314 
f 300 299 301 
f 320 301 299 
f 320 299 315 
f 301 320 300 
f 300 320 316 
f 303 307 302 
f 302 307 317 
f 317 311 302 
f 310 307 303 
f 312 310 303 
f 308 312 304 
f 313 308 305 
f 313 305 322 
f 305 316 322 
f 318 307 310 
f 307 319 317 
f 319 307 318 
f 313 312 308 
f 321 309 314 
f 321 315 309 
f 313 310 312 
f 313 318 310 
f 314 311 321 
f 311 317 321 
f 322 318 313 
f 319 318 315 
f 315 318 320 
f 319 315 321 
f 316 320 322 
f 319 321 317 
f 318 322 320 


