v -0.039499 0.030671 0.012200
v -0.038903 0.021948 0.011816
v -0.037903 0.033242 0.009751
v -0.037413 0.027922 0.018740
v -0.037002 0.027040 0.020573
v -0.036780 0.025825 0.020368
v -0.036103 0.030672 0.007289
v -0.035864 0.030150 0.006970
v -0.035727 0.029852 0.006789
v -0.035679 0.031201 0.006991
v -0.035626 0.029630 0.006655
v -0.035474 0.018838 0.019156
v -0.035455 0.029251 0.006429
v -0.035360 0.029185 0.006329
v -0.035172 0.031842 0.006638
v -0.034874 0.036602 0.007524
v -0.034503 0.028588 0.005432
v -0.034389 0.031898 0.005921
v -0.033301 0.034175 0.005326
v -0.032224 0.040000 0.004842
v -0.031457 0.019499 0.015200
v -0.031335 0.026956 0.026563
v -0.031102 0.036927 0.003788
v -0.031046 0.036957 0.003738
v -0.031044 0.014631 0.028867
v -0.031031 0.036939 0.003723
v -0.031030 0.036953 0.003721
v -0.031029 0.036954 0.003720
v -0.031024 0.036954 0.003715
v -0.030997 0.036952 0.003687
v -0.030983 0.036952 0.003673
v -0.030978 0.036951 0.003667
v -0.030966 0.036951 0.003655
v -0.030626 0.014473 0.029492
v -0.030131 0.036732 0.002756
v -0.030006 0.027094 0.027718
v -0.029998 0.043120 0.002169
v -0.029984 0.026152 0.027707
v -0.029977 0.030095 0.001515
v -0.029887 0.030124 0.001437
v -0.029818 0.023059 0.000948
v -0.029818 0.037166 0.002547
v -0.029432 0.043915 0.001488
v -0.028784 0.044414 0.000749
v -0.028167 0.033577 0.000468
v -0.028166 0.033576 0.000467
v -0.026760 0.045830 -0.001143
v -0.026758 0.045830 -0.001144
v -0.026614 0.044667 -0.001592
v -0.026613 0.044666 -0.001592
v -0.026612 0.044672 -0.001592
v -0.026609 0.045644 -0.001355
v -0.026590 0.045620 -0.001382
v -0.026580 0.045664 -0.001374
v -0.026571 0.045388 -0.001460
v -0.026564 0.045290 -0.001492
v -0.026539 0.044933 -0.001609
v -0.026534 0.045692 -0.001405
v -0.026511 0.045981 -0.001314
v -0.026485 0.045755 -0.001426
v -0.026465 0.045589 -0.001487
v -0.026397 0.044388 -0.001796
v -0.026334 0.044491 -0.001828
v -0.026135 0.046212 -0.001573
v -0.026123 0.044034 -0.002054
v -0.025296 0.015923 0.037226
v -0.025261 0.046557 -0.002156
v -0.025260 0.046558 -0.002156
v -0.024952 0.020746 0.008793
v -0.024750 0.013517 0.036714
v -0.024719 0.047041 -0.002442
v -0.024717 0.047042 -0.002444
v -0.024713 0.030674 -0.003113
v -0.023922 0.018948 0.021821
v -0.023894 0.026992 0.034201
v -0.023758 0.041518 -0.004205
v -0.023130 0.026411 0.034990
v -0.023129 0.026998 0.034982
v -0.022755 0.048192 -0.003649
v -0.022352 0.021741 0.006227
v -0.022107 0.012133 0.034130
v -0.021246 0.038841 -0.006492
v -0.021245 0.038840 -0.006493
v -0.021236 0.038837 -0.006501
v -0.021105 0.038802 -0.006631
v -0.020966 0.038762 -0.006770
v -0.020535 0.038834 -0.007150
v -0.020510 0.038838 -0.007172
v -0.020433 0.038703 -0.007313
v -0.020266 0.038803 -0.007425
v -0.020085 0.038908 -0.007545
v -0.020082 0.038910 -0.007547
v -0.020067 0.038284 -0.007643
v -0.020059 0.038940 -0.007559
v -0.019032 0.050372 -0.005934
v -0.018539 0.050720 -0.006405
v -0.018530 0.016287 0.044595
v -0.018497 0.050750 -0.006446
v -0.018495 0.050748 -0.006447
v -0.018464 0.050708 -0.006481
v -0.018206 0.050919 -0.006621
v -0.017941 0.020821 0.015922
v -0.017877 0.013363 0.043982
v -0.017474 0.042927 -0.008884
v -0.016693 0.018761 0.028740
v -0.016631 0.026920 0.041825
v -0.016242 0.026629 0.042239
v -0.016237 0.026921 0.042231
v -0.016226 0.027522 0.000145
v -0.015940 0.047472 -0.009243
v -0.015933 0.047464 -0.009250
v -0.015929 0.047458 -0.009254
v -0.015924 0.047452 -0.009260
v -0.015785 0.047272 -0.009412
v -0.015747 0.046610 -0.009496
v -0.015542 0.046961 -0.009677
v -0.015489 0.052833 -0.009203
v -0.015359 0.046794 -0.009860
v -0.015338 0.021809 0.013354
v -0.015334 0.026951 0.043115
v -0.015257 0.046702 -0.009962
v -0.015250 0.046697 -0.009969
v -0.015249 0.046695 -0.009970
v -0.015202 0.046469 -0.010064
v -0.015079 0.045782 -0.010334
v -0.015078 0.045784 -0.010335
v -0.015075 0.045799 -0.010334
v -0.015067 0.045823 -0.010336
v -0.014381 0.053658 -0.010381
v -0.014223 0.045906 -0.010953
v -0.013982 0.010882 0.040179
v -0.013852 0.054032 -0.010887
v -0.012016 0.055393 -0.012827
v -0.011450 0.054080 -0.013299
v -0.011448 0.055840 -0.013496
v -0.011424 0.054087 -0.013324
v -0.011396 0.054088 -0.013353
v -0.011387 0.054088 -0.013361
v -0.011150 0.054509 -0.013570
v -0.011056 0.056146 -0.013957
v -0.010973 0.020824 0.023096
v -0.010687 0.053987 -0.014035
v -0.010674 0.053986 -0.014048
v -0.010673 0.053988 -0.014049
v -0.010557 0.015215 0.050791
v -0.010522 0.054806 -0.014288
v -0.010476 0.054720 -0.014325
v -0.010433 0.054641 -0.014358
v -0.010432 0.054643 -0.014359
v -0.010321 0.056723 -0.014822
v -0.010286 0.014399 0.050533
v -0.010134 0.056869 -0.015040
v -0.010075 0.056023 -0.014964
v -0.010048 0.056936 -0.015141
v -0.009946 0.057017 -0.015263
v -0.009905 0.027139 0.048429
v -0.009740 0.057180 -0.015510
v -0.009611 0.057282 -0.015664
v -0.009381 0.014695 0.051103
v -0.009369 0.053518 -0.015271
v -0.009321 0.039412 -0.016821
v -0.009264 0.057556 -0.016079
v -0.009262 0.008151 0.040370
v -0.009131 0.032152 -0.006877
v -0.009105 0.027148 0.049241
v -0.009100 0.026545 0.049242
v -0.008935 0.017945 0.035145
v -0.008708 0.026991 0.006783
v -0.008588 0.032343 -0.007413
v -0.008452 0.058198 -0.017050
v -0.008315 0.021867 0.020472
v -0.006880 0.059437 -0.018914
v -0.006050 0.060089 -0.019896
v -0.005990 0.028663 0.050046
v -0.005732 0.060342 -0.020279
v -0.005699 0.006464 0.046105
v -0.005322 0.028952 0.050277
v -0.005120 0.015756 0.035328
v -0.005043 0.060563 -0.021056
v -0.004662 0.019737 0.030926
v -0.004382 0.055766 -0.021002
v -0.003997 0.047029 -0.020661
v -0.003925 0.057347 -0.021748
v -0.003698 0.058266 -0.022139
v -0.003676 0.058340 -0.022174
v -0.003654 0.058322 -0.022195
v -0.002417 0.037234 -0.013529
v -0.002305 0.055941 -0.023268
v -0.002151 0.061530 -0.024602
v -0.001993 0.029261 0.053225
v -0.001991 0.032070 0.000128
v -0.001892 0.056790 -0.023849
v -0.001878 0.056777 -0.023863
v -0.001877 0.008228 0.047882
v -0.001829 0.055980 -0.023787
v -0.001828 0.055981 -0.023788
v -0.001778 0.056686 -0.023954
v -0.001698 0.027064 0.013914
v -0.001688 0.056267 -0.023961
v -0.001653 0.056219 -0.024014
v -0.001630 0.032329 -0.000229
v -0.001610 0.056282 -0.024072
v -0.001609 0.056284 -0.024073
v -0.001599 0.056387 -0.024099
v -0.001585 0.056519 -0.024135
v -0.000955 0.001693 0.037966
v -0.000340 0.025189 0.051642
v -0.000298 0.021904 0.051634
v -0.000214 0.022846 0.051542
v -0.000212 0.022573 0.051542
v -0.000122 0.000171 0.040687
v 0.000059 0.020957 0.051293
v 0.000103 0.060643 -0.026996
v 0.000147 0.054634 -0.025700
v 0.000388 0.061329 -0.027478
v 0.000447 0.061485 -0.027580
v 0.000465 0.061531 -0.027611
v 0.000472 0.061848 -0.027691
v 0.000570 0.061873 -0.027809
v 0.000610 0.061883 -0.027857
v 0.000610 0.061884 -0.027857
v 0.000613 0.061865 -0.027858
v 0.000613 0.061867 -0.027858
v 0.001272 0.009277 0.030976
v 0.002048 0.015220 0.049396
v 0.002328 0.016850 0.022795
v 0.002372 0.015860 0.024051
v 0.002847 0.063185 -0.030614
v 0.003003 0.001734 0.041992
v 0.003106 0.012006 0.048390
v 0.003630 0.062231 -0.031412
v 0.004136 -0.002245 0.036526
v 0.004370 0.042231 -0.020252
v 0.004849 0.048138 -0.031771
v 0.004859 0.036992 -0.006656
v 0.004957 -0.024685 0.021926
v 0.004973 0.010218 0.046572
v 0.005011 0.014434 0.021472
v 0.005020 0.032143 0.007259
v 0.005116 0.024440 0.016375
v 0.005181 -0.026110 0.021720
v 0.005279 -0.025439 0.020999
v 0.005300 0.063696 -0.031485
v 0.005380 0.032402 0.006902
v 0.005737 0.032008 0.007752
v 0.006823 0.042360 -0.022665
v 0.007039 -0.003496 0.033685
v 0.007199 0.002794 0.026150
v 0.007382 -0.006102 0.033375
v 0.008066 0.004690 0.043588
v 0.008256 -0.017021 0.032627
v 0.008430 -0.011299 0.025803
v 0.009038 0.004256 0.042637
v 0.009263 0.010377 0.018995
v 0.009327 -0.021475 0.031620
v 0.009383 0.055746 -0.036415
v 0.009429 -0.016939 0.017450
v 0.009664 0.003986 0.042025
v 0.009719 -0.017831 0.016260
v 0.009814 0.012659 0.016768
v 0.009821 -0.033957 0.017239
v 0.009841 0.044324 0.041438
v 0.010179 -0.031933 0.015128
v 0.011312 0.064920 -0.033415
v 0.011472 -0.027230 0.029571
v 0.011508 0.017962 0.012023
v 0.011705 -0.003704 0.019880
v 0.011869 0.037065 0.000475
v 0.011967 0.041606 -0.013691
v 0.012074 0.008516 -0.018210
v 0.012576 -0.007617 0.014261
v 0.013203 0.065079 -0.032456
v 0.013251 -0.010233 0.010598
v 0.013259 -0.002241 0.038555
v 0.013472 0.044475 -0.029223
v 0.013724 0.042251 -0.015425
v 0.014123 -0.024330 0.009885
v 0.014954 0.003891 0.013930
v 0.015007 -0.040900 0.012213
v 0.015162 -0.038426 0.009343
v 0.015191 -0.025335 0.031082
v 0.015362 -0.006117 -0.009551
v 0.015362 0.003557 -0.017449
v 0.015535 0.006605 0.011206
v 0.015711 0.065356 -0.031638
v 0.015847 0.001557 0.010951
v 0.015993 -0.035275 0.025209
v 0.016096 0.025571 0.007435
v 0.016425 -0.009178 0.035513
v 0.016677 -0.002297 -0.013985
v 0.016701 -0.010341 0.035254
v 0.016739 -0.010632 0.035220
v 0.016837 -0.011850 0.035136
v 0.016967 0.011474 0.006722
v 0.017156 0.059496 -0.032998
v 0.017391 -0.013916 0.034612
v 0.017403 0.004425 0.006366
v 0.017839 -0.002624 0.006010
v 0.018430 0.055841 -0.027211
v 0.018711 -0.016721 0.005297
v 0.018957 0.059422 -0.020745
v 0.018977 0.041679 -0.006560
v 0.018980 0.050991 -0.034705
v 0.019060 0.065111 -0.026292
v 0.019583 -0.030818 0.004585
v 0.019672 0.064515 -0.021500
v 0.019731 -0.022592 0.032401
v 0.020250 0.033176 0.002405
v 0.020558 0.053585 -0.022259
v 0.020624 -0.000510 -0.019391
v 0.020664 0.044332 -0.022269
v 0.020734 0.042325 -0.008294
v 0.021101 -0.044909 0.004530
v 0.021207 -0.046161 0.006172
v 0.021555 0.019083 0.002134
v 0.021885 0.064850 -0.021408
v 0.021942 -0.040951 0.019419
v 0.022377 0.040759 -0.004686
v 0.022427 0.004986 0.001422
v 0.022851 -0.045949 0.004554
v 0.022960 -0.029666 0.029299
v 0.023176 -0.031797 0.028350
v 0.023299 -0.009112 0.000709
v 0.023406 0.065031 -0.021001
v 0.023554 0.065048 -0.020962
v 0.023709 -0.031539 0.028583
v 0.023966 -0.032282 0.028337
v 0.024171 -0.023209 -0.000003
v 0.024417 0.001276 -0.000496
v 0.024573 0.002436 -0.000661
v 0.024718 -0.034443 0.027620
v 0.024730 0.003608 -0.000827
v 0.024844 0.004458 -0.000948
v 0.024952 0.005268 -0.001063
v 0.025042 -0.037306 -0.000716
v 0.025046 0.001598 -0.001118
v 0.025208 0.001681 -0.001278
v 0.025228 -0.001649 -0.023065
v 0.025437 0.008886 -0.001577
v 0.025626 0.010291 -0.001777
v 0.025768 0.055917 -0.019747
v 0.025918 0.012473 -0.002087
v 0.026083 0.013702 -0.002262
v 0.026143 0.026692 -0.002454
v 0.026211 0.002194 -0.002270
v 0.026391 0.065409 -0.020372
v 0.026582 -0.038963 0.025834
v 0.026885 0.019678 -0.003111
v 0.027025 0.020723 -0.003259
v 0.027290 0.006368 -0.003373
v 0.027547 0.008289 -0.003645
v 0.027675 0.044405 -0.015138
v 0.027677 0.019766 -0.003890
v 0.027865 -0.040188 0.024585
v 0.027887 -0.001502 -0.003879
v 0.027972 0.011457 -0.004095
v 0.028120 0.012561 -0.004252
v 0.028142 0.012721 -0.004275
v 0.028213 -0.046094 0.013307
v 0.028333 0.014148 -0.004478
v 0.028481 0.006978 -0.004550
v 0.028759 -0.015600 -0.004591
v 0.028825 -0.039987 -0.001380
v 0.029019 0.003630 -0.005044
v 0.029089 0.013039 -0.005209
v 0.029224 0.012841 -0.005340
v 0.029620 0.016915 -0.005771
v 0.029630 -0.029697 -0.005304
v 0.029676 0.016832 -0.005825
v 0.029891 -0.045913 0.011655
v 0.030088 0.011572 -0.006177
v 0.030731 0.034301 -0.007042
v 0.030761 0.008144 -0.006803
v 0.030888 0.065849 -0.018516
v 0.031131 0.008333 -0.007169
v 0.031272 0.053191 -0.018764
v 0.031296 0.059842 -0.018856
v 0.031603 0.020204 -0.007754
v 0.031857 0.005082 -0.007849
v 0.031994 0.008774 -0.008021
v 0.032170 0.013170 -0.008240
v 0.032454 -0.044766 0.020121
v 0.032691 0.060743 0.018807
v 0.032931 0.005654 -0.008762
v 0.032962 -0.045183 0.019626
v 0.033347 -0.007991 -0.009179
v 0.033721 -0.032744 -0.006267
v 0.033808 -0.045876 0.018802
v 0.033966 0.041896 -0.013006
v 0.034098 0.006273 -0.009769
v 0.034169 -0.045837 0.018446
v 0.034218 -0.022088 -0.009892
v 0.034425 0.009860 -0.010423
v 0.034591 0.009616 -0.010583
v 0.035202 0.065701 -0.012796
v 0.035277 -0.045722 0.017356
v 0.036170 -0.040312 0.005426
v 0.036191 0.027813 -0.012343
v 0.036482 0.007540 -0.011811
v 0.036632 -0.044514 0.016012
v 0.037063 0.013716 -0.013055
v 0.037268 0.065733 -0.010764
v 0.038310 -0.025136 -0.010857
v 0.038403 0.060075 -0.011822
v 0.038427 0.015300 -0.014256
v 0.038500 -0.014115 -0.014183
v 0.038501 -0.014330 -0.014182
v 0.038502 -0.014513 -0.014181
v 0.038504 -0.014979 -0.014179
v 0.038551 0.013862 -0.014132
v 0.038575 -0.015300 -0.014108
v 0.038600 0.013512 0.013482
v 0.038607 0.012169 -0.014076
v 0.038990 0.006774 -0.013693
v 0.038997 -0.000370 -0.012687
v 0.039117 0.013091 0.012978
v 0.039216 -0.007411 -0.013467
v 0.039300 0.018734 0.012741
v 0.039300 0.018735 0.012741
v 0.039300 0.018735 0.012741
v 0.039324 -0.015300 -0.013359
v 0.039324 -0.005266 -0.013359
v 0.039324 0.002559 -0.013359
v 0.039324 0.015300 -0.013359
v 0.039496 0.020194 0.012533
v 0.039845 0.022799 0.012163
v 0.039916 -0.015300 -0.014732
v 0.039944 0.015917 0.012136
v 0.040020 -0.007331 -0.014055
v 0.040108 0.013598 0.011999
v 0.040108 0.013598 0.011999
v 0.040108 0.013598 0.011999
v 0.041090 -0.015300 -0.015125
v 0.041108 0.032222 0.010825
v 0.041108 0.032223 0.010824
v 0.041109 0.032223 0.010825
v 0.041331 -0.033384 0.000281
v 0.041340 0.049535 -0.014761
v 0.041374 0.017868 0.010711
v 0.041374 0.017868 0.010711
v 0.041442 0.049571 -0.014701
v 0.041498 0.049443 -0.014755
v 0.041571 -0.040141 0.011111
v 0.041577 0.049537 -0.014520
v 0.041607 0.035431 -0.016089
v 0.041774 0.021326 -0.017518
v 0.041973 0.022338 0.010076
v 0.041973 0.022338 0.010076
v 0.041973 0.022338 0.010076
v 0.042047 -0.010940 -0.016082
v 0.042150 -0.010472 -0.016185
v 0.042177 -0.010228 -0.016212
v 0.042361 0.007119 -0.016396
v 0.042417 0.025648 0.009606
v 0.042417 0.025648 0.009606
v 0.042420 0.065809 -0.005675
v 0.042685 -0.038646 0.010001
v 0.042845 0.007922 -0.016880
v 0.042849 -0.017469 -0.015397
v 0.043086 0.015121 0.009056
v 0.043086 0.015121 0.009056
v 0.043528 0.007238 -0.017332
v 0.043730 0.037823 -0.016830
v 0.043993 0.023334 0.008080
v 0.043993 0.023334 0.008080
v 0.044124 0.065760 -0.003481
v 0.044146 0.019286 0.007971
v 0.044146 0.019286 0.007971
v 0.044146 0.019286 0.007971
v 0.044151 0.014414 -0.018186
v 0.044600 0.015300 -0.018635
v 0.044659 0.058897 -0.003936
v 0.044852 -0.006854 -0.017586
v 0.045039 -0.007011 -0.017658
v 0.045315 0.031845 -0.018327
v 0.045473 0.016342 0.006697
v 0.045630 -0.025432 -0.004027
v 0.046078 0.020274 0.006062
v 0.046078 0.020274 0.006062
v 0.046078 0.020274 0.006062
v 0.046257 0.024665 0.005841
v 0.046257 0.024665 0.005841
v 0.046257 0.024665 0.005841
v 0.046421 0.051996 -0.005598
v 0.046555 0.026965 -0.019495
v 0.046772 -0.033260 0.005928
v 0.047320 -0.032247 0.005379
v 0.047476 0.048026 -0.006594
v 0.047700 -0.031544 0.004998
v 0.047907 0.019625 0.004271
v 0.047968 0.022153 0.004184
v 0.048613 0.014853 -0.021416
v 0.048646 0.014890 -0.021427
v 0.048666 0.014802 -0.021447
v 0.049245 0.065792 0.001877
v 0.049450 0.000755 -0.022163
v 0.049594 0.065809 0.002138
v 0.049596 0.000636 -0.022215
v 0.049671 0.001048 -0.022294
v 0.049746 -0.017262 -0.008157
v 0.050820 0.060056 0.000992
v 0.051142 -0.025391 0.001552
v 0.051172 0.038612 -0.010130
v 0.052030 -0.023628 0.000661
v 0.052693 0.031481 -0.011553
v 0.053007 0.051797 -0.001073
v 0.053388 0.050307 -0.001432
v 0.053505 0.026940 -0.012305
v 0.053615 0.049451 -0.001647
v 0.053666 0.049232 -0.001694
v 0.054232 -0.009531 -0.012645
v 0.055308 -0.017281 -0.002627
v 0.055712 0.040437 -0.003616
v 0.056276 -0.015613 -0.003596
v 0.056510 0.038405 -0.004379
v 0.056575 0.016488 -0.015216
v 0.057350 0.012886 -0.015940
v 0.058339 0.032511 -0.006116
v 0.058667 0.030972 -0.006424
v 0.058674 -0.001748 -0.017092
v 0.058834 0.004691 -0.017315
v 0.058842 0.029992 -0.006586
v 0.059427 0.027701 -0.007137
v 0.059805 -0.009564 -0.007127
v 0.060629 0.023100 -0.008271
v 0.060764 -0.007885 -0.008086
v 0.061649 0.019196 -0.009234
v 0.062311 0.016941 -0.009862
v 0.062375 -0.005142 -0.009699
v 0.063231 0.013066 -0.010726
v 0.063398 0.012289 -0.010882
v 0.063718 0.010520 -0.011179
v 0.064307 -0.001853 -0.011631
v 0.064342 -0.000463 -0.011680
v 0.064632 0.005247 -0.012024

f 2 1 3 
f 6 1 2 
f 1 120 3 
f 6 4 1 
f 1 4 120 
f 2 3 7 
f 6 2 12 
f 8 2 7 
f 8 9 2 
f 11 2 9 
f 13 2 11 
f 2 21 12 
f 14 2 13 
f 17 2 14 
f 41 2 17 
f 69 21 2 
f 69 2 41 
f 16 7 3 
f 120 16 3 
f 6 5 4 
f 36 4 5 
f 4 36 120 
f 6 38 5 
f 36 5 22 
f 5 38 22 
f 38 6 12 
f 10 8 7 
f 7 15 10 
f 16 15 7 
f 8 18 9 
f 10 15 8 
f 15 19 8 
f 8 19 18 
f 11 9 26 
f 9 18 26 
f 13 11 26 
f 25 12 21 
f 25 38 12 
f 14 13 26 
f 17 14 39 
f 46 14 26 
f 39 14 46 
f 16 19 15 
f 23 19 16 
f 20 42 16 
f 20 16 120 
f 24 23 16 
f 42 24 16 
f 39 41 17 
f 19 23 18 
f 18 23 26 
f 37 44 20 
f 20 120 37 
f 42 20 44 
f 74 25 21 
f 69 102 21 
f 21 102 74 
f 22 38 36 
f 26 23 24 
f 26 24 27 
f 24 28 27 
f 24 30 28 
f 24 32 30 
f 24 33 32 
f 42 33 24 
f 25 34 66 
f 34 25 74 
f 25 66 38 
f 26 27 28 
f 26 28 29 
f 31 26 29 
f 32 26 31 
f 33 26 32 
f 26 33 35 
f 45 26 35 
f 46 26 45 
f 28 30 29 
f 29 30 31 
f 31 30 32 
f 42 35 33 
f 66 34 70 
f 34 81 70 
f 34 74 81 
f 42 45 35 
f 38 77 36 
f 36 77 75 
f 36 75 78 
f 36 78 120 
f 43 44 37 
f 43 37 262 
f 37 120 177 
f 37 177 190 
f 37 190 262 
f 38 66 77 
f 40 41 39 
f 40 39 46 
f 73 41 40 
f 46 73 40 
f 41 80 69 
f 73 109 41 
f 109 80 41 
f 42 44 49 
f 42 46 45 
f 42 73 46 
f 42 49 50 
f 42 50 62 
f 42 62 65 
f 65 76 42 
f 93 73 42 
f 42 76 82 
f 82 83 42 
f 83 93 42 
f 43 262 44 
f 52 44 47 
f 44 262 47 
f 55 49 44 
f 53 44 52 
f 53 55 44 
f 48 52 47 
f 47 262 48 
f 59 52 48 
f 48 262 59 
f 49 51 50 
f 55 51 49 
f 51 57 50 
f 50 57 63 
f 62 50 63 
f 55 56 51 
f 51 56 57 
f 54 53 52 
f 52 64 54 
f 59 64 52 
f 53 54 58 
f 55 53 61 
f 60 53 58 
f 61 53 60 
f 54 60 58 
f 64 60 54 
f 56 55 67 
f 55 61 68 
f 67 55 68 
f 57 56 67 
f 63 57 115 
f 67 71 57 
f 57 71 72 
f 72 79 57 
f 57 79 95 
f 115 57 95 
f 59 262 64 
f 61 60 64 
f 68 61 64 
f 62 63 65 
f 65 63 115 
f 71 68 64 
f 64 262 71 
f 76 65 115 
f 97 66 70 
f 97 77 66 
f 67 68 71 
f 102 69 80 
f 103 70 81 
f 103 97 70 
f 71 262 72 
f 72 262 79 
f 93 164 73 
f 164 109 73 
f 81 74 105 
f 102 141 74 
f 74 141 105 
f 75 77 78 
f 76 115 82 
f 77 107 78 
f 107 77 97 
f 78 107 106 
f 78 106 120 
f 79 262 95 
f 119 102 80 
f 119 80 109 
f 131 103 81 
f 131 81 105 
f 82 115 83 
f 84 93 83 
f 115 84 83 
f 85 93 84 
f 115 85 84 
f 86 93 85 
f 115 86 85 
f 87 88 86 
f 104 87 86 
f 86 88 89 
f 89 93 86 
f 104 86 115 
f 87 92 88 
f 94 92 87 
f 125 94 87 
f 125 87 104 
f 89 88 90 
f 88 91 90 
f 92 91 88 
f 90 93 89 
f 90 91 93 
f 92 93 91 
f 130 93 92 
f 130 92 94 
f 161 93 130 
f 169 93 161 
f 169 164 93 
f 130 94 125 
f 96 100 95 
f 96 95 262 
f 95 100 110 
f 115 95 110 
f 96 98 99 
f 98 96 262 
f 96 99 100 
f 145 97 103 
f 145 107 97 
f 98 101 99 
f 98 262 101 
f 99 101 100 
f 100 101 110 
f 101 130 110 
f 117 130 101 
f 101 262 117 
f 141 102 119 
f 131 176 103 
f 151 145 103 
f 103 176 151 
f 115 125 104 
f 167 131 105 
f 141 180 105 
f 105 180 167 
f 106 107 108 
f 120 106 108 
f 107 120 108 
f 107 156 120 
f 166 107 145 
f 107 166 156 
f 168 119 109 
f 168 109 164 
f 115 110 111 
f 110 130 111 
f 115 111 112 
f 111 130 112 
f 112 113 115 
f 113 112 130 
f 115 113 114 
f 121 114 113 
f 113 122 121 
f 113 130 122 
f 115 114 116 
f 118 116 114 
f 118 114 121 
f 115 116 118 
f 115 118 121 
f 122 115 121 
f 123 115 122 
f 115 123 124 
f 125 115 124 
f 134 117 129 
f 117 262 129 
f 160 130 117 
f 134 137 117 
f 138 117 137 
f 138 142 117 
f 160 117 142 
f 171 141 119 
f 171 119 168 
f 174 120 156 
f 177 120 174 
f 122 130 123 
f 124 123 130 
f 125 124 127 
f 127 124 128 
f 124 130 128 
f 125 127 126 
f 130 125 126 
f 128 126 127 
f 130 126 128 
f 132 134 129 
f 129 262 132 
f 160 182 130 
f 182 161 130 
f 131 167 163 
f 131 163 176 
f 139 132 133 
f 132 262 133 
f 132 136 134 
f 139 136 132 
f 139 133 135 
f 133 262 135 
f 137 134 136 
f 139 135 140 
f 135 262 140 
f 137 136 139 
f 138 137 139 
f 142 138 139 
f 139 140 150 
f 143 142 139 
f 143 139 144 
f 144 139 149 
f 147 139 146 
f 146 139 153 
f 149 139 147 
f 139 150 152 
f 139 152 154 
f 153 139 158 
f 155 139 154 
f 139 155 157 
f 139 157 158 
f 140 262 150 
f 171 227 141 
f 141 227 180 
f 160 142 143 
f 160 143 144 
f 144 149 148 
f 160 144 148 
f 159 145 151 
f 145 159 166 
f 149 147 146 
f 160 149 146 
f 146 153 162 
f 160 146 170 
f 146 162 170 
f 160 148 149 
f 150 262 152 
f 194 159 151 
f 176 194 151 
f 152 262 154 
f 153 158 162 
f 154 262 155 
f 155 262 157 
f 156 166 165 
f 174 156 165 
f 157 262 158 
f 262 162 158 
f 159 210 166 
f 212 159 194 
f 159 208 210 
f 208 159 212 
f 160 170 172 
f 160 172 173 
f 175 160 173 
f 160 175 179 
f 185 160 179 
f 181 160 183 
f 214 160 181 
f 182 160 214 
f 183 160 184 
f 184 160 185 
f 161 187 169 
f 182 233 161 
f 233 187 161 
f 170 162 262 
f 163 167 178 
f 176 163 211 
f 178 224 163 
f 163 206 211 
f 224 206 163 
f 191 168 164 
f 169 201 164 
f 164 201 191 
f 166 174 165 
f 209 174 166 
f 210 209 166 
f 180 178 167 
f 198 171 168 
f 198 168 191 
f 201 169 187 
f 170 262 172 
f 171 198 226 
f 171 226 227 
f 173 172 383 
f 172 262 383 
f 175 173 383 
f 174 207 177 
f 174 209 207 
f 175 383 179 
f 229 194 176 
f 211 229 176 
f 207 190 177 
f 227 178 180 
f 224 178 227 
f 186 185 179 
f 192 186 179 
f 179 189 214 
f 179 383 189 
f 205 192 179 
f 214 205 179 
f 199 181 183 
f 188 181 199 
f 188 214 181 
f 234 182 214 
f 246 233 182 
f 246 182 234 
f 183 184 185 
f 199 183 185 
f 185 186 199 
f 186 192 199 
f 235 201 187 
f 235 187 233 
f 195 188 199 
f 188 195 214 
f 214 189 213 
f 213 189 218 
f 218 189 228 
f 189 383 228 
f 190 207 262 
f 239 198 191 
f 201 244 191 
f 191 244 239 
f 192 193 199 
f 205 193 192 
f 199 193 197 
f 205 197 193 
f 225 212 194 
f 225 194 230 
f 194 229 237 
f 194 237 230 
f 199 196 195 
f 196 214 195 
f 199 200 196 
f 214 196 200 
f 199 197 205 
f 226 198 240 
f 198 239 240 
f 200 199 203 
f 203 199 204 
f 204 199 205 
f 200 203 202 
f 214 200 202 
f 244 201 235 
f 214 202 203 
f 203 204 205 
f 214 203 205 
f 206 232 211 
f 248 206 224 
f 247 232 206 
f 247 206 248 
f 207 209 262 
f 210 208 262 
f 208 212 262 
f 209 210 262 
f 229 211 232 
f 212 225 262 
f 214 213 231 
f 215 213 216 
f 213 215 222 
f 216 213 217 
f 219 217 213 
f 219 213 218 
f 213 222 231 
f 231 256 214 
f 256 234 214 
f 222 215 216 
f 216 217 221 
f 220 216 221 
f 223 216 220 
f 222 216 223 
f 221 217 219 
f 219 218 221 
f 221 218 228 
f 220 221 228 
f 228 223 220 
f 228 222 223 
f 231 222 228 
f 238 224 227 
f 238 254 224 
f 254 248 224 
f 225 230 262 
f 226 238 227 
f 260 238 226 
f 266 226 240 
f 260 226 266 
f 243 231 228 
f 243 228 306 
f 228 383 306 
f 232 253 229 
f 237 229 250 
f 253 250 229 
f 230 237 262 
f 243 264 231 
f 264 256 231 
f 232 247 258 
f 232 258 253 
f 269 235 233 
f 246 276 233 
f 233 276 269 
f 234 275 246 
f 256 303 234 
f 303 275 234 
f 268 244 235 
f 268 235 269 
f 236 242 241 
f 255 236 241 
f 242 236 259 
f 257 236 255 
f 236 257 259 
f 237 250 253 
f 262 237 253 
f 260 254 238 
f 240 239 245 
f 244 245 239 
f 245 288 240 
f 288 266 240 
f 241 242 261 
f 265 255 241 
f 241 261 287 
f 265 241 287 
f 259 277 242 
f 242 263 261 
f 277 263 242 
f 264 243 306 
f 268 245 244 
f 268 308 245 
f 308 288 245 
f 276 246 275 
f 249 247 248 
f 291 247 249 
f 247 274 258 
f 289 274 247 
f 291 289 247 
f 249 248 252 
f 252 248 267 
f 254 278 248 
f 278 267 248 
f 249 252 251 
f 292 249 251 
f 292 291 249 
f 252 255 251 
f 251 255 281 
f 296 251 281 
f 293 292 251 
f 293 251 296 
f 252 257 255 
f 267 257 252 
f 253 258 262 
f 284 254 260 
f 278 254 284 
f 281 255 265 
f 272 256 264 
f 272 285 256 
f 285 295 256 
f 295 303 256 
f 259 257 273 
f 271 257 267 
f 257 271 273 
f 258 274 262 
f 273 300 259 
f 300 277 259 
f 260 266 284 
f 261 263 279 
f 261 279 317 
f 287 261 317 
f 274 289 262 
f 289 385 262 
f 262 385 383 
f 277 305 263 
f 263 280 279 
f 305 280 263 
f 272 264 304 
f 264 306 304 
f 322 281 265 
f 287 322 265 
f 266 294 284 
f 288 315 266 
f 315 294 266 
f 278 271 267 
f 302 268 269 
f 268 302 308 
f 276 312 269 
f 269 312 302 
f 270 283 282 
f 282 349 270 
f 283 270 338 
f 393 338 270 
f 349 353 270 
f 353 367 270 
f 367 369 270 
f 369 381 270 
f 381 393 270 
f 273 271 298 
f 286 271 278 
f 271 286 298 
f 285 272 304 
f 298 323 273 
f 323 300 273 
f 311 276 275 
f 303 311 275 
f 312 276 311 
f 300 328 277 
f 328 305 277 
f 284 286 278 
f 279 280 314 
f 279 314 359 
f 317 279 359 
f 305 335 280 
f 280 313 314 
f 335 313 280 
f 296 281 307 
f 281 321 307 
f 281 322 321 
f 290 282 283 
f 282 290 338 
f 330 282 329 
f 282 336 329 
f 332 282 330 
f 333 282 332 
f 334 282 333 
f 339 282 334 
f 282 337 336 
f 282 345 337 
f 399 282 338 
f 282 339 340 
f 282 340 342 
f 282 342 343 
f 282 343 348 
f 364 345 282 
f 282 348 349 
f 379 364 282 
f 384 379 282 
f 390 384 282 
f 399 390 282 
f 283 357 290 
f 283 338 310 
f 380 283 310 
f 357 283 358 
f 358 283 360 
f 283 365 360 
f 365 283 366 
f 366 283 371 
f 371 283 380 
f 286 284 294 
f 304 295 285 
f 286 294 297 
f 286 297 298 
f 347 287 317 
f 327 322 287 
f 331 327 287 
f 331 287 347 
f 308 344 288 
f 344 315 288 
f 289 291 385 
f 338 290 310 
f 375 310 290 
f 351 350 290 
f 350 361 290 
f 290 356 351 
f 290 357 356 
f 361 373 290 
f 373 375 290 
f 291 292 296 
f 321 291 296 
f 385 291 321 
f 293 296 292 
f 294 319 297 
f 315 342 294 
f 342 319 294 
f 301 299 295 
f 295 299 303 
f 304 301 295 
f 321 296 307 
f 297 319 298 
f 319 329 298 
f 355 323 298 
f 329 355 298 
f 301 309 299 
f 299 311 303 
f 299 309 311 
f 323 362 300 
f 362 328 300 
f 306 301 304 
f 306 316 301 
f 341 309 301 
f 316 341 301 
f 308 302 318 
f 312 318 302 
f 328 368 305 
f 368 335 305 
f 316 306 324 
f 306 383 324 
f 318 372 308 
f 372 344 308 
f 309 376 311 
f 309 341 376 
f 310 375 380 
f 352 312 311 
f 311 376 352 
f 352 318 312 
f 313 320 314 
f 363 320 313 
f 335 363 313 
f 359 314 320 
f 315 343 342 
f 348 343 315 
f 344 348 315 
f 324 341 316 
f 354 347 317 
f 354 317 382 
f 317 359 382 
f 352 389 318 
f 389 372 318 
f 319 330 329 
f 332 330 319 
f 333 332 319 
f 334 333 319 
f 339 334 319 
f 340 339 319 
f 342 340 319 
f 370 359 320 
f 370 320 363 
f 321 322 326 
f 326 385 321 
f 326 322 327 
f 355 386 323 
f 386 362 323 
f 325 341 324 
f 495 325 324 
f 495 324 383 
f 325 346 341 
f 495 346 325 
f 327 382 326 
f 382 385 326 
f 327 331 354 
f 382 327 354 
f 362 392 328 
f 392 368 328 
f 336 355 329 
f 347 354 331 
f 387 363 335 
f 368 387 335 
f 337 355 336 
f 345 355 337 
f 338 393 394 
f 338 394 399 
f 346 377 341 
f 377 376 341 
f 344 349 348 
f 349 344 353 
f 344 378 353 
f 372 398 344 
f 398 378 344 
f 345 364 355 
f 346 374 377 
f 374 346 395 
f 395 346 466 
f 466 346 495 
f 350 351 361 
f 351 356 361 
f 352 376 389 
f 378 367 353 
f 379 355 364 
f 379 415 355 
f 415 386 355 
f 357 366 356 
f 356 373 361 
f 366 373 356 
f 358 366 357 
f 360 365 358 
f 365 366 358 
f 391 359 370 
f 382 359 385 
f 385 359 388 
f 388 359 391 
f 386 408 362 
f 408 392 362 
f 397 370 363 
f 397 363 387 
f 366 371 373 
f 378 369 367 
f 403 387 368 
f 392 403 368 
f 369 378 381 
f 396 391 370 
f 396 370 400 
f 400 370 397 
f 371 375 373 
f 371 380 375 
f 389 445 372 
f 445 398 372 
f 395 377 374 
f 438 376 377 
f 389 376 438 
f 402 377 395 
f 404 377 402 
f 441 377 404 
f 438 377 441 
f 378 401 381 
f 398 446 378 
f 446 401 378 
f 379 384 415 
f 401 393 381 
f 385 412 383 
f 412 418 383 
f 419 383 418 
f 425 383 419 
f 426 383 425 
f 434 383 426 
f 435 383 434 
f 513 383 435 
f 495 383 497 
f 497 383 501 
f 501 383 506 
f 506 383 507 
f 507 383 510 
f 510 383 513 
f 390 415 384 
f 385 388 487 
f 385 416 412 
f 416 385 430 
f 385 487 430 
f 386 406 407 
f 417 406 386 
f 386 407 408 
f 415 417 386 
f 437 397 387 
f 437 387 403 
f 388 391 487 
f 438 445 389 
f 399 414 390 
f 414 415 390 
f 391 396 400 
f 487 391 400 
f 459 403 392 
f 408 409 392 
f 409 411 392 
f 411 459 392 
f 401 394 393 
f 401 399 394 
f 402 395 466 
f 443 400 397 
f 397 437 457 
f 397 457 443 
f 445 446 398 
f 401 414 399 
f 457 400 443 
f 487 400 457 
f 405 410 401 
f 446 405 401 
f 410 413 401 
f 401 413 414 
f 404 402 456 
f 456 402 466 
f 477 437 403 
f 477 403 459 
f 441 404 472 
f 404 456 472 
f 424 410 405 
f 424 405 471 
f 471 405 446 
f 417 407 406 
f 408 407 411 
f 411 407 421 
f 417 421 407 
f 409 408 411 
f 424 413 410 
f 421 427 411 
f 427 459 411 
f 412 416 420 
f 420 418 412 
f 424 414 413 
f 414 423 415 
f 424 423 414 
f 415 422 417 
f 422 415 429 
f 453 415 423 
f 415 473 429 
f 462 415 453 
f 462 496 415 
f 496 473 415 
f 416 432 420 
f 430 432 416 
f 422 421 417 
f 420 419 418 
f 425 419 420 
f 425 420 428 
f 420 432 428 
f 422 429 421 
f 421 433 427 
f 429 450 421 
f 433 421 450 
f 424 453 423 
f 424 470 453 
f 424 471 470 
f 426 425 428 
f 432 426 428 
f 436 426 432 
f 434 426 436 
f 433 459 427 
f 452 450 429 
f 473 452 429 
f 430 431 432 
f 431 430 487 
f 431 461 432 
f 460 461 431 
f 431 487 460 
f 436 432 440 
f 440 432 461 
f 450 459 433 
f 434 436 435 
f 435 436 483 
f 435 483 481 
f 481 513 435 
f 449 436 440 
f 455 436 449 
f 436 455 465 
f 436 465 483 
f 457 437 486 
f 437 477 489 
f 437 487 486 
f 437 489 487 
f 441 442 438 
f 442 445 438 
f 449 440 439 
f 439 440 469 
f 447 449 439 
f 439 467 447 
f 439 469 467 
f 469 440 461 
f 444 442 441 
f 444 441 484 
f 441 472 484 
f 463 442 444 
f 442 463 445 
f 488 463 444 
f 488 444 484 
f 475 446 445 
f 463 475 445 
f 446 492 471 
f 475 485 446 
f 446 485 492 
f 448 449 447 
f 447 467 448 
f 449 448 455 
f 455 448 454 
f 448 467 454 
f 451 450 452 
f 451 459 450 
f 452 473 451 
f 474 459 451 
f 473 474 451 
f 458 462 453 
f 470 458 453 
f 454 465 455 
f 454 464 465 
f 454 467 464 
f 456 466 472 
f 487 457 486 
f 470 462 458 
f 500 459 474 
f 500 477 459 
f 476 461 460 
f 476 460 487 
f 469 461 480 
f 461 476 480 
f 492 462 470 
f 492 496 462 
f 463 505 475 
f 503 463 488 
f 503 505 463 
f 465 464 480 
f 467 468 464 
f 468 478 464 
f 464 478 480 
f 465 480 483 
f 472 466 495 
f 469 468 467 
f 480 468 469 
f 468 479 478 
f 479 468 480 
f 471 492 470 
f 472 506 484 
f 472 495 497 
f 472 497 501 
f 501 506 472 
f 498 474 473 
f 496 498 473 
f 511 474 498 
f 511 500 474 
f 485 475 505 
f 480 476 490 
f 490 476 487 
f 489 477 502 
f 477 500 504 
f 477 504 502 
f 480 478 479 
f 483 480 490 
f 483 482 481 
f 482 513 481 
f 482 483 491 
f 482 491 513 
f 491 483 490 
f 488 484 507 
f 506 507 484 
f 485 493 492 
f 485 516 493 
f 485 505 508 
f 516 485 508 
f 512 487 489 
f 487 491 490 
f 513 491 487 
f 525 487 512 
f 515 513 487 
f 518 515 487 
f 519 518 487 
f 522 519 487 
f 523 522 487 
f 523 487 525 
f 513 503 488 
f 488 507 509 
f 488 509 510 
f 513 488 510 
f 504 489 502 
f 512 489 504 
f 493 494 492 
f 494 496 492 
f 494 493 517 
f 493 516 517 
f 494 499 496 
f 517 499 494 
f 499 498 496 
f 498 499 520 
f 520 511 498 
f 521 499 517 
f 499 521 520 
f 504 500 512 
f 500 511 514 
f 500 514 512 
f 503 518 505 
f 515 503 513 
f 515 518 503 
f 508 505 522 
f 518 519 505 
f 522 505 519 
f 509 507 510 
f 527 516 508 
f 508 522 523 
f 525 508 523 
f 527 508 525 
f 514 511 524 
f 526 511 520 
f 524 511 526 
f 525 512 514 
f 526 514 524 
f 525 514 526 
f 516 530 517 
f 528 516 527 
f 528 530 516 
f 521 517 532 
f 530 531 517 
f 532 517 531 
f 520 521 534 
f 529 526 520 
f 533 529 520 
f 520 534 533 
f 521 532 535 
f 521 535 534 
f 525 526 529 
f 525 529 527 
f 527 529 528 
f 530 528 529 
f 531 530 529 
f 532 531 529 
f 532 529 535 
f 534 529 533 
f 535 529 534 


