v -0.050556 -0.001200 0.048845
v -0.050556 0.001200 0.048845
v -0.048845 -0.001200 0.050556
v -0.048845 0.001200 0.050556
v -0.037036 -0.012000 0.019924
v -0.037036 0.012000 0.019924
v -0.036860 0.001877 0.020099
v -0.036860 0.001877 0.020100
v -0.036858 0.001855 0.020102
v -0.036858 0.001855 0.020102
v -0.036857 0.001888 0.020103
v -0.036851 0.001902 0.020109
v -0.036040 -0.005448 0.020920
v -0.036035 -0.005456 0.020925
v -0.036029 -0.005464 0.020931
v -0.036029 -0.005464 0.020931
v -0.034497 0.008439 0.022463
v -0.034487 0.008465 0.022473
v -0.034480 0.008485 0.022480
v -0.034464 0.008497 0.022496
v -0.032332 -0.010692 0.024628
v -0.032317 -0.010695 0.024643
v -0.032317 -0.010695 0.024643
v -0.029821 0.011842 0.027139
v -0.029808 0.011852 0.027152
v -0.029791 0.011848 0.027169
v -0.027152 -0.011852 0.029808
v -0.027139 -0.011842 0.029821
v -0.027138 -0.011842 0.029822
v -0.024643 0.010695 0.032317
v -0.024641 0.010695 0.032319
v -0.024628 0.010692 0.032332
v -0.024627 0.010692 0.032333
v -0.022480 -0.008485 0.034480
v -0.022473 -0.008465 0.034487
v -0.022473 -0.008465 0.034487
v -0.022463 -0.008439 0.034497
v -0.020931 0.005464 0.036029
v -0.020925 0.005456 0.036035
v -0.020920 0.005448 0.036040
v -0.020919 0.005448 0.036041
v -0.020102 -0.001855 0.036858
v -0.020099 -0.001877 0.036861
v -0.019924 -0.012000 0.037036
v -0.019924 0.012000 0.037036
v -0.006807 0.001858 -0.009951
v -0.006805 0.001877 -0.009956
v -0.006740 0.001877 -0.010021
v -0.005726 0.003459 -0.009896
v -0.005455 0.002080 -0.011160
v -0.004267 0.005597 -0.009814
v -0.002296 0.008485 -0.009704
v -0.001937 0.005419 -0.012273
v -0.001243 -0.004744 -0.004387
v 0.000155 0.008485 -0.012155
v 0.001279 0.010286 -0.008279
v 0.002160 0.009495 -0.011356
v 0.002401 0.006105 -0.016116
v 0.002427 0.008485 -0.014427
v 0.002819 0.009827 -0.011094
v 0.002829 0.006744 -0.016084
v 0.002956 0.006193 -0.016608
v 0.004119 -0.001767 -0.006217
v 0.004386 0.011852 -0.007041
v 0.005276 0.008485 -0.017276
v 0.005737 0.010064 -0.013356
v 0.006171 0.004606 -0.020966
v 0.006259 0.011852 -0.008914
v 0.006324 0.003943 -0.021596
v 0.007293 0.011467 -0.006510
v 0.007627 0.011256 -0.004957
v 0.007850 0.011260 -0.005214
v 0.008088 0.011171 -0.004661
v 0.008669 0.002886 -0.005244
v 0.009118 -0.001119 -0.010446
v 0.010972 0.007749 -0.001777
v 0.012178 -0.003004 -0.015742
v 0.032481 -0.015000 -0.053695
v 0.032481 0.015000 -0.053695
v 0.033514 -0.013500 -0.052606
v 0.033514 0.013500 -0.052606
v 0.033542 -0.013500 -0.052634
v 0.033542 0.001500 -0.052634
v 0.033542 0.013129 -0.052634
v 0.033542 0.013500 -0.052634
v 0.033805 -0.013500 -0.052371
v 0.034679 0.001877 -0.051441
v 0.034679 0.001878 -0.051441
v 0.034685 0.001894 -0.051435
v 0.034687 0.001899 -0.051433
v 0.034886 -0.006000 -0.056099
v 0.034886 0.000000 -0.056099
v 0.034886 0.006000 -0.056099
v 0.034949 -0.006673 -0.056162
v 0.034949 -0.005327 -0.056162
v 0.034949 -0.000673 -0.056162
v 0.034949 0.000673 -0.056162
v 0.034949 0.005327 -0.056162
v 0.034949 0.006673 -0.056162
v 0.035132 -0.007300 -0.056345
v 0.035132 -0.004700 -0.056345
v 0.035132 -0.001300 -0.056345
v 0.035132 0.001300 -0.056345
v 0.035132 0.004700 -0.056345
v 0.035132 0.007300 -0.056345
v 0.035241 -0.006000 -0.055744
v 0.035241 0.000000 -0.055744
v 0.035241 0.006000 -0.055744
v 0.035303 -0.006673 -0.055807
v 0.035303 -0.005327 -0.055807
v 0.035303 -0.000673 -0.055807
v 0.035303 0.000673 -0.055807
v 0.035303 0.005327 -0.055807
v 0.035303 0.006673 -0.055807
v 0.035424 -0.007838 -0.056638
v 0.035424 -0.004162 -0.056638
v 0.035424 -0.001838 -0.056638
v 0.035424 0.001838 -0.056638
v 0.035424 0.004162 -0.056638
v 0.035424 0.007838 -0.056638
v 0.035487 -0.007300 -0.055990
v 0.035487 -0.004700 -0.055990
v 0.035487 -0.001300 -0.055990
v 0.035487 0.001300 -0.055990
v 0.035487 0.004700 -0.055990
v 0.035487 0.007300 -0.055990
v 0.035495 -0.005406 -0.050625
v 0.035497 -0.005424 -0.050623
v 0.035500 -0.005448 -0.050620
v 0.035594 -0.006000 -0.056097
v 0.035594 0.000000 -0.056097
v 0.035594 0.006000 -0.056097
v 0.035645 -0.006544 -0.056148
v 0.035645 -0.005456 -0.056148
v 0.035645 -0.000544 -0.056148
v 0.035645 0.000544 -0.056148
v 0.035645 0.005456 -0.056148
v 0.035645 0.006544 -0.056148
v 0.035779 -0.007838 -0.056283
v 0.035779 -0.004162 -0.056283
v 0.035779 -0.001838 -0.056283
v 0.035779 0.001838 -0.056283
v 0.035779 0.004162 -0.056283
v 0.035779 0.007838 -0.056283
v 0.035793 -0.007050 -0.056296
v 0.035793 -0.004950 -0.056296
v 0.035793 -0.001050 -0.056296
v 0.035793 0.001050 -0.056296
v 0.035793 0.004950 -0.056296
v 0.035793 0.007050 -0.056296
v 0.035805 -0.008252 -0.057018
v 0.035805 -0.003748 -0.057018
v 0.035805 -0.002252 -0.057018
v 0.035805 0.002252 -0.057018
v 0.035805 0.003748 -0.057018
v 0.035805 0.008252 -0.057018
v 0.036029 -0.007485 -0.056532
v 0.036029 -0.004515 -0.056532
v 0.036029 -0.001485 -0.056532
v 0.036029 0.001485 -0.056532
v 0.036029 0.004515 -0.056532
v 0.036029 0.007485 -0.056532
v 0.036160 -0.008252 -0.056663
v 0.036160 -0.003748 -0.056663
v 0.036160 -0.002252 -0.056663
v 0.036160 0.002252 -0.056663
v 0.036160 0.003748 -0.056663
v 0.036160 0.008252 -0.056663
v 0.036248 -0.008511 -0.057461
v 0.036248 -0.003489 -0.057461
v 0.036248 -0.002511 -0.057461
v 0.036248 0.002511 -0.057461
v 0.036248 0.003489 -0.057461
v 0.036248 0.008511 -0.057461
v 0.036337 -0.007819 -0.056840
v 0.036337 -0.004181 -0.056840
v 0.036337 -0.001819 -0.056840
v 0.036337 0.001819 -0.056840
v 0.036337 0.004181 -0.056840
v 0.036337 0.007819 -0.056840
v 0.036603 -0.008511 -0.057106
v 0.036603 -0.003489 -0.057106
v 0.036603 -0.002511 -0.057106
v 0.036603 0.002511 -0.057106
v 0.036603 0.003489 -0.057106
v 0.036603 0.008511 -0.057106
v 0.036611 -0.012000 -0.053582
v 0.036611 -0.010316 -0.053582
v 0.036611 -0.010276 -0.053582
v 0.036611 -0.010154 -0.053582
v 0.036611 -0.009932 -0.053582
v 0.036611 -0.009601 -0.053582
v 0.036611 -0.009160 -0.053582
v 0.036611 -0.008638 -0.053582
v 0.036611 -0.008099 -0.053582
v 0.036611 -0.007631 -0.053582
v 0.036611 -0.003262 -0.053582
v 0.036611 0.001108 -0.053582
v 0.036611 0.001259 -0.053582
v 0.036611 0.008099 -0.053582
v 0.036611 0.008638 -0.053582
v 0.036611 0.009160 -0.053582
v 0.036611 0.009601 -0.053582
v 0.036611 0.009932 -0.053582
v 0.036611 0.010154 -0.053582
v 0.036611 0.010276 -0.053582
v 0.036611 0.010316 -0.053582
v 0.036611 0.012000 -0.053582
v 0.036694 -0.008028 -0.057198
v 0.036694 -0.003972 -0.057198
v 0.036694 -0.002028 -0.057198
v 0.036694 0.002028 -0.057198
v 0.036694 0.003972 -0.057198
v 0.036694 0.008028 -0.057198
v 0.036724 -0.008600 -0.057937
v 0.036724 -0.003400 -0.057937
v 0.036724 -0.002600 -0.057937
v 0.036724 0.002600 -0.057937
v 0.036724 0.003400 -0.057937
v 0.036724 0.008600 -0.057937
v 0.037049 0.008454 -0.049071
v 0.037060 0.008485 -0.049060
v 0.037076 0.008496 -0.049044
v 0.037079 -0.008600 -0.057582
v 0.037079 -0.008100 -0.057582
v 0.037079 -0.003900 -0.057582
v 0.037079 -0.003400 -0.057582
v 0.037079 -0.002600 -0.057582
v 0.037079 -0.002100 -0.057582
v 0.037079 0.002100 -0.057582
v 0.037079 0.002600 -0.057582
v 0.037079 0.003400 -0.057582
v 0.037079 0.003900 -0.057582
v 0.037079 0.008100 -0.057582
v 0.037079 0.008600 -0.057582
v 0.037200 -0.008511 -0.058413
v 0.037200 -0.003489 -0.058413
v 0.037200 -0.002511 -0.058413
v 0.037200 0.002511 -0.058413
v 0.037200 0.003489 -0.058413
v 0.037200 0.008511 -0.058413
v 0.037354 -0.008070 -0.048766
v 0.037360 -0.006000 -0.054331
v 0.037360 0.000000 -0.054331
v 0.037360 0.006000 -0.054331
v 0.037411 -0.006544 -0.054382
v 0.037411 -0.005456 -0.054382
v 0.037411 -0.000544 -0.054382
v 0.037411 0.000544 -0.054382
v 0.037411 0.005456 -0.054382
v 0.037411 0.006544 -0.054382
v 0.037464 -0.008028 -0.057967
v 0.037464 -0.003972 -0.057967
v 0.037464 -0.002028 -0.057967
v 0.037464 0.002028 -0.057967
v 0.037464 0.003972 -0.057967
v 0.037464 0.008028 -0.057967
v 0.037555 -0.008511 -0.058058
v 0.037555 -0.003489 -0.058058
v 0.037555 -0.002511 -0.058058
v 0.037555 0.002511 -0.058058
v 0.037555 0.003489 -0.058058
v 0.037555 0.008511 -0.058058
v 0.037559 -0.007050 -0.054530
v 0.037559 -0.004950 -0.054530
v 0.037559 -0.001050 -0.054530
v 0.037559 0.001050 -0.054530
v 0.037559 0.004950 -0.054530
v 0.037559 0.007050 -0.054530
v 0.037643 -0.008252 -0.058857
v 0.037643 -0.003748 -0.058857
v 0.037643 -0.002252 -0.058857
v 0.037643 0.002252 -0.058857
v 0.037643 0.003748 -0.058857
v 0.037643 0.008252 -0.058857
v 0.037795 -0.007485 -0.054766
v 0.037795 -0.004515 -0.054766
v 0.037795 -0.001485 -0.054766
v 0.037795 0.001485 -0.054766
v 0.037795 0.004515 -0.054766
v 0.037795 0.007485 -0.054766
v 0.037822 -0.007819 -0.058325
v 0.037822 -0.004181 -0.058325
v 0.037822 -0.001819 -0.058325
v 0.037822 0.001819 -0.058325
v 0.037822 0.004181 -0.058325
v 0.037822 0.007819 -0.058325
v 0.037998 -0.008252 -0.058502
v 0.037998 -0.003748 -0.058502
v 0.037998 -0.002252 -0.058502
v 0.037998 0.002252 -0.058502
v 0.037998 0.003748 -0.058502
v 0.037998 0.008252 -0.058502
v 0.038024 -0.007838 -0.059237
v 0.038024 -0.004162 -0.059237
v 0.038024 -0.001838 -0.059237
v 0.038024 0.001838 -0.059237
v 0.038024 0.004162 -0.059237
v 0.038024 0.007838 -0.059237
v 0.038103 -0.007819 -0.055074
v 0.038103 -0.004181 -0.055074
v 0.038103 -0.001819 -0.055074
v 0.038103 0.001819 -0.055074
v 0.038103 0.004181 -0.055074
v 0.038103 0.007819 -0.055074
v 0.038129 -0.007485 -0.058632
v 0.038129 -0.004515 -0.058632
v 0.038129 -0.001485 -0.058632
v 0.038129 0.001485 -0.058632
v 0.038129 0.004515 -0.058632
v 0.038129 0.007485 -0.058632
v 0.038316 -0.007300 -0.059530
v 0.038316 -0.004700 -0.059530
v 0.038316 -0.001300 -0.059530
v 0.038316 0.001300 -0.059530
v 0.038316 0.004700 -0.059530
v 0.038316 0.007300 -0.059530
v 0.038365 -0.007050 -0.058869
v 0.038365 -0.004950 -0.058869
v 0.038365 -0.001050 -0.058869
v 0.038365 0.001050 -0.058869
v 0.038365 0.004950 -0.058869
v 0.038365 0.007050 -0.058869
v 0.038379 -0.007838 -0.058882
v 0.038379 -0.004162 -0.058882
v 0.038379 -0.001838 -0.058882
v 0.038379 0.001838 -0.058882
v 0.038379 0.004162 -0.058882
v 0.038379 0.007838 -0.058882
v 0.038461 -0.008028 -0.055431
v 0.038461 -0.003972 -0.055431
v 0.038461 -0.002028 -0.055431
v 0.038461 0.002028 -0.055431
v 0.038461 0.003972 -0.055431
v 0.038461 0.008028 -0.055431
v 0.038500 -0.006673 -0.059713
v 0.038500 -0.005327 -0.059713
v 0.038500 -0.000673 -0.059713
v 0.038500 0.000673 -0.059713
v 0.038500 0.005327 -0.059713
v 0.038500 0.006673 -0.059713
v 0.038513 -0.006544 -0.059016
v 0.038513 -0.005456 -0.059016
v 0.038513 -0.000544 -0.059016
v 0.038513 0.000544 -0.059016
v 0.038513 0.005456 -0.059016
v 0.038513 0.006544 -0.059016
v 0.038563 -0.006000 -0.059776
v 0.038563 0.000000 -0.059776
v 0.038563 0.006000 -0.059776
v 0.038564 -0.006000 -0.059067
v 0.038564 0.000000 -0.059067
v 0.038564 0.006000 -0.059067
v 0.038671 -0.007300 -0.059175
v 0.038671 -0.004700 -0.059175
v 0.038671 -0.001300 -0.059175
v 0.038671 0.001300 -0.059175
v 0.038671 0.004700 -0.059175
v 0.038671 0.007300 -0.059175
v 0.038845 -0.013500 -0.047331
v 0.038845 -0.008100 -0.055816
v 0.038845 -0.003900 -0.055816
v 0.038845 -0.002100 -0.055816
v 0.038845 0.002100 -0.055816
v 0.038845 0.003900 -0.055816
v 0.038845 0.008100 -0.055816
v 0.038845 0.013500 -0.047331
v 0.038855 -0.006673 -0.059358
v 0.038855 -0.005327 -0.059358
v 0.038855 -0.000673 -0.059358
v 0.038855 0.000673 -0.059358
v 0.038855 0.005327 -0.059358
v 0.038855 0.006673 -0.059358
v 0.038918 -0.006000 -0.059421
v 0.038918 0.000000 -0.059421
v 0.038918 0.006000 -0.059421
v 0.039196 -0.010675 -0.046924
v 0.039208 -0.010692 -0.046912
v 0.039230 -0.008028 -0.056201
v 0.039230 -0.003972 -0.056201
v 0.039230 -0.002028 -0.056201
v 0.039230 0.002028 -0.056201
v 0.039230 0.003972 -0.056201
v 0.039230 0.008028 -0.056201
v 0.039588 -0.007819 -0.056558
v 0.039588 -0.004181 -0.056558
v 0.039588 -0.001819 -0.056558
v 0.039588 0.001819 -0.056558
v 0.039588 0.004181 -0.056558
v 0.039588 0.007819 -0.056558
v 0.039895 -0.007485 -0.056866
v 0.039895 -0.004515 -0.056866
v 0.039895 -0.001485 -0.056866
v 0.039895 0.001485 -0.056866
v 0.039895 0.004515 -0.056866
v 0.039895 0.007485 -0.056866
v 0.040132 -0.007050 -0.057102
v 0.040132 -0.004950 -0.057102
v 0.040132 -0.001050 -0.057102
v 0.040132 0.001050 -0.057102
v 0.040132 0.004950 -0.057102
v 0.040132 0.007050 -0.057102
v 0.040279 -0.006544 -0.057250
v 0.040279 -0.005456 -0.057250
v 0.040279 -0.000544 -0.057250
v 0.040279 0.000544 -0.057250
v 0.040279 0.005456 -0.057250
v 0.040279 0.006544 -0.057250
v 0.040330 -0.006000 -0.057301
v 0.040330 0.000000 -0.057301
v 0.040330 0.006000 -0.057301
v 0.041674 -0.012000 -0.062887
v 0.041674 0.012000 -0.062887
v 0.041698 -0.015000 -0.062911
v 0.041698 -0.012000 -0.062911
v 0.041698 0.012000 -0.062911
v 0.041698 0.015000 -0.062911
v 0.041715 0.011839 -0.044405
v 0.041732 0.011852 -0.044388
v 0.041744 0.011849 -0.044376
v 0.041750 0.011848 -0.044370
v 0.043088 -0.015000 -0.043088
v 0.043088 -0.013500 -0.043088
v 0.043088 0.013500 -0.043088
v 0.043088 0.015000 -0.043088
v 0.043242 -0.012000 -0.046950
v 0.043242 0.012000 -0.046950
v 0.043662 -0.012000 -0.046530
v 0.043662 0.012000 -0.046530
v 0.043666 -0.012000 -0.046526
v 0.043666 0.012000 -0.046526
v 0.043705 -0.012000 -0.046487
v 0.043705 0.012000 -0.046487
v 0.043778 -0.012000 -0.046414
v 0.043778 0.012000 -0.046414
v 0.043795 -0.012000 -0.060766
v 0.043795 0.012000 -0.060766
v 0.043879 -0.012000 -0.046313
v 0.043879 0.012000 -0.046313
v 0.043997 -0.012000 -0.046195
v 0.043997 0.012000 -0.046195
v 0.044120 -0.012000 -0.046073
v 0.044120 0.012000 -0.046073
v 0.044234 -0.012000 -0.045958
v 0.044234 0.012000 -0.045958
v 0.044330 -0.012000 -0.045863
v 0.044330 0.012000 -0.045863
v 0.044370 -0.011848 -0.041750
v 0.044388 -0.011852 -0.041732
v 0.044731 -0.015000 -0.055816
v 0.044731 -0.014498 -0.055816
v 0.044731 0.014498 -0.055816
v 0.044731 0.015000 -0.055816
v 0.044732 -0.015000 -0.055812
v 0.044732 0.015000 -0.055812
v 0.044819 -0.015000 -0.056489
v 0.044819 -0.015000 -0.055143
v 0.044819 -0.014498 -0.056489
v 0.044819 -0.014498 -0.055143
v 0.044819 0.014498 -0.056489
v 0.044819 0.014498 -0.055143
v 0.044819 0.015000 -0.056489
v 0.044819 0.015000 -0.055143
v 0.045079 -0.015000 -0.057116
v 0.045079 -0.015000 -0.054516
v 0.045079 -0.014498 -0.057116
v 0.045079 -0.014498 -0.054516
v 0.045079 0.014498 -0.057116
v 0.045079 0.014498 -0.054516
v 0.045079 0.015000 -0.057116
v 0.045079 0.015000 -0.054516
v 0.045096 -0.012000 -0.045096
v 0.045096 0.012000 -0.045096
v 0.045231 -0.014498 -0.055816
v 0.045231 -0.012000 -0.055816
v 0.045231 0.012000 -0.055816
v 0.045231 0.014498 -0.055816
v 0.045302 -0.014498 -0.056360
v 0.045302 -0.014498 -0.055272
v 0.045302 -0.012000 -0.056360
v 0.045302 -0.012000 -0.055272
v 0.045302 0.012000 -0.056360
v 0.045302 0.012000 -0.055272
v 0.045302 0.014498 -0.056360
v 0.045302 0.014498 -0.055272
v 0.045492 -0.015000 -0.057654
v 0.045492 -0.015000 -0.053978
v 0.045492 -0.014498 -0.057654
v 0.045492 -0.014498 -0.053978
v 0.045492 0.014498 -0.057654
v 0.045492 0.014498 -0.053977
v 0.045492 0.015000 -0.057654
v 0.045492 0.015000 -0.053977
v 0.045512 -0.014498 -0.056865
v 0.045512 -0.014498 -0.054767
v 0.045512 -0.012000 -0.056865
v 0.045512 -0.012000 -0.054767
v 0.045512 0.012000 -0.056865
v 0.045512 0.012000 -0.054767
v 0.045512 0.014498 -0.056865
v 0.045512 0.014498 -0.054767
v 0.045846 -0.014498 -0.057301
v 0.045846 -0.014498 -0.054331
v 0.045846 -0.012000 -0.057301
v 0.045846 -0.012000 -0.054331
v 0.045846 0.012000 -0.057301
v 0.045846 0.012000 -0.054331
v 0.045846 0.014498 -0.057301
v 0.045846 0.014498 -0.054331
v 0.045863 -0.012000 -0.044330
v 0.045863 0.012000 -0.044330
v 0.045958 -0.012000 -0.044234
v 0.045958 0.012000 -0.044234
v 0.046031 -0.015000 -0.058067
v 0.046031 -0.015000 -0.053565
v 0.046031 -0.014498 -0.058067
v 0.046031 -0.014498 -0.053565
v 0.046031 0.014498 -0.058067
v 0.046031 0.014498 -0.053565
v 0.046031 0.015000 -0.058067
v 0.046031 0.015000 -0.053565
v 0.046073 -0.012000 -0.044120
v 0.046073 0.012000 -0.044120
v 0.046195 -0.012000 -0.043997
v 0.046195 0.012000 -0.043997
v 0.046281 -0.014498 -0.057635
v 0.046281 -0.014498 -0.053997
v 0.046281 -0.012000 -0.057635
v 0.046281 -0.012000 -0.053997
v 0.046281 0.012000 -0.057635
v 0.046281 0.012000 -0.053997
v 0.046281 0.014498 -0.057635
v 0.046281 0.014498 -0.053997
v 0.046313 -0.012000 -0.043879
v 0.046313 0.012000 -0.043879
v 0.046414 -0.012000 -0.043778
v 0.046414 0.012000 -0.043778
v 0.046487 -0.012000 -0.043705
v 0.046487 0.012000 -0.043705
v 0.046526 -0.012000 -0.043666
v 0.046526 0.012000 -0.043666
v 0.046530 -0.012000 -0.043662
v 0.046530 0.012000 -0.043662
v 0.046658 -0.015000 -0.058328
v 0.046658 -0.015000 -0.053304
v 0.046658 -0.014498 -0.058328
v 0.046658 -0.014498 -0.053304
v 0.046658 0.014498 -0.058328
v 0.046658 0.014498 -0.053304
v 0.046658 0.015000 -0.058328
v 0.046658 0.015000 -0.053304
v 0.046787 -0.014498 -0.057845
v 0.046787 -0.014498 -0.053787
v 0.046787 -0.012000 -0.057845
v 0.046787 -0.012000 -0.053787
v 0.046787 0.012000 -0.057845
v 0.046787 0.012000 -0.053787
v 0.046787 0.014498 -0.057845
v 0.046787 0.014498 -0.053787
v 0.046895 0.010696 -0.039225
v 0.046898 0.010695 -0.039222
v 0.046912 0.010692 -0.039208
v 0.046924 0.010675 -0.039196
v 0.046950 -0.012000 -0.043242
v 0.046950 0.012000 -0.043242
v 0.047331 -0.015000 -0.058415
v 0.047331 -0.015000 -0.053217
v 0.047331 -0.014498 -0.058415
v 0.047331 -0.014498 -0.057916
v 0.047331 -0.014498 -0.053716
v 0.047331 -0.014498 -0.053217
v 0.047331 -0.013500 -0.038845
v 0.047331 -0.012000 -0.057916
v 0.047331 -0.012000 -0.053716
v 0.047331 0.012000 -0.057916
v 0.047331 0.012000 -0.053716
v 0.047331 0.013500 -0.038845
v 0.047331 0.014498 -0.058415
v 0.047331 0.014498 -0.057916
v 0.047331 0.014498 -0.053716
v 0.047331 0.014498 -0.053217
v 0.047331 0.015000 -0.058415
v 0.047331 0.015000 -0.053217
v 0.047874 -0.014498 -0.057845
v 0.047874 -0.014498 -0.053787
v 0.047874 -0.012000 -0.057845
v 0.047874 -0.012000 -0.053787
v 0.047874 0.012000 -0.057845
v 0.047874 0.012000 -0.053787
v 0.047874 0.014498 -0.057845
v 0.047874 0.014498 -0.053787
v 0.048004 -0.015000 -0.058328
v 0.048004 -0.015000 -0.053304
v 0.048004 -0.014498 -0.058328
v 0.048004 -0.014498 -0.053304
v 0.048004 0.014498 -0.058328
v 0.048004 0.014498 -0.053304
v 0.048004 0.015000 -0.058328
v 0.048004 0.015000 -0.053304
v 0.048380 -0.014498 -0.057635
v 0.048380 -0.014498 -0.053997
v 0.048380 -0.012000 -0.057635
v 0.048380 -0.012000 -0.053997
v 0.048380 0.012000 -0.057635
v 0.048380 0.012000 -0.053997
v 0.048380 0.014498 -0.057635
v 0.048380 0.014498 -0.053997
v 0.048519 -0.015000 -0.062406
v 0.048519 -0.012000 -0.062406
v 0.048519 0.012000 -0.062406
v 0.048519 0.015000 -0.062406
v 0.048630 -0.015000 -0.058067
v 0.048630 -0.015000 -0.053565
v 0.048630 -0.014498 -0.058067
v 0.048630 -0.014498 -0.053565
v 0.048630 0.014498 -0.058067
v 0.048630 0.014498 -0.053565
v 0.048630 0.015000 -0.058067
v 0.048630 0.015000 -0.053565
v 0.048766 0.008070 -0.037354
v 0.048816 -0.014498 -0.057301
v 0.048816 -0.014498 -0.054331
v 0.048816 -0.012000 -0.057301
v 0.048816 -0.012000 -0.054331
v 0.048816 0.012000 -0.057301
v 0.048816 0.012000 -0.054331
v 0.048816 0.014498 -0.057301
v 0.048816 0.014498 -0.054331
v 0.049044 -0.008496 -0.037076
v 0.049060 -0.008485 -0.037060
v 0.049149 -0.014498 -0.056865
v 0.049149 -0.014498 -0.054767
v 0.049149 -0.012000 -0.056865
v 0.049149 -0.012000 -0.054767
v 0.049149 0.012000 -0.056865
v 0.049149 0.012000 -0.054767
v 0.049149 0.014498 -0.056865
v 0.049149 0.014498 -0.054767
v 0.049169 -0.015000 -0.057654
v 0.049169 -0.015000 -0.053978
v 0.049169 -0.014498 -0.057654
v 0.049169 -0.014498 -0.053978
v 0.049169 0.014498 -0.057654
v 0.049169 0.014498 -0.053977
v 0.049169 0.015000 -0.057654
v 0.049169 0.015000 -0.053977
v 0.049359 -0.014498 -0.056360
v 0.049359 -0.014498 -0.055272
v 0.049359 -0.012000 -0.056360
v 0.049359 -0.012000 -0.055272
v 0.049359 0.012000 -0.056360
v 0.049359 0.012000 -0.055272
v 0.049359 0.014498 -0.056360
v 0.049359 0.014498 -0.055272
v 0.049431 -0.014498 -0.055816
v 0.049431 -0.012000 -0.055816
v 0.049431 0.012000 -0.055816
v 0.049431 0.014498 -0.055816
v 0.049582 -0.015000 -0.057116
v 0.049582 -0.015000 -0.054516
v 0.049582 -0.014498 -0.057116
v 0.049582 -0.014498 -0.054516
v 0.049582 0.014498 -0.057116
v 0.049582 0.014498 -0.054516
v 0.049582 0.015000 -0.057116
v 0.049582 0.015000 -0.054516
v 0.049842 -0.015000 -0.056489
v 0.049842 -0.015000 -0.055143
v 0.049842 -0.014498 -0.056489
v 0.049842 -0.014498 -0.055143
v 0.049842 0.014498 -0.056489
v 0.049842 0.014498 -0.055143
v 0.049842 0.015000 -0.056489
v 0.049842 0.015000 -0.055143
v 0.049930 -0.015000 -0.055816
v 0.049930 -0.014498 -0.055816
v 0.049930 0.014498 -0.055816
v 0.049930 0.015000 -0.055816
v 0.050620 0.005448 -0.035500
v 0.050623 0.005424 -0.035497
v 0.051433 -0.001899 -0.034687
v 0.051441 -0.001877 -0.034679
v 0.052371 0.013500 -0.033805
v 0.052606 -0.013500 -0.033514
v 0.052606 0.013500 -0.033514
v 0.052634 -0.013500 -0.033542
v 0.052634 -0.013129 -0.033542
v 0.052634 -0.001500 -0.033542
v 0.052634 0.013500 -0.033542
v 0.053217 -0.015000 -0.047331
v 0.053217 -0.014498 -0.047331
v 0.053217 0.014498 -0.047331
v 0.053217 0.015000 -0.047331
v 0.053304 -0.015000 -0.048004
v 0.053304 -0.015000 -0.046658
v 0.053304 -0.014498 -0.048004
v 0.053304 -0.014498 -0.046658
v 0.053304 0.014498 -0.048004
v 0.053304 0.014498 -0.046657
v 0.053304 0.015000 -0.048004
v 0.053304 0.015000 -0.046657
v 0.053565 -0.015000 -0.048630
v 0.053565 -0.015000 -0.046031
v 0.053565 -0.014498 -0.048630
v 0.053565 -0.014498 -0.046031
v 0.053565 0.014498 -0.048630
v 0.053565 0.014498 -0.046031
v 0.053565 0.015000 -0.048630
v 0.053565 0.015000 -0.046031
v 0.053581 -0.012000 -0.036611
v 0.053581 -0.010316 -0.036611
v 0.053581 -0.010276 -0.036611
v 0.053581 -0.010154 -0.036611
v 0.053581 -0.009932 -0.036611
v 0.053581 -0.009601 -0.036611
v 0.053581 -0.009160 -0.036611
v 0.053581 -0.008638 -0.036611
v 0.053581 -0.008099 -0.036611
v 0.053581 -0.001259 -0.036611
v 0.053581 -0.001108 -0.036611
v 0.053581 0.003262 -0.036611
v 0.053581 0.007631 -0.036611
v 0.053581 0.008099 -0.036611
v 0.053581 0.008638 -0.036611
v 0.053581 0.009160 -0.036611
v 0.053581 0.009601 -0.036611
v 0.053581 0.009932 -0.036611
v 0.053581 0.010154 -0.036611
v 0.053581 0.010276 -0.036611
v 0.053581 0.010316 -0.036611
v 0.053581 0.012000 -0.036611
v 0.053695 -0.015000 -0.032481
v 0.053695 0.015000 -0.032481
v 0.053716 -0.014498 -0.047331
v 0.053716 -0.012000 -0.047331
v 0.053716 0.012000 -0.047331
v 0.053716 0.014498 -0.047331
v 0.053787 -0.014498 -0.047874
v 0.053787 -0.014498 -0.046787
v 0.053787 -0.012000 -0.047874
v 0.053787 -0.012000 -0.046787
v 0.053787 0.012000 -0.047874
v 0.053787 0.012000 -0.046787
v 0.053787 0.014498 -0.047874
v 0.053787 0.014498 -0.046787
v 0.053977 -0.015000 -0.049169
v 0.053977 -0.015000 -0.045492
v 0.053977 -0.014498 -0.049169
v 0.053977 -0.014498 -0.045492
v 0.053977 0.014498 -0.049169
v 0.053977 0.014498 -0.045492
v 0.053977 0.015000 -0.049169
v 0.053977 0.015000 -0.045492
v 0.053997 -0.014498 -0.048380
v 0.053997 -0.014498 -0.046281
v 0.053997 -0.012000 -0.048380
v 0.053997 -0.012000 -0.046281
v 0.053997 0.012000 -0.048380
v 0.053997 0.012000 -0.046281
v 0.053997 0.014498 -0.048380
v 0.053997 0.014498 -0.046281
v 0.054331 -0.014498 -0.048816
v 0.054331 -0.014498 -0.045846
v 0.054331 -0.012000 -0.048816
v 0.054331 -0.012000 -0.045846
v 0.054331 -0.006000 -0.037360
v 0.054331 0.000000 -0.037360
v 0.054331 0.006000 -0.037360
v 0.054331 0.012000 -0.048816
v 0.054331 0.012000 -0.045846
v 0.054331 0.014498 -0.048816
v 0.054331 0.014498 -0.045846
v 0.054382 -0.006544 -0.037411
v 0.054382 -0.005456 -0.037411
v 0.054382 -0.000544 -0.037411
v 0.054382 0.000544 -0.037411
v 0.054382 0.005456 -0.037411
v 0.054382 0.006544 -0.037411
v 0.054516 -0.015000 -0.049582
v 0.054516 -0.015000 -0.045079
v 0.054516 -0.014498 -0.049582
v 0.054516 -0.014498 -0.045079
v 0.054516 0.014498 -0.049582
v 0.054516 0.014498 -0.045079
v 0.054516 0.015000 -0.049582
v 0.054516 0.015000 -0.045079
v 0.054530 -0.007050 -0.037559
v 0.054530 -0.004950 -0.037559
v 0.054530 -0.001050 -0.037559
v 0.054530 0.001050 -0.037559
v 0.054530 0.004950 -0.037559
v 0.054530 0.007050 -0.037559
v 0.054766 -0.007485 -0.037795
v 0.054766 -0.004515 -0.037795
v 0.054766 -0.001485 -0.037795
v 0.054766 0.001485 -0.037795
v 0.054766 0.004515 -0.037795
v 0.054766 0.007485 -0.037795
v 0.054767 -0.014498 -0.049149
v 0.054767 -0.014498 -0.045512
v 0.054767 -0.012000 -0.049149
v 0.054767 -0.012000 -0.045512
v 0.054767 0.012000 -0.049149
v 0.054767 0.012000 -0.045512
v 0.054767 0.014498 -0.049149
v 0.054767 0.014498 -0.045512
v 0.055073 -0.007819 -0.038103
v 0.055073 -0.004181 -0.038103
v 0.055073 -0.001819 -0.038103
v 0.055073 0.001819 -0.038103
v 0.055073 0.004181 -0.038103
v 0.055073 0.007819 -0.038103
v 0.055143 -0.015000 -0.049842
v 0.055143 -0.015000 -0.044819
v 0.055143 -0.014498 -0.049842
v 0.055143 -0.014498 -0.044819
v 0.055143 0.014498 -0.049842
v 0.055143 0.014498 -0.044819
v 0.055143 0.015000 -0.049842
v 0.055143 0.015000 -0.044819
v 0.055272 -0.014498 -0.049359
v 0.055272 -0.014498 -0.045302
v 0.055272 -0.012000 -0.049359
v 0.055272 -0.012000 -0.045302
v 0.055272 0.012000 -0.049359
v 0.055272 0.012000 -0.045302
v 0.055272 0.014498 -0.049359
v 0.055272 0.014498 -0.045302
v 0.055431 -0.008028 -0.038461
v 0.055431 -0.003972 -0.038461
v 0.055431 -0.002028 -0.038461
v 0.055431 0.002028 -0.038461
v 0.055431 0.003972 -0.038461
v 0.055431 0.008028 -0.038461
v 0.055462 -0.015000 -0.055462
v 0.055462 -0.012000 -0.055462
v 0.055462 0.012000 -0.055462
v 0.055462 0.015000 -0.055462
v 0.055744 -0.006000 -0.035241
v 0.055744 0.000000 -0.035241
v 0.055744 0.006000 -0.035241
v 0.055807 -0.006673 -0.035303
v 0.055807 -0.005327 -0.035303
v 0.055807 -0.000673 -0.035303
v 0.055807 0.000673 -0.035303
v 0.055807 0.005327 -0.035303
v 0.055807 0.006673 -0.035303
v 0.055812 -0.015000 -0.044732
v 0.055812 0.015000 -0.044732
v 0.055816 -0.015000 -0.049930
v 0.055816 -0.015000 -0.044731
v 0.055816 -0.014498 -0.049930
v 0.055816 -0.014498 -0.049431
v 0.055816 -0.014498 -0.045231
v 0.055816 -0.014498 -0.044731
v 0.055816 -0.012000 -0.049431
v 0.055816 -0.012000 -0.045231
v 0.055816 -0.008100 -0.038845
v 0.055816 -0.003900 -0.038845
v 0.055816 -0.002100 -0.038845
v 0.055816 0.002100 -0.038845
v 0.055816 0.003900 -0.038845
v 0.055816 0.008100 -0.038845
v 0.055816 0.012000 -0.049431
v 0.055816 0.012000 -0.045231
v 0.055816 0.014498 -0.049930
v 0.055816 0.014498 -0.049431
v 0.055816 0.014498 -0.045231
v 0.055816 0.014498 -0.044731
v 0.055816 0.015000 -0.049930
v 0.055816 0.015000 -0.044731
v 0.055990 -0.007300 -0.035487
v 0.055990 -0.004700 -0.035487
v 0.055990 -0.001300 -0.035487
v 0.055990 0.001300 -0.035487
v 0.055990 0.004700 -0.035487
v 0.055990 0.007300 -0.035487
v 0.056097 -0.006000 -0.035594
v 0.056097 0.000000 -0.035594
v 0.056097 0.006000 -0.035594
v 0.056099 -0.006000 -0.034886
v 0.056099 0.000000 -0.034886
v 0.056099 0.006000 -0.034886
v 0.056148 -0.006544 -0.035645
v 0.056148 -0.005456 -0.035645
v 0.056148 -0.000544 -0.035645
v 0.056148 0.000544 -0.035645
v 0.056148 0.005456 -0.035645
v 0.056148 0.006544 -0.035645
v 0.056162 -0.006673 -0.034949
v 0.056162 -0.005327 -0.034948
v 0.056162 -0.000673 -0.034948
v 0.056162 0.000673 -0.034948
v 0.056162 0.005327 -0.034948
v 0.056162 0.006673 -0.034948
v 0.056201 -0.008028 -0.039230
v 0.056201 -0.003972 -0.039230
v 0.056201 -0.002028 -0.039230
v 0.056201 0.002028 -0.039230
v 0.056201 0.003972 -0.039230
v 0.056201 0.008028 -0.039230
v 0.056283 -0.007838 -0.035779
v 0.056283 -0.004162 -0.035779
v 0.056283 -0.001838 -0.035779
v 0.056283 0.001838 -0.035779
v 0.056283 0.004162 -0.035779
v 0.056283 0.007838 -0.035779
v 0.056296 -0.007050 -0.035793
v 0.056296 -0.004950 -0.035793
v 0.056296 -0.001050 -0.035793
v 0.056296 0.001050 -0.035793
v 0.056296 0.004950 -0.035793
v 0.056296 0.007050 -0.035793
v 0.056345 -0.007300 -0.035132
v 0.056345 -0.004700 -0.035132
v 0.056345 -0.001300 -0.035132
v 0.056345 0.001300 -0.035132
v 0.056345 0.004700 -0.035132
v 0.056345 0.007300 -0.035132
v 0.056360 -0.014498 -0.049359
v 0.056360 -0.014498 -0.045302
v 0.056360 -0.012000 -0.049359
v 0.056360 -0.012000 -0.045302
v 0.056360 0.012000 -0.049359
v 0.056360 0.012000 -0.045302
v 0.056360 0.014498 -0.049359
v 0.056360 0.014498 -0.045302
v 0.056489 -0.015000 -0.049842
v 0.056489 -0.015000 -0.044819
v 0.056489 -0.014498 -0.049842
v 0.056489 -0.014498 -0.044819
v 0.056489 0.014498 -0.049842
v 0.056489 0.014498 -0.044819
v 0.056489 0.015000 -0.049842
v 0.056489 0.015000 -0.044819
v 0.056532 -0.007485 -0.036029
v 0.056532 -0.004515 -0.036029
v 0.056532 -0.001485 -0.036029
v 0.056532 0.001485 -0.036029
v 0.056532 0.004515 -0.036029
v 0.056532 0.007485 -0.036029
v 0.056558 -0.007819 -0.039588
v 0.056558 -0.004181 -0.039588
v 0.056558 -0.001819 -0.039588
v 0.056558 0.001819 -0.039588
v 0.056558 0.004181 -0.039588
v 0.056558 0.007819 -0.039588
v 0.056638 -0.007838 -0.035424
v 0.056638 -0.004162 -0.035424
v 0.056638 -0.001838 -0.035424
v 0.056638 0.001838 -0.035424
v 0.056638 0.004162 -0.035424
v 0.056638 0.007838 -0.035424
v 0.056663 -0.008252 -0.036160
v 0.056663 -0.003748 -0.036160
v 0.056663 -0.002252 -0.036160
v 0.056663 0.002252 -0.036160
v 0.056663 0.003748 -0.036160
v 0.056663 0.008252 -0.036160
v 0.056840 -0.007819 -0.036337
v 0.056840 -0.004181 -0.036337
v 0.056840 -0.001819 -0.036337
v 0.056840 0.001819 -0.036337
v 0.056840 0.004181 -0.036337
v 0.056840 0.007819 -0.036337
v 0.056865 -0.014498 -0.049149
v 0.056865 -0.014498 -0.045512
v 0.056865 -0.012000 -0.049149
v 0.056865 -0.012000 -0.045512
v 0.056865 0.012000 -0.049149
v 0.056865 0.012000 -0.045512
v 0.056865 0.014498 -0.049149
v 0.056865 0.014498 -0.045512
v 0.056866 -0.007485 -0.039895
v 0.056866 -0.004515 -0.039895
v 0.056866 -0.001485 -0.039895
v 0.056866 0.001485 -0.039895
v 0.056866 0.004515 -0.039895
v 0.056866 0.007485 -0.039895
v 0.057018 -0.008252 -0.035805
v 0.057018 -0.003748 -0.035805
v 0.057018 -0.002252 -0.035805
v 0.057018 0.002252 -0.035805
v 0.057018 0.003748 -0.035805
v 0.057018 0.008252 -0.035805
v 0.057102 -0.007050 -0.040132
v 0.057102 -0.004950 -0.040132
v 0.057102 -0.001050 -0.040132
v 0.057102 0.001050 -0.040132
v 0.057102 0.004950 -0.040132
v 0.057102 0.007050 -0.040132
v 0.057106 -0.008511 -0.036603
v 0.057106 -0.003489 -0.036603
v 0.057106 -0.002511 -0.036603
v 0.057106 0.002511 -0.036603
v 0.057106 0.003489 -0.036603
v 0.057106 0.008511 -0.036603
v 0.057116 -0.015000 -0.049582
v 0.057116 -0.015000 -0.045079
v 0.057116 -0.014498 -0.049582
v 0.057116 -0.014498 -0.045079
v 0.057116 0.014498 -0.049582
v 0.057116 0.014498 -0.045079
v 0.057116 0.015000 -0.049582
v 0.057116 0.015000 -0.045079
v 0.057198 -0.008028 -0.036694
v 0.057198 -0.003972 -0.036694
v 0.057198 -0.002028 -0.036694
v 0.057198 0.002028 -0.036694
v 0.057198 0.003972 -0.036694
v 0.057198 0.008028 -0.036694
v 0.057250 -0.006544 -0.040279
v 0.057250 -0.005456 -0.040279
v 0.057250 -0.000544 -0.040279
v 0.057250 0.000544 -0.040279
v 0.057250 0.005456 -0.040279
v 0.057250 0.006544 -0.040279
v 0.057301 -0.014498 -0.048816
v 0.057301 -0.014498 -0.045846
v 0.057301 -0.012000 -0.048816
v 0.057301 -0.012000 -0.045846
v 0.057301 -0.006000 -0.040330
v 0.057301 0.000000 -0.040330
v 0.057301 0.006000 -0.040330
v 0.057301 0.012000 -0.048816
v 0.057301 0.012000 -0.045846
v 0.057301 0.014498 -0.048816
v 0.057301 0.014498 -0.045846
v 0.057461 -0.008511 -0.036248
v 0.057461 -0.003489 -0.036248
v 0.057461 -0.002511 -0.036248
v 0.057461 0.002511 -0.036248
v 0.057461 0.003489 -0.036248
v 0.057461 0.008511 -0.036248
v 0.057582 -0.008600 -0.037079
v 0.057582 -0.008100 -0.037079
v 0.057582 -0.003900 -0.037079
v 0.057582 -0.003400 -0.037079
v 0.057582 -0.002600 -0.037079
v 0.057582 -0.002100 -0.037079
v 0.057582 0.002100 -0.037079
v 0.057582 0.002600 -0.037079
v 0.057582 0.003400 -0.037079
v 0.057582 0.003900 -0.037079
v 0.057582 0.008100 -0.037079
v 0.057582 0.008600 -0.037079
v 0.057635 -0.014498 -0.048380
v 0.057635 -0.014498 -0.046281
v 0.057635 -0.012000 -0.048380
v 0.057635 -0.012000 -0.046281
v 0.057635 0.012000 -0.048380
v 0.057635 0.012000 -0.046281
v 0.057635 0.014498 -0.048380
v 0.057635 0.014498 -0.046281
v 0.057654 -0.015000 -0.049169
v 0.057654 -0.015000 -0.045492
v 0.057654 -0.014498 -0.049169
v 0.057654 -0.014498 -0.045492
v 0.057654 0.014498 -0.049169
v 0.057654 0.014498 -0.045492
v 0.057654 0.015000 -0.049169
v 0.057654 0.015000 -0.045492
v 0.057845 -0.014498 -0.047874
v 0.057845 -0.014498 -0.046787
v 0.057845 -0.012000 -0.047874
v 0.057845 -0.012000 -0.046787
v 0.057845 0.012000 -0.047874
v 0.057845 0.012000 -0.046787
v 0.057845 0.014498 -0.047874
v 0.057845 0.014498 -0.046787
v 0.057916 -0.014498 -0.047331
v 0.057916 -0.012000 -0.047331
v 0.057916 0.012000 -0.047331
v 0.057916 0.014498 -0.047331
v 0.057937 -0.008600 -0.036724
v 0.057937 -0.003400 -0.036724
v 0.057937 -0.002600 -0.036724
v 0.057937 0.002600 -0.036724
v 0.057937 0.003400 -0.036724
v 0.057937 0.008600 -0.036724
v 0.057967 -0.008028 -0.037464
v 0.057967 -0.003972 -0.037464
v 0.057967 -0.002028 -0.037464
v 0.057967 0.002028 -0.037464
v 0.057967 0.003972 -0.037464
v 0.057967 0.008028 -0.037464
v 0.058058 -0.008511 -0.037555
v 0.058058 -0.003489 -0.037555
v 0.058058 -0.002511 -0.037555
v 0.058058 0.002511 -0.037555
v 0.058058 0.003489 -0.037555
v 0.058058 0.008511 -0.037555
v 0.058067 -0.015000 -0.048630
v 0.058067 -0.015000 -0.046031
v 0.058067 -0.014498 -0.048630
v 0.058067 -0.014498 -0.046031
v 0.058067 0.014498 -0.048630
v 0.058067 0.014498 -0.046031
v 0.058067 0.015000 -0.048630
v 0.058067 0.015000 -0.046031
v 0.058325 -0.007819 -0.037821
v 0.058325 -0.004181 -0.037821
v 0.058325 -0.001819 -0.037821
v 0.058325 0.001819 -0.037821
v 0.058325 0.004181 -0.037821
v 0.058325 0.007819 -0.037821
v 0.058328 -0.015000 -0.048004
v 0.058328 -0.015000 -0.046658
v 0.058328 -0.014498 -0.048004
v 0.058328 -0.014498 -0.046658
v 0.058328 0.014498 -0.048004
v 0.058328 0.014498 -0.046657
v 0.058328 0.015000 -0.048004
v 0.058328 0.015000 -0.046657
v 0.058413 -0.008511 -0.037200
v 0.058413 -0.003489 -0.037200
v 0.058413 -0.002511 -0.037200
v 0.058413 0.002511 -0.037200
v 0.058413 0.003489 -0.037200
v 0.058413 0.008511 -0.037200
v 0.058415 -0.015000 -0.047331
v 0.058415 -0.014498 -0.047331
v 0.058415 0.014498 -0.047331
v 0.058415 0.015000 -0.047331
v 0.058502 -0.008252 -0.037998
v 0.058502 -0.003748 -0.037998
v 0.058502 -0.002252 -0.037998
v 0.058502 0.002252 -0.037998
v 0.058502 0.003748 -0.037998
v 0.058502 0.008252 -0.037998
v 0.058632 -0.007485 -0.038129
v 0.058632 -0.004515 -0.038129
v 0.058632 -0.001485 -0.038129
v 0.058632 0.001485 -0.038129
v 0.058632 0.004515 -0.038129
v 0.058632 0.007485 -0.038129
v 0.058856 -0.008252 -0.037643
v 0.058856 -0.003748 -0.037643
v 0.058856 -0.002252 -0.037643
v 0.058856 0.002252 -0.037643
v 0.058856 0.003748 -0.037643
v 0.058856 0.008252 -0.037643
v 0.058869 -0.007050 -0.038365
v 0.058869 -0.004950 -0.038365
v 0.058869 -0.001050 -0.038365
v 0.058869 0.001050 -0.038365
v 0.058869 0.004950 -0.038365
v 0.058869 0.007050 -0.038365
v 0.058882 -0.007838 -0.038379
v 0.058882 -0.004162 -0.038379
v 0.058882 -0.001838 -0.038379
v 0.058882 0.001838 -0.038379
v 0.058882 0.004162 -0.038379
v 0.058882 0.007838 -0.038379
v 0.059016 -0.006544 -0.038513
v 0.059016 -0.005456 -0.038513
v 0.059016 -0.000544 -0.038513
v 0.059016 0.000544 -0.038513
v 0.059016 0.005456 -0.038513
v 0.059016 0.006544 -0.038513
v 0.059067 -0.006000 -0.038564
v 0.059067 0.000000 -0.038564
v 0.059067 0.006000 -0.038564
v 0.059175 -0.007300 -0.038671
v 0.059175 -0.004700 -0.038671
v 0.059175 -0.001300 -0.038671
v 0.059175 0.001300 -0.038671
v 0.059175 0.004700 -0.038671
v 0.059175 0.007300 -0.038671
v 0.059237 -0.007838 -0.038024
v 0.059237 -0.004162 -0.038024
v 0.059237 -0.001838 -0.038024
v 0.059237 0.001838 -0.038024
v 0.059237 0.004162 -0.038024
v 0.059237 0.007838 -0.038024
v 0.059358 -0.006673 -0.038855
v 0.059358 -0.005327 -0.038855
v 0.059358 -0.000673 -0.038855
v 0.059358 0.000673 -0.038855
v 0.059358 0.005327 -0.038855
v 0.059358 0.006673 -0.038855
v 0.059421 -0.006000 -0.038917
v 0.059421 0.000000 -0.038917
v 0.059421 0.006000 -0.038917
v 0.059530 -0.007300 -0.038316
v 0.059530 -0.004700 -0.038316
v 0.059530 -0.001300 -0.038316
v 0.059530 0.001300 -0.038316
v 0.059530 0.004700 -0.038316
v 0.059530 0.007300 -0.038316
v 0.059713 -0.006673 -0.038500
v 0.059713 -0.005327 -0.038500
v 0.059713 -0.000673 -0.038500
v 0.059713 0.000673 -0.038500
v 0.059713 0.005327 -0.038500
v 0.059713 0.006673 -0.038500
v 0.059776 -0.006000 -0.038563
v 0.059776 0.000000 -0.038563
v 0.059776 0.006000 -0.038563
v 0.060766 -0.012000 -0.043795
v 0.060766 0.012000 -0.043795
v 0.062406 -0.015000 -0.048519
v 0.062406 -0.012000 -0.048519
v 0.062406 0.012000 -0.048519
v 0.062406 0.015000 -0.048519
v 0.062887 -0.012000 -0.041674
v 0.062887 0.012000 -0.041674
v 0.062911 -0.015000 -0.041698
v 0.062911 -0.012000 -0.041698
v 0.062911 0.012000 -0.041698
v 0.062911 0.015000 -0.041698

f 3 2 1 
f 2 5 1 
f 5 3 1 
f 3 4 2 
f 4 6 2 
f 2 6 5 
f 44 4 3 
f 5 44 3 
f 4 45 6 
f 44 45 4 
f 6 7 5 
f 7 8 5 
f 8 9 5 
f 9 10 5 
f 10 13 5 
f 13 14 5 
f 5 14 15 
f 5 15 16 
f 5 16 21 
f 21 22 5 
f 22 23 5 
f 23 27 5 
f 27 44 5 
f 6 11 7 
f 6 12 11 
f 17 12 6 
f 6 18 17 
f 6 19 18 
f 6 20 19 
f 6 24 20 
f 6 25 24 
f 6 45 25 
f 46 8 7 
f 49 7 11 
f 46 7 47 
f 49 47 7 
f 9 8 46 
f 9 129 10 
f 128 9 46 
f 128 129 9 
f 129 13 10 
f 51 11 12 
f 51 49 11 
f 51 12 17 
f 242 14 13 
f 242 13 129 
f 377 15 14 
f 377 14 242 
f 15 378 16 
f 377 378 15 
f 378 21 16 
f 51 17 18 
f 18 19 52 
f 51 18 52 
f 19 20 56 
f 52 19 56 
f 56 20 24 
f 448 22 21 
f 448 21 378 
f 22 449 23 
f 448 449 22 
f 449 27 23 
f 24 25 64 
f 56 24 64 
f 25 45 26 
f 25 26 71 
f 64 25 71 
f 26 45 30 
f 71 26 30 
f 28 29 27 
f 629 28 27 
f 29 44 27 
f 629 27 449 
f 28 630 29 
f 629 630 28 
f 29 34 44 
f 630 34 29 
f 30 45 31 
f 30 31 73 
f 71 30 73 
f 31 45 32 
f 73 31 32 
f 32 45 33 
f 563 32 33 
f 73 32 562 
f 563 562 32 
f 38 33 45 
f 563 33 38 
f 35 36 34 
f 681 35 34 
f 36 44 34 
f 681 34 630 
f 35 682 36 
f 681 682 35 
f 37 44 36 
f 682 37 36 
f 37 43 44 
f 682 43 37 
f 38 45 39 
f 38 39 620 
f 563 38 620 
f 39 45 40 
f 39 40 679 
f 620 39 679 
f 40 45 41 
f 680 40 41 
f 680 679 40 
f 42 41 45 
f 680 41 42 
f 42 45 43 
f 42 43 682 
f 680 42 682 
f 43 45 44 
f 47 49 46 
f 46 54 48 
f 127 46 48 
f 46 49 54 
f 127 128 46 
f 48 54 50 
f 87 48 50 
f 127 48 87 
f 49 51 56 
f 54 49 56 
f 77 50 54 
f 69 50 77 
f 88 50 69 
f 88 87 50 
f 51 52 56 
f 57 55 53 
f 53 55 59 
f 63 57 53 
f 58 53 59 
f 53 58 75 
f 63 53 75 
f 54 56 64 
f 75 54 63 
f 76 63 54 
f 54 64 71 
f 54 71 73 
f 76 54 73 
f 54 75 77 
f 59 55 57 
f 60 59 57 
f 60 57 74 
f 63 74 57 
f 61 58 59 
f 62 58 61 
f 62 75 58 
f 75 59 60 
f 75 61 59 
f 74 75 60 
f 62 61 75 
f 74 63 76 
f 77 66 65 
f 223 65 66 
f 77 65 67 
f 67 65 222 
f 223 222 65 
f 77 68 66 
f 66 68 419 
f 223 66 418 
f 418 66 419 
f 77 67 69 
f 90 69 67 
f 221 90 67 
f 221 67 222 
f 77 70 68 
f 420 68 70 
f 420 419 68 
f 89 88 69 
f 90 89 69 
f 72 70 76 
f 421 70 72 
f 77 76 70 
f 421 420 70 
f 73 72 76 
f 561 72 73 
f 421 72 560 
f 561 560 72 
f 561 73 562 
f 74 76 75 
f 76 77 75 
f 83 79 78 
f 94 78 79 
f 83 78 82 
f 82 78 422 
f 94 100 78 
f 100 115 78 
f 115 151 78 
f 151 412 78 
f 412 415 78 
f 415 414 78 
f 78 414 422 
f 84 79 83 
f 85 79 84 
f 367 79 85 
f 92 91 79 
f 91 94 79 
f 93 92 79 
f 99 93 79 
f 105 99 79 
f 120 105 79 
f 156 120 79 
f 413 156 79 
f 367 425 79 
f 416 413 79 
f 417 416 79 
f 417 79 425 
f 81 83 80 
f 87 81 80 
f 83 82 80 
f 80 82 86 
f 360 80 86 
f 80 127 87 
f 128 127 80 
f 129 128 80 
f 242 129 80 
f 242 80 377 
f 423 80 360 
f 377 80 378 
f 378 80 448 
f 572 80 423 
f 448 80 449 
f 449 80 684 
f 686 80 572 
f 80 686 684 
f 81 84 83 
f 81 85 84 
f 685 85 81 
f 88 81 87 
f 89 81 88 
f 90 81 89 
f 221 81 90 
f 222 81 221 
f 223 81 222 
f 418 81 223 
f 419 81 418 
f 685 81 419 
f 82 422 86 
f 85 685 367 
f 86 422 360 
f 96 91 92 
f 106 94 91 
f 96 95 91 
f 95 106 91 
f 93 97 92 
f 107 96 92 
f 97 107 92 
f 98 97 93 
f 108 98 93 
f 99 108 93 
f 109 100 94 
f 109 94 106 
f 101 95 96 
f 101 110 95 
f 95 110 106 
f 102 101 96 
f 111 102 96 
f 111 96 107 
f 98 104 97 
f 104 103 97 
f 103 112 97 
f 97 112 107 
f 113 104 98 
f 113 98 108 
f 105 114 99 
f 99 114 108 
f 121 100 109 
f 121 115 100 
f 116 101 102 
f 101 122 110 
f 116 122 101 
f 123 102 111 
f 117 116 102 
f 123 117 102 
f 104 119 103 
f 103 124 112 
f 119 118 103 
f 118 124 103 
f 125 104 113 
f 125 119 104 
f 105 126 114 
f 120 126 105 
f 130 109 106 
f 110 130 106 
f 131 111 107 
f 112 131 107 
f 132 113 108 
f 114 132 108 
f 133 121 109 
f 130 133 109 
f 122 134 110 
f 134 130 110 
f 135 123 111 
f 131 135 111 
f 124 136 112 
f 136 131 112 
f 137 125 113 
f 132 137 113 
f 126 138 114 
f 138 132 114 
f 139 115 121 
f 139 151 115 
f 153 116 117 
f 116 140 122 
f 152 140 116 
f 153 152 116 
f 141 117 123 
f 141 153 117 
f 119 154 118 
f 118 142 124 
f 154 142 118 
f 143 119 125 
f 143 155 119 
f 155 154 119 
f 120 144 126 
f 156 144 120 
f 133 145 121 
f 145 139 121 
f 146 134 122 
f 140 146 122 
f 135 147 123 
f 147 141 123 
f 148 136 124 
f 142 148 124 
f 137 149 125 
f 149 143 125 
f 150 138 126 
f 144 150 126 
f 243 133 130 
f 134 243 130 
f 248 135 131 
f 136 244 131 
f 244 248 131 
f 245 137 132 
f 138 245 132 
f 246 145 133 
f 246 133 243 
f 146 247 134 
f 134 247 243 
f 248 147 135 
f 148 249 136 
f 136 249 244 
f 250 149 137 
f 250 137 245 
f 150 251 138 
f 138 251 245 
f 145 157 139 
f 163 151 139 
f 157 163 139 
f 158 146 140 
f 152 164 140 
f 176 158 140 
f 164 176 140 
f 147 159 141 
f 165 153 141 
f 159 177 141 
f 177 165 141 
f 160 148 142 
f 154 166 142 
f 166 160 142 
f 149 161 143 
f 167 155 143 
f 161 179 143 
f 179 167 143 
f 162 150 144 
f 156 168 144 
f 168 162 144 
f 264 157 145 
f 264 145 246 
f 158 265 146 
f 146 265 247 
f 266 159 147 
f 266 147 248 
f 160 267 148 
f 148 267 249 
f 268 161 149 
f 268 149 250 
f 162 269 150 
f 150 269 251 
f 163 169 151 
f 169 412 151 
f 171 152 153 
f 170 164 152 
f 171 170 152 
f 165 171 153 
f 155 173 154 
f 172 166 154 
f 173 172 154 
f 167 173 155 
f 174 168 156 
f 413 174 156 
f 175 163 157 
f 276 175 157 
f 276 157 264 
f 176 277 158 
f 158 277 265 
f 278 177 159 
f 278 159 266 
f 166 178 160 
f 178 279 160 
f 160 279 267 
f 280 179 161 
f 280 161 268 
f 168 180 162 
f 180 281 162 
f 162 281 269 
f 181 169 163 
f 175 181 163 
f 170 182 164 
f 210 176 164 
f 182 210 164 
f 183 171 165 
f 177 211 165 
f 211 183 165 
f 172 184 166 
f 184 178 166 
f 185 173 167 
f 179 213 167 
f 213 185 167 
f 174 186 168 
f 186 180 168 
f 181 215 169 
f 215 412 169 
f 217 170 171 
f 216 182 170 
f 217 216 170 
f 183 217 171 
f 173 219 172 
f 218 184 172 
f 219 218 172 
f 185 219 173 
f 220 186 174 
f 413 220 174 
f 209 181 175 
f 300 209 175 
f 300 175 276 
f 210 301 176 
f 176 301 277 
f 302 211 177 
f 302 177 278 
f 184 212 178 
f 212 303 178 
f 178 303 279 
f 304 213 179 
f 304 179 280 
f 186 214 180 
f 214 305 180 
f 180 305 281 
f 209 224 181 
f 224 215 181 
f 226 210 182 
f 216 227 182 
f 227 226 182 
f 211 229 183 
f 228 217 183 
f 229 228 183 
f 231 212 184 
f 218 231 184 
f 213 233 185 
f 232 219 185 
f 233 232 185 
f 235 214 186 
f 220 235 186 
f 187 385 188 
f 188 426 187 
f 187 436 385 
f 426 436 187 
f 188 379 189 
f 189 426 188 
f 188 385 379 
f 189 361 190 
f 190 426 189 
f 189 379 361 
f 190 330 191 
f 191 426 190 
f 190 361 330 
f 191 300 192 
f 192 426 191 
f 191 330 300 
f 192 276 193 
f 193 426 192 
f 192 300 276 
f 193 264 194 
f 194 426 193 
f 193 276 264 
f 194 246 195 
f 195 426 194 
f 194 264 246 
f 195 243 196 
f 196 426 195 
f 195 246 243 
f 196 244 197 
f 197 426 196 
f 196 243 244 
f 197 245 198 
f 198 426 197 
f 197 244 245 
f 198 251 199 
f 199 426 198 
f 198 245 251 
f 199 251 200 
f 199 200 427 
f 199 428 426 
f 199 427 429 
f 199 430 428 
f 199 429 431 
f 199 432 430 
f 199 431 433 
f 199 434 432 
f 199 433 435 
f 199 438 434 
f 199 435 439 
f 199 440 438 
f 199 439 441 
f 199 442 440 
f 199 441 443 
f 199 444 442 
f 199 443 445 
f 199 446 444 
f 199 445 447 
f 199 472 446 
f 199 447 473 
f 199 510 472 
f 199 473 511 
f 199 512 510 
f 199 511 513 
f 199 522 512 
f 199 513 523 
f 199 524 522 
f 199 523 525 
f 199 534 524 
f 199 525 535 
f 199 536 534 
f 199 535 537 
f 199 538 536 
f 199 537 539 
f 199 540 538 
f 199 539 541 
f 199 542 540 
f 199 541 543 
f 199 564 542 
f 199 543 565 
f 199 710 564 
f 199 565 731 
f 199 711 710 
f 199 712 711 
f 199 713 712 
f 199 714 713 
f 199 715 714 
f 199 716 715 
f 199 717 716 
f 199 718 717 
f 199 719 718 
f 199 720 719 
f 199 721 720 
f 199 722 721 
f 199 723 722 
f 199 724 723 
f 199 725 724 
f 199 726 725 
f 199 727 726 
f 199 728 727 
f 199 729 728 
f 199 730 729 
f 199 731 730 
f 200 269 201 
f 200 201 427 
f 200 251 269 
f 201 281 202 
f 201 202 427 
f 201 269 281 
f 202 305 203 
f 202 203 427 
f 202 281 305 
f 203 335 204 
f 203 204 427 
f 203 305 335 
f 204 366 205 
f 204 205 427 
f 204 335 366 
f 205 384 206 
f 205 206 427 
f 205 366 384 
f 206 390 207 
f 206 207 427 
f 206 384 390 
f 207 208 427 
f 207 437 208 
f 207 390 437 
f 208 437 427 
f 225 224 209 
f 330 225 209 
f 330 209 300 
f 226 331 210 
f 210 331 301 
f 332 229 211 
f 332 211 302 
f 231 230 212 
f 230 333 212 
f 212 333 303 
f 334 233 213 
f 334 213 304 
f 235 234 214 
f 234 335 214 
f 214 335 305 
f 224 236 215 
f 236 412 215 
f 238 216 217 
f 237 227 216 
f 238 237 216 
f 228 238 217 
f 219 240 218 
f 239 231 218 
f 240 239 218 
f 232 240 219 
f 241 235 220 
f 413 241 220 
f 258 224 225 
f 258 236 224 
f 252 258 225 
f 361 252 225 
f 361 225 330 
f 253 226 227 
f 253 362 226 
f 226 362 331 
f 237 259 227 
f 259 253 227 
f 254 228 229 
f 260 238 228 
f 254 260 228 
f 363 254 229 
f 363 229 332 
f 231 261 230 
f 261 255 230 
f 255 364 230 
f 230 364 333 
f 239 261 231 
f 233 256 232 
f 262 240 232 
f 256 262 232 
f 365 256 233 
f 365 233 334 
f 235 263 234 
f 263 257 234 
f 257 366 234 
f 234 366 335 
f 241 263 235 
f 258 270 236 
f 270 412 236 
f 272 237 238 
f 271 259 237 
f 272 271 237 
f 260 272 238 
f 240 274 239 
f 273 261 239 
f 274 273 239 
f 262 274 240 
f 275 263 241 
f 413 275 241 
f 243 248 244 
f 247 248 243 
f 249 245 244 
f 249 250 245 
f 247 265 248 
f 265 266 248 
f 268 250 249 
f 267 268 249 
f 288 258 252 
f 282 288 252 
f 379 282 252 
f 379 252 361 
f 259 283 253 
f 283 380 253 
f 253 380 362 
f 284 260 254 
f 381 284 254 
f 381 254 363 
f 261 291 255 
f 291 285 255 
f 285 382 255 
f 255 382 364 
f 286 262 256 
f 383 286 256 
f 383 256 365 
f 263 293 257 
f 293 287 257 
f 287 384 257 
f 257 384 366 
f 288 270 258 
f 271 289 259 
f 289 283 259 
f 290 272 260 
f 284 290 260 
f 273 291 261 
f 292 274 262 
f 286 292 262 
f 275 293 263 
f 265 277 266 
f 277 278 266 
f 280 268 267 
f 279 280 267 
f 288 294 270 
f 294 412 270 
f 295 271 272 
f 295 289 271 
f 290 296 272 
f 296 295 272 
f 274 298 273 
f 297 291 273 
f 298 297 273 
f 292 298 274 
f 299 293 275 
f 413 299 275 
f 277 302 278 
f 301 302 277 
f 303 280 279 
f 303 304 280 
f 324 288 282 
f 306 324 282 
f 385 306 282 
f 385 282 379 
f 289 307 283 
f 307 386 283 
f 283 386 380 
f 308 290 284 
f 387 308 284 
f 387 284 381 
f 291 327 285 
f 327 309 285 
f 309 388 285 
f 285 388 382 
f 310 292 286 
f 389 310 286 
f 389 286 383 
f 293 329 287 
f 329 311 287 
f 311 390 287 
f 287 390 384 
f 324 294 288 
f 295 325 289 
f 325 307 289 
f 326 296 290 
f 308 326 290 
f 297 327 291 
f 328 298 292 
f 310 328 292 
f 299 329 293 
f 324 312 294 
f 312 412 294 
f 314 295 296 
f 314 313 295 
f 313 325 295 
f 326 314 296 
f 298 315 297 
f 315 327 297 
f 316 315 298 
f 328 316 298 
f 317 329 299 
f 413 317 299 
f 301 331 302 
f 331 332 302 
f 334 304 303 
f 333 334 303 
f 318 354 306 
f 391 318 306 
f 354 324 306 
f 391 306 385 
f 325 319 307 
f 319 392 307 
f 307 392 386 
f 320 326 308 
f 393 320 308 
f 393 308 387 
f 357 321 309 
f 321 394 309 
f 327 357 309 
f 309 394 388 
f 322 328 310 
f 395 322 310 
f 395 310 389 
f 359 323 311 
f 323 396 311 
f 329 359 311 
f 311 396 390 
f 354 312 324 
f 354 336 312 
f 336 412 312 
f 338 313 314 
f 313 355 325 
f 338 337 313 
f 337 355 313 
f 356 314 326 
f 356 338 314 
f 316 339 315 
f 315 357 327 
f 339 357 315 
f 358 316 328 
f 340 339 316 
f 358 340 316 
f 317 359 329 
f 341 359 317 
f 413 341 317 
f 342 368 318 
f 397 342 318 
f 368 354 318 
f 397 318 391 
f 325 355 319 
f 355 343 319 
f 343 398 319 
f 319 398 392 
f 356 326 320 
f 344 356 320 
f 399 344 320 
f 399 320 393 
f 371 345 321 
f 345 400 321 
f 357 371 321 
f 321 400 394 
f 358 328 322 
f 346 358 322 
f 401 346 322 
f 401 322 395 
f 373 347 323 
f 347 402 323 
f 359 373 323 
f 323 402 396 
f 331 362 332 
f 362 363 332 
f 364 334 333 
f 364 365 334 
f 368 348 336 
f 348 412 336 
f 368 336 354 
f 348 337 338 
f 348 369 337 
f 337 369 355 
f 349 348 338 
f 370 349 338 
f 370 338 356 
f 340 350 339 
f 350 349 339 
f 349 375 339 
f 339 371 357 
f 375 371 339 
f 372 350 340 
f 372 340 358 
f 350 373 341 
f 412 350 341 
f 341 373 359 
f 413 412 341 
f 351 374 342 
f 403 351 342 
f 374 368 342 
f 403 342 397 
f 369 351 343 
f 351 404 343 
f 355 369 343 
f 343 404 398 
f 352 370 344 
f 410 352 344 
f 370 356 344 
f 405 344 399 
f 405 410 344 
f 375 352 345 
f 352 406 345 
f 371 375 345 
f 345 406 400 
f 353 372 346 
f 407 353 346 
f 372 358 346 
f 407 346 401 
f 376 353 347 
f 353 408 347 
f 373 376 347 
f 347 408 402 
f 412 348 349 
f 374 348 368 
f 348 374 369 
f 350 412 349 
f 375 349 370 
f 376 350 372 
f 350 376 373 
f 369 374 351 
f 409 351 403 
f 351 409 404 
f 375 370 352 
f 352 410 406 
f 376 372 353 
f 411 353 407 
f 353 411 408 
f 360 422 423 
f 362 380 363 
f 380 381 363 
f 382 365 364 
f 382 383 365 
f 424 425 367 
f 424 367 685 
f 380 387 381 
f 386 387 380 
f 388 383 382 
f 388 389 383 
f 436 391 385 
f 386 392 387 
f 392 393 387 
f 395 389 388 
f 394 395 388 
f 396 437 390 
f 436 397 391 
f 392 399 393 
f 398 399 392 
f 400 395 394 
f 400 401 395 
f 402 437 396 
f 436 403 397 
f 398 405 399 
f 404 405 398 
f 406 401 400 
f 406 407 401 
f 408 437 402 
f 436 409 403 
f 404 409 405 
f 409 410 405 
f 411 407 406 
f 410 411 406 
f 411 436 408 
f 436 437 408 
f 409 436 410 
f 436 411 410 
f 437 412 413 
f 602 415 412 
f 437 436 412 
f 436 586 412 
f 586 602 412 
f 416 604 413 
f 588 437 413 
f 604 588 413 
f 609 414 415 
f 414 450 422 
f 414 456 450 
f 414 464 456 
f 414 486 464 
f 414 514 486 
f 414 544 514 
f 566 544 414 
f 592 566 414 
f 608 592 414 
f 609 608 414 
f 602 836 415 
f 836 609 415 
f 417 610 416 
f 837 604 416 
f 610 837 416 
f 453 417 425 
f 462 417 453 
f 470 417 462 
f 492 417 470 
f 520 417 492 
f 550 417 520 
f 550 582 417 
f 582 598 417 
f 598 611 417 
f 611 610 417 
f 685 419 420 
f 420 421 685 
f 421 560 685 
f 423 422 572 
f 450 454 422 
f 454 457 422 
f 457 465 422 
f 465 487 422 
f 487 515 422 
f 515 545 422 
f 545 567 422 
f 567 593 422 
f 572 422 732 
f 593 835 422 
f 694 690 422 
f 690 695 422 
f 835 694 422 
f 695 703 422 
f 703 747 422 
f 1208 732 422 
f 747 780 422 
f 780 814 422 
f 814 848 422 
f 848 851 422 
f 851 1208 422 
f 577 425 424 
f 424 685 577 
f 455 453 425 
f 463 455 425 
f 471 463 425 
f 493 471 425 
f 521 493 425 
f 551 521 425 
f 583 551 425 
f 683 425 577 
f 599 583 425 
f 838 599 425 
f 689 425 683 
f 689 733 425 
f 693 700 425 
f 701 693 425 
f 700 838 425 
f 709 701 425 
f 753 709 425 
f 733 1211 425 
f 786 753 425 
f 820 786 425 
f 849 820 425 
f 871 849 425 
f 1211 871 425 
f 428 436 426 
f 427 482 429 
f 427 437 482 
f 430 480 428 
f 428 480 436 
f 429 476 431 
f 429 482 476 
f 432 475 430 
f 430 475 480 
f 431 483 433 
f 431 476 483 
f 434 481 432 
f 432 481 475 
f 433 499 435 
f 433 483 499 
f 438 497 434 
f 434 497 481 
f 435 507 439 
f 435 499 507 
f 496 436 480 
f 504 436 496 
f 528 436 504 
f 554 436 528 
f 554 573 436 
f 573 586 436 
f 437 498 482 
f 437 506 498 
f 437 530 506 
f 437 556 530 
f 575 556 437 
f 588 575 437 
f 440 505 438 
f 438 505 497 
f 439 531 441 
f 439 507 531 
f 442 529 440 
f 440 529 505 
f 441 557 443 
f 441 531 557 
f 444 555 442 
f 442 555 529 
f 443 576 445 
f 443 557 576 
f 446 574 444 
f 444 574 555 
f 445 589 447 
f 445 576 589 
f 472 587 446 
f 446 587 574 
f 447 837 473 
f 447 589 837 
f 629 449 684 
f 450 456 451 
f 450 451 459 
f 454 450 459 
f 456 458 451 
f 458 474 451 
f 451 479 459 
f 474 479 451 
f 452 453 461 
f 462 453 452 
f 460 462 452 
f 477 460 452 
f 485 452 461 
f 485 477 452 
f 453 455 461 
f 457 454 459 
f 455 463 461 
f 456 464 458 
f 457 459 467 
f 465 457 467 
f 464 466 458 
f 466 478 458 
f 458 478 474 
f 459 495 467 
f 479 495 459 
f 470 462 460 
f 468 470 460 
f 484 468 460 
f 484 460 477 
f 461 463 469 
f 501 461 469 
f 501 485 461 
f 463 471 469 
f 464 486 466 
f 465 467 489 
f 487 465 489 
f 466 494 478 
f 486 488 466 
f 488 494 466 
f 467 503 489 
f 495 503 467 
f 492 470 468 
f 500 468 484 
f 490 492 468 
f 500 490 468 
f 469 471 491 
f 509 469 491 
f 509 501 469 
f 471 493 491 
f 510 836 472 
f 472 836 587 
f 473 742 511 
f 473 837 742 
f 474 478 475 
f 474 475 481 
f 479 474 481 
f 478 480 475 
f 476 477 483 
f 484 477 476 
f 482 484 476 
f 477 485 483 
f 478 494 480 
f 479 481 497 
f 495 479 497 
f 494 496 480 
f 500 484 482 
f 498 500 482 
f 483 485 499 
f 485 501 499 
f 486 514 488 
f 515 487 489 
f 488 502 494 
f 516 502 488 
f 514 516 488 
f 503 517 489 
f 517 515 489 
f 520 492 490 
f 508 490 500 
f 508 518 490 
f 518 520 490 
f 493 521 491 
f 519 509 491 
f 521 519 491 
f 494 502 496 
f 495 497 505 
f 503 495 505 
f 502 504 496 
f 508 500 498 
f 506 508 498 
f 499 501 507 
f 501 509 507 
f 502 526 504 
f 516 526 502 
f 527 503 505 
f 503 527 517 
f 526 528 504 
f 529 527 505 
f 532 508 506 
f 530 532 506 
f 509 533 507 
f 533 531 507 
f 532 518 508 
f 533 509 519 
f 512 740 510 
f 510 740 836 
f 511 736 513 
f 511 742 736 
f 522 735 512 
f 512 735 740 
f 513 743 523 
f 513 736 743 
f 514 544 516 
f 545 515 517 
f 516 546 526 
f 544 546 516 
f 527 547 517 
f 547 545 517 
f 550 520 518 
f 548 518 532 
f 548 550 518 
f 521 551 519 
f 549 533 519 
f 551 549 519 
f 524 741 522 
f 522 741 735 
f 523 759 525 
f 523 743 759 
f 534 757 524 
f 524 757 741 
f 525 770 535 
f 525 759 770 
f 526 552 528 
f 546 552 526 
f 553 527 529 
f 527 553 547 
f 552 554 528 
f 555 553 529 
f 558 532 530 
f 556 558 530 
f 533 559 531 
f 559 557 531 
f 558 548 532 
f 559 533 549 
f 536 765 534 
f 534 765 757 
f 535 804 537 
f 535 770 804 
f 538 802 536 
f 536 802 765 
f 537 826 539 
f 537 804 826 
f 540 824 538 
f 538 824 802 
f 539 865 541 
f 539 826 865 
f 542 857 540 
f 540 857 824 
f 541 925 543 
f 541 865 925 
f 564 923 542 
f 542 923 857 
f 543 1201 565 
f 543 925 1201 
f 544 566 546 
f 567 545 547 
f 546 568 552 
f 566 568 546 
f 553 571 547 
f 571 567 547 
f 582 550 548 
f 578 548 558 
f 578 582 548 
f 551 583 549 
f 581 559 549 
f 583 581 549 
f 552 569 554 
f 568 569 552 
f 570 553 555 
f 553 570 571 
f 569 573 554 
f 574 570 555 
f 579 558 556 
f 575 579 556 
f 559 580 557 
f 580 576 557 
f 579 578 558 
f 580 559 581 
f 560 561 685 
f 685 561 562 
f 685 562 563 
f 685 563 620 
f 710 1200 564 
f 564 1200 923 
f 565 1201 731 
f 566 592 568 
f 593 567 571 
f 568 594 569 
f 592 594 568 
f 569 584 573 
f 594 584 569 
f 570 585 571 
f 585 570 574 
f 585 595 571 
f 595 593 571 
f 572 732 686 
f 584 586 573 
f 587 585 574 
f 590 579 575 
f 588 590 575 
f 580 591 576 
f 591 589 576 
f 577 685 683 
f 596 578 579 
f 598 582 578 
f 596 598 578 
f 590 596 579 
f 591 580 581 
f 583 599 581 
f 597 591 581 
f 599 597 581 
f 584 600 586 
f 594 614 584 
f 614 600 584 
f 601 585 587 
f 585 601 595 
f 600 602 586 
f 603 601 587 
f 836 603 587 
f 606 590 588 
f 604 606 588 
f 591 607 589 
f 607 605 589 
f 605 837 589 
f 616 596 590 
f 606 616 590 
f 607 591 597 
f 592 612 594 
f 608 835 592 
f 835 612 592 
f 613 593 595 
f 613 835 593 
f 612 614 594 
f 601 615 595 
f 615 613 595 
f 618 598 596 
f 616 618 596 
f 599 619 597 
f 617 607 597 
f 619 617 597 
f 838 611 598 
f 618 838 598 
f 838 619 599 
f 600 621 602 
f 614 641 600 
f 641 621 600 
f 622 601 603 
f 601 622 615 
f 621 623 602 
f 623 836 602 
f 624 622 603 
f 836 624 603 
f 627 606 604 
f 625 627 604 
f 837 625 604 
f 607 628 605 
f 628 626 605 
f 626 837 605 
f 643 616 606 
f 627 643 606 
f 628 607 617 
f 835 608 609 
f 836 835 609 
f 611 838 610 
f 838 837 610 
f 612 639 614 
f 835 639 612 
f 640 613 615 
f 640 835 613 
f 639 641 614 
f 622 642 615 
f 642 640 615 
f 645 618 616 
f 643 645 616 
f 619 646 617 
f 644 628 617 
f 646 644 617 
f 645 838 618 
f 838 646 619 
f 685 620 679 
f 623 621 633 
f 621 631 633 
f 621 661 631 
f 641 661 621 
f 632 622 624 
f 632 642 622 
f 836 623 633 
f 634 632 624 
f 836 634 624 
f 627 625 635 
f 625 837 635 
f 628 638 626 
f 638 636 626 
f 636 837 626 
f 637 627 635 
f 663 627 637 
f 663 643 627 
f 644 638 628 
f 630 629 684 
f 681 630 684 
f 633 631 649 
f 631 647 649 
f 631 669 647 
f 661 669 631 
f 648 632 634 
f 632 662 642 
f 648 662 632 
f 836 633 649 
f 650 648 634 
f 836 650 634 
f 637 635 651 
f 635 837 651 
f 638 654 636 
f 654 652 636 
f 652 837 636 
f 653 637 651 
f 671 637 653 
f 671 663 637 
f 664 638 644 
f 664 654 638 
f 641 639 661 
f 639 659 661 
f 639 835 659 
f 660 640 642 
f 660 835 640 
f 662 660 642 
f 645 643 663 
f 646 666 644 
f 666 664 644 
f 665 645 663 
f 838 645 665 
f 838 666 646 
f 649 647 656 
f 647 655 656 
f 647 676 655 
f 669 676 647 
f 655 648 650 
f 655 670 648 
f 648 670 662 
f 836 649 656 
f 656 655 650 
f 836 656 650 
f 653 651 657 
f 651 837 657 
f 654 658 652 
f 658 657 652 
f 657 837 652 
f 658 653 657 
f 677 653 658 
f 677 671 653 
f 672 658 654 
f 672 654 664 
f 655 676 670 
f 677 658 672 
f 661 659 669 
f 659 667 669 
f 659 835 667 
f 668 660 662 
f 668 835 660 
f 670 668 662 
f 665 663 671 
f 666 674 664 
f 674 672 664 
f 673 665 671 
f 838 665 673 
f 838 674 666 
f 669 667 676 
f 667 675 676 
f 667 835 675 
f 675 668 670 
f 675 835 668 
f 676 675 670 
f 673 671 677 
f 674 678 672 
f 678 677 672 
f 678 673 677 
f 838 673 678 
f 838 678 674 
f 685 679 680 
f 685 680 682 
f 682 681 684 
f 685 682 684 
f 685 689 683 
f 688 685 684 
f 687 684 686 
f 687 688 684 
f 689 685 688 
f 732 687 686 
f 732 688 687 
f 688 733 689 
f 688 732 733 
f 690 694 691 
f 690 691 697 
f 695 690 697 
f 694 696 691 
f 696 738 691 
f 691 739 697 
f 738 734 691 
f 734 739 691 
f 692 693 699 
f 700 693 692 
f 698 700 692 
f 744 698 692 
f 745 692 699 
f 737 744 692 
f 745 737 692 
f 693 701 699 
f 694 702 696 
f 835 702 694 
f 695 697 705 
f 703 695 705 
f 702 704 696 
f 704 754 696 
f 754 738 696 
f 697 755 705 
f 739 755 697 
f 708 700 698 
f 706 708 698 
f 760 706 698 
f 744 760 698 
f 699 701 707 
f 761 699 707 
f 761 745 699 
f 708 838 700 
f 701 709 707 
f 702 746 704 
f 835 746 702 
f 703 705 749 
f 747 703 749 
f 746 748 704 
f 748 762 704 
f 762 754 704 
f 705 763 749 
f 755 763 705 
f 752 708 706 
f 750 752 706 
f 771 750 706 
f 760 771 706 
f 707 709 751 
f 772 707 751 
f 772 761 707 
f 752 838 708 
f 709 753 751 
f 711 1200 710 
f 712 942 711 
f 711 942 1200 
f 713 896 712 
f 712 896 942 
f 714 858 713 
f 713 858 896 
f 715 829 714 
f 714 829 858 
f 716 807 715 
f 715 807 829 
f 717 793 716 
f 716 793 807 
f 718 787 717 
f 717 787 793 
f 719 773 718 
f 718 773 787 
f 720 773 719 
f 721 766 720 
f 720 766 773 
f 722 767 721 
f 721 767 766 
f 723 768 722 
f 722 768 767 
f 724 778 723 
f 723 778 768 
f 725 792 724 
f 724 792 778 
f 726 798 725 
f 725 798 792 
f 727 812 726 
f 726 812 798 
f 728 834 727 
f 727 834 812 
f 729 863 728 
f 728 863 834 
f 730 901 729 
f 729 901 863 
f 731 947 730 
f 730 947 901 
f 731 1201 947 
f 895 733 732 
f 881 882 732 
f 890 881 732 
f 882 883 732 
f 883 895 732 
f 914 890 732 
f 948 914 732 
f 980 948 732 
f 1206 980 732 
f 1209 1206 732 
f 1208 1209 732 
f 895 919 733 
f 919 953 733 
f 953 985 733 
f 985 1207 733 
f 1207 1210 733 
f 1210 1211 733 
f 734 738 735 
f 734 735 741 
f 739 734 741 
f 738 740 735 
f 736 737 743 
f 744 737 736 
f 742 744 736 
f 737 745 743 
f 738 754 740 
f 739 741 757 
f 755 739 757 
f 754 756 740 
f 756 836 740 
f 760 744 742 
f 758 760 742 
f 837 758 742 
f 743 745 759 
f 745 761 759 
f 746 779 748 
f 835 779 746 
f 780 747 749 
f 799 762 748 
f 779 781 748 
f 781 799 748 
f 763 782 749 
f 782 780 749 
f 785 752 750 
f 771 805 750 
f 783 785 750 
f 805 783 750 
f 753 786 751 
f 784 772 751 
f 786 784 751 
f 785 838 752 
f 754 762 756 
f 755 757 765 
f 763 755 765 
f 762 764 756 
f 764 836 756 
f 771 760 758 
f 769 771 758 
f 837 769 758 
f 759 761 770 
f 761 772 770 
f 762 799 764 
f 800 763 765 
f 763 800 782 
f 799 801 764 
f 801 836 764 
f 802 800 765 
f 775 766 767 
f 884 773 766 
f 775 774 766 
f 774 885 766 
f 878 884 766 
f 885 878 766 
f 768 776 767 
f 879 775 767 
f 776 887 767 
f 887 879 767 
f 777 776 768 
f 888 777 768 
f 778 889 768 
f 880 888 768 
f 889 880 768 
f 805 771 769 
f 803 805 769 
f 837 803 769 
f 772 806 770 
f 806 804 770 
f 806 772 784 
f 908 787 773 
f 884 908 773 
f 788 774 775 
f 788 909 774 
f 909 885 774 
f 789 788 775 
f 910 789 775 
f 886 775 879 
f 886 910 775 
f 777 791 776 
f 791 790 776 
f 790 911 776 
f 911 887 776 
f 912 791 777 
f 888 912 777 
f 792 913 778 
f 913 889 778 
f 779 813 781 
f 835 813 779 
f 814 780 782 
f 781 821 799 
f 813 815 781 
f 815 821 781 
f 800 816 782 
f 816 814 782 
f 819 785 783 
f 827 783 805 
f 817 819 783 
f 827 817 783 
f 786 820 784 
f 818 806 784 
f 820 818 784 
f 819 838 785 
f 936 793 787 
f 908 936 787 
f 794 788 789 
f 794 937 788 
f 937 909 788 
f 795 794 789 
f 938 795 789 
f 910 938 789 
f 791 797 790 
f 797 796 790 
f 796 939 790 
f 939 911 790 
f 940 797 791 
f 912 940 791 
f 798 941 792 
f 941 913 792 
f 960 807 793 
f 936 960 793 
f 809 794 795 
f 809 808 794 
f 808 961 794 
f 961 937 794 
f 962 809 795 
f 938 962 795 
f 797 810 796 
f 810 963 796 
f 963 939 796 
f 811 810 797 
f 964 811 797 
f 940 964 797 
f 812 965 798 
f 965 941 798 
f 799 821 801 
f 822 800 802 
f 800 822 816 
f 821 823 801 
f 823 836 801 
f 824 822 802 
f 827 805 803 
f 825 827 803 
f 837 825 803 
f 806 828 804 
f 828 826 804 
f 828 806 818 
f 1006 829 807 
f 960 1006 807 
f 830 808 809 
f 830 1007 808 
f 1007 961 808 
f 831 830 809 
f 1008 831 809 
f 962 1008 809 
f 811 833 810 
f 833 832 810 
f 832 1009 810 
f 1009 963 810 
f 1010 833 811 
f 964 1010 811 
f 834 1011 812 
f 1011 965 812 
f 813 850 815 
f 835 850 813 
f 848 814 816 
f 815 853 821 
f 850 852 815 
f 852 853 815 
f 822 855 816 
f 851 848 816 
f 855 851 816 
f 870 819 817 
f 867 817 827 
f 867 866 817 
f 866 870 817 
f 820 849 818 
f 869 828 818 
f 849 871 818 
f 871 869 818 
f 870 838 819 
f 821 853 823 
f 854 822 824 
f 822 854 855 
f 856 836 823 
f 853 856 823 
f 857 854 824 
f 867 827 825 
f 837 864 825 
f 864 867 825 
f 828 868 826 
f 868 865 826 
f 868 828 869 
f 1036 858 829 
f 1006 1036 829 
f 860 830 831 
f 860 859 830 
f 859 1037 830 
f 1037 1007 830 
f 1040 860 831 
f 1008 1040 831 
f 833 862 832 
f 862 861 832 
f 861 1041 832 
f 1041 1009 832 
f 1044 862 833 
f 1010 1044 833 
f 863 1045 834 
f 1045 1011 834 
f 1203 835 836 
f 835 928 850 
f 835 998 928 
f 835 1055 998 
f 1055 835 1093 
f 1093 835 1107 
f 835 1202 1107 
f 1203 1202 835 
f 922 836 856 
f 968 836 922 
f 1020 836 968 
f 836 1020 1049 
f 836 1049 1209 
f 1203 836 1209 
f 838 1204 837 
f 837 924 864 
f 837 970 924 
f 837 1025 970 
f 1025 837 1051 
f 1051 837 1210 
f 837 1204 1210 
f 934 838 870 
f 1004 838 934 
f 1061 838 1004 
f 838 1061 1099 
f 838 1099 1113 
f 1205 838 1113 
f 1205 1204 838 
f 842 878 839 
f 890 842 839 
f 878 843 839 
f 843 891 839 
f 881 890 839 
f 891 881 839 
f 844 879 840 
f 892 844 840 
f 879 845 840 
f 845 882 840 
f 882 892 840 
f 846 880 841 
f 894 846 841 
f 880 847 841 
f 847 895 841 
f 883 894 841 
f 895 883 841 
f 872 884 842 
f 914 872 842 
f 884 878 842 
f 890 914 842 
f 885 873 843 
f 873 915 843 
f 878 885 843 
f 915 891 843 
f 874 886 844 
f 916 874 844 
f 886 879 844 
f 892 916 844 
f 887 875 845 
f 875 917 845 
f 879 887 845 
f 845 893 882 
f 917 893 845 
f 876 888 846 
f 918 876 846 
f 888 880 846 
f 894 918 846 
f 889 877 847 
f 877 919 847 
f 880 889 847 
f 919 895 847 
f 850 928 852 
f 929 851 855 
f 929 1208 851 
f 852 920 853 
f 852 930 920 
f 928 930 852 
f 853 920 856 
f 854 931 855 
f 921 854 857 
f 921 931 854 
f 931 929 855 
f 920 922 856 
f 923 921 857 
f 1081 896 858 
f 1036 1081 858 
f 898 859 860 
f 898 897 859 
f 897 1082 859 
f 1082 1037 859 
f 1083 898 860 
f 1040 1083 860 
f 862 900 861 
f 900 899 861 
f 899 1084 861 
f 1084 1041 861 
f 1085 900 862 
f 1044 1085 862 
f 901 1086 863 
f 1086 1045 863 
f 926 867 864 
f 924 926 864 
f 868 927 865 
f 927 925 865 
f 926 866 867 
f 934 870 866 
f 932 866 926 
f 932 934 866 
f 933 868 869 
f 933 927 868 
f 871 935 869 
f 935 933 869 
f 1211 935 871 
f 908 884 872 
f 902 908 872 
f 948 902 872 
f 914 948 872 
f 885 909 873 
f 909 903 873 
f 903 949 873 
f 949 915 873 
f 910 886 874 
f 904 910 874 
f 950 904 874 
f 916 950 874 
f 887 911 875 
f 911 905 875 
f 905 951 875 
f 951 917 875 
f 912 888 876 
f 906 912 876 
f 952 906 876 
f 918 952 876 
f 889 913 877 
f 913 907 877 
f 907 953 877 
f 953 919 877 
f 881 892 882 
f 891 892 881 
f 893 883 882 
f 893 894 883 
f 891 915 892 
f 915 916 892 
f 918 894 893 
f 917 918 893 
f 1101 942 896 
f 1081 1101 896 
f 944 897 898 
f 944 943 897 
f 943 1102 897 
f 1102 1082 897 
f 1103 944 898 
f 1083 1103 898 
f 900 945 899 
f 945 1104 899 
f 1104 1084 899 
f 946 945 900 
f 1105 946 900 
f 1085 1105 900 
f 947 1106 901 
f 1106 1086 901 
f 936 908 902 
f 954 936 902 
f 948 980 902 
f 980 954 902 
f 909 937 903 
f 937 961 903 
f 981 949 903 
f 961 955 903 
f 955 981 903 
f 938 910 904 
f 956 938 904 
f 950 982 904 
f 982 956 904 
f 911 939 905 
f 939 963 905 
f 983 951 905 
f 963 957 905 
f 957 983 905 
f 940 912 906 
f 964 940 906 
f 952 984 906 
f 958 964 906 
f 984 958 906 
f 913 941 907 
f 941 959 907 
f 985 953 907 
f 959 985 907 
f 915 949 916 
f 949 950 916 
f 952 918 917 
f 951 952 917 
f 920 966 922 
f 930 966 920 
f 967 921 923 
f 921 1001 931 
f 967 1001 921 
f 966 968 922 
f 969 967 923 
f 1200 969 923 
f 972 926 924 
f 970 972 924 
f 927 973 925 
f 973 971 925 
f 971 1201 925 
f 972 932 926 
f 1003 927 933 
f 1003 973 927 
f 928 998 930 
f 999 929 931 
f 999 1208 929 
f 930 1000 966 
f 998 1000 930 
f 1001 999 931 
f 1004 934 932 
f 1002 932 972 
f 1002 1004 932 
f 935 1005 933 
f 1005 1003 933 
f 1211 1005 935 
f 954 960 936 
f 956 962 938 
f 965 959 941 
f 1131 974 942 
f 974 1200 942 
f 1101 1131 942 
f 975 943 944 
f 975 1132 943 
f 1132 1102 943 
f 976 975 944 
f 1133 976 944 
f 1103 1133 944 
f 946 978 945 
f 978 977 945 
f 977 1134 945 
f 1134 1104 945 
f 1135 978 946 
f 1105 1135 946 
f 979 1136 947 
f 1201 979 947 
f 1136 1106 947 
f 949 982 950 
f 981 982 949 
f 983 952 951 
f 983 984 952 
f 992 960 954 
f 980 1029 954 
f 1029 992 954 
f 961 1007 955 
f 1030 981 955 
f 1007 993 955 
f 993 1030 955 
f 994 962 956 
f 982 1031 956 
f 1031 994 956 
f 963 1009 957 
f 1032 983 957 
f 1009 995 957 
f 995 1032 957 
f 1010 964 958 
f 984 1033 958 
f 996 1010 958 
f 1033 996 958 
f 965 997 959 
f 1034 985 959 
f 997 1034 959 
f 992 1006 960 
f 994 1008 962 
f 1011 997 965 
f 966 1018 968 
f 1000 1018 966 
f 1019 967 969 
f 967 1058 1001 
f 1019 1058 967 
f 1018 1020 968 
f 1021 1019 969 
f 1200 1021 969 
f 1027 972 970 
f 1025 1027 970 
f 973 1028 971 
f 1028 1026 971 
f 1026 1201 971 
f 1027 1002 972 
f 1060 973 1003 
f 1060 1028 973 
f 1143 986 974 
f 986 1200 974 
f 1131 1143 974 
f 988 975 976 
f 988 987 975 
f 987 1144 975 
f 1144 1132 975 
f 1145 988 976 
f 1133 1145 976 
f 978 989 977 
f 989 1146 977 
f 1146 1134 977 
f 990 989 978 
f 1147 990 978 
f 1135 1147 978 
f 991 1148 979 
f 1201 991 979 
f 1148 1136 979 
f 1206 1029 980 
f 981 1030 982 
f 1030 1031 982 
f 1032 984 983 
f 1032 1033 984 
f 1034 1207 985 
f 1155 1012 986 
f 1012 1200 986 
f 1143 1155 986 
f 1014 987 988 
f 1014 1013 987 
f 1013 1156 987 
f 1156 1144 987 
f 1157 1014 988 
f 1145 1157 988 
f 990 1015 989 
f 1015 1158 989 
f 1158 1146 989 
f 1016 1015 990 
f 1159 1016 990 
f 1147 1159 990 
f 1017 1160 991 
f 1201 1017 991 
f 1160 1148 991 
f 1035 1006 992 
f 1029 1075 992 
f 1075 1035 992 
f 1007 1037 993 
f 1076 1030 993 
f 1037 1038 993 
f 1038 1076 993 
f 1039 1008 994 
f 1031 1077 994 
f 1077 1039 994 
f 1009 1041 995 
f 1078 1032 995 
f 1041 1042 995 
f 1042 1078 995 
f 1044 1010 996 
f 1033 1079 996 
f 1043 1044 996 
f 1079 1043 996 
f 1011 1046 997 
f 1080 1034 997 
f 1046 1080 997 
f 998 1055 1000 
f 1056 999 1001 
f 1056 1208 999 
f 1000 1057 1018 
f 1055 1057 1000 
f 1058 1056 1001 
f 1061 1004 1002 
f 1059 1002 1027 
f 1059 1061 1002 
f 1005 1062 1003 
f 1062 1060 1003 
f 1211 1062 1005 
f 1035 1036 1006 
f 1039 1040 1008 
f 1045 1046 1011 
f 1161 1022 1012 
f 1022 1200 1012 
f 1155 1161 1012 
f 1022 1013 1014 
f 1022 1161 1013 
f 1161 1156 1013 
f 1023 1022 1014 
f 1162 1023 1014 
f 1157 1162 1014 
f 1016 1024 1015 
f 1024 1023 1015 
f 1023 1162 1015 
f 1162 1158 1015 
f 1163 1024 1016 
f 1159 1163 1016 
f 1024 1163 1017 
f 1200 1024 1017 
f 1163 1160 1017 
f 1201 1200 1017 
f 1020 1018 1049 
f 1018 1047 1049 
f 1018 1057 1047 
f 1048 1019 1021 
f 1048 1096 1019 
f 1096 1058 1019 
f 1050 1048 1021 
f 1200 1050 1021 
f 1200 1022 1023 
f 1024 1200 1023 
f 1027 1025 1051 
f 1028 1054 1026 
f 1054 1052 1026 
f 1052 1201 1026 
f 1053 1027 1051 
f 1059 1027 1053 
f 1098 1054 1028 
f 1060 1098 1028 
f 1206 1075 1029 
f 1030 1076 1031 
f 1076 1077 1031 
f 1078 1033 1032 
f 1078 1079 1033 
f 1080 1207 1034 
f 1035 1087 1036 
f 1075 1115 1035 
f 1115 1087 1035 
f 1087 1081 1036 
f 1037 1082 1038 
f 1116 1076 1038 
f 1082 1088 1038 
f 1088 1116 1038 
f 1039 1089 1040 
f 1077 1117 1039 
f 1117 1089 1039 
f 1089 1083 1040 
f 1084 1042 1041 
f 1118 1078 1042 
f 1084 1090 1042 
f 1090 1118 1042 
f 1085 1044 1043 
f 1079 1119 1043 
f 1091 1085 1043 
f 1119 1091 1043 
f 1092 1046 1045 
f 1086 1092 1045 
f 1120 1080 1046 
f 1092 1120 1046 
f 1049 1047 1065 
f 1057 1095 1047 
f 1047 1063 1065 
f 1047 1095 1063 
f 1064 1048 1050 
f 1064 1110 1048 
f 1110 1096 1048 
f 1049 1065 1206 
f 1209 1049 1206 
f 1066 1064 1050 
f 1200 1066 1050 
f 1053 1051 1067 
f 1067 1051 1207 
f 1051 1210 1207 
f 1054 1070 1052 
f 1070 1068 1052 
f 1068 1201 1052 
f 1097 1059 1053 
f 1069 1053 1067 
f 1097 1053 1069 
f 1112 1070 1054 
f 1098 1112 1054 
f 1057 1055 1095 
f 1055 1093 1095 
f 1094 1056 1058 
f 1094 1208 1056 
f 1096 1094 1058 
f 1061 1059 1097 
f 1062 1100 1060 
f 1100 1098 1060 
f 1099 1061 1097 
f 1211 1100 1062 
f 1065 1063 1072 
f 1063 1071 1072 
f 1063 1109 1071 
f 1095 1109 1063 
f 1071 1064 1066 
f 1071 1122 1064 
f 1122 1110 1064 
f 1065 1072 1200 
f 1206 1065 1200 
f 1072 1071 1066 
f 1072 1066 1200 
f 1069 1067 1073 
f 1073 1067 1201 
f 1067 1207 1201 
f 1070 1074 1068 
f 1074 1073 1068 
f 1068 1073 1201 
f 1074 1069 1073 
f 1111 1069 1074 
f 1111 1097 1069 
f 1123 1074 1070 
f 1112 1123 1070 
f 1109 1122 1071 
f 1123 1111 1074 
f 1206 1115 1075 
f 1076 1116 1077 
f 1116 1117 1077 
f 1118 1079 1078 
f 1118 1119 1079 
f 1120 1207 1080 
f 1087 1125 1081 
f 1125 1101 1081 
f 1102 1088 1082 
f 1089 1127 1083 
f 1127 1103 1083 
f 1104 1090 1084 
f 1091 1105 1085 
f 1130 1092 1086 
f 1106 1130 1086 
f 1115 1137 1087 
f 1137 1125 1087 
f 1102 1126 1088 
f 1138 1116 1088 
f 1126 1138 1088 
f 1117 1139 1089 
f 1139 1127 1089 
f 1104 1128 1090 
f 1140 1118 1090 
f 1128 1140 1090 
f 1129 1105 1091 
f 1119 1141 1091 
f 1141 1129 1091 
f 1142 1120 1092 
f 1130 1142 1092 
f 1095 1093 1109 
f 1093 1107 1109 
f 1108 1094 1096 
f 1108 1208 1094 
f 1110 1108 1096 
f 1099 1097 1111 
f 1100 1114 1098 
f 1114 1112 1098 
f 1113 1099 1111 
f 1211 1114 1100 
f 1125 1149 1101 
f 1149 1131 1101 
f 1132 1126 1102 
f 1127 1151 1103 
f 1151 1133 1103 
f 1134 1128 1104 
f 1129 1135 1105 
f 1154 1130 1106 
f 1136 1154 1106 
f 1109 1107 1122 
f 1107 1121 1122 
f 1121 1107 1208 
f 1107 1202 1208 
f 1121 1108 1110 
f 1108 1121 1208 
f 1122 1121 1110 
f 1113 1111 1123 
f 1114 1124 1112 
f 1124 1123 1112 
f 1124 1113 1123 
f 1113 1124 1211 
f 1205 1113 1211 
f 1124 1114 1211 
f 1206 1137 1115 
f 1116 1138 1117 
f 1138 1139 1117 
f 1140 1119 1118 
f 1140 1141 1119 
f 1142 1207 1120 
f 1137 1170 1125 
f 1170 1149 1125 
f 1132 1150 1126 
f 1171 1138 1126 
f 1150 1171 1126 
f 1139 1172 1127 
f 1172 1151 1127 
f 1134 1152 1128 
f 1173 1140 1128 
f 1152 1173 1128 
f 1153 1135 1129 
f 1141 1174 1129 
f 1174 1153 1129 
f 1175 1142 1130 
f 1154 1175 1130 
f 1164 1143 1131 
f 1149 1164 1131 
f 1144 1150 1132 
f 1166 1145 1133 
f 1151 1166 1133 
f 1146 1152 1134 
f 1153 1147 1135 
f 1148 1169 1136 
f 1169 1154 1136 
f 1206 1170 1137 
f 1138 1171 1139 
f 1171 1172 1139 
f 1174 1141 1140 
f 1173 1174 1140 
f 1175 1207 1142 
f 1176 1155 1143 
f 1164 1176 1143 
f 1165 1150 1144 
f 1156 1165 1144 
f 1178 1157 1145 
f 1166 1178 1145 
f 1167 1152 1146 
f 1158 1167 1146 
f 1153 1168 1147 
f 1168 1159 1147 
f 1160 1181 1148 
f 1181 1169 1148 
f 1185 1164 1149 
f 1170 1185 1149 
f 1165 1186 1150 
f 1186 1171 1150 
f 1187 1166 1151 
f 1172 1187 1151 
f 1167 1188 1152 
f 1188 1173 1152 
f 1189 1168 1153 
f 1174 1189 1153 
f 1169 1190 1154 
f 1190 1175 1154 
f 1182 1161 1155 
f 1176 1182 1155 
f 1161 1177 1156 
f 1177 1165 1156 
f 1183 1162 1157 
f 1178 1183 1157 
f 1162 1179 1158 
f 1179 1167 1158 
f 1180 1163 1159 
f 1168 1180 1159 
f 1163 1184 1160 
f 1184 1181 1160 
f 1182 1177 1161 
f 1183 1179 1162 
f 1180 1184 1163 
f 1191 1176 1164 
f 1185 1191 1164 
f 1177 1192 1165 
f 1192 1186 1165 
f 1193 1178 1166 
f 1187 1193 1166 
f 1179 1194 1167 
f 1194 1188 1167 
f 1195 1180 1168 
f 1189 1195 1168 
f 1181 1196 1169 
f 1196 1190 1169 
f 1206 1185 1170 
f 1171 1187 1172 
f 1186 1187 1171 
f 1188 1174 1173 
f 1188 1189 1174 
f 1190 1207 1175 
f 1197 1182 1176 
f 1191 1197 1176 
f 1182 1197 1177 
f 1197 1192 1177 
f 1198 1183 1178 
f 1193 1198 1178 
f 1183 1194 1179 
f 1199 1184 1180 
f 1195 1199 1180 
f 1184 1199 1181 
f 1199 1196 1181 
f 1183 1198 1194 
f 1206 1191 1185 
f 1186 1193 1187 
f 1192 1193 1186 
f 1194 1189 1188 
f 1194 1195 1189 
f 1196 1207 1190 
f 1206 1197 1191 
f 1192 1197 1193 
f 1197 1198 1193 
f 1199 1195 1194 
f 1198 1199 1194 
f 1199 1206 1196 
f 1206 1207 1196 
f 1197 1206 1198 
f 1206 1199 1198 
f 1207 1200 1201 
f 1207 1206 1200 
f 1202 1203 1208 
f 1208 1203 1209 
f 1204 1205 1211 
f 1204 1211 1210 


