# Blender v2.76 (sub 0) OBJ File: ''
# www.blender.org
mtllib trapezoid.mtl
o dustbin
v 0.159998 0.049999 -0.159998
v 0.164998 0.049999 -0.164998
v -0.159998 0.049999 -0.159998
v -0.164998 0.049999 -0.164998
v -0.159998 0.049999 0.159998
v -0.164998 0.049999 0.164998
v 0.159998 0.049999 0.159998
v 0.164998 0.049999 0.164998
v -0.059999 -0.049999 0.059999
v -0.064999 -0.049999 0.064999
v -0.059999 -0.049999 -0.059999
v -0.064999 -0.049999 -0.064999
v 0.059999 -0.049999 -0.059999
v 0.064999 -0.049999 -0.064999
v 0.059999 -0.049999 0.059999
v 0.064999 -0.049999 0.064999
vn 0.000000 1.000000 0.000000
vn 0.000000 -1.000000 0.000000
vn 0.000000 -0.707100 0.707100
vn -0.707100 -0.707100 0.000000
vn 0.707100 -0.707100 0.000000
vn 0.000000 -0.707100 -0.707100
vn 0.000000 0.707100 -0.707100
vn 0.707100 0.707100 -0.000000
vn -0.707100 0.707100 -0.000000
vn 0.000000 0.707100 0.707100
usemtl None
s off
f 1//1 2//1 3//1
f 3//1 2//1 4//1
f 3//1 4//1 5//1
f 5//1 4//1 6//1
f 5//1 6//1 7//1
f 7//1 6//1 8//1
f 7//1 8//1 1//1
f 1//1 8//1 2//1
f 9//2 10//2 11//2
f 11//2 10//2 12//2
f 11//2 12//2 13//2
f 13//2 12//2 14//2
f 13//2 14//2 15//2
f 15//2 14//2 16//2
f 15//2 16//2 9//2
f 9//2 16//2 10//2
f 6//3 10//3 8//3
f 8//3 10//3 16//3
f 4//4 12//4 6//4
f 6//4 12//4 10//4
f 8//5 16//5 2//5
f 2//5 16//5 14//5
f 2//6 14//6 4//6
f 4//6 14//6 12//6
f 9//7 5//7 15//7
f 15//7 5//7 7//7
f 11//8 3//8 9//8
f 9//8 3//8 5//8
f 15//9 7//9 13//9
f 13//9 7//9 1//9
f 13//10 1//10 11//10
f 11//10 1//10 3//10
