# Blender v2.76 (sub 0) OBJ File: 'wallEChassis_medium_v3.blend'
# www.blender.org
mtllib wallEChassis_medium_v3.mtl
o Chassis_medium_connectorAdjustedWTop_v3_BOTTOM
v 0.060266 0.027500 0.065499
v 0.060266 0.027500 0.057499
v 0.060181 0.028805 0.057499
v 0.060181 0.028805 0.065499
v 0.059925 0.030088 0.057499
v 0.059925 0.030088 0.065499
v 0.059505 0.031326 0.057499
v 0.059505 0.031326 0.065499
v 0.058926 0.032500 0.057499
v 0.058926 0.032500 0.065499
v -0.054732 -0.027500 -0.057499
v -0.054732 -0.027500 0.057499
v 0.060266 -0.027500 -0.057499
v 0.060266 -0.027500 0.057499
v -0.044733 0.032500 0.065499
v -0.044733 0.032500 0.057499
v -0.043402 0.030240 0.057499
v -0.043402 0.030240 0.065499
v -0.042500 0.027888 0.057499
v -0.042500 0.027888 0.065499
v -0.041993 0.025443 0.057499
v -0.041993 0.025443 0.065499
v -0.041857 0.022788 0.057499
v -0.041857 0.022788 0.065499
v -0.042168 0.019632 0.057499
v -0.042168 0.019632 0.065499
v -0.042940 0.016403 0.057499
v -0.042940 0.016403 0.065499
v -0.044218 0.012912 0.057499
v -0.044218 0.012912 0.065499
v -0.046019 0.009204 0.057499
v -0.046019 0.009204 0.065499
v -0.048416 0.005212 0.057499
v -0.048416 0.005212 0.065499
v -0.051384 0.001043 0.057499
v -0.051384 0.001043 0.065499
v -0.054784 -0.003333 0.057499
v -0.054784 -0.003333 0.065499
v -0.056803 -0.006110 0.057499
v -0.056803 -0.006110 0.065499
v -0.058466 -0.008856 0.057499
v -0.058466 -0.008856 0.065499
v -0.059598 -0.011485 0.057499
v -0.059598 -0.011485 0.065499
v -0.060098 -0.013481 0.057499
v -0.060098 -0.013481 0.065499
v -0.060266 -0.015356 0.057499
v -0.060266 -0.015356 0.065499
v -0.060108 -0.017427 0.057499
v -0.060108 -0.017427 0.065499
v -0.059567 -0.019594 0.057499
v -0.059567 -0.019594 0.065499
v -0.058580 -0.021929 0.057499
v -0.058580 -0.021929 0.065499
v -0.056885 -0.024735 0.057499
v -0.056885 -0.024735 0.065499
v -0.054732 -0.027500 0.065499
v 0.060266 -0.032500 0.065499
v 0.060266 -0.032500 -0.065499
v 0.060266 0.027500 -0.057499
v 0.060266 0.027500 -0.065499
v -0.054732 -0.032500 0.065499
v -0.054732 -0.027500 -0.065499
v -0.054732 -0.032500 -0.065499
v -0.043402 0.030240 -0.065499
v -0.044733 0.032500 -0.065499
v 0.058926 0.032500 -0.065499
v -0.042500 0.027888 -0.065499
v -0.042940 0.016403 -0.065499
v -0.042168 0.019632 -0.065499
v -0.041857 0.022788 -0.065499
v 0.060181 0.028805 -0.065499
v -0.041993 0.025443 -0.065499
v 0.059505 0.031326 -0.065499
v 0.059925 0.030088 -0.065499
v -0.048416 0.005212 -0.065499
v -0.046019 0.009204 -0.065499
v -0.044218 0.012912 -0.065499
v -0.056803 -0.006110 -0.065499
v -0.054784 -0.003333 -0.065499
v -0.051384 0.001043 -0.065499
v -0.056885 -0.024735 -0.065499
v -0.058580 -0.021929 -0.065499
v -0.059567 -0.019594 -0.065499
v -0.060098 -0.013481 -0.065499
v -0.059598 -0.011485 -0.065499
v -0.058466 -0.008856 -0.065499
v -0.060108 -0.017427 -0.065499
v -0.060266 -0.015356 -0.065499
v -0.056885 -0.024735 -0.057499
v -0.058580 -0.021929 -0.057499
v -0.059567 -0.019594 -0.057499
v -0.060108 -0.017427 -0.057499
v -0.060266 -0.015356 -0.057499
v -0.060098 -0.013481 -0.057499
v -0.059598 -0.011485 -0.057499
v -0.058466 -0.008856 -0.057499
v -0.056803 -0.006110 -0.057499
v -0.054784 -0.003333 -0.057499
v -0.051384 0.001043 -0.057499
v -0.048416 0.005212 -0.057499
v -0.046019 0.009204 -0.057499
v -0.044218 0.012912 -0.057499
v -0.042940 0.016403 -0.057499
v -0.042168 0.019632 -0.057499
v -0.041857 0.022788 -0.057499
v -0.041993 0.025443 -0.057499
v -0.042500 0.027888 -0.057499
v -0.043402 0.030240 -0.057499
v -0.044733 0.032500 -0.057499
v 0.058926 0.032500 -0.057499
v 0.059505 0.031326 -0.057499
v 0.059925 0.030088 -0.057499
v 0.060181 0.028805 -0.057499
v 0.040492 0.032500 0.060211
v 0.040298 0.032500 0.060499
v 0.040155 0.032500 0.060816
v -0.028344 0.032500 0.063503
v -0.028676 0.032500 0.063401
v -0.028987 0.032500 0.063245
v -0.029266 0.032500 0.063038
v -0.029507 0.032500 0.062787
v -0.029701 0.032500 0.062499
v 0.041323 0.032500 0.063401
v 0.041013 0.032500 0.063245
v 0.040733 0.032500 0.063038
v 0.040492 0.032500 0.062787
v 0.040298 0.032500 0.062499
v 0.043306 0.032500 0.059851
v 0.043567 0.032500 0.060081
v 0.043786 0.032500 0.060351
v 0.043955 0.032500 0.060655
v 0.044071 0.032500 0.062016
v 0.043955 0.032500 0.062344
v 0.042688 0.032500 0.063459
v 0.043010 0.032500 0.063330
v 0.043306 0.032500 0.063147
v 0.042348 0.032500 0.063533
v 0.042000 0.032500 0.063547
v 0.041656 0.032500 0.063503
v -0.029845 0.032500 0.062182
v -0.029932 0.032500 0.061846
v -0.029962 0.032500 0.061499
v -0.029932 0.032500 0.061153
v -0.029845 0.032500 0.060816
v -0.026693 0.032500 0.063147
v -0.026432 0.032500 0.062918
v -0.026213 0.032500 0.062647
v 0.043786 0.032500 0.062647
v 0.043567 0.032500 0.062918
v -0.027651 0.032500 0.063533
v -0.027999 0.032500 0.063547
v 0.040733 0.032500 0.059960
v 0.041013 0.032500 0.059754
v 0.041323 0.032500 0.059597
v 0.042348 0.032500 0.059466
v 0.042688 0.032500 0.059539
v 0.043010 0.032500 0.059669
v -0.026989 0.032500 0.063330
v -0.027311 0.032500 0.063459
v 0.044071 0.032500 0.060983
v 0.044130 0.032500 0.061325
v 0.044130 0.032500 0.061673
v -0.029701 0.032500 0.060499
v -0.029507 0.032500 0.060211
v -0.029266 0.032500 0.059960
v -0.028987 0.032500 0.059754
v -0.028676 0.032500 0.059597
v -0.028344 0.032500 0.059495
v -0.027311 0.032500 0.059539
v -0.026989 0.032500 0.059669
v -0.026693 0.032500 0.059851
v -0.026432 0.032500 0.060081
v 0.040155 0.032500 0.062182
v 0.040067 0.032500 0.061846
v -0.026044 0.032500 0.062344
v -0.025928 0.032500 0.062016
v -0.026213 0.032500 0.060351
v -0.026044 0.032500 0.060655
v 0.040067 0.032500 0.061153
v 0.040037 0.032500 0.061499
v 0.041656 0.032500 0.059495
v 0.042000 0.032500 0.059451
v 0.042087 0.032500 0.059449
v -0.025928 0.032500 0.060983
v -0.025869 0.032500 0.061325
v -0.025869 0.032500 0.061673
v -0.027999 0.032500 0.059451
v -0.027912 0.032500 0.059449
v -0.027651 0.032500 0.059466
v -0.027311 0.032500 -0.063459
v -0.026989 0.032500 -0.063330
v 0.043786 0.032500 -0.062647
v 0.043955 0.032500 -0.062344
v 0.043010 0.032500 -0.059669
v 0.042688 0.032500 -0.059539
v 0.043567 0.032500 -0.062918
v -0.029701 0.032500 -0.060499
v -0.029507 0.032500 -0.060211
v -0.029266 0.032500 -0.059960
v -0.027651 0.032500 -0.059466
v -0.027999 0.032500 -0.059451
v -0.028344 0.032500 -0.059495
v 0.044071 0.032500 -0.060983
v 0.043955 0.032500 -0.060655
v 0.043786 0.032500 -0.060351
v -0.028676 0.032500 -0.059597
v -0.028987 0.032500 -0.059754
v -0.029932 0.032500 -0.061846
v -0.029845 0.032500 -0.062182
v 0.043567 0.032500 -0.060081
v 0.043306 0.032500 -0.059851
v -0.029701 0.032500 -0.062499
v -0.029507 0.032500 -0.062787
v -0.029266 0.032500 -0.063038
v -0.028987 0.032500 -0.063245
v -0.028676 0.032500 -0.063401
v -0.028344 0.032500 -0.063503
v 0.040298 0.032500 -0.062499
v 0.040492 0.032500 -0.062787
v 0.042348 0.032500 -0.063533
v 0.042688 0.032500 -0.063459
v 0.044071 0.032500 -0.062016
v 0.044130 0.032500 -0.061673
v 0.044130 0.032500 -0.061325
v 0.040155 0.032500 -0.062182
v 0.043010 0.032500 -0.063330
v 0.043306 0.032500 -0.063147
v -0.027999 0.032500 -0.063547
v -0.027912 0.032500 -0.063549
v -0.027651 0.032500 -0.063533
v 0.041323 0.032500 -0.059597
v 0.041013 0.032500 -0.059754
v 0.040733 0.032500 -0.059960
v 0.040492 0.032500 -0.060211
v -0.027311 0.032500 -0.059539
v -0.026989 0.032500 -0.059669
v 0.040733 0.032500 -0.063038
v 0.041013 0.032500 -0.063245
v 0.041323 0.032500 -0.063401
v -0.029845 0.032500 -0.060816
v -0.029932 0.032500 -0.061153
v -0.029962 0.032500 -0.061499
v 0.042348 0.032500 -0.059466
v 0.042000 0.032500 -0.059451
v 0.041656 0.032500 -0.059495
v 0.041656 0.032500 -0.063503
v 0.042000 0.032500 -0.063547
v 0.042087 0.032500 -0.063549
v -0.026432 0.032500 -0.062918
v -0.026213 0.032500 -0.062647
v 0.040067 0.032500 -0.061846
v -0.026044 0.032500 -0.062344
v -0.026693 0.032500 -0.063147
v 0.040298 0.032500 -0.060499
v -0.025928 0.032500 -0.060983
v -0.026044 0.032500 -0.060655
v -0.026213 0.032500 -0.060351
v -0.026432 0.032500 -0.060081
v -0.026693 0.032500 -0.059851
v 0.040155 0.032500 -0.060816
v 0.040067 0.032500 -0.061153
v -0.025869 0.032500 -0.061325
v 0.040037 0.032500 -0.061499
v -0.025869 0.032500 -0.061673
v -0.025928 0.032500 -0.062016
v 0.042688 0.027500 -0.063459
v 0.042348 0.027500 -0.063533
v 0.040155 0.027500 -0.062182
v 0.043306 0.027500 -0.059851
v 0.043567 0.027500 -0.060081
v 0.043786 0.027500 -0.060351
v 0.043955 0.027500 -0.060655
v 0.044071 0.027500 -0.060983
v 0.042000 0.027500 -0.063547
v 0.041656 0.027500 -0.063503
v 0.041323 0.027500 -0.063401
v 0.042348 0.027500 -0.059466
v 0.042688 0.027500 -0.059539
v 0.043010 0.027500 -0.059669
v 0.044130 0.027500 -0.061325
v 0.044130 0.027500 -0.061673
v 0.044071 0.027500 -0.062016
v 0.043567 0.027500 -0.062918
v 0.043306 0.027500 -0.063147
v 0.043010 0.027500 -0.063330
v 0.041013 0.027500 -0.063245
v 0.040733 0.027500 -0.063038
v 0.040492 0.027500 -0.062787
v 0.040298 0.027500 -0.062499
v 0.040492 0.027500 -0.060211
v 0.040298 0.027500 -0.060499
v 0.040067 0.027500 -0.061846
v 0.040037 0.027500 -0.061499
v 0.040067 0.027500 -0.061153
v 0.040155 0.027500 -0.060816
v 0.040733 0.027500 -0.059960
v 0.041013 0.027500 -0.059754
v 0.041323 0.027500 -0.059597
v 0.043955 0.027500 -0.062344
v 0.043786 0.027500 -0.062647
v 0.041656 0.027500 -0.059495
v 0.042000 0.027500 -0.059451
v -0.026432 0.027500 -0.062918
v -0.026693 0.027500 -0.063147
v -0.026432 0.027500 -0.060081
v -0.026989 0.027500 -0.063330
v -0.027311 0.027500 -0.063459
v -0.027999 0.027500 -0.059451
v -0.028987 0.027500 -0.059754
v -0.028676 0.027500 -0.059597
v -0.027999 0.027500 -0.063547
v -0.028344 0.027500 -0.063503
v -0.028676 0.027500 -0.063401
v -0.029507 0.027500 -0.060211
v -0.027651 0.027500 -0.063533
v -0.028344 0.027500 -0.059495
v -0.028987 0.027500 -0.063245
v -0.029266 0.027500 -0.063038
v -0.029701 0.027500 -0.060499
v -0.029845 0.027500 -0.060816
v -0.029266 0.027500 -0.059960
v -0.027651 0.027500 -0.059466
v -0.027311 0.027500 -0.059539
v -0.026989 0.027500 -0.059669
v -0.026693 0.027500 -0.059851
v -0.026213 0.027500 -0.060351
v -0.026044 0.027500 -0.060655
v -0.025928 0.027500 -0.060983
v -0.025869 0.027500 -0.061673
v -0.025928 0.027500 -0.062016
v -0.026044 0.027500 -0.062344
v -0.029962 0.027500 -0.061499
v -0.029701 0.027500 -0.062499
v -0.029932 0.027500 -0.061846
v -0.029845 0.027500 -0.062182
v -0.029507 0.027500 -0.062787
v -0.029932 0.027500 -0.061153
v -0.025869 0.027500 -0.061325
v -0.026213 0.027500 -0.062647
v 0.040155 0.027500 0.060816
v 0.040067 0.027500 0.061153
v 0.043786 0.027500 0.062647
v 0.043567 0.027500 0.060081
v 0.043306 0.027500 0.059851
v 0.040298 0.027500 0.060499
v 0.043010 0.027500 0.059669
v 0.040492 0.027500 0.060211
v 0.043955 0.027500 0.062344
v 0.044071 0.027500 0.062016
v 0.044130 0.027500 0.061673
v 0.044130 0.027500 0.061325
v 0.044071 0.027500 0.060983
v 0.040037 0.027500 0.061499
v 0.040067 0.027500 0.061846
v 0.040155 0.027500 0.062182
v 0.043955 0.027500 0.060655
v 0.043786 0.027500 0.060351
v 0.042688 0.027500 0.059539
v 0.042348 0.027500 0.059466
v 0.040733 0.027500 0.063038
v 0.041013 0.027500 0.063245
v 0.040492 0.027500 0.062787
v 0.041323 0.027500 0.063401
v 0.041656 0.027500 0.063503
v 0.042688 0.027500 0.063459
v 0.043010 0.027500 0.063330
v 0.043306 0.027500 0.063147
v 0.042000 0.027500 0.059451
v 0.041656 0.027500 0.059495
v 0.041323 0.027500 0.059597
v 0.041013 0.027500 0.059754
v 0.040733 0.027500 0.059960
v 0.042000 0.027500 0.063547
v 0.042348 0.027500 0.063533
v 0.040298 0.027500 0.062499
v 0.043567 0.027500 0.062918
v -0.029962 0.027500 0.061499
v -0.029932 0.027500 0.061846
v -0.025928 0.027500 0.062016
v -0.029845 0.027500 0.062182
v -0.029701 0.027500 0.062499
v -0.025869 0.027500 0.061673
v -0.025869 0.027500 0.061325
v -0.029845 0.027500 0.060816
v -0.025928 0.027500 0.060983
v -0.029932 0.027500 0.061153
v -0.029507 0.027500 0.062787
v -0.029266 0.027500 0.063038
v -0.028987 0.027500 0.063245
v -0.026044 0.027500 0.060655
v -0.026213 0.027500 0.060351
v -0.026432 0.027500 0.060081
v -0.026989 0.027500 0.059669
v -0.027311 0.027500 0.059539
v -0.027651 0.027500 0.059466
v -0.028676 0.027500 0.059597
v -0.028987 0.027500 0.059754
v -0.029266 0.027500 0.059960
v -0.029507 0.027500 0.060211
v -0.026693 0.027500 0.059851
v -0.029701 0.027500 0.060499
v -0.027999 0.027500 0.059451
v -0.028344 0.027500 0.059495
v -0.026432 0.027500 0.062918
v -0.028676 0.027500 0.063401
v -0.026213 0.027500 0.062647
v -0.026044 0.027500 0.062344
v -0.028344 0.027500 0.063503
v -0.027999 0.027500 0.063547
v -0.027651 0.027500 0.063533
v -0.027311 0.027500 0.063459
v -0.026989 0.027500 0.063330
v -0.026693 0.027500 0.063147
vn 0.997900 0.065400 0.000000
vn 0.980800 0.195100 0.000000
vn 0.946900 0.321400 0.000000
vn 0.896900 0.442300 0.000000
vn 0.000000 1.000000 -0.000000
vn -0.861600 -0.507500 0.000000
vn -0.861700 -0.507500 0.000000
vn -0.933800 -0.357900 0.000000
vn -0.979100 -0.203200 0.000000
vn -0.998700 -0.051300 0.000000
vn -0.995200 0.098200 0.000000
vn -0.972600 0.232500 0.000000
vn -0.939000 0.343900 -0.000000
vn -0.899500 0.437000 0.000000
vn -0.857400 0.514700 0.000000
vn -0.814700 0.579900 -0.000000
vn -0.789700 0.613500 -0.000000
vn -0.808800 0.588100 -0.000000
vn -0.855400 0.518000 -0.000000
vn -0.918500 0.395500 0.000000
vn -0.970000 0.243100 0.000000
vn -0.996000 0.089100 0.000000
vn -0.997100 -0.076100 0.000000
vn -0.970300 -0.242100 0.000000
vn -0.921000 -0.389500 0.000000
vn -0.856000 -0.516900 0.000000
vn -0.789000 -0.614400 0.000000
vn 1.000000 0.000000 0.000000
vn 0.000000 0.000000 1.000000
vn 0.000000 0.000000 -1.000000
vn -1.000000 0.000000 0.000000
vn 0.000000 -1.000000 0.000000
vn 0.000000 1.000000 0.000100
vn 0.000000 1.000000 -0.000100
vn 0.000000 1.000000 0.000200
vn 0.021300 0.000000 0.999800
vn 0.127000 0.000000 0.991900
vn 0.292800 0.000000 0.956200
vn 0.450200 0.000000 0.892900
vn 0.594700 0.000000 0.804000
vn 0.594600 0.000000 0.804000
vn 0.721900 0.000000 0.692000
vn 0.828500 0.000000 0.559900
vn 0.911200 0.000000 0.411900
vn 0.967700 0.000000 0.252000
vn 0.996400 0.000000 0.084800
vn 0.996400 0.000000 -0.084800
vn 0.967700 0.000000 -0.252000
vn 0.911200 0.000000 -0.411900
vn 0.828500 0.000000 -0.560000
vn 0.828500 0.000000 -0.559900
vn 0.721900 0.000000 -0.692000
vn 0.594600 0.000000 -0.804000
vn 0.450200 0.000000 -0.892900
vn 0.292800 0.000000 -0.956200
vn 0.127000 0.000000 -0.991900
vn -0.042500 0.000000 -0.999100
vn -0.210700 0.000000 -0.977600
vn -0.372800 0.000000 -0.927900
vn -0.372900 0.000000 -0.927900
vn -0.524300 0.000000 -0.851500
vn -0.660700 0.000000 -0.750700
vn -0.778000 0.000000 -0.628200
vn -0.873000 0.000000 -0.487700
vn -0.942900 0.000000 -0.333100
vn -0.985600 0.000000 -0.169000
vn -0.985600 0.000000 0.169000
vn -0.942900 0.000000 0.333100
vn -0.873000 0.000000 0.487700
vn -0.778000 0.000000 0.628200
vn -0.660700 0.000000 0.750700
vn -0.524300 0.000000 0.851500
vn -0.372900 0.000000 0.927900
vn -0.210700 0.000000 0.977600
vn -0.210600 0.000000 0.977600
vn -0.063700 0.000000 0.998000
vn -0.042400 0.001100 0.999100
vn 0.721900 0.000000 0.691900
vn 0.828500 0.000000 0.560000
vn 0.721900 0.000000 -0.691900
vn -0.210700 0.000000 -0.977500
vn -0.660600 0.000000 -0.750700
vn 0.021100 0.000000 0.999800
vn 0.722000 0.000000 0.691900
vn 0.722000 0.000000 -0.691900
vn 0.292900 0.000000 -0.956100
vn -0.524300 0.000000 -0.851600
vn -0.524300 0.000000 0.851600
vn -0.372800 0.000000 0.927900
vn -0.210700 0.000000 0.977500
vn -0.063600 0.000000 0.998000
vn -0.042500 0.001100 0.999100
usemtl None
s off
f 1//1 2//1 3//1
f 1//1 3//1 4//1
f 4//2 3//2 5//2
f 4//2 5//2 6//2
f 6//3 5//3 7//3
f 6//3 7//3 8//3
f 8//4 7//4 9//4
f 8//4 9//4 10//4
f 11//5 12//5 13//5
f 13//5 12//5 14//5
f 15//6 16//6 17//6
f 15//7 17//7 18//7
f 18//8 17//8 19//8
f 18//8 19//8 20//8
f 20//9 19//9 21//9
f 20//9 21//9 22//9
f 22//10 21//10 23//10
f 22//10 23//10 24//10
f 24//11 23//11 25//11
f 24//11 25//11 26//11
f 26//12 25//12 27//12
f 26//12 27//12 28//12
f 28//13 27//13 29//13
f 28//13 29//13 30//13
f 30//14 29//14 31//14
f 30//14 31//14 32//14
f 32//15 31//15 33//15
f 32//15 33//15 34//15
f 34//16 33//16 35//16
f 34//16 35//16 36//16
f 36//17 35//17 37//17
f 36//17 37//17 38//17
f 38//18 37//18 39//18
f 38//18 39//18 40//18
f 40//19 39//19 41//19
f 40//19 41//19 42//19
f 42//20 41//20 43//20
f 42//20 43//20 44//20
f 44//21 43//21 45//21
f 44//21 45//21 46//21
f 46//22 45//22 47//22
f 46//22 47//22 48//22
f 48//23 47//23 49//23
f 48//23 49//23 50//23
f 50//24 49//24 51//24
f 50//24 51//24 52//24
f 52//25 51//25 53//25
f 52//25 53//25 54//25
f 54//26 53//26 55//26
f 54//26 55//26 56//26
f 56//27 55//27 12//27
f 56//27 12//27 57//27
f 2//28 1//28 14//28
f 14//28 1//28 58//28
f 14//28 58//28 13//28
f 13//28 58//28 59//28
f 13//28 59//28 60//28
f 60//28 59//28 61//28
f 10//29 15//29 18//29
f 24//29 1//29 4//29
f 18//29 20//29 10//29
f 10//29 20//29 22//29
f 10//29 22//29 8//29
f 8//29 22//29 24//29
f 8//29 24//29 6//29
f 6//29 24//29 4//29
f 24//29 26//29 1//29
f 1//29 26//29 28//29
f 1//29 28//29 30//29
f 30//29 32//29 1//29
f 1//29 32//29 34//29
f 1//29 34//29 36//29
f 62//29 58//29 57//29
f 57//29 58//29 1//29
f 57//29 1//29 56//29
f 56//29 1//29 54//29
f 36//29 38//29 1//29
f 1//29 38//29 40//29
f 1//29 40//29 42//29
f 42//29 44//29 1//29
f 1//29 44//29 46//29
f 1//29 46//29 48//29
f 48//29 50//29 1//29
f 1//29 50//29 52//29
f 1//29 52//29 54//29
f 17//30 16//30 9//30
f 17//30 9//30 19//30
f 3//30 2//30 23//30
f 19//30 9//30 21//30
f 21//30 9//30 7//30
f 21//30 7//30 23//30
f 23//30 7//30 5//30
f 23//30 5//30 3//30
f 14//30 27//30 2//30
f 2//30 27//30 25//30
f 2//30 25//30 23//30
f 33//30 31//30 14//30
f 14//30 31//30 29//30
f 14//30 29//30 27//30
f 39//30 37//30 14//30
f 14//30 37//30 35//30
f 14//30 35//30 33//30
f 12//30 55//30 14//30
f 14//30 55//30 53//30
f 14//30 53//30 51//30
f 45//30 43//30 14//30
f 14//30 43//30 41//30
f 14//30 41//30 39//30
f 51//30 49//30 14//30
f 14//30 49//30 47//30
f 14//30 47//30 45//30
f 11//31 63//31 64//31
f 11//31 64//31 12//31
f 12//31 64//31 62//31
f 12//31 62//31 57//31
f 65//30 66//30 67//30
f 59//30 64//30 61//30
f 61//30 64//30 63//30
f 65//30 67//30 68//30
f 69//30 70//30 61//30
f 61//30 70//30 71//30
f 61//30 71//30 72//30
f 68//30 67//30 73//30
f 73//30 67//30 74//30
f 73//30 74//30 71//30
f 71//30 74//30 75//30
f 71//30 75//30 72//30
f 76//30 77//30 61//30
f 61//30 77//30 78//30
f 61//30 78//30 69//30
f 79//30 80//30 61//30
f 61//30 80//30 81//30
f 61//30 81//30 76//30
f 63//30 82//30 61//30
f 61//30 82//30 83//30
f 61//30 83//30 84//30
f 85//30 86//30 61//30
f 61//30 86//30 87//30
f 61//30 87//30 79//30
f 84//30 88//30 61//30
f 61//30 88//30 89//30
f 61//30 89//30 85//30
f 62//32 64//32 58//32
f 58//32 64//32 59//32
f 63//27 11//27 90//27
f 63//27 90//27 82//27
f 82//26 90//26 91//26
f 82//26 91//26 83//26
f 83//25 91//25 92//25
f 83//25 92//25 84//25
f 84//24 92//24 93//24
f 84//24 93//24 88//24
f 88//23 93//23 94//23
f 88//23 94//23 89//23
f 89//22 94//22 95//22
f 89//22 95//22 85//22
f 85//21 95//21 96//21
f 85//21 96//21 86//21
f 86//20 96//20 97//20
f 86//20 97//20 87//20
f 87//19 97//19 98//19
f 87//19 98//19 79//19
f 79//18 98//18 99//18
f 79//18 99//18 80//18
f 80//17 99//17 100//17
f 80//17 100//17 81//17
f 81//16 100//16 101//16
f 81//16 101//16 76//16
f 76//15 101//15 102//15
f 76//15 102//15 77//15
f 77//14 102//14 103//14
f 77//14 103//14 78//14
f 78//13 103//13 104//13
f 78//13 104//13 69//13
f 69//12 104//12 105//12
f 69//12 105//12 70//12
f 70//11 105//11 106//11
f 70//11 106//11 71//11
f 71//10 106//10 107//10
f 71//10 107//10 73//10
f 73//9 107//9 108//9
f 73//9 108//9 68//9
f 68//8 108//8 109//8
f 68//8 109//8 65//8
f 65//6 109//6 110//6
f 65//6 110//6 66//6
f 90//29 11//29 13//29
f 111//29 110//29 109//29
f 109//29 108//29 111//29
f 111//29 108//29 107//29
f 111//29 107//29 112//29
f 112//29 107//29 106//29
f 112//29 106//29 113//29
f 113//29 106//29 114//29
f 114//29 106//29 60//29
f 60//29 106//29 105//29
f 60//29 105//29 13//29
f 13//29 105//29 104//29
f 13//29 104//29 103//29
f 103//29 102//29 13//29
f 13//29 102//29 101//29
f 13//29 101//29 100//29
f 90//29 13//29 91//29
f 100//29 99//29 13//29
f 13//29 99//29 98//29
f 13//29 98//29 97//29
f 97//29 96//29 13//29
f 13//29 96//29 95//29
f 13//29 95//29 94//29
f 94//29 93//29 13//29
f 13//29 93//29 92//29
f 13//29 92//29 91//29
f 60//1 61//1 72//1
f 60//1 72//1 114//1
f 114//2 72//2 75//2
f 114//2 75//2 113//2
f 113//3 75//3 74//3
f 113//3 74//3 112//3
f 112//4 74//4 67//4
f 112//4 67//4 111//4
f 115//5 16//5 116//5
f 116//5 16//5 117//5
f 118//5 119//5 15//5
f 15//5 119//5 120//5
f 120//5 121//5 15//5
f 15//5 121//5 122//5
f 15//5 122//5 123//5
f 124//5 125//5 15//5
f 125//5 126//5 15//5
f 15//5 126//5 127//5
f 15//5 127//5 128//5
f 129//5 130//5 9//5
f 9//5 130//5 131//5
f 9//5 131//5 132//5
f 10//5 133//5 134//5
f 135//5 10//5 136//5
f 136//5 10//5 137//5
f 135//33 138//33 10//33
f 10//5 138//5 139//5
f 10//5 139//5 15//5
f 15//34 139//34 140//34
f 15//5 140//5 124//5
f 123//5 141//5 15//5
f 15//5 141//5 142//5
f 15//5 142//5 16//5
f 142//5 143//5 16//5
f 16//5 143//5 144//5
f 16//5 144//5 145//5
f 146//5 128//5 147//5
f 147//5 128//5 148//5
f 134//5 149//5 10//5
f 10//5 149//5 150//5
f 10//5 150//5 137//5
f 128//5 151//5 15//5
f 15//34 151//34 152//34
f 15//33 152//33 118//33
f 115//5 153//5 16//5
f 16//5 153//5 154//5
f 16//5 154//5 155//5
f 156//34 157//34 9//34
f 9//5 157//5 158//5
f 9//5 158//5 129//5
f 146//5 159//5 128//5
f 128//34 159//34 160//34
f 128//33 160//33 151//33
f 132//5 161//5 9//5
f 9//5 161//5 162//5
f 9//5 162//5 10//5
f 10//5 162//5 163//5
f 10//5 163//5 133//5
f 145//5 164//5 16//5
f 16//5 164//5 165//5
f 16//5 165//5 166//5
f 166//5 167//5 16//5
f 16//5 167//5 168//5
f 16//5 168//5 169//5
f 170//5 171//5 117//5
f 117//5 171//5 172//5
f 117//5 172//5 173//5
f 128//5 174//5 148//5
f 148//5 174//5 175//5
f 148//5 175//5 176//5
f 176//5 175//5 177//5
f 173//5 178//5 117//5
f 117//5 178//5 179//5
f 117//5 179//5 180//5
f 180//5 179//5 181//5
f 155//5 182//5 16//5
f 16//33 182//33 183//33
f 16//5 183//5 9//5
f 9//5 183//5 184//5
f 9//5 184//5 156//5
f 179//5 185//5 181//5
f 181//5 185//5 186//5
f 181//5 186//5 175//5
f 175//5 186//5 187//5
f 175//5 187//5 177//5
f 169//34 188//34 16//34
f 16//35 188//35 189//35
f 16//5 189//5 117//5
f 117//34 189//34 190//34
f 117//5 190//5 170//5
f 191//5 192//5 67//5
f 193//5 194//5 67//5
f 195//5 196//5 111//5
f 193//5 67//5 197//5
f 198//5 110//5 199//5
f 199//5 110//5 200//5
f 111//5 201//5 110//5
f 110//34 201//34 202//34
f 110//5 202//5 203//5
f 204//5 205//5 111//5
f 111//5 205//5 206//5
f 203//5 207//5 110//5
f 110//5 207//5 208//5
f 110//5 208//5 200//5
f 209//5 210//5 66//5
f 206//5 211//5 111//5
f 111//5 211//5 212//5
f 111//5 212//5 195//5
f 210//5 213//5 66//5
f 66//5 213//5 214//5
f 66//5 214//5 215//5
f 215//5 216//5 66//5
f 66//5 216//5 217//5
f 66//5 217//5 218//5
f 219//5 220//5 192//5
f 221//5 222//5 67//5
f 194//5 223//5 67//5
f 67//5 223//5 224//5
f 67//5 224//5 111//5
f 111//5 224//5 225//5
f 111//5 225//5 204//5
f 219//5 192//5 226//5
f 222//5 227//5 67//5
f 67//5 227//5 228//5
f 67//5 228//5 197//5
f 218//5 229//5 66//5
f 66//35 229//35 230//35
f 66//5 230//5 67//5
f 67//35 230//35 231//35
f 67//5 231//5 191//5
f 232//5 233//5 201//5
f 233//5 234//5 201//5
f 201//5 234//5 235//5
f 201//33 235//33 236//33
f 236//5 235//5 237//5
f 220//5 238//5 192//5
f 192//5 238//5 239//5
f 192//33 239//33 240//33
f 198//5 241//5 110//5
f 110//5 241//5 242//5
f 110//5 242//5 66//5
f 66//5 242//5 243//5
f 66//5 243//5 209//5
f 196//5 244//5 111//5
f 111//5 244//5 245//5
f 111//5 245//5 201//5
f 201//33 245//33 246//33
f 201//5 246//5 232//5
f 240//5 247//5 192//5
f 192//34 247//34 248//34
f 192//5 248//5 67//5
f 67//33 248//33 249//33
f 67//5 249//5 221//5
f 250//5 251//5 252//5
f 252//5 251//5 253//5
f 226//5 192//5 252//5
f 252//5 192//5 254//5
f 252//5 254//5 250//5
f 255//5 256//5 235//5
f 235//5 256//5 257//5
f 235//5 257//5 258//5
f 258//5 259//5 235//5
f 235//5 259//5 260//5
f 235//5 260//5 237//5
f 255//5 261//5 256//5
f 256//5 261//5 262//5
f 256//5 262//5 263//5
f 263//5 262//5 264//5
f 263//5 264//5 265//5
f 265//5 264//5 252//5
f 265//5 252//5 266//5
f 266//5 252//5 253//5
f 267//5 268//5 269//5
f 270//5 271//5 269//5
f 271//5 272//5 269//5
f 269//5 272//5 273//5
f 269//5 273//5 274//5
f 275//34 276//34 277//34
f 278//5 279//5 269//5
f 269//5 279//5 280//5
f 269//5 280//5 270//5
f 274//5 281//5 269//5
f 269//5 281//5 282//5
f 269//5 282//5 283//5
f 284//5 285//5 269//5
f 269//5 285//5 286//5
f 269//5 286//5 267//5
f 275//33 277//33 268//33
f 268//5 277//5 287//5
f 268//5 287//5 288//5
f 288//5 289//5 268//5
f 268//5 289//5 290//5
f 268//5 290//5 269//5
f 291//5 269//5 292//5
f 292//5 269//5 293//5
f 293//5 294//5 292//5
f 292//5 294//5 295//5
f 292//5 295//5 296//5
f 291//5 297//5 269//5
f 269//5 297//5 298//5
f 269//5 298//5 299//5
f 283//5 300//5 269//5
f 269//5 300//5 301//5
f 269//5 301//5 284//5
f 299//5 302//5 269//5
f 269//5 302//5 303//5
f 269//5 303//5 278//5
f 249//36 248//36 275//36
f 275//37 248//37 247//37
f 275//37 247//37 276//37
f 276//38 247//38 240//38
f 276//38 240//38 277//38
f 277//39 240//39 239//39
f 277//39 239//39 287//39
f 287//40 239//40 238//40
f 287//41 238//41 288//41
f 288//42 238//42 220//42
f 288//42 220//42 289//42
f 289//43 220//43 219//43
f 289//43 219//43 290//43
f 290//44 219//44 226//44
f 290//44 226//44 269//44
f 269//45 226//45 252//45
f 269//45 252//45 293//45
f 293//46 252//46 264//46
f 293//46 264//46 294//46
f 294//47 264//47 262//47
f 294//47 262//47 295//47
f 295//48 262//48 261//48
f 295//48 261//48 296//48
f 296//49 261//49 255//49
f 296//49 255//49 292//49
f 292//50 255//50 235//50
f 292//51 235//51 291//51
f 291//52 235//52 234//52
f 291//52 234//52 297//52
f 297//53 234//53 233//53
f 297//53 233//53 298//53
f 298//54 233//54 232//54
f 298//54 232//54 299//54
f 299//55 232//55 246//55
f 299//55 246//55 302//55
f 302//56 246//56 245//56
f 302//56 245//56 303//56
f 303//57 245//57 244//57
f 303//57 244//57 278//57
f 278//58 244//58 196//58
f 278//58 196//58 279//58
f 279//59 196//59 195//59
f 279//60 195//60 280//60
f 280//61 195//61 212//61
f 280//61 212//61 270//61
f 270//62 212//62 211//62
f 270//62 211//62 271//62
f 271//63 211//63 206//63
f 271//63 206//63 272//63
f 272//64 206//64 205//64
f 272//64 205//64 273//64
f 273//65 205//65 204//65
f 273//65 204//65 274//65
f 274//66 204//66 225//66
f 274//66 225//66 281//66
f 281//31 225//31 224//31
f 281//31 224//31 282//31
f 282//67 224//67 223//67
f 282//67 223//67 283//67
f 283//68 223//68 194//68
f 283//68 194//68 300//68
f 300//69 194//69 193//69
f 300//69 193//69 301//69
f 301//70 193//70 197//70
f 301//70 197//70 284//70
f 284//71 197//71 228//71
f 284//71 228//71 285//71
f 285//72 228//72 227//72
f 285//72 227//72 286//72
f 286//73 227//73 222//73
f 286//73 222//73 267//73
f 267//74 222//74 221//74
f 267//75 221//75 268//75
f 268//76 221//76 249//76
f 268//77 249//77 275//77
f 304//5 305//5 306//5
f 307//5 308//5 309//5
f 310//5 311//5 312//5
f 313//5 314//5 315//5
f 308//5 316//5 309//5
f 309//5 316//5 312//5
f 309//5 312//5 317//5
f 317//5 312//5 311//5
f 314//5 318//5 315//5
f 315//5 318//5 319//5
f 315//5 319//5 320//5
f 320//5 319//5 321//5
f 313//5 315//5 312//5
f 312//5 315//5 322//5
f 312//5 322//5 310//5
f 307//5 309//5 305//5
f 305//5 309//5 323//5
f 305//5 323//5 324//5
f 324//5 325//5 305//5
f 305//5 325//5 326//5
f 305//5 326//5 306//5
f 306//5 327//5 304//5
f 304//5 327//5 328//5
f 304//5 328//5 329//5
f 330//5 331//5 332//5
f 333//5 334//5 335//5
f 335//5 334//5 336//5
f 319//5 337//5 321//5
f 321//5 337//5 334//5
f 321//5 334//5 338//5
f 338//5 334//5 333//5
f 329//5 339//5 304//5
f 304//5 339//5 330//5
f 304//5 330//5 340//5
f 340//5 330//5 332//5
f 230//36 229//36 312//36
f 312//37 229//37 218//37
f 312//37 218//37 313//37
f 313//38 218//38 217//38
f 313//38 217//38 314//38
f 314//39 217//39 216//39
f 314//39 216//39 318//39
f 318//40 216//40 215//40
f 318//41 215//41 319//41
f 319//42 215//42 214//42
f 319//78 214//78 337//78
f 337//79 214//79 213//79
f 337//79 213//79 334//79
f 334//44 213//44 210//44
f 334//44 210//44 336//44
f 336//45 210//45 209//45
f 336//45 209//45 335//45
f 335//46 209//46 243//46
f 335//46 243//46 333//46
f 333//47 243//47 242//47
f 333//47 242//47 338//47
f 338//48 242//48 241//48
f 338//48 241//48 321//48
f 321//49 241//49 198//49
f 321//49 198//49 320//49
f 320//50 198//50 199//50
f 320//50 199//50 315//50
f 315//80 199//80 200//80
f 315//80 200//80 322//80
f 322//53 200//53 208//53
f 322//53 208//53 310//53
f 310//54 208//54 207//54
f 310//54 207//54 311//54
f 311//55 207//55 203//55
f 311//55 203//55 317//55
f 317//56 203//56 202//56
f 317//56 202//56 309//56
f 309//57 202//57 201//57
f 309//57 201//57 323//57
f 323//58 201//58 236//58
f 323//81 236//81 324//81
f 324//59 236//59 237//59
f 324//60 237//60 325//60
f 325//61 237//61 260//61
f 325//61 260//61 326//61
f 326//82 260//82 259//82
f 326//62 259//62 306//62
f 306//63 259//63 258//63
f 306//63 258//63 327//63
f 327//64 258//64 257//64
f 327//64 257//64 328//64
f 328//65 257//65 256//65
f 328//65 256//65 329//65
f 329//66 256//66 263//66
f 329//66 263//66 339//66
f 339//31 263//31 265//31
f 339//31 265//31 330//31
f 330//67 265//67 266//67
f 330//67 266//67 331//67
f 331//68 266//68 253//68
f 331//68 253//68 332//68
f 332//69 253//69 251//69
f 332//69 251//69 340//69
f 340//70 251//70 250//70
f 340//70 250//70 304//70
f 304//71 250//71 254//71
f 304//71 254//71 305//71
f 305//72 254//72 192//72
f 305//72 192//72 307//72
f 307//73 192//73 191//73
f 307//73 191//73 308//73
f 308//74 191//74 231//74
f 308//75 231//75 316//75
f 316//76 231//76 230//76
f 316//77 230//77 312//77
f 341//5 342//5 343//5
f 344//5 345//5 346//5
f 346//5 345//5 347//5
f 346//5 347//5 348//5
f 341//5 343//5 346//5
f 346//5 343//5 349//5
f 346//5 349//5 350//5
f 350//5 351//5 346//5
f 346//5 351//5 352//5
f 346//5 352//5 353//5
f 342//5 354//5 343//5
f 343//5 354//5 355//5
f 343//5 355//5 356//5
f 353//5 357//5 346//5
f 346//5 357//5 358//5
f 346//5 358//5 344//5
f 347//5 359//5 360//5
f 361//5 362//5 363//5
f 363//5 362//5 364//5
f 363//5 364//5 365//5
f 366//5 367//5 363//5
f 363//5 367//5 368//5
f 360//5 369//5 347//5
f 347//5 369//5 370//5
f 347//5 370//5 371//5
f 371//5 372//5 347//5
f 347//5 372//5 373//5
f 347//5 373//5 348//5
f 365//5 374//5 363//5
f 363//5 374//5 375//5
f 363//5 375//5 366//5
f 356//5 376//5 343//5
f 343//5 376//5 363//5
f 343//5 363//5 377//5
f 377//5 363//5 368//5
f 184//83 183//83 369//83
f 369//37 183//37 182//37
f 369//37 182//37 370//37
f 370//38 182//38 155//38
f 370//38 155//38 371//38
f 371//39 155//39 154//39
f 371//39 154//39 372//39
f 372//41 154//41 153//41
f 372//41 153//41 373//41
f 373//84 153//84 115//84
f 373//42 115//42 348//42
f 348//43 115//43 116//43
f 348//79 116//79 346//79
f 346//44 116//44 117//44
f 346//44 117//44 341//44
f 341//45 117//45 180//45
f 341//45 180//45 342//45
f 342//46 180//46 181//46
f 342//46 181//46 354//46
f 354//47 181//47 175//47
f 354//47 175//47 355//47
f 355//48 175//48 174//48
f 355//48 174//48 356//48
f 356//49 174//49 128//49
f 356//49 128//49 376//49
f 376//51 128//51 127//51
f 376//51 127//51 363//51
f 363//85 127//85 126//85
f 363//52 126//52 361//52
f 361//53 126//53 125//53
f 361//53 125//53 362//53
f 362//54 125//54 124//54
f 362//54 124//54 364//54
f 364//55 124//55 140//55
f 364//86 140//86 365//86
f 365//56 140//56 139//56
f 365//56 139//56 374//56
f 374//57 139//57 138//57
f 374//57 138//57 375//57
f 375//58 138//58 135//58
f 375//58 135//58 366//58
f 366//60 135//60 136//60
f 366//60 136//60 367//60
f 367//61 136//61 137//61
f 367//87 137//87 368//87
f 368//62 137//62 150//62
f 368//62 150//62 377//62
f 377//63 150//63 149//63
f 377//63 149//63 343//63
f 343//64 149//64 134//64
f 343//64 134//64 349//64
f 349//65 134//65 133//65
f 349//65 133//65 350//65
f 350//66 133//66 163//66
f 350//66 163//66 351//66
f 351//31 163//31 162//31
f 351//31 162//31 352//31
f 352//67 162//67 161//67
f 352//67 161//67 353//67
f 353//68 161//68 132//68
f 353//68 132//68 357//68
f 357//69 132//69 131//69
f 357//69 131//69 358//69
f 358//70 131//70 130//70
f 358//70 130//70 344//70
f 344//71 130//71 129//71
f 344//71 129//71 345//71
f 345//88 129//88 158//88
f 345//72 158//72 347//72
f 347//89 158//89 157//89
f 347//73 157//73 359//73
f 359//90 157//90 156//90
f 359//74 156//74 360//74
f 360//91 156//91 184//91
f 360//92 184//92 369//92
f 378//5 379//5 380//5
f 380//5 379//5 381//5
f 380//5 381//5 382//5
f 383//5 384//5 385//5
f 385//5 384//5 386//5
f 383//5 385//5 380//5
f 380//5 385//5 387//5
f 380//5 387//5 378//5
f 382//5 388//5 380//5
f 380//5 388//5 389//5
f 380//5 389//5 390//5
f 386//5 391//5 385//5
f 385//5 391//5 392//5
f 385//5 392//5 393//5
f 394//33 395//33 396//33
f 397//5 398//5 394//5
f 394//5 398//5 399//5
f 394//5 399//5 400//5
f 393//5 401//5 385//5
f 385//5 401//5 394//5
f 385//5 394//5 402//5
f 402//5 394//5 400//5
f 396//5 403//5 394//5
f 394//5 403//5 404//5
f 394//5 404//5 397//5
f 405//5 390//5 406//5
f 405//5 407//5 390//5
f 390//5 407//5 408//5
f 390//5 408//5 380//5
f 406//5 409//5 405//5
f 405//5 409//5 410//5
f 405//5 410//5 411//5
f 411//5 412//5 405//5
f 405//5 412//5 413//5
f 405//5 413//5 414//5
f 189//83 188//83 403//83
f 403//37 188//37 169//37
f 403//37 169//37 404//37
f 404//38 169//38 168//38
f 404//38 168//38 397//38
f 397//39 168//39 167//39
f 397//39 167//39 398//39
f 398//41 167//41 166//41
f 398//41 166//41 399//41
f 399//84 166//84 165//84
f 399//78 165//78 400//78
f 400//79 165//79 164//79
f 400//79 164//79 402//79
f 402//44 164//44 145//44
f 402//44 145//44 385//44
f 385//45 145//45 144//45
f 385//45 144//45 387//45
f 387//46 144//46 143//46
f 387//46 143//46 378//46
f 378//47 143//47 142//47
f 378//47 142//47 379//47
f 379//48 142//48 141//48
f 379//48 141//48 381//48
f 381//49 141//49 123//49
f 381//49 123//49 382//49
f 382//50 123//50 122//50
f 382//51 122//51 388//51
f 388//85 122//85 121//85
f 388//52 121//52 389//52
f 389//53 121//53 120//53
f 389//53 120//53 390//53
f 390//54 120//54 119//54
f 390//54 119//54 406//54
f 406//55 119//55 118//55
f 406//86 118//86 409//86
f 409//56 118//56 152//56
f 409//56 152//56 410//56
f 410//57 152//57 151//57
f 410//57 151//57 411//57
f 411//81 151//81 160//81
f 411//58 160//58 412//58
f 412//60 160//60 159//60
f 412//60 159//60 413//60
f 413//61 159//61 146//61
f 413//61 146//61 414//61
f 414//62 146//62 147//62
f 414//62 147//62 405//62
f 405//63 147//63 148//63
f 405//63 148//63 407//63
f 407//64 148//64 176//64
f 407//64 176//64 408//64
f 408//65 176//65 177//65
f 408//65 177//65 380//65
f 380//66 177//66 187//66
f 380//66 187//66 383//66
f 383//31 187//31 186//31
f 383//31 186//31 384//31
f 384//67 186//67 185//67
f 384//67 185//67 386//67
f 386//68 185//68 179//68
f 386//68 179//68 391//68
f 391//69 179//69 178//69
f 391//69 178//69 392//69
f 392//70 178//70 173//70
f 392//70 173//70 393//70
f 393//71 173//71 172//71
f 393//71 172//71 401//71
f 401//72 172//72 171//72
f 401//72 171//72 394//72
f 394//89 171//89 170//89
f 394//73 170//73 395//73
f 395//90 170//90 190//90
f 395//90 190//90 396//90
f 396//91 190//91 189//91
f 396//92 189//92 403//92
