# Blender v2.76 (sub 0) OBJ File: 'wallEGearedArm1_cm_doubleLong.blend'
# www.blender.org
mtllib wallEGearedArm1_cm_doubleLong.mtl
o gearedArm1_cmLongDouble
v -0.127102 -0.071989 -0.002500
v -0.130515 -0.058411 -0.002500
v -0.089888 -0.006874 -0.002500
v -0.093300 0.006704 -0.002500
v -0.019434 -0.000274 -0.002500
v -0.019313 -0.000624 -0.002500
v 0.000297 -0.012175 -0.002500
v 0.000065 -0.012094 -0.002500
v 0.000242 -0.001871 -0.002500
v -0.000179 -0.012053 -0.002500
v -0.000124 -0.001932 -0.002500
v -0.005725 -0.011676 -0.002500
v -0.005744 -0.011438 -0.002500
v -0.001630 -0.012886 -0.002500
v 0.004426 -0.016932 -0.002500
v 0.004316 -0.016963 -0.002500
v 0.004205 -0.016992 -0.002500
v 0.003976 -0.017031 -0.002500
v 0.005127 -0.011541 -0.002500
v 0.005126 -0.011788 -0.002500
v 0.000592 -0.001751 -0.002500
v -0.010904 0.007773 -0.002500
v -0.011023 0.007986 -0.002500
v -0.007044 0.010748 -0.002500
v 0.011509 0.005699 -0.002500
v 0.011755 0.005697 -0.002500
v 0.001719 0.001164 -0.002500
v -0.006006 -0.010807 -0.002500
v -0.001506 -0.012674 -0.002500
v -0.006167 -0.010621 -0.002500
v -0.001349 -0.012486 -0.002500
v -0.000668 -0.001909 -0.002500
v -0.000302 -0.001939 -0.002500
v -0.010867 -0.007144 -0.002500
v -0.010800 -0.006909 -0.002500
v -0.008030 -0.010459 -0.002500
v -0.010776 -0.006527 -0.002500
v -0.017292 -0.001939 -0.002500
v -0.017115 -0.001932 -0.002500
v -0.010822 0.007545 -0.002500
v -0.005729 0.012327 -0.002500
v -0.000900 0.012715 -0.002500
v -0.005730 0.012081 -0.002500
v -0.000667 0.012634 -0.002500
v 0.016901 0.004998 -0.002500
v 0.016931 0.004887 -0.002500
v 0.001839 0.000814 -0.002500
v 0.016960 0.004776 -0.002500
v 0.016999 0.004548 -0.002500
v -0.010970 -0.007363 -0.002500
v -0.007585 -0.010253 -0.002500
v -0.007815 -0.010337 -0.002500
v -0.010773 -0.006665 -0.002500
v -0.005802 -0.011203 -0.002500
v -0.005879 -0.011017 -0.002500
v 0.001143 -0.013236 -0.002500
v 0.001077 -0.013004 -0.002500
v 0.000975 -0.012787 -0.002500
v 0.000839 -0.012590 -0.002500
v -0.000302 -0.012048 -0.002500
v -0.000542 -0.012068 -0.002500
v 0.005569 -0.014302 -0.002500
v 0.005486 -0.015439 -0.002500
v 0.005390 -0.015930 -0.002500
v -0.006802 0.010794 -0.002500
v 0.000412 0.002361 -0.002500
v -0.006570 0.010880 -0.002500
v 0.001027 0.013425 -0.002500
v 0.005403 0.011347 -0.002500
v 0.000902 0.013213 -0.002500
v 0.005564 0.011160 -0.002500
v 0.000745 0.013025 -0.002500
v 0.005121 0.012216 -0.002500
v 0.005140 0.011977 -0.002500
v 0.007427 0.010999 -0.002500
v 0.010177 0.007011 -0.002500
v 0.007213 0.010877 -0.002500
v 0.010223 0.006769 -0.002500
v 0.006982 0.010793 -0.002500
v -0.004808 -0.016992 -0.002500
v -0.004919 -0.016963 -0.002500
v -0.005804 -0.012149 -0.002500
v -0.005030 -0.016932 -0.002500
v -0.016399 -0.001751 -0.002500
v -0.000845 0.002411 -0.002500
v -0.016749 -0.001871 -0.002500
v -0.001195 0.002290 -0.002500
v -0.001343 -0.001679 -0.002500
v -0.001645 -0.001484 -0.002500
v -0.001917 -0.001237 -0.002500
v -0.019135 -0.000948 -0.002500
v -0.018907 -0.001237 -0.002500
v -0.018635 -0.001484 -0.002500
v 0.000672 -0.012416 -0.002500
v 0.000512 -0.012294 -0.002500
v 0.005166 -0.012032 -0.002500
v 0.005200 -0.012149 -0.002500
v 0.005465 -0.013175 -0.002500
v 0.007332 -0.010400 -0.002500
v 0.007116 -0.010297 -0.002500
v 0.010428 -0.007459 -0.002500
v 0.006884 -0.010230 -0.002500
v -0.006461 0.010938 -0.002500
v -0.006262 0.011075 -0.002500
v -0.006090 0.011241 -0.002500
v -0.005804 0.012688 -0.002500
v -0.001746 0.013776 -0.002500
v -0.005769 0.012571 -0.002500
v -0.001680 0.013543 -0.002500
v -0.001578 0.013327 -0.002500
v -0.001443 0.013130 -0.002500
v -0.001275 0.012956 -0.002500
v -0.001115 0.012833 -0.002500
v 0.014270 0.006140 -0.002500
v 0.015407 0.006057 -0.002500
v 0.015898 0.005961 -0.002500
v -0.000774 -0.012126 -0.002500
v -0.000994 -0.012221 -0.002500
v -0.001197 -0.012352 -0.002500
v -0.018799 0.001885 -0.002500
v -0.019046 0.001613 -0.002500
v -0.018333 -0.001679 -0.002500
v -0.018006 -0.001821 -0.002500
v -0.017658 -0.001909 -0.002500
v 0.012144 0.000868 -0.002500
v 0.012063 0.000636 -0.002500
v 0.011644 -0.005153 -0.002500
v 0.011406 -0.005172 -0.002500
v 0.012854 -0.001059 -0.002500
v 0.012394 -0.012264 -0.002500
v 0.012313 -0.012345 -0.002500
v 0.007702 -0.010704 -0.002500
v 0.012232 -0.012426 -0.002500
v -0.010779 0.007308 -0.002500
v -0.010776 0.007066 -0.002500
v -0.011276 0.008273 -0.002500
v -0.008305 0.011244 -0.002500
v -0.011176 0.008178 -0.002500
v -0.008132 0.011076 -0.002500
v -0.007936 0.010939 -0.002500
v -0.007719 0.010836 -0.002500
v -0.007487 0.010769 -0.002500
v -0.007289 0.010743 -0.002500
v -0.004919 0.017502 -0.002500
v -0.004808 0.017531 -0.002500
v -0.000424 0.012593 -0.002500
v -0.000302 0.012588 -0.002500
v -0.000061 0.012608 -0.002500
v 0.005198 0.011743 -0.002500
v 0.005276 0.011556 -0.002500
v 0.005754 0.011003 -0.002500
v 0.005857 0.010938 -0.002500
v 0.006076 0.010834 -0.002500
v 0.007702 0.011244 -0.002500
v 0.010673 0.008274 -0.002500
v 0.007618 0.011155 -0.002500
v 0.010504 0.008100 -0.002500
v 0.010368 0.007904 -0.002500
v 0.010265 0.007688 -0.002500
v 0.010198 0.007456 -0.002500
v 0.010172 0.007256 -0.002500
v 0.011999 0.005737 -0.002500
v 0.012117 0.005772 -0.002500
v 0.013143 0.006036 -0.002500
v -0.005745 -0.011915 -0.002500
v -0.001718 -0.013118 -0.002500
v -0.001746 -0.013236 -0.002500
v -0.002030 -0.014257 -0.002500
v -0.016075 -0.001573 -0.002500
v -0.015786 -0.001345 -0.002500
v -0.015539 -0.001074 -0.002500
v -0.001519 0.002113 -0.002500
v -0.001808 0.001885 -0.002500
v -0.002055 0.001613 -0.002500
v 0.000064 0.002448 -0.002500
v -0.000302 0.002478 -0.002500
v -0.000479 0.002471 -0.002500
v -0.017836 0.002411 -0.002500
v -0.018186 0.002290 -0.002500
v -0.018510 0.002113 -0.002500
v 0.002207 -0.015779 -0.002500
v 0.001649 -0.014794 -0.002500
v 0.001257 -0.013724 -0.002500
v 0.005082 -0.016525 -0.002500
v 0.004930 -0.016671 -0.002500
v 0.006685 -0.010204 -0.002500
v 0.006440 -0.010209 -0.002500
v 0.010306 -0.007245 -0.002500
v 0.006198 -0.010255 -0.002500
v 0.010221 -0.007015 -0.002500
v -0.012917 0.012885 -0.002500
v -0.012835 0.012966 -0.002500
v -0.005948 0.011434 -0.002500
v -0.005837 0.011648 -0.002500
v -0.005773 0.011840 -0.002500
v 0.004205 0.017531 -0.002500
v 0.004316 0.017502 -0.002500
v 0.005200 0.012688 -0.002500
v 0.004426 0.017472 -0.002500
v 0.012313 0.012885 -0.002500
v 0.012394 0.012803 -0.002500
v 0.010862 0.005916 -0.002500
v 0.010670 0.006058 -0.002500
v 0.010504 0.006230 -0.002500
v 0.001313 0.001777 -0.002500
v 0.001041 0.002023 -0.002500
v 0.000739 0.002218 -0.002500
v -0.002503 -0.015285 -0.002500
v -0.003144 -0.016228 -0.002500
v -0.003473 -0.016606 -0.002500
v -0.005993 -0.015930 -0.002500
v -0.006153 -0.014883 -0.002500
v -0.015114 -0.000096 -0.002500
v -0.015084 0.000270 -0.002500
v -0.015091 0.000448 -0.002500
v -0.015151 0.000814 -0.002500
v -0.002480 0.000636 -0.002500
v -0.002510 0.000270 -0.002500
v -0.002503 0.000092 -0.002500
v -0.002443 -0.000274 -0.002500
v -0.002322 -0.000624 -0.002500
v -0.002145 -0.000948 -0.002500
v -0.015272 0.001164 -0.002500
v -0.015449 0.001488 -0.002500
v -0.015677 0.001777 -0.002500
v -0.015949 0.002023 -0.002500
v 0.003755 -0.017032 -0.002500
v 0.002953 -0.016688 -0.002500
v 0.002869 -0.016606 -0.002500
v 0.003535 -0.016996 -0.002500
v 0.003335 -0.016930 -0.002500
v 0.003135 -0.016825 -0.002500
v 0.005318 -0.016151 -0.002500
v 0.005216 -0.016347 -0.002500
v 0.004745 -0.016800 -0.002500
v 0.004538 -0.016896 -0.002500
v 0.010775 -0.005435 -0.002500
v 0.012642 -0.000934 -0.002500
v 0.010589 -0.005596 -0.002500
v 0.012454 -0.000777 -0.002500
v 0.011171 -0.005230 -0.002500
v 0.010985 -0.005308 -0.002500
v 0.005344 -0.010894 -0.002500
v 0.005487 -0.010702 -0.002500
v 0.005659 -0.010535 -0.002500
v 0.001205 -0.001345 -0.002500
v 0.001451 -0.001074 -0.002500
v 0.007529 -0.010536 -0.002500
v 0.010584 -0.007650 -0.002500
v 0.010673 -0.007734 -0.002500
v 0.011414 -0.008490 -0.002500
v -0.006172 0.014841 -0.002500
v -0.006089 0.015978 -0.002500
v -0.005030 0.017472 -0.002500
v -0.005993 0.016470 -0.002500
v 0.000171 0.012666 -0.002500
v 0.000391 0.012761 -0.002500
v 0.000594 0.012892 -0.002500
v 0.006306 0.010769 -0.002500
v 0.006544 0.010741 -0.002500
v 0.006785 0.010753 -0.002500
v 0.016494 0.005653 -0.002500
v 0.016639 0.005502 -0.002500
v 0.001541 0.001488 -0.002500
v 0.010310 0.006537 -0.002500
v 0.010366 0.006429 -0.002500
v 0.011077 0.005805 -0.002500
v 0.011267 0.005741 -0.002500
v -0.001015 -0.001821 -0.002500
v -0.006358 -0.010463 -0.002500
v -0.006461 -0.010398 -0.002500
v -0.006679 -0.010295 -0.002500
v -0.006909 -0.010229 -0.002500
v -0.007147 -0.010202 -0.002500
v -0.007388 -0.010213 -0.002500
v -0.006145 -0.013751 -0.002500
v -0.005948 -0.012628 -0.002500
v -0.015344 -0.000771 -0.002500
v -0.015201 -0.000444 -0.002500
v -0.002250 0.001311 -0.002500
v -0.002392 0.000984 -0.002500
v -0.016926 0.002448 -0.002500
v -0.017292 0.002478 -0.002500
v -0.017470 0.002471 -0.002500
v -0.019241 0.001311 -0.002500
v -0.019383 0.000984 -0.002500
v -0.019471 0.000636 -0.002500
v -0.019501 0.000270 -0.002500
v -0.019494 0.000092 -0.002500
v 0.010431 -0.005786 -0.002500
v 0.010366 -0.005889 -0.002500
v 0.010263 -0.006108 -0.002500
v 0.016960 -0.004237 -0.002500
v 0.016931 -0.004348 -0.002500
v 0.012117 -0.005232 -0.002500
v 0.016901 -0.004458 -0.002500
v 0.000916 -0.001573 -0.002500
v 0.005966 -0.010341 -0.002500
v 0.005857 -0.010398 -0.002500
v 0.005234 -0.011109 -0.002500
v 0.005169 -0.011300 -0.002500
v 0.001877 -0.000096 -0.002500
v 0.001907 0.000270 -0.002500
v 0.001900 0.000448 -0.002500
v 0.012068 -0.009414 -0.002500
v 0.012565 -0.010440 -0.002500
v 0.012727 -0.010914 -0.002500
v 0.010882 -0.012759 -0.002500
v 0.009895 -0.012374 -0.002500
v -0.012671 0.009953 -0.002500
v -0.013168 0.010979 -0.002500
v -0.012997 0.012803 -0.002500
v -0.013331 0.011454 -0.002500
v -0.006068 0.013714 -0.002500
v -0.003473 0.017145 -0.002500
v -0.002810 0.016318 -0.002500
v 0.005141 0.012454 -0.002500
v 0.001114 0.013656 -0.002500
v 0.001143 0.013776 -0.002500
v 0.001427 0.014796 -0.002500
v 0.009383 0.012640 -0.002500
v 0.010409 0.013136 -0.002500
v 0.012232 0.012966 -0.002500
v 0.010882 0.013299 -0.002500
v 0.016119 0.005890 -0.002500
v 0.016315 0.005787 -0.002500
v 0.016768 0.005317 -0.002500
v 0.016864 0.005111 -0.002500
v -0.012835 -0.012426 -0.002500
v -0.012917 -0.012345 -0.002500
v -0.011276 -0.007734 -0.002500
v -0.012997 -0.012264 -0.002500
v -0.004037 -0.016967 -0.002500
v -0.004241 -0.017017 -0.002500
v -0.005247 -0.016852 -0.002500
v -0.005440 -0.016742 -0.002500
v -0.005613 -0.016600 -0.002500
v -0.005750 -0.016446 -0.002500
v -0.016251 0.002218 -0.002500
v -0.016579 0.002361 -0.002500
v 0.013204 0.001714 -0.002500
v 0.012972 0.001648 -0.002500
v 0.012755 0.001546 -0.002500
v 0.012558 0.001411 -0.002500
v 0.012022 0.000392 -0.002500
v 0.012017 0.000270 -0.002500
v 0.012036 0.000029 -0.002500
v 0.001647 -0.000771 -0.002500
v 0.001789 -0.000444 -0.002500
v 0.008920 -0.011801 -0.002500
v 0.008045 -0.011070 -0.002500
v -0.012018 0.009030 -0.002500
v -0.011485 0.013299 -0.002500
v -0.010498 0.012914 -0.002500
v -0.002252 0.015334 -0.002500
v -0.001861 0.014264 -0.002500
v 0.001900 0.015824 -0.002500
v 0.002540 0.016767 -0.002500
v 0.002869 0.017145 -0.002500
v 0.005390 0.016470 -0.002500
v 0.005550 0.015423 -0.002500
v 0.008459 0.011986 -0.002500
v 0.012727 0.011454 -0.002500
v 0.012342 0.010466 -0.002500
v -0.003645 -0.016761 -0.002500
v -0.003832 -0.016880 -0.002500
v -0.004466 -0.017036 -0.002500
v -0.004693 -0.017017 -0.002500
v -0.005872 -0.016256 -0.002500
v -0.005961 -0.016047 -0.002500
v 0.012384 0.001243 -0.002500
v 0.012262 0.001083 -0.002500
v 0.010197 -0.006337 -0.002500
v 0.010170 -0.006575 -0.002500
v 0.010181 -0.006816 -0.002500
v 0.011883 -0.005173 -0.002500
v 0.013085 -0.001146 -0.002500
v 0.013204 -0.001174 -0.002500
v 0.014225 -0.001459 -0.002500
v 0.012758 -0.011583 -0.002500
v 0.012700 -0.011785 -0.002500
v 0.012054 -0.012574 -0.002500
v 0.011862 -0.012686 -0.002500
v 0.011654 -0.012765 -0.002500
v 0.011447 -0.012807 -0.002500
v -0.009523 0.012341 -0.002500
v -0.008649 0.011609 -0.002500
v -0.005922 0.016690 -0.002500
v -0.005819 0.016887 -0.002500
v -0.005685 0.017065 -0.002500
v -0.005533 0.017211 -0.002500
v -0.004138 0.017536 -0.002500
v -0.003939 0.017470 -0.002500
v 0.005541 0.014291 -0.002500
v 0.005345 0.013169 -0.002500
v 0.011769 0.009491 -0.002500
v 0.011037 0.008616 -0.002500
v -0.011108 -0.007561 -0.002500
v -0.008221 -0.010615 -0.002500
v -0.008305 -0.010704 -0.002500
v -0.009062 -0.011446 -0.002500
v 0.012094 -0.000203 -0.002500
v 0.012189 -0.000423 -0.002500
v 0.012320 -0.000626 -0.002500
v 0.015253 -0.001932 -0.002500
v 0.016196 -0.002572 -0.002500
v 0.016574 -0.002901 -0.002500
v 0.015898 -0.005422 -0.002500
v 0.014851 -0.005582 -0.002500
v 0.012776 -0.011141 -0.002500
v 0.012785 -0.011362 -0.002500
v 0.012603 -0.011990 -0.002500
v 0.012473 -0.012177 -0.002500
v 0.011221 -0.012817 -0.002500
v 0.010996 -0.012789 -0.002500
v -0.013379 0.011680 -0.002500
v -0.013388 0.011902 -0.002500
v -0.013361 0.012123 -0.002500
v -0.013303 0.012325 -0.002500
v -0.012257 0.013304 -0.002500
v -0.012052 0.013347 -0.002500
v -0.005347 0.017340 -0.002500
v -0.005141 0.017436 -0.002500
v -0.004580 0.017571 -0.002500
v -0.004358 0.017571 -0.002500
v -0.003739 0.017365 -0.002500
v -0.003557 0.017228 -0.002500
v 0.003434 0.017506 -0.002500
v 0.003638 0.017557 -0.002500
v 0.004644 0.017392 -0.002500
v 0.004836 0.017281 -0.002500
v 0.005009 0.017140 -0.002500
v 0.005148 0.016984 -0.002500
v 0.011109 0.013347 -0.002500
v 0.011330 0.013357 -0.002500
v 0.011552 0.013330 -0.002500
v 0.011754 0.013271 -0.002500
v 0.012733 0.012225 -0.002500
v 0.012775 0.012019 -0.002500
v -0.009985 -0.012100 -0.002500
v -0.011011 -0.012596 -0.002500
v -0.011485 -0.012759 -0.002500
v -0.013331 -0.010914 -0.002500
v -0.012946 -0.009927 -0.002500
v 0.015747 0.002778 -0.002500
v 0.014762 0.002220 -0.002500
v 0.013692 0.001829 -0.002500
v 0.013720 -0.005573 -0.002500
v 0.012597 -0.005377 -0.002500
v -0.013206 0.012529 -0.002500
v -0.013076 0.012716 -0.002500
v -0.012657 0.013114 -0.002500
v -0.012465 0.013225 -0.002500
v -0.011826 0.013357 -0.002500
v -0.011600 0.013328 -0.002500
v 0.003041 0.017300 -0.002500
v 0.003229 0.017419 -0.002500
v 0.003863 0.017575 -0.002500
v 0.004090 0.017556 -0.002500
v 0.005270 0.016794 -0.002500
v 0.005358 0.016584 -0.002500
v 0.011958 0.013175 -0.002500
v 0.012145 0.013045 -0.002500
v 0.012542 0.012625 -0.002500
v 0.012654 0.012434 -0.002500
v 0.012785 0.011794 -0.002500
v 0.012757 0.011568 -0.002500
v -0.012372 -0.008951 -0.002500
v -0.011641 -0.008077 -0.002500
v 0.017000 0.004325 -0.002500
v 0.016659 0.003528 -0.002500
v 0.016574 0.003441 -0.002500
v 0.016964 0.004105 -0.002500
v 0.016899 0.003910 -0.002500
v 0.016795 0.003709 -0.002500
v 0.016935 -0.003465 -0.002500
v 0.016986 -0.003671 -0.002500
v 0.016820 -0.004676 -0.002500
v 0.016710 -0.004868 -0.002500
v 0.016569 -0.005041 -0.002500
v 0.016412 -0.005180 -0.002500
v -0.012155 -0.012790 -0.002500
v -0.012356 -0.012732 -0.002500
v -0.013146 -0.012086 -0.002500
v -0.013257 -0.011894 -0.002500
v -0.013336 -0.011685 -0.002500
v -0.013379 -0.011480 -0.002500
v 0.016729 -0.003073 -0.002500
v 0.016847 -0.003260 -0.002500
v 0.017004 -0.003897 -0.002500
v 0.016984 -0.004124 -0.002500
v 0.016222 -0.005302 -0.002500
v 0.016012 -0.005390 -0.002500
v -0.011712 -0.012808 -0.002500
v -0.011934 -0.012817 -0.002500
v -0.012561 -0.012635 -0.002500
v -0.012747 -0.012505 -0.002500
v -0.013388 -0.011254 -0.002500
v -0.013360 -0.011028 -0.002500
v -0.130515 -0.058411 0.002500
v -0.127102 -0.071989 0.002500
v -0.093300 0.006704 0.002500
v -0.089888 -0.006874 0.002500
v -0.005725 -0.011676 0.002500
v -0.005745 -0.011915 0.002500
v -0.001630 -0.012886 0.002500
v 0.005166 -0.012032 0.002500
v 0.005126 -0.011788 0.002500
v 0.001077 -0.013004 0.002500
v 0.000975 -0.012787 0.002500
v 0.007618 0.011155 0.002500
v 0.007427 0.010999 0.002500
v 0.010504 0.008100 0.002500
v -0.001917 -0.001237 0.002500
v -0.002145 -0.000948 0.002500
v -0.010776 0.007066 0.002500
v -0.000845 0.002411 0.002500
v -0.004580 0.017571 0.002500
v -0.004808 0.017531 0.002500
v -0.015449 0.001488 0.002500
v -0.015272 0.001164 0.002500
v -0.006006 -0.010807 0.002500
v -0.005879 -0.011017 0.002500
v 0.010368 0.007904 0.002500
v 0.005121 0.012216 0.002500
v 0.005141 0.012454 0.002500
v 0.001027 0.013425 0.002500
v -0.011176 0.008178 0.002500
v -0.011023 0.007986 0.002500
v -0.008132 0.011076 0.002500
v -0.015677 0.001777 0.002500
v -0.019135 -0.000948 0.002500
v -0.019313 -0.000624 0.002500
v -0.017470 0.002471 0.002500
v -0.017836 0.002411 0.002500
v -0.018186 0.002290 0.002500
v -0.005802 -0.011203 0.002500
v -0.005744 -0.011438 0.002500
v -0.005804 -0.012149 0.002500
v -0.001746 -0.013236 0.002500
v -0.001718 -0.013118 0.002500
v 0.000297 -0.012175 0.002500
v 0.000512 -0.012294 0.002500
v 0.000065 -0.012094 0.002500
v 0.006198 -0.010255 0.002500
v 0.006440 -0.010209 0.002500
v 0.001313 0.001777 0.002500
v 0.001541 0.001488 0.002500
v 0.010223 0.006769 0.002500
v 0.006306 0.010769 0.002500
v 0.006076 0.010834 0.002500
v -0.000302 0.002478 0.002500
v 0.011644 -0.005153 0.002500
v 0.011883 -0.005173 0.002500
v 0.012854 -0.001059 0.002500
v -0.001808 0.001885 0.002500
v -0.001519 0.002113 0.002500
v -0.006802 0.010794 0.002500
v -0.007936 0.010939 0.002500
v 0.000171 0.012666 0.002500
v -0.000061 0.012608 0.002500
v -0.000302 0.012588 0.002500
v -0.000479 0.002471 0.002500
v -0.000424 0.012593 0.002500
v -0.000667 0.012634 0.002500
v -0.000900 0.012715 0.002500
v -0.001115 0.012833 0.002500
v -0.001746 0.013776 0.002500
v -0.001680 0.013543 0.002500
v -0.001578 0.013327 0.002500
v -0.015786 -0.001345 0.002500
v -0.016075 -0.001573 0.002500
v -0.010776 -0.006527 0.002500
v -0.019046 0.001613 0.002500
v -0.018799 0.001885 0.002500
v -0.018510 0.002113 0.002500
v 0.000672 -0.012416 0.002500
v 0.000839 -0.012590 0.002500
v -0.010773 -0.006665 0.002500
v -0.010800 -0.006909 0.002500
v -0.008030 -0.010459 0.002500
v 0.006685 -0.010204 0.002500
v 0.006884 -0.010230 0.002500
v 0.007213 0.010877 0.002500
v 0.010177 0.007011 0.002500
v 0.010172 0.007256 0.002500
v 0.000902 0.013213 0.002500
v 0.005564 0.011160 0.002500
v 0.005403 0.011347 0.002500
v 0.005276 0.011556 0.002500
v 0.007529 -0.010536 0.002500
v 0.010428 -0.007459 0.002500
v 0.007332 -0.010400 0.002500
v 0.007116 -0.010297 0.002500
v 0.000592 -0.001751 0.002500
v 0.000242 -0.001871 0.002500
v -0.000124 -0.001932 0.002500
v -0.004919 0.017502 0.002500
v -0.005030 0.017472 0.002500
v -0.005141 0.017436 0.002500
v -0.006089 0.015978 0.002500
v -0.006172 0.014841 0.002500
v -0.006068 0.013714 0.002500
v -0.005804 0.012688 0.002500
v -0.001195 0.002290 0.002500
v -0.005769 0.012571 0.002500
v -0.001275 0.012956 0.002500
v -0.001443 0.013130 0.002500
v 0.005200 -0.012149 0.002500
v 0.004316 -0.016963 0.002500
v 0.004426 -0.016932 0.002500
v 0.016960 0.004776 0.002500
v 0.016931 0.004887 0.002500
v 0.001839 0.000814 0.002500
v 0.016901 0.004998 0.002500
v 0.016864 0.005111 0.002500
v 0.015407 0.006057 0.002500
v 0.014270 0.006140 0.002500
v 0.013143 0.006036 0.002500
v 0.012117 0.005772 0.002500
v 0.001719 0.001164 0.002500
v 0.011999 0.005737 0.002500
v 0.010198 0.007456 0.002500
v 0.010265 0.007688 0.002500
v 0.005857 0.010938 0.002500
v 0.005754 0.011003 0.002500
v 0.005198 0.011743 0.002500
v 0.005140 0.011977 0.002500
v 0.005200 0.012688 0.002500
v 0.001143 0.013776 0.002500
v 0.001114 0.013656 0.002500
v 0.007702 -0.010704 0.002500
v 0.010673 -0.007734 0.002500
v 0.010584 -0.007650 0.002500
v -0.000302 -0.001939 0.002500
v -0.000668 -0.001909 0.002500
v -0.001015 -0.001821 0.002500
v -0.010904 0.007773 0.002500
v -0.007044 0.010748 0.002500
v -0.007289 0.010743 0.002500
v 0.001143 -0.013236 0.002500
v 0.001257 -0.013724 0.002500
v -0.006167 -0.010621 0.002500
v -0.001506 -0.012674 0.002500
v -0.001349 -0.012486 0.002500
v -0.000774 -0.012126 0.002500
v -0.000542 -0.012068 0.002500
v -0.000302 -0.012048 0.002500
v 0.005659 -0.010535 0.002500
v 0.005487 -0.010702 0.002500
v 0.005344 -0.010894 0.002500
v 0.005857 -0.010398 0.002500
v 0.005966 -0.010341 0.002500
v 0.011755 0.005697 0.002500
v 0.011509 0.005699 0.002500
v 0.011267 0.005741 0.002500
v 0.007702 0.011244 0.002500
v 0.012313 0.012885 0.002500
v 0.012232 0.012966 0.002500
v 0.000745 0.013025 0.002500
v 0.000594 0.012892 0.002500
v 0.000391 0.012761 0.002500
v 0.010985 -0.005308 0.002500
v 0.011171 -0.005230 0.002500
v 0.011406 -0.005172 0.002500
v 0.012117 -0.005232 0.002500
v 0.013204 -0.001174 0.002500
v 0.013085 -0.001146 0.002500
v 0.001451 -0.001074 0.002500
v 0.001205 -0.001345 0.002500
v 0.000916 -0.001573 0.002500
v 0.012642 -0.000934 0.002500
v 0.010589 -0.005596 0.002500
v 0.010775 -0.005435 0.002500
v 0.012755 0.001546 0.002500
v 0.012972 0.001648 0.002500
v -0.001343 -0.001679 0.002500
v -0.001645 -0.001484 0.002500
v -0.002443 -0.000274 0.002500
v -0.002503 0.000092 0.002500
v -0.005729 0.012327 0.002500
v -0.005730 0.012081 0.002500
v -0.005773 0.011840 0.002500
v -0.007487 0.010769 0.002500
v -0.007719 0.010836 0.002500
v -0.002322 -0.000624 0.002500
v -0.010779 0.007308 0.002500
v -0.010822 0.007545 0.002500
v -0.005685 0.017065 0.002500
v -0.005819 0.016887 0.002500
v -0.001861 0.014264 0.002500
v -0.002252 0.015334 0.002500
v -0.002810 0.016318 0.002500
v -0.017292 0.002478 0.002500
v -0.016926 0.002448 0.002500
v -0.016579 0.002361 0.002500
v -0.016399 -0.001751 0.002500
v -0.016749 -0.001871 0.002500
v -0.017115 -0.001932 0.002500
v -0.018333 -0.001679 0.002500
v -0.018635 -0.001484 0.002500
v -0.018907 -0.001237 0.002500
v -0.006145 -0.013751 0.002500
v -0.006153 -0.014883 0.002500
v -0.005030 -0.016932 0.002500
v -0.005993 -0.015930 0.002500
v -0.005961 -0.016047 0.002500
v -0.004919 -0.016963 0.002500
v -0.004808 -0.016992 0.002500
v -0.004693 -0.017017 0.002500
v -0.003144 -0.016228 0.002500
v -0.002503 -0.015285 0.002500
v -0.002030 -0.014257 0.002500
v -0.010867 -0.007144 0.002500
v -0.010970 -0.007363 0.002500
v -0.011108 -0.007561 0.002500
v -0.007388 -0.010213 0.002500
v -0.007147 -0.010202 0.002500
v -0.006909 -0.010229 0.002500
v -0.006679 -0.010295 0.002500
v -0.000179 -0.012053 0.002500
v -0.006358 -0.010463 0.002500
v -0.006461 -0.010398 0.002500
v -0.001197 -0.012352 0.002500
v -0.000994 -0.012221 0.002500
v 0.000064 0.002448 0.002500
v 0.000412 0.002361 0.002500
v 0.011077 0.005805 0.002500
v 0.010862 0.005916 0.002500
v 0.010670 0.006058 0.002500
v 0.010504 0.006230 0.002500
v 0.010366 0.006429 0.002500
v 0.010310 0.006537 0.002500
v 0.016494 0.005653 0.002500
v 0.016315 0.005787 0.002500
v 0.010673 0.008274 0.002500
v 0.011037 0.008616 0.002500
v 0.006982 0.010793 0.002500
v 0.006785 0.010753 0.002500
v 0.006544 0.010741 0.002500
v -0.002510 0.000270 0.002500
v -0.002480 0.000636 0.002500
v -0.002392 0.000984 0.002500
v -0.005837 0.011648 0.002500
v -0.005948 0.011434 0.002500
v -0.006090 0.011241 0.002500
v -0.006262 0.011075 0.002500
v -0.006461 0.010938 0.002500
v -0.006570 0.010880 0.002500
v -0.011276 0.008273 0.002500
v -0.012917 0.012885 0.002500
v -0.012997 0.012803 0.002500
v -0.005347 0.017340 0.002500
v -0.005533 0.017211 0.002500
v -0.005922 0.016690 0.002500
v -0.005993 0.016470 0.002500
v -0.004138 0.017536 0.002500
v -0.003557 0.017228 0.002500
v -0.003939 0.017470 0.002500
v -0.003739 0.017365 0.002500
v -0.003473 0.017145 0.002500
v -0.004358 0.017571 0.002500
v -0.016251 0.002218 0.002500
v -0.015949 0.002023 0.002500
v -0.015114 -0.000096 0.002500
v -0.015201 -0.000444 0.002500
v -0.019434 -0.000274 0.002500
v -0.019494 0.000092 0.002500
v -0.019501 0.000270 0.002500
v -0.019471 0.000636 0.002500
v -0.019383 0.000984 0.002500
v -0.019241 0.001311 0.002500
v -0.005948 -0.012628 0.002500
v 0.002869 -0.016606 0.002500
v 0.002953 -0.016688 0.002500
v 0.005486 -0.015439 0.002500
v 0.005569 -0.014302 0.002500
v 0.005465 -0.013175 0.002500
v -0.007815 -0.010337 0.002500
v -0.007585 -0.010253 0.002500
v 0.005127 -0.011541 0.002500
v 0.005169 -0.011300 0.002500
v 0.005234 -0.011109 0.002500
v 0.000739 0.002218 0.002500
v 0.001041 0.002023 0.002500
v 0.016768 0.005317 0.002500
v 0.016639 0.005502 0.002500
v 0.016119 0.005890 0.002500
v 0.015898 0.005961 0.002500
v 0.012094 -0.000203 0.002500
v 0.012036 0.000029 0.002500
v 0.012017 0.000270 0.002500
v 0.012022 0.000392 0.002500
v 0.012063 0.000636 0.002500
v 0.012144 0.000868 0.002500
v 0.012262 0.001083 0.002500
v 0.016999 0.004548 0.002500
v 0.013204 0.001714 0.002500
v -0.002250 0.001311 0.002500
v -0.002055 0.001613 0.002500
v -0.008305 0.011244 0.002500
v -0.008649 0.011609 0.002500
v -0.015151 0.000814 0.002500
v -0.015091 0.000448 0.002500
v -0.015084 0.000270 0.002500
v -0.015344 -0.000771 0.002500
v -0.015539 -0.001074 0.002500
v -0.017292 -0.001939 0.002500
v -0.017658 -0.001909 0.002500
v -0.018006 -0.001821 0.002500
v -0.005247 -0.016852 0.002500
v -0.005440 -0.016742 0.002500
v -0.005613 -0.016600 0.002500
v -0.004037 -0.016967 0.002500
v -0.003832 -0.016880 0.002500
v 0.001649 -0.014794 0.002500
v 0.002207 -0.015779 0.002500
v 0.012727 0.011454 0.002500
v 0.012757 0.011568 0.002500
v 0.010409 0.013136 0.002500
v 0.009383 0.012640 0.002500
v 0.008459 0.011986 0.002500
v 0.005541 0.014291 0.002500
v 0.005550 0.015423 0.002500
v 0.004426 0.017472 0.002500
v 0.005390 0.016470 0.002500
v 0.005358 0.016584 0.002500
v 0.004316 0.017502 0.002500
v 0.004205 0.017531 0.002500
v 0.004090 0.017556 0.002500
v 0.002540 0.016767 0.002500
v 0.001900 0.015824 0.002500
v 0.001427 0.014796 0.002500
v 0.008920 -0.011801 0.002500
v 0.009895 -0.012374 0.002500
v 0.012232 -0.012426 0.002500
v 0.010882 -0.012759 0.002500
v 0.010996 -0.012789 0.002500
v 0.012313 -0.012345 0.002500
v 0.012394 -0.012264 0.002500
v 0.012473 -0.012177 0.002500
v 0.012565 -0.010440 0.002500
v 0.012068 -0.009414 0.002500
v 0.011414 -0.008490 0.002500
v 0.001900 0.000448 0.002500
v 0.001907 0.000270 0.002500
v 0.012384 0.001243 0.002500
v 0.012558 0.001411 0.002500
v -0.005872 -0.016256 0.002500
v -0.005750 -0.016446 0.002500
v -0.004466 -0.017036 0.002500
v -0.004241 -0.017017 0.002500
v -0.003645 -0.016761 0.002500
v -0.003473 -0.016606 0.002500
v 0.003535 -0.016996 0.002500
v 0.003755 -0.017032 0.002500
v 0.004745 -0.016800 0.002500
v 0.004930 -0.016671 0.002500
v 0.005390 -0.015930 0.002500
v 0.005082 -0.016525 0.002500
v 0.005216 -0.016347 0.002500
v 0.005318 -0.016151 0.002500
v -0.011276 -0.007734 0.002500
v -0.008305 -0.010704 0.002500
v -0.008221 -0.010615 0.002500
v 0.011769 0.009491 0.002500
v 0.012342 0.010466 0.002500
v 0.005345 0.013169 0.002500
v 0.008045 -0.011070 0.002500
v 0.013720 -0.005573 0.002500
v 0.014851 -0.005582 0.002500
v 0.016901 -0.004458 0.002500
v 0.015898 -0.005422 0.002500
v 0.016012 -0.005390 0.002500
v 0.016931 -0.004348 0.002500
v 0.016960 -0.004237 0.002500
v 0.016984 -0.004124 0.002500
v 0.016196 -0.002572 0.002500
v 0.015253 -0.001932 0.002500
v 0.014225 -0.001459 0.002500
v 0.012454 -0.000777 0.002500
v 0.012320 -0.000626 0.002500
v 0.012189 -0.000423 0.002500
v -0.011485 0.013299 0.002500
v -0.011600 0.013328 0.002500
v -0.013168 0.010979 0.002500
v -0.012671 0.009953 0.002500
v -0.012018 0.009030 0.002500
v 0.003135 -0.016825 0.002500
v 0.003335 -0.016930 0.002500
v 0.003976 -0.017031 0.002500
v 0.004205 -0.016992 0.002500
v 0.004538 -0.016896 0.002500
v 0.012733 0.012225 0.002500
v 0.012654 0.012434 0.002500
v 0.011958 0.013175 0.002500
v 0.011754 0.013271 0.002500
v 0.010882 0.013299 0.002500
v 0.011552 0.013330 0.002500
v 0.011330 0.013357 0.002500
v 0.011109 0.013347 0.002500
v 0.004644 0.017392 0.002500
v 0.004836 0.017281 0.002500
v 0.005009 0.017140 0.002500
v 0.003434 0.017506 0.002500
v 0.003229 0.017419 0.002500
v 0.012054 -0.012574 0.002500
v 0.011862 -0.012686 0.002500
v 0.011654 -0.012765 0.002500
v 0.012758 -0.011583 0.002500
v 0.012785 -0.011362 0.002500
v 0.012597 -0.005377 0.002500
v 0.010181 -0.006816 0.002500
v 0.010170 -0.006575 0.002500
v 0.010197 -0.006337 0.002500
v 0.001877 -0.000096 0.002500
v 0.001789 -0.000444 0.002500
v 0.001647 -0.000771 0.002500
v 0.013692 0.001829 0.002500
v 0.014762 0.002220 0.002500
v 0.015747 0.002778 0.002500
v -0.009523 0.012341 0.002500
v -0.010498 0.012914 0.002500
v 0.012785 0.011794 0.002500
v 0.012775 0.012019 0.002500
v 0.012542 0.012625 0.002500
v 0.012394 0.012803 0.002500
v 0.012145 0.013045 0.002500
v 0.005270 0.016794 0.002500
v 0.005148 0.016984 0.002500
v 0.003863 0.017575 0.002500
v 0.003638 0.017557 0.002500
v 0.003041 0.017300 0.002500
v 0.002869 0.017145 0.002500
v 0.011221 -0.012817 0.002500
v 0.011447 -0.012807 0.002500
v 0.012603 -0.011990 0.002500
v 0.012700 -0.011785 0.002500
v 0.012776 -0.011141 0.002500
v 0.012727 -0.010914 0.002500
v 0.016820 -0.004676 0.002500
v 0.016710 -0.004868 0.002500
v 0.016569 -0.005041 0.002500
v 0.016935 -0.003465 0.002500
v 0.016847 -0.003260 0.002500
v 0.010306 -0.007245 0.002500
v 0.010221 -0.007015 0.002500
v 0.016964 0.004105 0.002500
v 0.016659 0.003528 0.002500
v 0.016899 0.003910 0.002500
v 0.016795 0.003709 0.002500
v 0.016574 0.003441 0.002500
v 0.017000 0.004325 0.002500
v -0.012257 0.013304 0.002500
v -0.012465 0.013225 0.002500
v -0.013206 0.012529 0.002500
v -0.013303 0.012325 0.002500
v -0.013331 0.011454 0.002500
v -0.013361 0.012123 0.002500
v -0.013388 0.011902 0.002500
v -0.013379 0.011680 0.002500
v 0.016222 -0.005302 0.002500
v 0.016412 -0.005180 0.002500
v 0.017004 -0.003897 0.002500
v 0.016986 -0.003671 0.002500
v 0.016729 -0.003073 0.002500
v 0.016574 -0.002901 0.002500
v -0.011826 0.013357 0.002500
v -0.012052 0.013347 0.002500
v -0.012657 0.013114 0.002500
v -0.012835 0.012966 0.002500
v -0.013076 0.012716 0.002500
v -0.012372 -0.008951 0.002500
v -0.012946 -0.009927 0.002500
v -0.012997 -0.012264 0.002500
v -0.013331 -0.010914 0.002500
v -0.013360 -0.011028 0.002500
v -0.012917 -0.012345 0.002500
v -0.012835 -0.012426 0.002500
v -0.012747 -0.012505 0.002500
v -0.011011 -0.012596 0.002500
v -0.009985 -0.012100 0.002500
v -0.009062 -0.011446 0.002500
v 0.010263 -0.006108 0.002500
v 0.010366 -0.005889 0.002500
v 0.010431 -0.005786 0.002500
v -0.011641 -0.008077 0.002500
v -0.013146 -0.012086 0.002500
v -0.013257 -0.011894 0.002500
v -0.013336 -0.011685 0.002500
v -0.012155 -0.012790 0.002500
v -0.011934 -0.012817 0.002500
v -0.013388 -0.011254 0.002500
v -0.013379 -0.011480 0.002500
v -0.012561 -0.012635 0.002500
v -0.012356 -0.012732 0.002500
v -0.011712 -0.012808 0.002500
v -0.011485 -0.012759 0.002500
vn 0.000000 0.000000 -1.000000
vn -0.000000 -0.000000 1.000000
vn -0.969800 -0.243800 0.000000
vn -0.868200 0.496200 0.000000
vn -0.004400 1.000000 0.000000
vn -0.999900 -0.015100 0.000000
vn -0.984000 -0.178300 0.000000
vn -0.984000 -0.178200 0.000000
vn -0.941600 -0.336800 0.000000
vn -0.873300 -0.487100 0.000000
vn -0.780400 -0.625300 0.000000
vn -0.692500 -0.721500 0.000000
vn -0.714000 -0.700100 0.000000
vn -0.816200 -0.577800 0.000000
vn -0.900200 -0.435600 0.000000
vn -0.945700 -0.325200 0.000000
vn -0.978100 -0.208000 0.000000
vn -0.999100 -0.042300 0.000000
vn -0.992600 0.121200 0.000000
vn -0.960800 0.277100 0.000000
vn -0.904200 0.427200 0.000000
vn -0.820400 0.571700 0.000000
vn -0.741400 0.671100 0.000000
vn -0.709000 0.705200 0.000000
vn -0.705200 0.709000 0.000000
vn -0.639400 0.768900 0.000000
vn -0.502600 0.864500 0.000000
vn -0.354800 0.934900 0.000000
vn -0.202200 0.979300 0.000000
vn -0.043300 0.999100 0.000000
vn 0.123600 0.992300 0.000000
vn 0.248600 0.968600 0.000000
vn 0.363300 0.931700 0.000000
vn 0.506700 0.862100 0.000000
vn 0.641800 0.766900 0.000000
vn 0.728600 0.684900 0.000000
vn 0.696700 0.717300 0.000000
vn 0.570500 0.821300 0.000000
vn 0.429400 0.903100 0.000000
vn 0.276700 0.961000 0.000000
vn 0.130400 0.991500 0.000000
vn -0.020200 0.999800 0.000000
vn -0.186500 0.982500 0.000000
vn -0.186400 0.982500 0.000000
vn -0.348500 0.937300 0.000000
vn -0.463400 0.886100 0.000000
vn -0.569000 0.822300 0.000000
vn -0.695400 0.718600 0.000000
vn -0.803000 0.596000 0.000000
vn -0.889300 0.457400 0.000000
vn -0.947700 0.319200 0.000000
vn -0.985000 0.172400 0.000000
vn -1.000000 0.005900 0.000000
vn -0.986800 -0.161800 0.000000
vn -0.958800 -0.284000 0.000000
vn -0.968400 -0.249300 0.000000
vn -0.995700 -0.092300 0.000000
vn -0.997300 0.072900 0.000000
vn -0.981500 0.191300 0.000000
vn -0.951200 0.308700 0.000000
vn -0.886500 0.462700 0.000000
vn -0.799200 0.601100 0.000000
vn -0.693300 0.720700 0.000000
vn -0.568600 0.822600 0.000000
vn -0.423800 0.905700 0.000000
vn -0.306100 0.952000 0.000000
vn -0.261900 0.965100 0.000000
vn -0.255200 0.966900 0.000000
vn -0.169300 0.985600 0.000000
vn -0.003000 1.000000 0.000000
vn 0.160200 0.987100 0.000000
vn 0.314500 0.949300 0.000000
vn 0.462000 0.886900 0.000000
vn 0.603100 0.797600 0.000000
vn 0.699500 0.714600 0.000000
vn 0.780500 0.625200 0.000000
vn 0.869900 0.493300 -0.000000
vn 0.939200 0.343300 0.000000
vn 0.973400 0.228900 0.000000
vn 0.962100 0.272700 0.000000
vn 0.904800 0.425800 0.000000
vn 0.823600 0.567200 0.000000
vn 0.720300 0.693700 0.000000
vn 0.608300 0.793700 0.000000
vn 0.481400 0.876500 0.000000
vn 0.328600 0.944500 0.000000
vn 0.165600 0.986200 0.000000
vn 0.040900 0.999200 0.000000
vn -0.081500 0.996700 -0.000000
vn -0.242900 0.970100 0.000000
vn -0.397400 0.917700 0.000000
vn -0.541400 0.840800 0.000000
vn -0.661100 0.750300 0.000000
vn -0.766700 0.642000 0.000000
vn -0.862900 0.505300 0.000000
vn -0.935400 0.353500 -0.000000
vn -0.972300 0.233600 -0.000000
vn -0.963300 0.268300 -0.000000
vn -0.908500 0.418000 0.000000
vn -0.827300 0.561800 0.000000
vn -0.754400 0.656400 0.000000
vn -0.669100 0.743200 0.000000
vn -0.536100 0.844100 -0.000000
vn -0.391300 0.920300 0.000000
vn -0.240400 0.970700 0.000000
vn -0.082100 0.996600 0.000000
vn 0.085000 0.996400 0.000000
vn 0.210600 0.977600 0.000000
vn 0.255000 0.966900 0.000000
vn 0.261700 0.965100 0.000000
vn 0.346200 0.938200 0.000000
vn 0.497500 0.867500 0.000000
vn 0.632400 0.774700 0.000000
vn 0.747000 0.664800 0.000000
vn 0.843500 0.537200 0.000000
vn 0.921100 0.389300 0.000000
vn 0.963100 0.269100 0.000000
vn 0.988500 0.151200 0.000000
vn 1.000000 -0.007800 0.000000
vn 0.985000 -0.172300 0.000000
vn 0.957500 -0.288500 0.000000
vn 0.969500 -0.245000 0.000000
vn 0.996500 -0.083700 0.000000
vn 0.996800 0.079400 0.000000
vn 0.970600 0.240500 0.000000
vn 0.923700 0.383200 0.000000
vn 0.855200 0.518300 0.000000
vn 0.756900 0.653500 0.000000
vn 0.636600 0.771200 0.000000
vn 0.535200 0.844700 0.000000
vn 0.427600 0.904000 0.000000
vn 0.274500 0.961600 0.000000
vn 0.114500 0.993400 0.000000
vn -0.048600 0.998800 0.000000
vn -0.197400 0.980300 0.000000
vn -0.343100 0.939300 0.000000
vn -0.494700 0.869100 0.000000
vn -0.633400 0.773800 0.000000
vn -0.725200 0.688500 0.000000
vn -0.700100 0.714000 0.000000
vn -0.577700 0.816200 0.000000
vn -0.435500 0.900200 0.000000
vn -0.325100 0.945700 0.000000
vn -0.208000 0.978100 0.000000
vn -0.042300 0.999100 0.000000
vn 0.121200 0.992600 0.000000
vn 0.277100 0.960800 0.000000
vn 0.427200 0.904100 0.000000
vn 0.571800 0.820400 0.000000
vn 0.671300 0.741200 0.000000
vn 0.704900 0.709300 0.000000
vn 0.709300 0.704900 0.000000
vn 0.768900 0.639400 0.000000
vn 0.864500 0.502600 0.000000
vn 0.934900 0.354800 0.000000
vn 0.979400 0.202100 0.000000
vn 0.999100 0.043100 0.000000
vn 0.992300 -0.123900 0.000000
vn 0.968600 -0.248700 0.000000
vn 0.931700 -0.363300 0.000000
vn 0.862100 -0.506700 0.000000
vn 0.766900 -0.641800 0.000000
vn 0.685000 -0.728600 0.000000
vn 0.717100 -0.696900 0.000000
vn 0.821100 -0.570700 0.000000
vn 0.903000 -0.429700 0.000000
vn 0.960900 -0.277000 0.000000
vn 0.991500 -0.130000 0.000000
vn 0.999800 0.021200 0.000000
vn 0.982300 0.187500 0.000000
vn 0.936900 0.349500 0.000000
vn 0.885900 0.464000 0.000000
vn 0.822300 0.569100 0.000000
vn 0.718500 0.695500 0.000000
vn 0.595900 0.803000 0.000000
vn 0.595900 0.803100 0.000000
vn 0.457300 0.889300 0.000000
vn 0.319500 0.947600 0.000000
vn 0.173100 0.984900 0.000000
vn 0.006700 1.000000 0.000000
vn -0.161100 0.986900 0.000000
vn -0.283700 0.958900 0.000000
vn -0.249300 0.968400 0.000000
vn -0.092300 0.995700 0.000000
vn 0.073000 0.997300 0.000000
vn 0.191300 0.981500 0.000000
vn 0.309000 0.951000 0.000000
vn 0.463000 0.886400 0.000000
vn 0.601400 0.799000 0.000000
vn 0.720200 0.693700 0.000000
vn 0.821700 0.570000 0.000000
vn 0.905100 0.425200 0.000000
vn 0.951800 0.306900 0.000000
vn 0.965300 0.261300 0.000000
vn 0.966700 0.255800 0.000000
vn 0.985700 0.168800 0.000000
vn 1.000000 0.002500 0.000000
vn 0.987000 -0.160800 0.000000
vn 0.949600 -0.313600 0.000000
vn 0.949500 -0.313600 0.000000
vn 0.888000 -0.459800 0.000000
vn 0.799100 -0.601300 0.000000
vn 0.799100 -0.601200 0.000000
vn 0.715300 -0.698800 0.000000
vn 0.625200 -0.780500 0.000000
vn 0.493200 -0.869900 0.000000
vn 0.343300 -0.939200 0.000000
vn 0.228900 -0.973500 0.000000
vn 0.272600 -0.962100 0.000000
vn 0.425800 -0.904800 0.000000
vn 0.567200 -0.823600 0.000000
vn 0.693700 -0.720300 0.000000
vn 0.793700 -0.608300 0.000000
vn 0.876400 -0.481600 0.000000
vn 0.944400 -0.328900 0.000000
vn 0.986100 -0.165900 0.000000
vn 0.999200 -0.041100 0.000000
vn 0.996700 0.081500 0.000000
vn 0.970000 0.242900 0.000000
vn 0.917700 0.397400 0.000000
vn 0.917600 0.397400 0.000000
vn 0.840800 0.541400 0.000000
vn 0.750200 0.661200 0.000000
vn 0.641700 0.766900 0.000000
vn 0.505000 0.863100 0.000000
vn 0.353200 0.935500 0.000000
vn 0.233400 0.972400 0.000000
vn 0.268300 0.963300 0.000000
vn 0.418000 0.908500 0.000000
vn 0.561800 0.827200 0.000000
vn 0.561800 0.827300 0.000000
vn 0.656400 0.754400 0.000000
vn 0.743000 0.669200 0.000000
vn 0.844000 0.536300 0.000000
vn 0.920200 0.391500 0.000000
vn 0.970800 0.239900 0.000000
vn 0.996700 0.080800 0.000000
vn 0.996300 -0.086100 0.000000
vn 0.977500 -0.210800 0.000000
vn 0.966700 -0.255800 0.000000
vn 0.965300 -0.261300 0.000000
vn 0.938200 -0.346200 0.000000
vn 0.938100 -0.346200 0.000000
vn 0.867500 -0.497500 0.000000
vn 0.774700 -0.632300 0.000000
vn 0.664700 -0.747100 0.000000
vn 0.536800 -0.843700 0.000000
vn 0.388900 -0.921300 0.000000
vn 0.388800 -0.921300 0.000000
vn 0.268900 -0.963200 0.000000
vn 0.151200 -0.988500 0.000000
vn -0.007800 -1.000000 0.000000
vn -0.172300 -0.985000 0.000000
vn -0.288500 -0.957500 0.000000
vn -0.244900 -0.969500 0.000000
vn -0.083600 -0.996500 0.000000
vn 0.079500 -0.996800 0.000000
vn 0.240600 -0.970600 0.000000
vn 0.383300 -0.923600 0.000000
vn 0.518400 -0.855100 0.000000
vn 0.653600 -0.756800 0.000000
vn 0.771200 -0.636600 0.000000
vn 0.844700 -0.535300 0.000000
vn 0.903900 -0.427700 0.000000
vn 0.961500 -0.274700 0.000000
vn 0.993400 -0.114700 0.000000
vn 0.998800 0.048400 0.000000
vn 0.980300 0.197600 0.000000
vn 0.939100 0.343600 0.000000
vn 0.868800 0.495200 0.000000
vn 0.773500 0.633800 0.000000
vn 0.773500 0.633900 0.000000
vn 0.688200 0.725500 0.000000
vn 0.714100 0.700100 0.000000
vn 0.816200 0.577700 0.000000
vn 0.900200 0.435500 0.000000
vn 0.945700 0.325100 0.000000
vn 0.978100 0.208000 0.000000
vn 0.999100 0.042300 0.000000
vn 0.992600 -0.121200 0.000000
vn 0.960800 -0.277100 0.000000
vn 0.904200 -0.427200 0.000000
vn 0.820400 -0.571700 0.000000
vn 0.741400 -0.671100 0.000000
vn 0.741300 -0.671100 0.000000
vn 0.709300 -0.704900 0.000000
vn 0.709400 -0.704900 0.000000
vn 0.704900 -0.709300 0.000000
vn 0.639600 -0.768700 0.000000
vn 0.639500 -0.768800 0.000000
vn 0.502700 -0.864400 0.000000
vn 0.355000 -0.934900 0.000000
vn 0.201900 -0.979400 0.000000
vn 0.042500 -0.999100 0.000000
vn -0.124500 -0.992200 0.000000
vn -0.249100 -0.968500 0.000000
vn -0.363300 -0.931700 0.000000
vn -0.506700 -0.862100 0.000000
vn -0.641700 -0.766900 0.000000
vn -0.728600 -0.685000 0.000000
vn -0.696800 -0.717200 0.000000
vn -0.696800 -0.717300 0.000000
vn -0.570600 -0.821200 0.000000
vn -0.429500 -0.903100 0.000000
vn -0.276800 -0.960900 0.000000
vn -0.130100 -0.991500 0.000000
vn 0.020900 -0.999800 0.000000
vn 0.187100 -0.982300 0.000000
vn 0.349100 -0.937100 0.000000
vn 0.463700 -0.886000 0.000000
vn 0.569000 -0.822300 0.000000
vn 0.695400 -0.718600 0.000000
vn 0.803000 -0.596000 0.000000
vn 0.889300 -0.457400 0.000000
vn 0.947700 -0.319200 0.000000
vn 0.985000 -0.172400 0.000000
vn 1.000000 -0.005900 0.000000
vn 0.986800 0.161800 0.000000
vn 0.958800 0.284000 0.000000
vn 0.968400 0.249300 0.000000
vn 0.995700 0.092300 0.000000
vn 0.997300 -0.073000 0.000000
vn 0.981500 -0.191300 0.000000
vn 0.951100 -0.309000 0.000000
vn 0.886400 -0.462900 0.000000
vn 0.799000 -0.601300 0.000000
vn 0.693500 -0.720400 0.000000
vn 0.569500 -0.822000 0.000000
vn 0.424800 -0.905300 0.000000
vn 0.306700 -0.951800 0.000000
vn 0.306800 -0.951800 0.000000
vn 0.261800 -0.965100 0.000000
vn 0.254900 -0.967000 0.000000
vn 0.169400 -0.985500 0.000000
vn 0.003000 -1.000000 0.000000
vn -0.160100 -0.987100 0.000000
vn -0.314700 -0.949200 0.000000
vn -0.462400 -0.886700 -0.000000
vn -0.603600 -0.797300 0.000000
vn -0.699800 -0.714300 0.000000
vn -0.780500 -0.625200 -0.000000
vn -0.869900 -0.493200 0.000000
vn -0.939200 -0.343300 -0.000000
vn -0.973500 -0.228900 -0.000000
vn -0.962100 -0.272600 0.000000
vn -0.904800 -0.425800 0.000000
vn -0.823600 -0.567200 0.000000
vn -0.720300 -0.693700 0.000000
vn -0.608400 -0.793600 0.000000
vn -0.481800 -0.876300 0.000000
vn -0.329100 -0.944300 0.000000
vn -0.166100 -0.986100 0.000000
vn -0.041300 -0.999100 0.000000
vn 0.081500 -0.996700 0.000000
vn 0.242900 -0.970000 -0.000000
vn 0.397300 -0.917700 -0.000000
vn 0.541400 -0.840800 0.000000
vn 0.661200 -0.750200 0.000000
vn 0.767000 -0.641700 -0.000000
vn 0.863200 -0.504900 0.000000
vn 0.935600 -0.353100 0.000000
vn 0.972400 -0.233300 0.000000
vn 0.963300 -0.268300 0.000000
vn 0.908500 -0.418000 0.000000
vn 0.827200 -0.561900 0.000000
vn 0.754300 -0.656500 0.000000
vn 0.669300 -0.743000 0.000000
vn 0.536300 -0.844000 0.000000
vn 0.391400 -0.920200 0.000000
vn 0.240400 -0.970700 0.000000
vn 0.082000 -0.996600 0.000000
vn -0.085000 -0.996400 0.000000
vn -0.210600 -0.977600 0.000000
vn -0.255100 -0.966900 0.000000
vn -0.261900 -0.965100 0.000000
vn -0.346500 -0.938100 0.000000
vn -0.497700 -0.867300 0.000000
vn -0.497700 -0.867400 0.000000
vn -0.632600 -0.774500 0.000000
vn -0.746600 -0.665300 0.000000
vn -0.842600 -0.538500 0.000000
vn -0.842700 -0.538500 0.000000
vn -0.920500 -0.390600 0.000000
vn -0.963000 -0.269600 0.000000
vn -0.988500 -0.151200 0.000000
vn -1.000000 0.007800 0.000000
vn -0.985000 0.172300 0.000000
vn -0.957500 0.288500 0.000000
vn -0.969500 0.245000 0.000000
vn -0.996500 0.083700 0.000000
vn -0.996800 -0.079400 0.000000
vn -0.970600 -0.240500 0.000000
vn -0.923700 -0.383200 0.000000
vn -0.855200 -0.518300 0.000000
vn -0.756900 -0.653500 0.000000
vn -0.636600 -0.771200 0.000000
vn -0.535200 -0.844700 0.000000
vn -0.427600 -0.904000 0.000000
vn -0.274500 -0.961600 0.000000
vn -0.114500 -0.993400 0.000000
vn 0.048700 -0.998800 0.000000
vn 0.197300 -0.980400 0.000000
vn 0.342700 -0.939400 0.000000
vn 0.494400 -0.869200 0.000000
vn 0.633100 -0.774000 0.000000
vn 0.633100 -0.774100 0.000000
vn 0.725100 -0.688600 0.000000
vn 0.700200 -0.714000 0.000000
vn 0.577800 -0.816200 0.000000
vn 0.435600 -0.900200 0.000000
vn 0.325100 -0.945700 0.000000
vn 0.207900 -0.978100 0.000000
vn 0.042300 -0.999100 0.000000
vn -0.121300 -0.992600 0.000000
vn -0.277000 -0.960900 0.000000
vn -0.426900 -0.904300 0.000000
vn -0.571400 -0.820700 0.000000
vn -0.670900 -0.741500 0.000000
vn -0.705200 -0.709000 0.000000
vn -0.709000 -0.705200 0.000000
vn -0.768900 -0.639400 0.000000
vn -0.864500 -0.502500 0.000000
vn -0.864600 -0.502500 0.000000
vn -0.934900 -0.354900 0.000000
vn -0.934900 -0.354800 0.000000
vn -0.979400 -0.202100 0.000000
vn -0.999100 -0.043000 0.000000
vn -0.992300 0.123900 0.000000
vn -0.968600 0.248800 0.000000
vn -0.931700 0.363300 0.000000
vn -0.862100 0.506700 0.000000
vn -0.862100 0.506800 0.000000
vn -0.766900 0.641800 0.000000
vn -0.684900 0.728600 0.000000
vn -0.717500 0.696500 0.000000
vn -0.821700 0.569900 0.000000
vn -0.903800 0.428000 0.000000
vn -0.961900 0.273400 0.000000
vn -0.993900 0.110100 0.000000
vn -0.999800 -0.020200 0.000000
vn 0.004400 -1.000000 0.000000
vn 0.868200 -0.496200 0.000000
vn -0.039600 0.999200 0.000000
vn -0.162700 0.986700 0.000000
vn -0.326300 0.945300 -0.000000
vn -0.480200 0.877200 -0.000000
vn -0.619300 0.785200 -0.000000
vn -0.740300 0.672300 -0.000000
vn -0.840200 0.542300 -0.000000
vn -0.917000 0.398900 -0.000000
vn -0.969600 0.244500 -0.000000
vn -0.996600 0.082200 -0.000000
vn 0.999200 0.039500 0.000000
vn 0.986700 0.162700 0.000000
vn 0.945300 0.326300 0.000000
vn 0.877200 0.480200 0.000000
vn 0.785100 0.619300 0.000000
vn 0.672300 0.740300 0.000000
vn 0.542300 0.840200 0.000000
vn 0.398900 0.917000 0.000000
vn 0.244500 0.969600 0.000000
vn 0.082200 0.996600 0.000000
vn 0.039500 -0.999200 -0.000000
vn 0.162700 -0.986700 0.000000
vn 0.326300 -0.945300 0.000000
vn 0.480200 -0.877200 0.000000
vn 0.619300 -0.785200 0.000000
vn 0.740300 -0.672300 0.000000
vn 0.840200 -0.542300 0.000000
vn 0.917000 -0.398900 0.000000
vn 0.969600 -0.244500 0.000000
vn 0.996600 -0.082200 0.000000
vn -0.999200 -0.039700 -0.000000
vn -0.986600 -0.162900 -0.000000
vn -0.945200 -0.326500 -0.000000
vn -0.877100 -0.480400 -0.000000
vn -0.785100 -0.619400 -0.000000
vn -0.672200 -0.740400 0.000000
vn -0.542200 -0.840300 0.000000
vn -0.398800 -0.917100 0.000000
vn -0.244400 -0.969700 0.000000
vn -0.082100 -0.996600 0.000000
vn 0.999200 0.039600 0.000000
vn 0.999200 0.039700 0.000000
vn 0.986600 0.162900 0.000000
vn 0.945200 0.326500 0.000000
vn 0.877100 0.480400 0.000000
vn 0.785000 0.619500 0.000000
vn 0.672100 0.740400 0.000000
vn 0.542100 0.840300 0.000000
vn 0.398700 0.917100 0.000000
vn 0.244400 0.969700 0.000000
vn 0.082100 0.996600 0.000000
vn 0.039600 -0.999200 0.000000
vn -0.999200 -0.039600 0.000000
vn -0.877100 -0.480300 0.000000
vn -0.785000 -0.619400 0.000000
usemtl None
s off
f 1//1 2//1 3//1
f 3//1 2//1 4//1
f 3//1 5//1 6//1
f 7//1 8//1 9//1
f 9//1 8//1 10//1
f 9//1 10//1 11//1
f 12//1 13//1 14//1
f 15//1 16//1 9//1
f 9//1 16//1 17//1
f 9//1 17//1 18//1
f 19//1 20//1 21//1
f 22//1 23//1 24//1
f 25//1 26//1 27//1
f 14//1 28//1 29//1
f 29//1 28//1 30//1
f 29//1 30//1 31//1
f 32//1 33//1 30//1
f 34//1 35//1 36//1
f 37//1 38//1 39//1
f 22//1 24//1 40//1
f 41//1 42//1 43//1
f 43//1 42//1 44//1
f 45//1 46//1 47//1
f 47//1 46//1 48//1
f 47//1 48//1 49//1
f 34//1 36//1 50//1
f 51//1 52//1 37//1
f 37//1 52//1 36//1
f 37//1 36//1 53//1
f 53//1 36//1 35//1
f 13//1 54//1 14//1
f 14//1 54//1 55//1
f 14//1 55//1 28//1
f 18//1 56//1 57//1
f 18//1 57//1 9//1
f 9//1 57//1 58//1
f 9//1 58//1 59//1
f 11//1 10//1 33//1
f 33//1 10//1 60//1
f 33//1 60//1 61//1
f 62//1 63//1 9//1
f 9//1 63//1 64//1
f 24//1 65//1 66//1
f 66//1 65//1 67//1
f 68//1 69//1 70//1
f 70//1 69//1 71//1
f 70//1 71//1 72//1
f 73//1 74//1 68//1
f 75//1 76//1 77//1
f 77//1 76//1 78//1
f 77//1 78//1 79//1
f 80//1 81//1 82//1
f 82//1 81//1 83//1
f 84//1 85//1 86//1
f 86//1 85//1 87//1
f 88//1 37//1 89//1
f 89//1 37//1 90//1
f 6//1 91//1 3//1
f 3//1 91//1 92//1
f 3//1 92//1 93//1
f 59//1 94//1 9//1
f 9//1 94//1 95//1
f 9//1 95//1 7//1
f 20//1 96//1 21//1
f 21//1 96//1 97//1
f 21//1 97//1 9//1
f 9//1 97//1 98//1
f 9//1 98//1 62//1
f 99//1 100//1 101//1
f 101//1 100//1 102//1
f 67//1 103//1 66//1
f 66//1 103//1 104//1
f 66//1 104//1 105//1
f 106//1 107//1 108//1
f 108//1 107//1 109//1
f 108//1 109//1 41//1
f 41//1 109//1 110//1
f 41//1 110//1 111//1
f 111//1 112//1 41//1
f 41//1 112//1 113//1
f 41//1 113//1 42//1
f 114//1 115//1 47//1
f 47//1 115//1 116//1
f 61//1 117//1 33//1
f 33//1 117//1 118//1
f 33//1 118//1 30//1
f 30//1 118//1 119//1
f 30//1 119//1 31//1
f 120//1 121//1 3//1
f 93//1 122//1 3//1
f 3//1 122//1 123//1
f 3//1 123//1 37//1
f 37//1 123//1 124//1
f 37//1 124//1 38//1
f 125//1 126//1 47//1
f 127//1 128//1 129//1
f 130//1 131//1 132//1
f 132//1 131//1 133//1
f 40//1 24//1 134//1
f 134//1 24//1 66//1
f 134//1 66//1 135//1
f 136//1 137//1 138//1
f 138//1 137//1 139//1
f 138//1 139//1 23//1
f 23//1 139//1 140//1
f 23//1 140//1 141//1
f 141//1 142//1 23//1
f 23//1 142//1 143//1
f 23//1 143//1 24//1
f 106//1 144//1 145//1
f 44//1 146//1 66//1
f 66//1 146//1 147//1
f 66//1 147//1 148//1
f 74//1 149//1 68//1
f 68//1 149//1 150//1
f 68//1 150//1 69//1
f 71//1 151//1 66//1
f 66//1 151//1 152//1
f 66//1 152//1 153//1
f 154//1 155//1 156//1
f 156//1 155//1 157//1
f 156//1 157//1 75//1
f 75//1 157//1 158//1
f 75//1 158//1 159//1
f 159//1 160//1 75//1
f 75//1 160//1 161//1
f 75//1 161//1 76//1
f 26//1 162//1 27//1
f 27//1 162//1 163//1
f 27//1 163//1 47//1
f 47//1 163//1 164//1
f 47//1 164//1 114//1
f 12//1 14//1 165//1
f 165//1 14//1 166//1
f 165//1 166//1 82//1
f 82//1 166//1 167//1
f 82//1 167//1 168//1
f 84//1 169//1 85//1
f 85//1 169//1 170//1
f 85//1 170//1 171//1
f 87//1 172//1 86//1
f 86//1 172//1 173//1
f 86//1 173//1 174//1
f 66//1 175//1 135//1
f 135//1 175//1 176//1
f 135//1 176//1 177//1
f 135//1 178//1 4//1
f 4//1 178//1 179//1
f 4//1 179//1 3//1
f 3//1 179//1 180//1
f 3//1 180//1 120//1
f 181//1 182//1 18//1
f 18//1 182//1 183//1
f 18//1 183//1 56//1
f 9//1 184//1 185//1
f 102//1 186//1 101//1
f 101//1 186//1 187//1
f 101//1 187//1 188//1
f 188//1 187//1 189//1
f 188//1 189//1 190//1
f 136//1 191//1 192//1
f 105//1 193//1 66//1
f 66//1 193//1 194//1
f 66//1 194//1 44//1
f 44//1 194//1 195//1
f 44//1 195//1 43//1
f 196//1 197//1 198//1
f 198//1 197//1 199//1
f 154//1 200//1 201//1
f 202//1 27//1 203//1
f 203//1 27//1 204//1
f 205//1 206//1 78//1
f 78//1 206//1 207//1
f 78//1 207//1 66//1
f 168//1 208//1 82//1
f 82//1 208//1 209//1
f 82//1 209//1 210//1
f 83//1 211//1 212//1
f 85//1 213//1 214//1
f 214//1 215//1 85//1
f 85//1 215//1 216//1
f 85//1 216//1 177//1
f 86//1 217//1 218//1
f 218//1 219//1 86//1
f 86//1 219//1 220//1
f 86//1 220//1 39//1
f 39//1 220//1 221//1
f 39//1 221//1 37//1
f 37//1 221//1 222//1
f 37//1 222//1 90//1
f 216//1 223//1 177//1
f 177//1 223//1 224//1
f 177//1 224//1 135//1
f 135//1 224//1 225//1
f 135//1 225//1 226//1
f 227//1 228//1 18//1
f 18//1 228//1 229//1
f 18//1 229//1 181//1
f 227//1 230//1 228//1
f 228//1 230//1 231//1
f 228//1 231//1 232//1
f 64//1 233//1 9//1
f 9//1 233//1 234//1
f 9//1 234//1 184//1
f 185//1 235//1 9//1
f 9//1 235//1 236//1
f 9//1 236//1 15//1
f 129//1 237//1 238//1
f 238//1 237//1 239//1
f 238//1 239//1 240//1
f 128//1 241//1 129//1
f 129//1 241//1 242//1
f 129//1 242//1 237//1
f 243//1 21//1 244//1
f 244//1 21//1 245//1
f 189//1 246//1 247//1
f 99//1 101//1 248//1
f 248//1 101//1 249//1
f 248//1 249//1 132//1
f 132//1 249//1 250//1
f 132//1 250//1 251//1
f 252//1 253//1 254//1
f 254//1 253//1 255//1
f 148//1 256//1 66//1
f 66//1 256//1 257//1
f 66//1 257//1 71//1
f 71//1 257//1 258//1
f 71//1 258//1 72//1
f 153//1 259//1 66//1
f 66//1 259//1 260//1
f 66//1 260//1 78//1
f 78//1 260//1 261//1
f 78//1 261//1 79//1
f 47//1 262//1 263//1
f 205//1 78//1 264//1
f 264//1 78//1 265//1
f 264//1 265//1 27//1
f 27//1 265//1 266//1
f 27//1 266//1 204//1
f 202//1 267//1 27//1
f 27//1 267//1 268//1
f 27//1 268//1 25//1
f 32//1 30//1 269//1
f 269//1 30//1 270//1
f 269//1 270//1 88//1
f 88//1 270//1 271//1
f 88//1 271//1 272//1
f 272//1 273//1 88//1
f 88//1 273//1 274//1
f 88//1 274//1 37//1
f 37//1 274//1 275//1
f 37//1 275//1 51//1
f 212//1 276//1 83//1
f 83//1 276//1 277//1
f 83//1 277//1 82//1
f 171//1 278//1 85//1
f 85//1 278//1 279//1
f 85//1 279//1 213//1
f 174//1 280//1 86//1
f 86//1 280//1 281//1
f 86//1 281//1 217//1
f 282//1 283//1 135//1
f 135//1 283//1 284//1
f 135//1 284//1 178//1
f 121//1 285//1 3//1
f 3//1 285//1 286//1
f 3//1 286//1 287//1
f 287//1 288//1 3//1
f 3//1 288//1 289//1
f 3//1 289//1 5//1
f 239//1 290//1 47//1
f 47//1 290//1 291//1
f 47//1 291//1 292//1
f 293//1 294//1 295//1
f 295//1 294//1 296//1
f 246//1 189//1 297//1
f 297//1 189//1 298//1
f 297//1 298//1 21//1
f 21//1 298//1 299//1
f 21//1 299//1 245//1
f 243//1 300//1 21//1
f 21//1 300//1 301//1
f 21//1 301//1 19//1
f 302//1 303//1 189//1
f 189//1 303//1 304//1
f 189//1 304//1 47//1
f 251//1 305//1 132//1
f 132//1 305//1 306//1
f 132//1 306//1 307//1
f 133//1 308//1 309//1
f 310//1 311//1 312//1
f 312//1 311//1 313//1
f 144//1 106//1 254//1
f 254//1 106//1 314//1
f 254//1 314//1 252//1
f 106//1 315//1 316//1
f 73//1 68//1 317//1
f 317//1 68//1 318//1
f 317//1 318//1 198//1
f 198//1 318//1 319//1
f 198//1 319//1 320//1
f 321//1 322//1 323//1
f 323//1 322//1 324//1
f 116//1 325//1 47//1
f 47//1 325//1 326//1
f 47//1 326//1 262//1
f 263//1 327//1 47//1
f 47//1 327//1 328//1
f 47//1 328//1 45//1
f 329//1 330//1 331//1
f 331//1 330//1 332//1
f 82//1 333//1 334//1
f 335//1 336//1 83//1
f 83//1 336//1 337//1
f 83//1 337//1 338//1
f 226//1 339//1 135//1
f 135//1 339//1 340//1
f 135//1 340//1 282//1
f 49//1 341//1 342//1
f 49//1 342//1 47//1
f 47//1 342//1 343//1
f 47//1 343//1 344//1
f 126//1 345//1 47//1
f 47//1 345//1 346//1
f 47//1 346//1 347//1
f 247//1 348//1 189//1
f 189//1 348//1 349//1
f 189//1 349//1 302//1
f 309//1 350//1 133//1
f 133//1 350//1 351//1
f 133//1 351//1 132//1
f 191//1 136//1 312//1
f 312//1 136//1 352//1
f 312//1 352//1 310//1
f 136//1 353//1 354//1
f 316//1 355//1 106//1
f 106//1 355//1 356//1
f 106//1 356//1 107//1
f 320//1 357//1 198//1
f 198//1 357//1 358//1
f 198//1 358//1 359//1
f 199//1 360//1 361//1
f 200//1 154//1 323//1
f 323//1 154//1 362//1
f 323//1 362//1 321//1
f 154//1 363//1 364//1
f 210//1 365//1 82//1
f 82//1 365//1 366//1
f 82//1 366//1 333//1
f 334//1 367//1 82//1
f 82//1 367//1 368//1
f 82//1 368//1 80//1
f 338//1 369//1 83//1
f 83//1 369//1 370//1
f 83//1 370//1 211//1
f 344//1 371//1 47//1
f 47//1 371//1 372//1
f 47//1 372//1 125//1
f 292//1 373//1 47//1
f 47//1 373//1 374//1
f 47//1 374//1 189//1
f 189//1 374//1 375//1
f 189//1 375//1 190//1
f 127//1 129//1 376//1
f 376//1 129//1 377//1
f 376//1 377//1 295//1
f 295//1 377//1 378//1
f 295//1 378//1 379//1
f 132//1 380//1 381//1
f 382//1 383//1 133//1
f 133//1 383//1 384//1
f 133//1 384//1 385//1
f 354//1 386//1 136//1
f 136//1 386//1 387//1
f 136//1 387//1 137//1
f 388//1 389//1 255//1
f 255//1 389//1 390//1
f 255//1 390//1 391//1
f 106//1 392//1 393//1
f 361//1 394//1 199//1
f 199//1 394//1 395//1
f 199//1 395//1 198//1
f 364//1 396//1 154//1
f 154//1 396//1 397//1
f 154//1 397//1 155//1
f 50//1 36//1 398//1
f 398//1 36//1 399//1
f 398//1 399//1 331//1
f 331//1 399//1 400//1
f 331//1 400//1 401//1
f 347//1 402//1 47//1
f 47//1 402//1 403//1
f 47//1 403//1 239//1
f 239//1 403//1 404//1
f 239//1 404//1 240//1
f 379//1 405//1 295//1
f 295//1 405//1 406//1
f 295//1 406//1 407//1
f 296//1 408//1 409//1
f 307//1 410//1 132//1
f 132//1 410//1 411//1
f 132//1 411//1 380//1
f 381//1 412//1 132//1
f 132//1 412//1 413//1
f 132//1 413//1 130//1
f 385//1 414//1 133//1
f 133//1 414//1 415//1
f 133//1 415//1 308//1
f 416//1 417//1 313//1
f 313//1 417//1 418//1
f 313//1 418//1 419//1
f 136//1 420//1 421//1
f 391//1 422//1 255//1
f 255//1 422//1 423//1
f 255//1 423//1 254//1
f 145//1 424//1 106//1
f 106//1 424//1 425//1
f 106//1 425//1 392//1
f 393//1 426//1 106//1
f 106//1 426//1 427//1
f 106//1 427//1 315//1
f 198//1 428//1 429//1
f 430//1 431//1 199//1
f 199//1 431//1 432//1
f 199//1 432//1 433//1
f 434//1 435//1 324//1
f 324//1 435//1 436//1
f 324//1 436//1 437//1
f 154//1 438//1 439//1
f 401//1 440//1 331//1
f 331//1 440//1 441//1
f 331//1 441//1 442//1
f 332//1 443//1 444//1
f 445//1 446//1 49//1
f 49//1 446//1 447//1
f 49//1 447//1 341//1
f 409//1 448//1 296//1
f 296//1 448//1 449//1
f 296//1 449//1 295//1
f 419//1 450//1 313//1
f 313//1 450//1 451//1
f 313//1 451//1 312//1
f 192//1 452//1 136//1
f 136//1 452//1 453//1
f 136//1 453//1 420//1
f 421//1 454//1 136//1
f 136//1 454//1 455//1
f 136//1 455//1 353//1
f 359//1 456//1 198//1
f 198//1 456//1 457//1
f 198//1 457//1 428//1
f 429//1 458//1 198//1
f 198//1 458//1 459//1
f 198//1 459//1 196//1
f 433//1 460//1 199//1
f 199//1 460//1 461//1
f 199//1 461//1 360//1
f 437//1 462//1 324//1
f 324//1 462//1 463//1
f 324//1 463//1 323//1
f 201//1 464//1 154//1
f 154//1 464//1 465//1
f 154//1 465//1 438//1
f 439//1 466//1 154//1
f 154//1 466//1 467//1
f 154//1 467//1 363//1
f 444//1 468//1 332//1
f 332//1 468//1 469//1
f 332//1 469//1 331//1
f 470//1 471//1 49//1
f 49//1 471//1 472//1
f 49//1 472//1 445//1
f 470//1 473//1 471//1
f 471//1 473//1 474//1
f 471//1 474//1 475//1
f 295//1 476//1 477//1
f 478//1 479//1 296//1
f 296//1 479//1 480//1
f 296//1 480//1 481//1
f 331//1 482//1 483//1
f 484//1 485//1 332//1
f 332//1 485//1 486//1
f 332//1 486//1 487//1
f 407//1 488//1 295//1
f 295//1 488//1 489//1
f 295//1 489//1 476//1
f 477//1 490//1 295//1
f 295//1 490//1 491//1
f 295//1 491//1 293//1
f 481//1 492//1 296//1
f 296//1 492//1 493//1
f 296//1 493//1 408//1
f 442//1 494//1 331//1
f 331//1 494//1 495//1
f 331//1 495//1 482//1
f 483//1 496//1 331//1
f 331//1 496//1 497//1
f 331//1 497//1 329//1
f 487//1 498//1 332//1
f 332//1 498//1 499//1
f 332//1 499//1 443//1
f 500//2 501//2 502//2
f 502//2 501//2 503//2
f 504//2 505//2 506//2
f 507//2 508//2 509//2
f 509//2 508//2 510//2
f 511//2 512//2 513//2
f 514//2 515//2 516//2
f 517//2 518//2 519//2
f 520//2 521//2 516//2
f 506//2 522//2 523//2
f 513//2 512//2 524//2
f 525//2 526//2 527//2
f 528//2 529//2 530//2
f 520//2 516//2 531//2
f 532//2 533//2 503//2
f 534//2 516//2 535//2
f 535//2 516//2 502//2
f 535//2 502//2 536//2
f 523//2 537//2 506//2
f 506//2 537//2 538//2
f 506//2 538//2 504//2
f 539//2 540//2 505//2
f 505//2 540//2 541//2
f 505//2 541//2 506//2
f 508//2 542//2 543//2
f 542//2 508//2 544//2
f 516//2 545//2 546//2
f 547//2 548//2 549//2
f 550//2 551//2 552//2
f 553//2 554//2 555//2
f 556//2 557//2 558//2
f 530//2 529//2 559//2
f 560//2 561//2 552//2
f 552//2 561//2 562//2
f 552//2 562//2 563//2
f 563//2 562//2 564//2
f 563//2 564//2 517//2
f 564//2 565//2 517//2
f 517//2 565//2 566//2
f 517//2 566//2 567//2
f 568//2 518//2 569//2
f 569//2 518//2 517//2
f 569//2 517//2 570//2
f 571//2 572//2 573//2
f 574//2 575//2 502//2
f 502//2 575//2 576//2
f 502//2 576//2 536//2
f 543//2 577//2 508//2
f 508//2 577//2 578//2
f 508//2 578//2 510//2
f 579//2 580//2 581//2
f 546//2 582//2 516//2
f 516//2 582//2 583//2
f 516//2 583//2 514//2
f 584//2 549//2 512//2
f 512//2 549//2 585//2
f 512//2 585//2 586//2
f 587//2 588//2 527//2
f 527//2 588//2 589//2
f 527//2 589//2 590//2
f 591//2 592//2 593//2
f 593//2 592//2 594//2
f 595//2 596//2 583//2
f 583//2 596//2 597//2
f 519//2 598//2 517//2
f 517//2 598//2 599//2
f 517//2 599//2 600//2
f 517//2 601//2 602//2
f 602//2 603//2 517//2
f 517//2 603//2 604//2
f 517//2 604//2 605//2
f 605//2 604//2 606//2
f 567//2 607//2 517//2
f 517//2 607//2 608//2
f 517//2 608//2 570//2
f 609//2 610//2 611//2
f 612//2 613//2 614//2
f 614//2 613//2 615//2
f 614//2 615//2 616//2
f 614//2 617//2 618//2
f 618//2 619//2 614//2
f 614//2 619//2 620//2
f 614//2 620//2 621//2
f 621//2 620//2 622//2
f 586//2 623//2 512//2
f 512//2 623//2 624//2
f 512//2 624//2 524//2
f 551//2 625//2 552//2
f 552//2 625//2 626//2
f 552//2 626//2 588//2
f 590//2 627//2 527//2
f 527//2 627//2 628//2
f 527//2 628//2 525//2
f 629//2 630//2 526//2
f 526//2 630//2 631//2
f 526//2 631//2 527//2
f 632//2 633//2 591//2
f 591//2 633//2 634//2
f 591//2 634//2 592//2
f 597//2 635//2 583//2
f 583//2 635//2 636//2
f 583//2 636//2 637//2
f 638//2 639//2 529//2
f 529//2 639//2 640//2
f 507//2 509//2 609//2
f 609//2 509//2 641//2
f 609//2 641//2 642//2
f 522//2 506//2 643//2
f 643//2 506//2 644//2
f 643//2 644//2 645//2
f 646//2 647//2 643//2
f 643//2 647//2 648//2
f 649//2 516//2 650//2
f 650//2 516//2 651//2
f 649//2 652//2 516//2
f 516//2 652//2 653//2
f 516//2 653//2 545//2
f 622//2 654//2 621//2
f 621//2 654//2 655//2
f 621//2 655//2 656//2
f 657//2 658//2 659//2
f 587//2 660//2 588//2
f 588//2 660//2 661//2
f 588//2 661//2 552//2
f 552//2 661//2 662//2
f 552//2 662//2 560//2
f 663//2 664//2 555//2
f 555//2 664//2 665//2
f 555//2 665//2 553//2
f 666//2 667//2 554//2
f 554//2 667//2 668//2
f 554//2 668//2 555//2
f 669//2 670//2 583//2
f 583//2 670//2 671//2
f 583//2 671//2 595//2
f 672//2 673//2 555//2
f 555//2 673//2 674//2
f 555//2 674//2 663//2
f 675//2 676//2 614//2
f 637//2 677//2 583//2
f 583//2 677//2 678//2
f 583//2 678//2 514//2
f 639//2 679//2 558//2
f 558//2 679//2 680//2
f 606//2 681//2 605//2
f 605//2 681//2 682//2
f 605//2 682//2 683//2
f 640//2 684//2 529//2
f 529//2 684//2 685//2
f 529//2 685//2 559//2
f 515//2 686//2 516//2
f 516//2 686//2 679//2
f 516//2 679//2 687//2
f 687//2 679//2 639//2
f 687//2 639//2 688//2
f 688//2 639//2 638//2
f 517//2 689//2 690//2
f 568//2 691//2 518//2
f 518//2 691//2 692//2
f 518//2 692//2 693//2
f 534//2 694//2 516//2
f 516//2 694//2 695//2
f 516//2 695//2 696//2
f 572//2 697//2 573//2
f 573//2 697//2 698//2
f 573//2 698//2 699//2
f 700//2 701//2 503//2
f 503//2 701//2 702//2
f 503//2 702//2 532//2
f 703//2 704//2 705//2
f 705//2 704//2 706//2
f 705//2 706//2 707//2
f 708//2 709//2 539//2
f 539//2 709//2 710//2
f 711//2 712//2 539//2
f 539//2 712//2 713//2
f 539//2 713//2 540//2
f 580//2 714//2 581//2
f 581//2 714//2 715//2
f 581//2 715//2 716//2
f 717//2 718//2 516//2
f 516//2 718//2 719//2
f 516//2 719//2 720//2
f 648//2 721//2 643//2
f 643//2 721//2 544//2
f 643//2 544//2 722//2
f 722//2 544//2 516//2
f 722//2 516//2 723//2
f 723//2 516//2 720//2
f 645//2 724//2 643//2
f 643//2 724//2 725//2
f 643//2 725//2 646//2
f 552//2 726//2 549//2
f 549//2 726//2 727//2
f 656//2 728//2 621//2
f 621//2 728//2 729//2
f 621//2 729//2 730//2
f 730//2 731//2 621//2
f 621//2 731//2 732//2
f 621//2 732//2 548//2
f 548//2 732//2 733//2
f 548//2 733//2 549//2
f 614//2 734//2 735//2
f 511//2 513//2 657//2
f 657//2 513//2 736//2
f 657//2 736//2 737//2
f 584//2 738//2 549//2
f 549//2 738//2 739//2
f 549//2 739//2 552//2
f 552//2 739//2 740//2
f 552//2 740//2 550//2
f 680//2 741//2 558//2
f 558//2 741//2 742//2
f 558//2 742//2 743//2
f 683//2 744//2 605//2
f 605//2 744//2 745//2
f 605//2 745//2 746//2
f 746//2 747//2 605//2
f 605//2 747//2 748//2
f 605//2 748//2 557//2
f 557//2 748//2 749//2
f 557//2 749//2 558//2
f 750//2 751//2 752//2
f 600//2 753//2 517//2
f 517//2 753//2 754//2
f 517//2 754//2 689//2
f 690//2 755//2 517//2
f 517//2 755//2 756//2
f 517//2 756//2 601//2
f 757//2 758//2 759//2
f 759//2 758//2 760//2
f 693//2 761//2 518//2
f 518//2 761//2 758//2
f 518//2 758//2 762//2
f 762//2 758//2 757//2
f 696//2 763//2 516//2
f 516//2 763//2 764//2
f 516//2 764//2 531//2
f 573//2 765//2 766//2
f 533//2 767//2 503//2
f 503//2 767//2 768//2
f 503//2 768//2 502//2
f 502//2 768//2 769//2
f 502//2 769//2 770//2
f 770//2 771//2 502//2
f 502//2 771//2 772//2
f 502//2 772//2 574//2
f 708//2 539//2 705//2
f 705//2 539//2 773//2
f 705//2 773//2 703//2
f 609//2 774//2 775//2
f 776//2 777//2 611//2
f 611//2 777//2 778//2
f 611//2 778//2 609//2
f 579//2 581//2 573//2
f 573//2 581//2 779//2
f 573//2 779//2 516//2
f 516//2 779//2 780//2
f 516//2 780//2 717//2
f 508//2 781//2 544//2
f 544//2 781//2 782//2
f 544//2 782//2 516//2
f 516//2 782//2 783//2
f 516//2 783//2 651//2
f 727//2 784//2 549//2
f 549//2 784//2 785//2
f 549//2 785//2 547//2
f 616//2 786//2 614//2
f 614//2 786//2 787//2
f 614//2 787//2 734//2
f 735//2 788//2 614//2
f 614//2 788//2 789//2
f 614//2 789//2 617//2
f 790//2 791//2 614//2
f 614//2 791//2 792//2
f 614//2 792//2 793//2
f 793//2 794//2 614//2
f 614//2 794//2 795//2
f 614//2 795//2 796//2
f 612//2 614//2 797//2
f 797//2 614//2 676//2
f 797//2 676//2 798//2
f 743//2 799//2 558//2
f 558//2 799//2 800//2
f 558//2 800//2 556//2
f 528//2 530//2 750//2
f 750//2 530//2 801//2
f 750//2 801//2 802//2
f 521//2 803//2 516//2
f 516//2 803//2 804//2
f 516//2 804//2 573//2
f 573//2 804//2 805//2
f 573//2 805//2 765//2
f 766//2 806//2 573//2
f 573//2 806//2 807//2
f 573//2 807//2 571//2
f 699//2 808//2 573//2
f 573//2 808//2 809//2
f 573//2 809//2 503//2
f 503//2 809//2 810//2
f 503//2 810//2 700//2
f 811//2 705//2 812//2
f 812//2 705//2 813//2
f 539//2 814//2 815//2
f 642//2 816//2 609//2
f 609//2 816//2 817//2
f 609//2 817//2 774//2
f 657//2 818//2 819//2
f 820//2 821//2 659//2
f 659//2 821//2 822//2
f 659//2 822//2 657//2
f 823//2 824//2 825//2
f 825//2 824//2 826//2
f 825//2 826//2 827//2
f 828//2 829//2 629//2
f 629//2 829//2 830//2
f 831//2 832//2 629//2
f 629//2 832//2 833//2
f 629//2 833//2 630//2
f 834//2 835//2 836//2
f 836//2 835//2 837//2
f 836//2 837//2 838//2
f 839//2 840//2 632//2
f 632//2 840//2 841//2
f 842//2 843//2 632//2
f 632//2 843//2 844//2
f 632//2 844//2 633//2
f 614//2 845//2 673//2
f 673//2 845//2 846//2
f 796//2 847//2 614//2
f 614//2 847//2 848//2
f 614//2 848//2 675//2
f 707//2 849//2 705//2
f 705//2 849//2 850//2
f 705//2 850//2 813//2
f 710//2 851//2 539//2
f 539//2 851//2 852//2
f 539//2 852//2 814//2
f 815//2 853//2 539//2
f 539//2 853//2 854//2
f 539//2 854//2 711//2
f 609//2 855//2 856//2
f 857//2 858//2 859//2
f 858//2 860//2 859//2
f 859//2 860//2 861//2
f 859//2 861//2 862//2
f 863//2 864//2 716//2
f 716//2 864//2 865//2
f 716//2 865//2 581//2
f 737//2 866//2 657//2
f 657//2 866//2 867//2
f 657//2 867//2 818//2
f 828//2 629//2 825//2
f 825//2 629//2 868//2
f 825//2 868//2 823//2
f 839//2 632//2 836//2
f 836//2 632//2 869//2
f 836//2 869//2 834//2
f 870//2 871//2 872//2
f 872//2 871//2 873//2
f 872//2 873//2 874//2
f 875//2 876//2 666//2
f 666//2 876//2 877//2
f 878//2 879//2 666//2
f 666//2 879//2 880//2
f 666//2 880//2 667//2
f 672//2 881//2 673//2
f 673//2 881//2 882//2
f 673//2 882//2 614//2
f 614//2 882//2 883//2
f 614//2 883//2 790//2
f 750//2 884//2 885//2
f 886//2 887//2 752//2
f 752//2 887//2 888//2
f 752//2 888//2 750//2
f 775//2 889//2 609//2
f 609//2 889//2 890//2
f 609//2 890//2 855//2
f 856//2 891//2 609//2
f 609//2 891//2 892//2
f 609//2 892//2 610//2
f 776//2 611//2 859//2
f 859//2 611//2 893//2
f 859//2 893//2 857//2
f 657//2 894//2 895//2
f 896//2 897//2 898//2
f 897//2 899//2 898//2
f 898//2 899//2 900//2
f 898//2 900//2 901//2
f 902//2 825//2 903//2
f 903//2 825//2 904//2
f 629//2 905//2 906//2
f 907//2 836//2 908//2
f 908//2 836//2 909//2
f 632//2 910//2 911//2
f 875//2 666//2 872//2
f 872//2 666//2 912//2
f 872//2 912//2 870//2
f 913//2 914//2 669//2
f 669//2 914//2 915//2
f 846//2 916//2 673//2
f 673//2 916//2 917//2
f 673//2 917//2 918//2
f 798//2 919//2 797//2
f 797//2 919//2 920//2
f 797//2 920//2 921//2
f 802//2 922//2 750//2
f 750//2 922//2 923//2
f 750//2 923//2 884//2
f 819//2 924//2 657//2
f 657//2 924//2 925//2
f 657//2 925//2 894//2
f 895//2 926//2 657//2
f 657//2 926//2 927//2
f 657//2 927//2 658//2
f 820//2 659//2 898//2
f 898//2 659//2 928//2
f 898//2 928//2 896//2
f 827//2 929//2 825//2
f 825//2 929//2 930//2
f 825//2 930//2 904//2
f 830//2 931//2 629//2
f 629//2 931//2 932//2
f 629//2 932//2 905//2
f 906//2 933//2 629//2
f 629//2 933//2 934//2
f 629//2 934//2 831//2
f 838//2 935//2 836//2
f 836//2 935//2 936//2
f 836//2 936//2 909//2
f 841//2 937//2 632//2
f 632//2 937//2 938//2
f 632//2 938//2 910//2
f 911//2 939//2 632//2
f 632//2 939//2 940//2
f 632//2 940//2 842//2
f 941//2 872//2 942//2
f 942//2 872//2 943//2
f 666//2 944//2 945//2
f 594//2 592//2 583//2
f 583//2 592//2 946//2
f 583//2 946//2 669//2
f 669//2 946//2 947//2
f 669//2 947//2 913//2
f 948//2 949//2 950//2
f 950//2 949//2 951//2
f 921//2 952//2 797//2
f 797//2 952//2 949//2
f 797//2 949//2 953//2
f 953//2 949//2 948//2
f 750//2 954//2 955//2
f 956//2 957//2 958//2
f 957//2 959//2 958//2
f 958//2 959//2 960//2
f 958//2 960//2 961//2
f 874//2 962//2 872//2
f 872//2 962//2 963//2
f 872//2 963//2 943//2
f 877//2 964//2 666//2
f 666//2 964//2 965//2
f 666//2 965//2 944//2
f 945//2 966//2 666//2
f 666//2 966//2 967//2
f 666//2 967//2 878//2
f 885//2 968//2 750//2
f 750//2 968//2 969//2
f 750//2 969//2 954//2
f 955//2 970//2 750//2
f 750//2 970//2 971//2
f 750//2 971//2 751//2
f 886//2 752//2 958//2
f 958//2 752//2 972//2
f 958//2 972//2 956//2
f 973//2 974//2 975//2
f 975//2 974//2 976//2
f 975//2 976//2 977//2
f 978//2 979//2 863//2
f 863//2 979//2 980//2
f 981//2 982//2 863//2
f 863//2 982//2 983//2
f 863//2 983//2 864//2
f 915//2 984//2 669//2
f 669//2 984//2 985//2
f 669//2 985//2 918//2
f 918//2 985//2 986//2
f 918//2 986//2 673//2
f 978//2 863//2 975//2
f 975//2 863//2 987//2
f 975//2 987//2 973//2
f 988//2 975//2 989//2
f 989//2 975//2 990//2
f 863//2 991//2 992//2
f 977//2 993//2 975//2
f 975//2 993//2 994//2
f 975//2 994//2 990//2
f 980//2 995//2 863//2
f 863//2 995//2 996//2
f 863//2 996//2 991//2
f 992//2 997//2 863//2
f 863//2 997//2 998//2
f 863//2 998//2 981//2
f 2//3 1//3 500//3
f 500//3 1//3 501//3
f 4//4 2//4 502//4
f 502//4 2//4 500//4
f 135//5 4//5 516//5
f 516//5 4//5 502//5
f 135//6 516//6 687//6
f 135//6 687//6 134//6
f 134//7 687//7 688//7
f 134//8 688//8 40//8
f 40//9 688//9 638//9
f 40//9 638//9 22//9
f 22//10 638//10 529//10
f 22//10 529//10 23//10
f 23//11 529//11 528//11
f 23//11 528//11 138//11
f 138//12 528//12 750//12
f 138//12 750//12 136//12
f 136//13 750//13 888//13
f 136//13 888//13 352//13
f 352//14 888//14 887//14
f 352//14 887//14 310//14
f 310//15 887//15 886//15
f 310//15 886//15 311//15
f 311//16 886//16 958//16
f 311//16 958//16 313//16
f 313//17 958//17 961//17
f 313//17 961//17 416//17
f 416//18 961//18 960//18
f 416//18 960//18 417//18
f 417//19 960//19 959//19
f 417//19 959//19 418//19
f 418//20 959//20 957//20
f 418//20 957//20 419//20
f 419//21 957//21 956//21
f 419//21 956//21 450//21
f 450//22 956//22 972//22
f 450//22 972//22 451//22
f 451//23 972//23 752//23
f 451//23 752//23 312//23
f 312//24 752//24 751//24
f 312//24 751//24 191//24
f 191//25 751//25 971//25
f 191//25 971//25 192//25
f 192//26 971//26 970//26
f 192//26 970//26 452//26
f 452//27 970//27 955//27
f 452//27 955//27 453//27
f 453//28 955//28 954//28
f 453//28 954//28 420//28
f 420//29 954//29 969//29
f 420//29 969//29 421//29
f 421//30 969//30 968//30
f 421//30 968//30 454//30
f 454//31 968//31 885//31
f 454//31 885//31 455//31
f 455//32 885//32 884//32
f 455//32 884//32 353//32
f 353//33 884//33 923//33
f 353//33 923//33 354//33
f 354//34 923//34 922//34
f 354//34 922//34 386//34
f 386//35 922//35 802//35
f 386//35 802//35 387//35
f 387//36 802//36 801//36
f 387//36 801//36 137//36
f 137//37 801//37 530//37
f 137//37 530//37 139//37
f 139//38 530//38 559//38
f 139//38 559//38 140//38
f 140//39 559//39 685//39
f 140//39 685//39 141//39
f 141//40 685//40 684//40
f 141//40 684//40 142//40
f 142//41 684//41 640//41
f 142//41 640//41 143//41
f 143//42 640//42 639//42
f 143//42 639//42 24//42
f 24//43 639//43 558//43
f 24//44 558//44 65//44
f 65//45 558//45 749//45
f 65//45 749//45 67//45
f 67//46 749//46 748//46
f 67//46 748//46 103//46
f 103//47 748//47 747//47
f 103//47 747//47 104//47
f 104//48 747//48 746//48
f 104//48 746//48 105//48
f 105//49 746//49 745//49
f 105//49 745//49 193//49
f 193//50 745//50 744//50
f 193//50 744//50 194//50
f 194//51 744//51 683//51
f 194//51 683//51 195//51
f 195//52 683//52 682//52
f 195//52 682//52 43//52
f 43//53 682//53 681//53
f 43//53 681//53 41//53
f 41//54 681//54 606//54
f 41//54 606//54 108//54
f 108//55 606//55 604//55
f 108//55 604//55 106//55
f 106//56 604//56 603//56
f 106//56 603//56 314//56
f 314//57 603//57 602//57
f 314//57 602//57 252//57
f 252//58 602//58 601//58
f 252//58 601//58 253//58
f 253//59 601//59 756//59
f 253//59 756//59 255//59
f 255//60 756//60 755//60
f 255//60 755//60 388//60
f 388//61 755//61 690//61
f 388//61 690//61 389//61
f 389//62 690//62 689//62
f 389//62 689//62 390//62
f 390//63 689//63 754//63
f 390//63 754//63 391//63
f 391//64 754//64 753//64
f 391//64 753//64 422//64
f 422//65 753//65 600//65
f 422//65 600//65 423//65
f 423//66 600//66 599//66
f 423//66 599//66 254//66
f 254//67 599//67 598//67
f 254//67 598//67 144//67
f 144//68 598//68 519//68
f 144//68 519//68 145//68
f 145//69 519//69 518//69
f 145//69 518//69 424//69
f 424//70 518//70 762//70
f 424//70 762//70 425//70
f 425//71 762//71 757//71
f 425//71 757//71 392//71
f 392//72 757//72 759//72
f 392//72 759//72 393//72
f 393//73 759//73 760//73
f 393//73 760//73 426//73
f 426//74 760//74 758//74
f 426//74 758//74 427//74
f 427//75 758//75 761//75
f 427//75 761//75 315//75
f 315//76 761//76 693//76
f 315//76 693//76 316//76
f 316//77 693//77 692//77
f 316//77 692//77 355//77
f 355//78 692//78 691//78
f 355//78 691//78 356//78
f 356//79 691//79 568//79
f 356//79 568//79 107//79
f 107//80 568//80 569//80
f 107//80 569//80 109//80
f 109//81 569//81 570//81
f 109//81 570//81 110//81
f 110//82 570//82 608//82
f 110//82 608//82 111//82
f 111//83 608//83 607//83
f 111//83 607//83 112//83
f 112//84 607//84 567//84
f 112//84 567//84 113//84
f 113//85 567//85 566//85
f 113//85 566//85 42//85
f 42//86 566//86 565//86
f 42//86 565//86 44//86
f 44//87 565//87 564//87
f 44//87 564//87 146//87
f 146//88 564//88 562//88
f 146//88 562//88 147//88
f 147//89 562//89 561//89
f 147//89 561//89 148//89
f 148//90 561//90 560//90
f 148//90 560//90 256//90
f 256//91 560//91 662//91
f 256//91 662//91 257//91
f 257//92 662//92 661//92
f 257//92 661//92 258//92
f 258//93 661//93 660//93
f 258//93 660//93 72//93
f 72//94 660//94 587//94
f 72//94 587//94 70//94
f 70//95 587//95 527//95
f 70//95 527//95 68//95
f 68//96 527//96 631//96
f 68//96 631//96 318//96
f 318//97 631//97 630//97
f 318//97 630//97 319//97
f 319//98 630//98 833//98
f 319//98 833//98 320//98
f 320//99 833//99 832//99
f 320//99 832//99 357//99
f 357//100 832//100 831//100
f 357//100 831//100 358//100
f 358//101 831//101 934//101
f 358//101 934//101 359//101
f 359//102 934//102 933//102
f 359//102 933//102 456//102
f 456//103 933//103 906//103
f 456//103 906//103 457//103
f 457//104 906//104 905//104
f 457//104 905//104 428//104
f 428//105 905//105 932//105
f 428//105 932//105 429//105
f 429//106 932//106 931//106
f 429//106 931//106 458//106
f 458//107 931//107 830//107
f 458//107 830//107 459//107
f 459//108 830//108 829//108
f 459//108 829//108 196//108
f 196//109 829//109 828//109
f 196//109 828//109 197//109
f 197//110 828//110 825//110
f 197//110 825//110 199//110
f 199//111 825//111 902//111
f 199//111 902//111 430//111
f 430//112 902//112 903//112
f 430//112 903//112 431//112
f 431//113 903//113 904//113
f 431//113 904//113 432//113
f 432//114 904//114 930//114
f 432//114 930//114 433//114
f 433//115 930//115 929//115
f 433//115 929//115 460//115
f 460//116 929//116 827//116
f 460//116 827//116 461//116
f 461//117 827//117 826//117
f 461//117 826//117 360//117
f 360//118 826//118 824//118
f 360//118 824//118 361//118
f 361//119 824//119 823//119
f 361//119 823//119 394//119
f 394//120 823//120 868//120
f 394//120 868//120 395//120
f 395//121 868//121 629//121
f 395//121 629//121 198//121
f 198//122 629//122 526//122
f 198//122 526//122 317//122
f 317//123 526//123 525//123
f 317//123 525//123 73//123
f 73//124 525//124 628//124
f 73//124 628//124 74//124
f 74//125 628//125 627//125
f 74//125 627//125 149//125
f 149//126 627//126 590//126
f 149//126 590//126 150//126
f 150//127 590//127 589//127
f 150//127 589//127 69//127
f 69//128 589//128 588//128
f 69//128 588//128 71//128
f 71//129 588//129 626//129
f 71//129 626//129 151//129
f 151//130 626//130 625//130
f 151//130 625//130 152//130
f 152//131 625//131 551//131
f 152//131 551//131 153//131
f 153//132 551//132 550//132
f 153//132 550//132 259//132
f 259//133 550//133 740//133
f 259//133 740//133 260//133
f 260//134 740//134 739//134
f 260//134 739//134 261//134
f 261//135 739//135 738//135
f 261//135 738//135 79//135
f 79//136 738//136 584//136
f 79//136 584//136 77//136
f 77//137 584//137 512//137
f 77//137 512//137 75//137
f 75//138 512//138 511//138
f 75//138 511//138 156//138
f 156//139 511//139 657//139
f 156//139 657//139 154//139
f 154//140 657//140 822//140
f 154//140 822//140 362//140
f 362//141 822//141 821//141
f 362//141 821//141 321//141
f 321//142 821//142 820//142
f 321//142 820//142 322//142
f 322//143 820//143 898//143
f 322//143 898//143 324//143
f 324//144 898//144 901//144
f 324//144 901//144 434//144
f 434//145 901//145 900//145
f 434//145 900//145 435//145
f 435//146 900//146 899//146
f 435//146 899//146 436//146
f 436//147 899//147 897//147
f 436//147 897//147 437//147
f 437//148 897//148 896//148
f 437//148 896//148 462//148
f 462//149 896//149 928//149
f 462//149 928//149 463//149
f 463//150 928//150 659//150
f 463//150 659//150 323//150
f 323//151 659//151 658//151
f 323//151 658//151 200//151
f 200//152 658//152 927//152
f 200//152 927//152 201//152
f 201//153 927//153 926//153
f 201//153 926//153 464//153
f 464//154 926//154 895//154
f 464//154 895//154 465//154
f 465//155 895//155 894//155
f 465//155 894//155 438//155
f 438//156 894//156 925//156
f 438//156 925//156 439//156
f 439//157 925//157 924//157
f 439//157 924//157 466//157
f 466//158 924//158 819//158
f 466//158 819//158 467//158
f 467//159 819//159 818//159
f 467//159 818//159 363//159
f 363//160 818//160 867//160
f 363//160 867//160 364//160
f 364//161 867//161 866//161
f 364//161 866//161 396//161
f 396//162 866//162 737//162
f 396//162 737//162 397//162
f 397//163 737//163 736//163
f 397//163 736//163 155//163
f 155//164 736//164 513//164
f 155//164 513//164 157//164
f 157//165 513//165 524//165
f 157//165 524//165 158//165
f 158//166 524//166 624//166
f 158//166 624//166 159//166
f 159//167 624//167 623//167
f 159//167 623//167 160//167
f 160//168 623//168 586//168
f 160//168 586//168 161//168
f 161//169 586//169 585//169
f 161//169 585//169 76//169
f 76//170 585//170 549//170
f 76//170 549//170 78//170
f 78//171 549//171 733//171
f 78//171 733//171 265//171
f 265//172 733//172 732//172
f 265//172 732//172 266//172
f 266//173 732//173 731//173
f 266//173 731//173 204//173
f 204//174 731//174 730//174
f 204//174 730//174 203//174
f 203//175 730//175 729//175
f 203//176 729//176 202//176
f 202//177 729//177 728//177
f 202//177 728//177 267//177
f 267//178 728//178 656//178
f 267//178 656//178 268//178
f 268//179 656//179 655//179
f 268//179 655//179 25//179
f 25//180 655//180 654//180
f 25//180 654//180 26//180
f 26//181 654//181 622//181
f 26//181 622//181 162//181
f 162//182 622//182 620//182
f 162//182 620//182 163//182
f 163//183 620//183 619//183
f 163//183 619//183 164//183
f 164//184 619//184 618//184
f 164//184 618//184 114//184
f 114//185 618//185 617//185
f 114//185 617//185 115//185
f 115//186 617//186 789//186
f 115//186 789//186 116//186
f 116//187 789//187 788//187
f 116//187 788//187 325//187
f 325//188 788//188 735//188
f 325//188 735//188 326//188
f 326//189 735//189 734//189
f 326//189 734//189 262//189
f 262//190 734//190 787//190
f 262//190 787//190 263//190
f 263//191 787//191 786//191
f 263//191 786//191 327//191
f 327//192 786//192 616//192
f 327//192 616//192 328//192
f 328//193 616//193 615//193
f 328//193 615//193 45//193
f 45//194 615//194 613//194
f 45//194 613//194 46//194
f 46//195 613//195 612//195
f 46//195 612//195 48//195
f 48//196 612//196 797//196
f 48//196 797//196 49//196
f 49//197 797//197 953//197
f 49//197 953//197 470//197
f 470//198 953//198 948//198
f 470//198 948//198 473//198
f 473//199 948//199 950//199
f 473//200 950//200 474//200
f 474//201 950//201 951//201
f 474//201 951//201 475//201
f 475//202 951//202 949//202
f 475//203 949//203 471//203
f 471//204 949//204 952//204
f 471//204 952//204 472//204
f 472//205 952//205 921//205
f 472//205 921//205 445//205
f 445//206 921//206 920//206
f 445//206 920//206 446//206
f 446//207 920//207 919//207
f 446//207 919//207 447//207
f 447//208 919//208 798//208
f 447//208 798//208 341//208
f 341//209 798//209 676//209
f 341//209 676//209 342//209
f 342//210 676//210 675//210
f 342//210 675//210 343//210
f 343//211 675//211 848//211
f 343//211 848//211 344//211
f 344//212 848//212 847//212
f 344//212 847//212 371//212
f 371//213 847//213 796//213
f 371//213 796//213 372//213
f 372//214 796//214 795//214
f 372//214 795//214 125//214
f 125//215 795//215 794//215
f 125//215 794//215 126//215
f 126//216 794//216 793//216
f 126//216 793//216 345//216
f 345//217 793//217 792//217
f 345//217 792//217 346//217
f 346//218 792//218 791//218
f 346//218 791//218 347//218
f 347//219 791//219 790//219
f 347//219 790//219 402//219
f 402//220 790//220 883//220
f 402//221 883//221 403//221
f 403//222 883//222 882//222
f 403//222 882//222 404//222
f 404//223 882//223 881//223
f 404//223 881//223 240//223
f 240//224 881//224 672//224
f 240//224 672//224 238//224
f 238//225 672//225 555//225
f 238//225 555//225 129//225
f 129//226 555//226 668//226
f 129//226 668//226 377//226
f 377//227 668//227 667//227
f 377//227 667//227 378//227
f 378//228 667//228 880//228
f 378//228 880//228 379//228
f 379//229 880//229 879//229
f 379//229 879//229 405//229
f 405//230 879//230 878//230
f 405//231 878//231 406//231
f 406//232 878//232 967//232
f 406//232 967//232 407//232
f 407//233 967//233 966//233
f 407//233 966//233 488//233
f 488//234 966//234 945//234
f 488//234 945//234 489//234
f 489//235 945//235 944//235
f 489//235 944//235 476//235
f 476//236 944//236 965//236
f 476//236 965//236 477//236
f 477//237 965//237 964//237
f 477//237 964//237 490//237
f 490//238 964//238 877//238
f 490//238 877//238 491//238
f 491//239 877//239 876//239
f 491//239 876//239 293//239
f 293//240 876//240 875//240
f 293//240 875//240 294//240
f 294//241 875//241 872//241
f 294//241 872//241 296//241
f 296//242 872//242 941//242
f 296//243 941//243 478//243
f 478//244 941//244 942//244
f 478//244 942//244 479//244
f 479//245 942//245 943//245
f 479//245 943//245 480//245
f 480//246 943//246 963//246
f 480//246 963//246 481//246
f 481//247 963//247 962//247
f 481//247 962//247 492//247
f 492//248 962//248 874//248
f 492//249 874//249 493//249
f 493//250 874//250 873//250
f 493//250 873//250 408//250
f 408//251 873//251 871//251
f 408//251 871//251 409//251
f 409//252 871//252 870//252
f 409//252 870//252 448//252
f 448//253 870//253 912//253
f 448//253 912//253 449//253
f 449//254 912//254 666//254
f 449//254 666//254 295//254
f 295//255 666//255 554//255
f 295//255 554//255 376//255
f 376//256 554//256 553//256
f 376//256 553//256 127//256
f 127//257 553//257 665//257
f 127//257 665//257 128//257
f 128//258 665//258 664//258
f 128//258 664//258 241//258
f 241//259 664//259 663//259
f 241//259 663//259 242//259
f 242//260 663//260 674//260
f 242//260 674//260 237//260
f 237//261 674//261 673//261
f 237//261 673//261 239//261
f 239//262 673//262 986//262
f 239//262 986//262 290//262
f 290//263 986//263 985//263
f 290//263 985//263 291//263
f 291//264 985//264 984//264
f 291//264 984//264 292//264
f 292//265 984//265 915//265
f 292//265 915//265 373//265
f 373//266 915//266 914//266
f 373//266 914//266 374//266
f 374//267 914//267 913//267
f 374//267 913//267 375//267
f 375//268 913//268 947//268
f 375//268 947//268 190//268
f 190//269 947//269 946//269
f 190//269 946//269 188//269
f 188//270 946//270 592//270
f 188//270 592//270 101//270
f 101//271 592//271 634//271
f 101//272 634//272 249//272
f 249//273 634//273 633//273
f 249//273 633//273 250//273
f 250//274 633//274 844//274
f 250//274 844//274 251//274
f 251//275 844//275 843//275
f 251//275 843//275 305//275
f 305//276 843//276 842//276
f 305//276 842//276 306//276
f 306//277 842//277 940//277
f 306//277 940//277 307//277
f 307//278 940//278 939//278
f 307//278 939//278 410//278
f 410//279 939//279 911//279
f 410//279 911//279 411//279
f 411//280 911//280 910//280
f 411//280 910//280 380//280
f 380//281 910//281 938//281
f 380//281 938//281 381//281
f 381//282 938//282 937//282
f 381//282 937//282 412//282
f 412//283 937//283 841//283
f 412//283 841//283 413//283
f 413//284 841//284 840//284
f 413//285 840//285 130//285
f 130//286 840//286 839//286
f 130//287 839//287 131//287
f 131//288 839//288 836//288
f 131//288 836//288 133//288
f 133//289 836//289 907//289
f 133//290 907//290 382//290
f 382//291 907//291 908//291
f 382//291 908//291 383//291
f 383//292 908//292 909//292
f 383//292 909//292 384//292
f 384//293 909//293 936//293
f 384//293 936//293 385//293
f 385//294 936//294 935//294
f 385//294 935//294 414//294
f 414//295 935//295 838//295
f 414//295 838//295 415//295
f 415//296 838//296 837//296
f 415//296 837//296 308//296
f 308//297 837//297 835//297
f 308//297 835//297 309//297
f 309//298 835//298 834//298
f 309//298 834//298 350//298
f 350//299 834//299 869//299
f 350//299 869//299 351//299
f 351//300 869//300 632//300
f 351//300 632//300 132//300
f 132//301 632//301 591//301
f 132//302 591//302 248//302
f 248//303 591//303 593//303
f 248//303 593//303 99//303
f 99//304 593//304 594//304
f 99//304 594//304 100//304
f 100//305 594//305 583//305
f 100//305 583//305 102//305
f 102//306 583//306 582//306
f 102//306 582//306 186//306
f 186//307 582//307 546//307
f 186//307 546//307 187//307
f 187//308 546//308 545//308
f 187//308 545//308 189//308
f 189//309 545//309 653//309
f 189//309 653//309 298//309
f 298//310 653//310 652//310
f 298//310 652//310 299//310
f 299//311 652//311 649//311
f 299//311 649//311 245//311
f 245//312 649//312 650//312
f 245//312 650//312 244//312
f 244//313 650//313 651//313
f 244//313 651//313 243//313
f 243//314 651//314 783//314
f 243//314 783//314 300//314
f 300//315 783//315 782//315
f 300//315 782//315 301//315
f 301//316 782//316 781//316
f 301//316 781//316 19//316
f 19//317 781//317 508//317
f 19//317 508//317 20//317
f 20//318 508//318 507//318
f 20//318 507//318 96//318
f 96//319 507//319 609//319
f 96//319 609//319 97//319
f 97//320 609//320 778//320
f 97//320 778//320 98//320
f 98//321 778//321 777//321
f 98//321 777//321 62//321
f 62//322 777//322 776//322
f 62//322 776//322 63//322
f 63//323 776//323 859//323
f 63//323 859//323 64//323
f 64//324 859//324 862//324
f 64//324 862//324 233//324
f 233//325 862//325 861//325
f 233//325 861//325 234//325
f 234//326 861//326 860//326
f 234//326 860//326 184//326
f 184//327 860//327 858//327
f 184//327 858//327 185//327
f 185//328 858//328 857//328
f 185//328 857//328 235//328
f 235//329 857//329 893//329
f 235//329 893//329 236//329
f 236//330 893//330 611//330
f 236//331 611//331 15//331
f 15//332 611//332 610//332
f 15//332 610//332 16//332
f 16//333 610//333 892//333
f 16//333 892//333 17//333
f 17//334 892//334 891//334
f 17//334 891//334 18//334
f 18//335 891//335 856//335
f 18//335 856//335 227//335
f 227//336 856//336 855//336
f 227//336 855//336 230//336
f 230//337 855//337 890//337
f 230//337 890//337 231//337
f 231//338 890//338 889//338
f 231//338 889//338 232//338
f 232//339 889//339 775//339
f 232//339 775//339 228//339
f 228//340 775//340 774//340
f 228//340 774//340 229//340
f 229//341 774//341 817//341
f 229//341 817//341 181//341
f 181//342 817//342 816//342
f 181//342 816//342 182//342
f 182//343 816//343 642//343
f 182//343 642//343 183//343
f 183//344 642//344 641//344
f 183//344 641//344 56//344
f 56//345 641//345 509//345
f 56//345 509//345 57//345
f 57//346 509//346 510//346
f 57//346 510//346 58//346
f 58//347 510//347 578//347
f 58//347 578//347 59//347
f 59//348 578//348 577//348
f 59//348 577//348 94//348
f 94//349 577//349 543//349
f 94//349 543//349 95//349
f 95//350 543//350 542//350
f 95//350 542//350 7//350
f 7//351 542//351 544//351
f 7//351 544//351 8//351
f 8//352 544//352 721//352
f 8//352 721//352 10//352
f 10//353 721//353 648//353
f 10//353 648//353 60//353
f 60//354 648//354 647//354
f 60//354 647//354 61//354
f 61//355 647//355 646//355
f 61//355 646//355 117//355
f 117//356 646//356 725//356
f 117//356 725//356 118//356
f 118//357 725//357 724//357
f 118//357 724//357 119//357
f 119//358 724//358 645//358
f 119//358 645//358 31//358
f 31//359 645//359 644//359
f 31//359 644//359 29//359
f 29//360 644//360 506//360
f 29//360 506//360 14//360
f 14//361 506//361 541//361
f 14//361 541//361 166//361
f 166//362 541//362 540//362
f 166//362 540//362 167//362
f 167//363 540//363 713//363
f 167//363 713//363 168//363
f 168//364 713//364 712//364
f 168//364 712//364 208//364
f 208//365 712//365 711//365
f 208//365 711//365 209//365
f 209//366 711//366 854//366
f 209//366 854//366 210//366
f 210//367 854//367 853//367
f 210//367 853//367 365//367
f 365//368 853//368 815//368
f 365//368 815//368 366//368
f 366//369 815//369 814//369
f 366//369 814//369 333//369
f 333//370 814//370 852//370
f 333//370 852//370 334//370
f 334//371 852//371 851//371
f 334//371 851//371 367//371
f 367//372 851//372 710//372
f 367//372 710//372 368//372
f 368//373 710//373 709//373
f 368//373 709//373 80//373
f 80//374 709//374 708//374
f 80//374 708//374 81//374
f 81//375 708//375 705//375
f 81//375 705//375 83//375
f 83//376 705//376 811//376
f 83//376 811//376 335//376
f 335//377 811//377 812//377
f 335//378 812//378 336//378
f 336//379 812//379 813//379
f 336//379 813//379 337//379
f 337//380 813//380 850//380
f 337//380 850//380 338//380
f 338//381 850//381 849//381
f 338//382 849//382 369//382
f 369//383 849//383 707//383
f 369//383 707//383 370//383
f 370//384 707//384 706//384
f 370//384 706//384 211//384
f 211//385 706//385 704//385
f 211//385 704//385 212//385
f 212//386 704//386 703//386
f 212//386 703//386 276//386
f 276//387 703//387 773//387
f 276//387 773//387 277//387
f 277//388 773//388 539//388
f 277//388 539//388 82//388
f 82//389 539//389 505//389
f 82//389 505//389 165//389
f 165//390 505//390 504//390
f 165//390 504//390 12//390
f 12//391 504//391 538//391
f 12//391 538//391 13//391
f 13//392 538//392 537//392
f 13//392 537//392 54//392
f 54//393 537//393 523//393
f 54//393 523//393 55//393
f 55//394 523//394 522//394
f 55//394 522//394 28//394
f 28//395 522//395 643//395
f 28//395 643//395 30//395
f 30//396 643//396 722//396
f 30//396 722//396 270//396
f 270//397 722//397 723//397
f 270//397 723//397 271//397
f 271//398 723//398 720//398
f 271//398 720//398 272//398
f 272//399 720//399 719//399
f 272//399 719//399 273//399
f 273//400 719//400 718//400
f 273//400 718//400 274//400
f 274//401 718//401 717//401
f 274//401 717//401 275//401
f 275//402 717//402 780//402
f 275//402 780//402 51//402
f 51//403 780//403 779//403
f 51//403 779//403 52//403
f 52//404 779//404 581//404
f 52//404 581//404 36//404
f 36//405 581//405 865//405
f 36//406 865//406 399//406
f 399//407 865//407 864//407
f 399//407 864//407 400//407
f 400//408 864//408 983//408
f 400//408 983//408 401//408
f 401//409 983//409 982//409
f 401//409 982//409 440//409
f 440//410 982//410 981//410
f 440//410 981//410 441//410
f 441//411 981//411 998//411
f 441//411 998//411 442//411
f 442//412 998//412 997//412
f 442//412 997//412 494//412
f 494//413 997//413 992//413
f 494//413 992//413 495//413
f 495//414 992//414 991//414
f 495//414 991//414 482//414
f 482//415 991//415 996//415
f 482//415 996//415 483//415
f 483//416 996//416 995//416
f 483//416 995//416 496//416
f 496//417 995//417 980//417
f 496//417 980//417 497//417
f 497//418 980//418 979//418
f 497//418 979//418 329//418
f 329//419 979//419 978//419
f 329//419 978//419 330//419
f 330//420 978//420 975//420
f 330//420 975//420 332//420
f 332//421 975//421 988//421
f 332//421 988//421 484//421
f 484//422 988//422 989//422
f 484//423 989//423 485//423
f 485//424 989//424 990//424
f 485//425 990//425 486//425
f 486//426 990//426 994//426
f 486//426 994//426 487//426
f 487//427 994//427 993//427
f 487//427 993//427 498//427
f 498//428 993//428 977//428
f 498//428 977//428 499//428
f 499//429 977//429 976//429
f 499//429 976//429 443//429
f 443//430 976//430 974//430
f 443//430 974//430 444//430
f 444//431 974//431 973//431
f 444//432 973//432 468//432
f 468//433 973//433 987//433
f 468//433 987//433 469//433
f 469//434 987//434 863//434
f 469//434 863//434 331//434
f 331//435 863//435 716//435
f 331//435 716//435 398//435
f 398//436 716//436 715//436
f 398//436 715//436 50//436
f 50//437 715//437 714//437
f 50//437 714//437 34//437
f 34//438 714//438 580//438
f 34//438 580//438 35//438
f 35//439 580//439 579//439
f 35//439 579//439 53//439
f 53//440 579//440 573//440
f 53//440 573//440 37//440
f 3//441 37//441 503//441
f 503//441 37//441 573//441
f 1//442 3//442 501//442
f 501//442 3//442 503//442
f 33//443 635//443 597//443
f 33//443 597//443 11//443
f 11//444 597//444 596//444
f 11//444 596//444 9//444
f 9//445 596//445 595//445
f 9//445 595//445 21//445
f 21//446 595//446 671//446
f 21//446 671//446 297//446
f 297//447 671//447 670//447
f 297//447 670//447 246//447
f 246//448 670//448 669//448
f 246//448 669//448 247//448
f 247//449 669//449 918//449
f 247//449 918//449 348//449
f 348//450 918//450 917//450
f 348//450 917//450 349//450
f 349//451 917//451 916//451
f 349//451 916//451 302//451
f 302//452 916//452 846//452
f 302//452 846//452 303//452
f 218//453 741//453 680//453
f 218//453 680//453 219//453
f 219//454 680//454 679//454
f 219//454 679//454 220//454
f 220//455 679//455 686//455
f 220//455 686//455 221//455
f 221//456 686//456 515//456
f 221//456 515//456 222//456
f 222//457 515//457 514//457
f 222//457 514//457 90//457
f 90//458 514//458 678//458
f 90//458 678//458 89//458
f 89//459 678//459 677//459
f 89//459 677//459 88//459
f 88//460 677//460 637//460
f 88//460 637//460 269//460
f 269//461 637//461 636//461
f 269//461 636//461 32//461
f 32//462 636//462 635//462
f 32//462 635//462 33//462
f 176//463 552//463 563//463
f 176//463 563//463 177//463
f 177//464 563//464 517//464
f 177//464 517//464 85//464
f 85//465 517//465 605//465
f 85//465 605//465 87//465
f 87//466 605//466 557//466
f 87//466 557//466 172//466
f 172//467 557//467 556//467
f 172//467 556//467 173//467
f 173//468 556//468 800//468
f 173//468 800//468 174//468
f 174//469 800//469 799//469
f 174//469 799//469 280//469
f 280//470 799//470 743//470
f 280//470 743//470 281//470
f 281//471 743//471 742//471
f 281//471 742//471 217//471
f 217//472 742//472 741//472
f 217//472 741//472 218//472
f 303//473 846//473 845//473
f 303//473 845//473 304//473
f 304//474 845//474 614//474
f 304//474 614//474 47//474
f 47//475 614//475 621//475
f 47//475 621//475 27//475
f 27//476 621//476 548//476
f 27//476 548//476 264//476
f 264//477 548//477 547//477
f 264//477 547//477 205//477
f 205//478 547//478 785//478
f 205//478 785//478 206//478
f 206//479 785//479 784//479
f 206//479 784//479 207//479
f 207//480 784//480 727//480
f 207//480 727//480 66//480
f 66//481 727//481 726//481
f 66//481 726//481 175//481
f 175//482 726//482 552//482
f 175//482 552//482 176//482
f 38//443 808//443 699//443
f 38//443 699//443 39//443
f 39//444 699//444 698//444
f 39//444 698//444 86//444
f 86//445 698//445 697//445
f 86//445 697//445 84//445
f 84//446 697//446 572//446
f 84//446 572//446 169//446
f 169//447 572//447 571//447
f 169//447 571//447 170//447
f 170//448 571//448 807//448
f 170//448 807//448 171//448
f 171//449 807//449 806//449
f 171//449 806//449 278//449
f 278//450 806//450 766//450
f 278//450 766//450 279//450
f 279//451 766//451 765//451
f 279//451 765//451 213//451
f 213//452 765//452 805//452
f 213//452 805//452 214//452
f 288//483 769//483 768//483
f 288//484 768//484 289//484
f 289//485 768//485 767//485
f 289//485 767//485 5//485
f 5//486 767//486 533//486
f 5//486 533//486 6//486
f 6//487 533//487 532//487
f 6//487 532//487 91//487
f 91//488 532//488 702//488
f 91//488 702//488 92//488
f 92//489 702//489 701//489
f 92//489 701//489 93//489
f 93//490 701//490 700//490
f 93//490 700//490 122//490
f 122//491 700//491 810//491
f 122//491 810//491 123//491
f 123//492 810//492 809//492
f 123//492 809//492 124//492
f 124//493 809//493 808//493
f 124//493 808//493 38//493
f 283//494 694//494 534//494
f 283//494 534//494 284//494
f 284//464 534//464 535//464
f 284//464 535//464 178//464
f 178//465 535//465 536//465
f 178//465 536//465 179//465
f 179//466 536//466 576//466
f 179//466 576//466 180//466
f 180//467 576//467 575//467
f 180//467 575//467 120//467
f 120//468 575//468 574//468
f 120//468 574//468 121//468
f 121//469 574//469 772//469
f 121//469 772//469 285//469
f 285//470 772//470 771//470
f 285//470 771//470 286//470
f 286//471 771//471 770//471
f 286//471 770//471 287//471
f 287//472 770//472 769//472
f 287//472 769//472 288//472
f 214//495 805//495 804//495
f 214//495 804//495 215//495
f 215//474 804//474 803//474
f 215//474 803//474 216//474
f 216//475 803//475 521//475
f 216//475 521//475 223//475
f 223//496 521//496 520//496
f 223//496 520//496 224//496
f 224//497 520//497 531//497
f 224//497 531//497 225//497
f 225//478 531//478 764//478
f 225//478 764//478 226//478
f 226//479 764//479 763//479
f 226//479 763//479 339//479
f 339//480 763//480 696//480
f 339//480 696//480 340//480
f 340//481 696//481 695//481
f 340//481 695//481 282//481
f 282//482 695//482 694//482
f 282//482 694//482 283//482
