####
#
#	OBJ File Generated by LightWave3D
#	LightWave3D OBJ Export v2.2
#
####
#	Object: 1
#
#	                Vertices: 68
#	                  Points: 0
#	                   Lines: 0
#	                   Faces: 44
#	               Materials: 1
#
####

o 1

#	             Vertex list

v -0.00330476 -0.0536037 0.01458
v 0.0401335 -0.0392962 0.012474
v 0.0401335 -0.0392962 -0.011088
v -0.00330476 -0.0536037 -0.01296
v -0.00330476 -0.0536037 0.01458
v -0.00858988 0.0068055 0.0324
v 0.034938 0.0200898 0.02772
v 0.0401335 -0.0392962 0.012474
v -0.00858988 0.0068055 0.0324
v -0.0128466 0.0554596 0.01422
v 0.0319287 0.0544852 0.0109494
v 0.034938 0.0200898 0.02772
v -0.0128466 0.0554596 0.01422
v -0.0128466 0.0554596 -0.012798
v 0.0319287 0.0544852 -0.0109494
v 0.0319287 0.0544852 0.0109494
v -0.00858988 0.0068055 -0.0324
v 0.034938 0.0200898 -0.02772
v 0.0319287 0.0544852 -0.0109494
v -0.0128466 0.0554596 -0.012798
v -0.00330476 -0.0536037 -0.01296
v 0.0401335 -0.0392962 -0.011088
v 0.034938 0.0200898 -0.02772
v -0.00858988 0.0068055 -0.0324
v -0.00330476 -0.0536037 0.01458
v -0.00330476 -0.0536037 -0.01296
v -0.00858988 0.0068055 -0.0324
v -0.0128466 0.0554596 -0.012798
v -0.0128466 0.0554596 0.01422
v -0.00858988 0.0068055 0.0324
v 0.0401335 -0.0392962 0.012474
v 0.034938 0.0200898 0.02772
v 0.0319287 0.0544852 0.0109494
v 0.0319287 0.0544852 -0.0109494
v 0.034938 0.0200898 -0.02772
v 0.0401335 -0.0392962 -0.011088
v 0.0389962 0.0420872 0.01275
v 0.0384406 0.0484379 0.0110418
v 0.0442183 0.0457437 0.0110418
v 0.0447739 0.039393 0.0110418
v 0.0395518 0.0357364 0.0110418
v 0.0337741 0.0384306 0.0110418
v 0.0332185 0.0447813 0.0110418
v 0.0380338 0.053087 0.006375
v 0.0480411 0.0484205 0.006375
v 0.0490035 0.0374207 0.006375
v 0.0399586 0.0310874 0.006375
v 0.0299513 0.0357538 0.006375
v 0.0289889 0.0467536 0.006375
v 0.037885 0.0547886 -6.50685e-014
v 0.0494404 0.0494003 -6.50685e-014
v 0.0505516 0.0366988 -6.50685e-014
v 0.0401074 0.0293857 -6.50685e-014
v 0.028552 0.0347741 -6.50685e-014
v 0.0274408 0.0474755 -6.50685e-014
v 0.0380338 0.053087 -0.006375
v 0.0480411 0.0484205 -0.006375
v 0.0490035 0.0374207 -0.006375
v 0.0399586 0.0310874 -0.006375
v 0.0299513 0.0357538 -0.006375
v 0.0289889 0.0467536 -0.006375
v 0.0384406 0.0484379 -0.0110418
v 0.0442183 0.0457437 -0.0110418
v 0.0447739 0.039393 -0.0110418
v 0.0395518 0.0357364 -0.0110418
v 0.0337741 0.0384306 -0.0110418
v 0.0332185 0.0447813 -0.0110418
v 0.0389962 0.0420872 -0.01275

#	               Face list

usemtl Default
f 4 3 2 1
f 8 7 6 5
f 12 11 10 9
f 16 15 14 13
f 20 19 18 17
f 24 23 22 21
f 30 29 28 27 26 25
f 36 35 34 33 32 31
f 39 38 37
f 39 37 40
f 40 37 41
f 37 42 41
f 37 43 42
f 38 43 37
f 45 44 38 39
f 45 39 40 46
f 46 40 41 47
f 41 42 48 47
f 42 43 49 48
f 38 44 49 43
f 51 50 44 45
f 51 45 46 52
f 52 46 47 53
f 47 48 54 53
f 48 49 55 54
f 44 50 55 49
f 56 50 51 57
f 58 57 51 52
f 59 58 52 53
f 54 60 59 53
f 55 61 60 54
f 55 50 56 61
f 62 56 57 63
f 64 63 57 58
f 65 64 58 59
f 60 66 65 59
f 61 67 66 60
f 61 56 62 67
f 62 63 68
f 68 63 64
f 68 64 65
f 66 68 65
f 67 68 66
f 67 62 68

#	             End of file
