####
#
#	OBJ File Generated by LightWave3D
#	LightWave3D OBJ Export v2.2
#
####
#	Object: 5
#
#	                Vertices: 172
#	                  Points: 0
#	                   Lines: 0
#	                   Faces: 46
#	               Materials: 1
#
####

o 5

#	             Vertex list

v 0.00383857 0.0234859 0.0172421
v 0.00383857 0.0234859 -0.0164188
v 0.0308458 -0.00346498 -0.0164188
v 0.0308458 -0.00346498 0.0172421
v -0.0357164 -0.013409 0.0172421
v -0.0137091 -0.0453598 0.0172421
v -0.0137091 -0.0453598 -0.0164188
v -0.0357164 -0.013409 -0.0164188
v -0.014 0.022 0.01275
v -0.014 0.028375 0.0110418
v -0.0084791 0.0251875 0.0110418
v -0.0084791 0.0188125 0.0110418
v -0.014 0.022 0.01275
v -0.0084791 0.0251875 0.0110418
v -0.014 0.015625 0.0110418
v -0.014 0.022 0.01275
v -0.0084791 0.0188125 0.0110418
v -0.014 0.015625 0.0110418
v -0.0195209 0.0188125 0.0110418
v -0.014 0.022 0.01275
v -0.0195209 0.0188125 0.0110418
v -0.0195209 0.0251875 0.0110418
v -0.014 0.022 0.01275
v -0.014 0.022 0.01275
v -0.0195209 0.0251875 0.0110418
v -0.014 0.028375 0.0110418
v -0.0084791 0.0251875 0.0110418
v -0.014 0.028375 0.0110418
v -0.014 0.0330418 0.006375
v -0.0044375 0.0275209 0.006375
v -0.0044375 0.0164791 0.006375
v -0.0084791 0.0188125 0.0110418
v -0.0084791 0.0251875 0.0110418
v -0.0044375 0.0275209 0.006375
v -0.014 0.0109582 0.006375
v -0.014 0.015625 0.0110418
v -0.0084791 0.0188125 0.0110418
v -0.0044375 0.0164791 0.006375
v -0.014 0.0109582 0.006375
v -0.0235625 0.0164791 0.006375
v -0.0195209 0.0188125 0.0110418
v -0.014 0.015625 0.0110418
v -0.0235625 0.0164791 0.006375
v -0.0235625 0.0275209 0.006375
v -0.0195209 0.0251875 0.0110418
v -0.0195209 0.0188125 0.0110418
v -0.0195209 0.0251875 0.0110418
v -0.0235625 0.0275209 0.006375
v -0.014 0.0330418 0.006375
v -0.014 0.028375 0.0110418
v -0.0044375 0.0275209 0.006375
v -0.014 0.0330418 0.006375
v -0.014 0.03475 -6.50685e-014
v -0.002958 0.028375 -6.50685e-014
v -0.002958 0.015625 -6.50685e-014
v -0.0044375 0.0164791 0.006375
v -0.0044375 0.0275209 0.006375
v -0.002958 0.028375 -6.50685e-014
v -0.014 0.00925 -6.50685e-014
v -0.014 0.0109582 0.006375
v -0.0044375 0.0164791 0.006375
v -0.002958 0.015625 -6.50685e-014
v -0.014 0.00925 -6.50685e-014
v -0.0250418 0.015625 -6.50685e-014
v -0.0235625 0.0164791 0.006375
v -0.014 0.0109582 0.006375
v -0.0250418 0.015625 -6.50685e-014
v -0.0250418 0.028375 -6.50685e-014
v -0.0235625 0.0275209 0.006375
v -0.0235625 0.0164791 0.006375
v -0.0235625 0.0275209 0.006375
v -0.0250418 0.028375 -6.50685e-014
v -0.014 0.03475 -6.50685e-014
v -0.014 0.0330418 0.006375
v -0.0044375 0.0275209 -0.006375
v -0.002958 0.028375 -6.50685e-014
v -0.014 0.03475 -6.50685e-014
v -0.014 0.0330418 -0.006375
v -0.002958 0.015625 -6.50685e-014
v -0.002958 0.028375 -6.50685e-014
v -0.0044375 0.0275209 -0.006375
v -0.0044375 0.0164791 -0.006375
v -0.014 0.00925 -6.50685e-014
v -0.002958 0.015625 -6.50685e-014
v -0.0044375 0.0164791 -0.006375
v -0.014 0.0109582 -0.006375
v -0.014 0.00925 -6.50685e-014
v -0.014 0.0109582 -0.006375
v -0.0235625 0.0164791 -0.006375
v -0.0250418 0.015625 -6.50685e-014
v -0.0250418 0.015625 -6.50685e-014
v -0.0235625 0.0164791 -0.006375
v -0.0235625 0.0275209 -0.006375
v -0.0250418 0.028375 -6.50685e-014
v -0.0235625 0.0275209 -0.006375
v -0.014 0.0330418 -0.006375
v -0.014 0.03475 -6.50685e-014
v -0.0250418 0.028375 -6.50685e-014
v -0.0084791 0.0251875 -0.0110418
v -0.0044375 0.0275209 -0.006375
v -0.014 0.0330418 -0.006375
v -0.014 0.028375 -0.0110418
v -0.0044375 0.0164791 -0.006375
v -0.0044375 0.0275209 -0.006375
v -0.0084791 0.0251875 -0.0110418
v -0.0084791 0.0188125 -0.0110418
v -0.014 0.0109582 -0.006375
v -0.0044375 0.0164791 -0.006375
v -0.0084791 0.0188125 -0.0110418
v -0.014 0.015625 -0.0110418
v -0.014 0.0109582 -0.006375
v -0.014 0.015625 -0.0110418
v -0.0195209 0.0188125 -0.0110418
v -0.0235625 0.0164791 -0.006375
v -0.0235625 0.0164791 -0.006375
v -0.0195209 0.0188125 -0.0110418
v -0.0195209 0.0251875 -0.0110418
v -0.0235625 0.0275209 -0.006375
v -0.0195209 0.0251875 -0.0110418
v -0.014 0.028375 -0.0110418
v -0.014 0.0330418 -0.006375
v -0.0235625 0.0275209 -0.006375
v -0.014 0.022 -0.01275
v -0.0084791 0.0251875 -0.0110418
v -0.014 0.028375 -0.0110418
v -0.0084791 0.0188125 -0.0110418
v -0.0084791 0.0251875 -0.0110418
v -0.014 0.022 -0.01275
v -0.014 0.015625 -0.0110418
v -0.0084791 0.0188125 -0.0110418
v -0.014 0.022 -0.01275
v -0.014 0.015625 -0.0110418
v -0.014 0.022 -0.01275
v -0.0195209 0.0188125 -0.0110418
v -0.0195209 0.0188125 -0.0110418
v -0.014 0.022 -0.01275
v -0.0195209 0.0251875 -0.0110418
v -0.014 0.022 -0.01275
v -0.014 0.028375 -0.0110418
v -0.0195209 0.0251875 -0.0110418
v 0.00755926 -0.0253612 0.0305934
v -0.0168508 0.00418786 0.0268977
v 0.00383857 0.0234859 0.0172421
v 0.0308458 -0.00346498 0.0172421
v -0.0137091 -0.0453598 0.0172421
v -0.0357164 -0.013409 0.0172421
v -0.0168508 0.00418786 0.0268977
v 0.00755926 -0.0253612 0.0305934
v 0.00383857 0.0234859 -0.0164188
v 0.00383857 0.0234859 0.0172421
v -0.0168508 0.00418786 0.0268977
v -0.0168508 0.00418786 -0.0256133
v -0.0357164 -0.013409 -0.0164188
v -0.0168508 0.00418786 -0.0256133
v -0.0168508 0.00418786 0.0268977
v -0.0357164 -0.013409 0.0172421
v 0.0308458 -0.00346498 -0.0164188
v 0.00755926 -0.0253612 -0.0291326
v 0.00755926 -0.0253612 0.0305934
v 0.0308458 -0.00346498 0.0172421
v -0.0137091 -0.0453598 0.0172421
v 0.00755926 -0.0253612 0.0305934
v 0.00755926 -0.0253612 -0.0291326
v -0.0137091 -0.0453598 -0.0164188
v 0.00755926 -0.0253612 -0.0291326
v 0.0308458 -0.00346498 -0.0164188
v 0.00383857 0.0234859 -0.0164188
v -0.0168508 0.00418786 -0.0256133
v -0.0137091 -0.0453598 -0.0164188
v 0.00755926 -0.0253612 -0.0291326
v -0.0168508 0.00418786 -0.0256133
v -0.0357164 -0.013409 -0.0164188

#	               Face list

usemtl Default
f 4 3 2 1
f 8 7 6 5
f 11 10 9
f 14 13 12
f 17 16 15
f 20 19 18
f 23 22 21
f 26 25 24
f 30 29 28 27
f 34 33 32 31
f 38 37 36 35
f 42 41 40 39
f 46 45 44 43
f 50 49 48 47
f 54 53 52 51
f 58 57 56 55
f 62 61 60 59
f 66 65 64 63
f 70 69 68 67
f 74 73 72 71
f 78 77 76 75
f 82 81 80 79
f 86 85 84 83
f 90 89 88 87
f 94 93 92 91
f 98 97 96 95
f 102 101 100 99
f 106 105 104 103
f 110 109 108 107
f 114 113 112 111
f 118 117 116 115
f 122 121 120 119
f 125 124 123
f 128 127 126
f 131 130 129
f 134 133 132
f 137 136 135
f 140 139 138
f 144 143 142 141
f 148 147 146 145
f 152 151 150 149
f 156 155 154 153
f 160 159 158 157
f 164 163 162 161
f 168 167 166 165
f 172 171 170 169

#	             End of file
