####
#
#	OBJ File Generated by LightWave3D
#	LightWave3D OBJ Export v2.2
#
####
#	Object: 3
#
#	                Vertices: 60
#	                  Points: 0
#	                   Lines: 0
#	                   Faces: 20
#	               Materials: 1
#
####

o 3

#	             Vertex list

v -0.00628272 -0.0696303 0.0152722
v 0.0106027 -0.0696303 0.0152722
v -0.00628272 -0.0696303 -0.014573
v 0.0106027 -0.0696303 0.0152722
v 0.0106027 -0.0696303 -0.014573
v -0.00628272 -0.0696303 -0.014573
v 0.0106027 -0.0696303 0.0152722
v -0.00628272 -0.0696303 0.0152722
v 0.00191728 -0.0116883 0.00873013
v 0.0106027 -0.0696303 0.0152722
v 0.00191728 -0.0116883 0.00873013
v 0.0188027 -0.0116883 0.00873013
v 0.0188027 -0.0116883 0.00873013
v 0.00191728 -0.0116883 0.00873013
v 0.00847728 0.0501903 0.0084078
v 0.0188027 -0.0116883 0.00873013
v 0.00847728 0.0501903 0.0084078
v 0.0253627 0.0701703 0.0084078
v 0.0253627 0.0701703 0.0084078
v 0.00847728 0.0501903 0.0084078
v 0.00847728 0.0501903 -0.0077086
v 0.0253627 0.0701703 0.0084078
v 0.00847728 0.0501903 -0.0077086
v 0.0253627 0.0701703 -0.0077086
v 0.00191728 -0.0116883 -0.00768174
v 0.0188027 -0.0116883 -0.00768174
v 0.00847728 0.0501903 -0.0077086
v 0.0188027 -0.0116883 -0.00768174
v 0.0253627 0.0701703 -0.0077086
v 0.00847728 0.0501903 -0.0077086
v -0.00628272 -0.0696303 -0.014573
v 0.0106027 -0.0696303 -0.014573
v 0.00191728 -0.0116883 -0.00768174
v 0.0106027 -0.0696303 -0.014573
v 0.0188027 -0.0116883 -0.00768174
v 0.00191728 -0.0116883 -0.00768174
v -0.00628272 -0.0696303 0.0152722
v -0.00628272 -0.0696303 -0.014573
v 0.00191728 -0.0116883 -0.00768174
v -0.00628272 -0.0696303 0.0152722
v 0.00191728 -0.0116883 -0.00768174
v 0.00191728 -0.0116883 0.00873013
v 0.00191728 -0.0116883 -0.00768174
v 0.00847728 0.0501903 -0.0077086
v 0.00847728 0.0501903 0.0084078
v 0.00191728 -0.0116883 0.00873013
v 0.00191728 -0.0116883 -0.00768174
v 0.00847728 0.0501903 0.0084078
v 0.0106027 -0.0696303 0.0152722
v 0.0188027 -0.0116883 -0.00768174
v 0.0106027 -0.0696303 -0.014573
v 0.0106027 -0.0696303 0.0152722
v 0.0188027 -0.0116883 0.00873013
v 0.0188027 -0.0116883 -0.00768174
v 0.0188027 -0.0116883 0.00873013
v 0.0253627 0.0701703 0.0084078
v 0.0188027 -0.0116883 -0.00768174
v 0.0188027 -0.0116883 -0.00768174
v 0.0253627 0.0701703 0.0084078
v 0.0253627 0.0701703 -0.0077086

#	               Face list

usemtl Default
f 3 2 1
f 6 5 4
f 9 8 7
f 12 11 10
f 15 14 13
f 18 17 16
f 21 20 19
f 24 23 22
f 27 26 25
f 30 29 28
f 33 32 31
f 36 35 34
f 39 38 37
f 42 41 40
f 45 44 43
f 48 47 46
f 51 50 49
f 54 53 52
f 57 56 55
f 60 59 58

#	             End of file
