# Blender v2.77 (sub 0) OBJ File: ''
# www.blender.org
mtllib makebBlock_MegaPi.mtl
o makeblock_MegePi
v 0.042799 0.000901 0.012600
v 0.042799 0.020000 0.012600
v 0.042799 0.020000 0.037600
v 0.042799 -0.009660 0.019200
v 0.042799 -0.018000 0.019200
v 0.042799 -0.020000 -0.037600
v 0.042799 -0.020000 0.037600
v 0.042799 -0.018000 0.029200
v 0.042799 -0.009660 0.029200
v 0.042799 0.000901 -0.037600
v -0.042799 -0.020000 -0.037600
v -0.042799 -0.020000 0.037600
v -0.042799 0.000901 -0.037600
v -0.042799 0.000901 0.037600
v 0.037447 0.020000 0.035922
v 0.037151 0.020000 0.035757
v -0.022200 0.020000 0.037600
v 0.040255 0.020000 0.034354
v 0.040183 0.020000 0.034685
v 0.040057 0.020000 0.035000
v 0.039391 0.020000 0.035757
v 0.039095 0.020000 0.035922
v 0.038775 0.020000 0.036035
v 0.036316 0.020000 0.033678
v 0.036415 0.020000 0.033354
v -0.022200 0.020000 0.012600
v 0.036568 0.020000 0.033051
v 0.036770 0.020000 0.032778
v -0.019559 0.020000 0.035403
v -0.019898 0.020000 0.035403
v -0.020848 0.020000 0.035067
v -0.021112 0.020000 0.034854
v 0.036485 0.020000 0.035000
v 0.036359 0.020000 0.034685
v 0.039879 0.020000 0.035289
v 0.039655 0.020000 0.035543
v 0.036887 0.020000 0.035543
v 0.036663 0.020000 0.035289
v 0.039246 0.020000 0.032354
v 0.039527 0.020000 0.032544
v 0.039772 0.020000 0.032778
v 0.039974 0.020000 0.033051
v 0.040127 0.020000 0.033354
v 0.040226 0.020000 0.033678
v 0.040269 0.020000 0.034015
v -0.020232 0.020000 0.035346
v -0.020552 0.020000 0.035233
v -0.021336 0.020000 0.034599
v -0.021514 0.020000 0.034311
v -0.021641 0.020000 0.033996
v 0.038441 0.020000 0.036092
v 0.038101 0.020000 0.036092
v 0.037767 0.020000 0.036035
v 0.037933 0.020000 0.032128
v 0.038271 0.020000 0.032100
v -0.021584 0.020000 0.032664
v -0.021431 0.020000 0.032362
v -0.021230 0.020000 0.032089
v -0.020985 0.020000 0.031854
v -0.018025 0.020000 0.032362
v -0.017873 0.020000 0.032664
v -0.017773 0.020000 0.032989
v -0.017730 0.020000 0.033325
v -0.017816 0.020000 0.033996
v -0.017943 0.020000 0.034311
v 0.037014 0.020000 0.032544
v 0.037296 0.020000 0.032354
v 0.037605 0.020000 0.032214
v -0.021712 0.020000 0.033664
v -0.021727 0.020000 0.033325
v -0.021683 0.020000 0.032989
v -0.020704 0.020000 0.031664
v -0.020395 0.020000 0.031524
v -0.020066 0.020000 0.031439
v -0.019728 0.020000 0.031410
v -0.019390 0.020000 0.031439
v -0.019062 0.020000 0.031524
v -0.018608 0.020000 0.035067
v -0.018905 0.020000 0.035233
v -0.019224 0.020000 0.035346
v 0.038609 0.020000 0.032128
v 0.038937 0.020000 0.032214
v -0.018753 0.020000 0.031664
v -0.018472 0.020000 0.031854
v -0.018227 0.020000 0.032089
v -0.018120 0.020000 0.034599
v -0.018344 0.020000 0.034854
v -0.017745 0.020000 0.033664
v 0.036287 0.020000 0.034354
v 0.036273 0.020000 0.034015
v 0.037767 0.000901 -0.012964
v 0.038101 0.000901 -0.012907
v 0.038101 -0.020000 -0.012907
v 0.038271 0.000901 -0.012900
v 0.038441 -0.020000 -0.012907
v 0.038441 0.000901 -0.012907
v 0.038775 -0.020000 -0.012964
v 0.038775 0.000901 -0.012964
v 0.039095 -0.020000 -0.013077
v 0.039095 0.000901 -0.013077
v 0.039391 -0.020000 -0.013243
v 0.039391 0.000901 -0.013243
v 0.039655 -0.020000 -0.013456
v 0.039655 0.000901 -0.013456
v 0.039879 -0.020000 -0.013711
v 0.039879 0.000901 -0.013711
v 0.040057 -0.020000 -0.013999
v 0.040057 0.000901 -0.013999
v 0.040183 -0.020000 -0.014314
v 0.040183 0.000901 -0.014314
v 0.040255 -0.020000 -0.014646
v 0.040255 0.000901 -0.014646
v 0.040269 -0.020000 -0.014985
v 0.040269 0.000901 -0.014985
v 0.040226 -0.020000 -0.015321
v 0.040226 0.000901 -0.015321
v 0.040127 -0.020000 -0.015646
v 0.040127 0.000901 -0.015646
v 0.039974 -0.020000 -0.015948
v 0.039974 0.000901 -0.015948
v 0.039772 -0.020000 -0.016221
v 0.039772 0.000901 -0.016221
v 0.039527 -0.020000 -0.016456
v 0.039527 0.000901 -0.016456
v 0.039246 -0.020000 -0.016646
v 0.039246 0.000901 -0.016646
v 0.038937 -0.020000 -0.016786
v 0.038937 0.000901 -0.016786
v 0.038609 -0.020000 -0.016871
v 0.038609 0.000901 -0.016871
v 0.038271 -0.020000 -0.016900
v 0.038271 0.000901 -0.016900
v 0.037933 -0.020000 -0.016871
v 0.037933 0.000901 -0.016871
v 0.037605 -0.020000 -0.016786
v 0.037605 0.000901 -0.016786
v 0.037296 -0.020000 -0.016646
v 0.037296 0.000901 -0.016646
v 0.037014 -0.020000 -0.016456
v 0.037014 0.000901 -0.016456
v 0.036770 -0.020000 -0.016221
v 0.036770 0.000901 -0.016221
v 0.036568 -0.020000 -0.015948
v 0.036568 0.000901 -0.015948
v 0.036415 -0.020000 -0.015646
v 0.036415 0.000901 -0.015646
v 0.036316 -0.020000 -0.015321
v 0.036316 0.000901 -0.015321
v 0.036273 -0.020000 -0.014985
v 0.036273 0.000901 -0.014985
v 0.036287 -0.020000 -0.014646
v 0.036287 0.000901 -0.014646
v 0.036359 -0.020000 -0.014314
v 0.036359 0.000901 -0.014314
v 0.036485 -0.020000 -0.013999
v 0.036485 0.000901 -0.013999
v 0.036663 -0.020000 -0.013711
v 0.036663 0.000901 -0.013711
v 0.036887 -0.020000 -0.013456
v 0.036887 0.000901 -0.013456
v 0.037151 -0.020000 -0.013243
v 0.037151 0.000901 -0.013243
v 0.037447 -0.020000 -0.013077
v 0.037447 0.000901 -0.013077
v 0.037767 -0.020000 -0.012964
v -0.022200 0.000901 0.037600
v 0.037605 -0.020000 0.032214
v 0.037296 -0.020000 0.032354
v 0.037014 -0.020000 0.032544
v 0.036770 -0.020000 0.032778
v -0.017873 -0.020000 0.032664
v 0.036568 -0.020000 0.033051
v 0.039974 -0.020000 0.033051
v 0.039772 -0.020000 0.032778
v -0.018905 -0.020000 0.035233
v -0.018608 -0.020000 0.035067
v 0.036316 -0.020000 0.033678
v -0.021584 -0.020000 0.032664
v -0.021683 -0.020000 0.032989
v 0.040127 -0.020000 0.033354
v -0.018227 -0.020000 0.032089
v -0.018472 -0.020000 0.031854
v -0.018753 -0.020000 0.031664
v -0.019062 -0.020000 0.031524
v -0.019390 -0.020000 0.031439
v -0.019728 -0.020000 0.031410
v 0.039391 -0.020000 0.035757
v 0.039655 -0.020000 0.035543
v 0.039879 -0.020000 0.035289
v 0.040057 -0.020000 0.035000
v 0.040183 -0.020000 0.034685
v 0.040255 -0.020000 0.034354
v 0.039527 -0.020000 0.032544
v 0.039246 -0.020000 0.032354
v 0.038937 -0.020000 0.032214
v -0.018344 -0.020000 0.034854
v -0.018120 -0.020000 0.034599
v -0.017943 -0.020000 0.034311
v -0.018025 -0.020000 0.032362
v -0.020066 -0.020000 0.031439
v -0.020395 -0.020000 0.031524
v -0.020704 -0.020000 0.031664
v -0.021641 -0.020000 0.033996
v -0.021514 -0.020000 0.034311
v -0.021336 -0.020000 0.034599
v -0.021112 -0.020000 0.034854
v 0.036287 -0.020000 0.034354
v 0.036359 -0.020000 0.034685
v 0.036485 -0.020000 0.035000
v 0.036663 -0.020000 0.035289
v 0.036887 -0.020000 0.035543
v 0.037151 -0.020000 0.035757
v 0.037447 -0.020000 0.035922
v 0.037767 -0.020000 0.036035
v 0.038101 -0.020000 0.036092
v 0.038441 -0.020000 0.036092
v 0.038775 -0.020000 0.036035
v 0.039095 -0.020000 0.035922
v 0.040269 -0.020000 0.034015
v 0.040226 -0.020000 0.033678
v -0.017816 -0.020000 0.033996
v -0.017745 -0.020000 0.033664
v 0.036415 -0.020000 0.033354
v -0.017730 -0.020000 0.033325
v -0.017773 -0.020000 0.032989
v -0.020985 -0.020000 0.031854
v -0.021230 -0.020000 0.032089
v -0.021431 -0.020000 0.032362
v -0.021727 -0.020000 0.033325
v -0.021712 -0.020000 0.033664
v -0.020848 -0.020000 0.035067
v -0.020552 -0.020000 0.035233
v -0.020232 -0.020000 0.035346
v 0.036273 -0.020000 0.034015
v -0.019559 -0.020000 0.035403
v -0.019224 -0.020000 0.035346
v 0.038609 -0.020000 0.032128
v 0.038271 -0.020000 0.032100
v 0.037933 -0.020000 0.032128
v -0.019898 -0.020000 0.035403
v -0.022200 0.000901 0.012600
v 0.024800 -0.009660 0.029200
v 0.024800 -0.018000 0.029200
v 0.024800 -0.009660 0.019200
v 0.024800 -0.018000 0.019200
vn 1.0000 -0.0000 0.0000
vn -1.0000 0.0000 0.0000
vn 0.0000 0.0000 -1.0000
vn 0.0000 1.0000 0.0000
vn 0.1690 -0.0000 -0.9856
vn 0.0424 -0.0000 -0.9991
vn 0.0000 0.0003 -1.0000
vn -0.0424 -0.0000 -0.9991
vn -0.1690 -0.0000 -0.9856
vn -0.3331 -0.0000 -0.9429
vn -0.4877 -0.0000 -0.8730
vn -0.6282 0.0000 -0.7780
vn -0.7507 0.0000 -0.6607
vn -0.8515 0.0000 -0.5243
vn -0.9279 0.0000 -0.3729
vn -0.9776 0.0000 -0.2107
vn -0.9991 -0.0000 -0.0424
vn -0.9919 0.0000 0.1270
vn -0.9562 -0.0000 0.2928
vn -0.8929 0.0000 0.4502
vn -0.8040 0.0000 0.5946
vn -0.6919 0.0000 0.7220
vn -0.6919 0.0000 0.7219
vn -0.5600 0.0000 0.8285
vn -0.4119 0.0000 0.9112
vn -0.2520 0.0000 0.9677
vn -0.0848 0.0000 0.9964
vn 0.0848 0.0000 0.9964
vn 0.2520 0.0000 0.9677
vn 0.4119 0.0000 0.9112
vn 0.5600 0.0000 0.8285
vn 0.6919 0.0000 0.7219
vn 0.6919 0.0000 0.7220
vn 0.8040 0.0000 0.5946
vn 0.8929 0.0000 0.4502
vn 0.9562 0.0000 0.2928
vn 0.9919 -0.0000 0.1270
vn 0.9991 -0.0000 -0.0424
vn 0.9776 0.0000 -0.2107
vn 0.9279 0.0000 -0.3729
vn 0.8515 0.0000 -0.5243
vn 0.7507 0.0000 -0.6607
vn 0.6282 0.0000 -0.7780
vn 0.4877 0.0000 -0.8730
vn 0.3331 -0.0000 -0.9429
vn 0.0000 0.0000 1.0000
vn 0.0000 -1.0000 0.0000
vn 0.0000 -1.0000 0.0001
vn -0.9279 0.0000 -0.3728
vn -0.3332 0.0000 -0.9429
vn 0.3332 0.0000 -0.9429
vn 0.9279 0.0000 -0.3728
usemtl None
s off
f 1//1 2//1 3//1
f 4//1 5//1 6//1
f 6//1 5//1 7//1
f 5//1 8//1 7//1
f 7//1 8//1 9//1
f 7//1 9//1 3//1
f 3//1 9//1 4//1
f 3//1 4//1 1//1
f 1//1 4//1 6//1
f 1//1 6//1 10//1
f 11//2 12//2 13//2
f 13//2 12//2 14//2
f 6//3 11//3 10//3
f 10//3 11//3 13//3
f 15//4 16//4 17//4
f 18//4 19//4 3//4
f 3//4 19//4 20//4
f 21//4 22//4 3//4
f 3//4 22//4 23//4
f 24//4 25//4 26//4
f 26//4 25//4 27//4
f 26//4 27//4 28//4
f 17//4 29//4 30//4
f 17//4 31//4 32//4
f 17//4 33//4 34//4
f 20//4 35//4 3//4
f 3//4 35//4 36//4
f 3//4 36//4 21//4
f 16//4 37//4 17//4
f 17//4 37//4 38//4
f 17//4 38//4 33//4
f 39//4 40//4 2//4
f 2//4 40//4 41//4
f 2//4 41//4 42//4
f 42//4 43//4 2//4
f 2//4 43//4 44//4
f 2//4 44//4 3//4
f 3//4 44//4 45//4
f 3//4 45//4 18//4
f 30//4 46//4 17//4
f 17//4 46//4 47//4
f 17//4 47//4 31//4
f 32//4 48//4 17//4
f 17//4 48//4 49//4
f 17//4 49//4 50//4
f 23//4 51//4 3//4
f 3//4 51//4 52//4
f 3//4 52//4 17//4
f 17//4 52//4 53//4
f 17//4 53//4 15//4
f 54//4 55//4 2//4
f 56//4 57//4 26//4
f 26//4 57//4 58//4
f 26//4 58//4 59//4
f 60//4 61//4 24//4
f 24//4 61//4 62//4
f 24//4 62//4 63//4
f 34//4 64//4 65//4
f 28//4 66//4 26//4
f 26//4 66//4 67//4
f 26//4 67//4 2//4
f 2//4 67//4 68//4
f 2//4 68//4 54//4
f 50//4 69//4 17//4
f 17//4 69//4 70//4
f 17//4 70//4 26//4
f 26//4 70//4 71//4
f 26//4 71//4 56//4
f 59//4 72//4 26//4
f 26//4 72//4 73//4
f 26//4 73//4 74//4
f 74//4 75//4 26//4
f 26//4 75//4 76//4
f 26//4 76//4 77//4
f 34//4 78//4 79//4
f 34//4 79//4 17//4
f 17//4 79//4 80//4
f 17//4 80//4 29//4
f 55//4 81//4 2//4
f 2//4 81//4 82//4
f 2//4 82//4 39//4
f 77//4 83//4 26//4
f 26//4 83//4 84//4
f 26//4 84//4 24//4
f 24//4 84//4 85//4
f 24//4 85//4 60//4
f 65//4 86//4 34//4
f 34//4 86//4 87//4
f 34//4 87//4 78//4
f 64//4 34//4 88//4
f 88//4 34//4 89//4
f 88//4 89//4 63//4
f 63//4 89//4 90//4
f 63//4 90//4 24//4
f 91//5 92//5 93//5
f 93//6 92//6 94//6
f 93//7 94//7 95//7
f 95//8 94//8 96//8
f 95//9 96//9 97//9
f 97//9 96//9 98//9
f 97//10 98//10 99//10
f 99//10 98//10 100//10
f 99//11 100//11 101//11
f 101//11 100//11 102//11
f 101//12 102//12 103//12
f 103//12 102//12 104//12
f 103//13 104//13 105//13
f 105//13 104//13 106//13
f 105//14 106//14 107//14
f 107//14 106//14 108//14
f 107//15 108//15 109//15
f 109//15 108//15 110//15
f 109//16 110//16 111//16
f 111//16 110//16 112//16
f 111//17 112//17 113//17
f 113//17 112//17 114//17
f 113//18 114//18 115//18
f 115//18 114//18 116//18
f 115//19 116//19 117//19
f 117//19 116//19 118//19
f 117//20 118//20 119//20
f 119//20 118//20 120//20
f 119//21 120//21 121//21
f 121//21 120//21 122//21
f 121//22 122//22 123//22
f 123//23 122//23 124//23
f 123//24 124//24 125//24
f 125//24 124//24 126//24
f 125//25 126//25 127//25
f 127//25 126//25 128//25
f 127//26 128//26 129//26
f 129//26 128//26 130//26
f 129//27 130//27 131//27
f 131//27 130//27 132//27
f 131//28 132//28 133//28
f 133//28 132//28 134//28
f 133//29 134//29 135//29
f 135//29 134//29 136//29
f 135//30 136//30 137//30
f 137//30 136//30 138//30
f 137//31 138//31 139//31
f 139//31 138//31 140//31
f 139//32 140//32 141//32
f 141//33 140//33 142//33
f 141//34 142//34 143//34
f 143//34 142//34 144//34
f 143//35 144//35 145//35
f 145//35 144//35 146//35
f 145//36 146//36 147//36
f 147//36 146//36 148//36
f 147//37 148//37 149//37
f 149//37 148//37 150//37
f 149//38 150//38 151//38
f 151//38 150//38 152//38
f 151//39 152//39 153//39
f 153//39 152//39 154//39
f 153//40 154//40 155//40
f 155//40 154//40 156//40
f 155//41 156//41 157//41
f 157//41 156//41 158//41
f 157//42 158//42 159//42
f 159//42 158//42 160//42
f 159//43 160//43 161//43
f 161//43 160//43 162//43
f 161//44 162//44 163//44
f 163//44 162//44 164//44
f 163//45 164//45 165//45
f 165//45 164//45 91//45
f 165//5 91//5 93//5
f 14//46 12//46 166//46
f 166//46 12//46 7//46
f 166//46 7//46 17//46
f 17//46 7//46 3//46
f 167//47 168//47 151//47
f 129//47 131//47 6//47
f 6//47 131//47 133//47
f 169//47 170//47 171//47
f 171//47 170//47 172//47
f 173//47 174//47 153//47
f 175//47 176//47 177//47
f 168//47 169//47 151//47
f 151//47 169//47 171//47
f 151//47 171//47 149//47
f 149//47 171//47 147//47
f 178//47 179//47 12//47
f 173//47 153//47 180//47
f 123//47 125//47 6//47
f 6//47 125//47 127//47
f 6//47 127//47 129//47
f 141//47 181//47 182//47
f 182//47 183//47 141//47
f 141//47 183//47 184//47
f 141//47 184//47 11//47
f 11//47 184//47 185//47
f 11//47 185//47 186//47
f 187//47 188//47 7//47
f 7//47 188//47 189//47
f 189//47 190//47 7//47
f 7//47 190//47 191//47
f 7//47 191//47 192//47
f 174//47 193//47 153//47
f 153//47 193//47 194//47
f 153//47 194//47 195//47
f 115//47 117//47 6//47
f 176//47 196//47 177//47
f 177//47 196//47 197//47
f 177//47 197//47 198//47
f 133//47 135//47 6//47
f 6//47 135//47 137//47
f 6//47 137//47 11//47
f 11//47 137//47 139//47
f 11//47 139//47 141//47
f 181//47 141//47 199//47
f 199//47 141//47 143//47
f 199//47 143//47 171//47
f 171//47 143//47 145//47
f 171//47 145//47 147//47
f 186//47 200//47 11//47
f 11//47 200//47 201//47
f 11//47 201//47 202//47
f 203//47 204//47 12//47
f 12//47 204//47 205//47
f 12//47 205//47 206//47
f 207//47 208//47 12//47
f 12//47 208//47 209//47
f 209//47 210//47 12//47
f 12//47 210//47 211//47
f 12//47 211//47 212//47
f 212//47 213//47 12//47
f 12//47 213//47 214//47
f 12//47 214//47 7//47
f 7//47 214//47 215//47
f 7//47 215//47 216//47
f 216//47 217//47 7//47
f 7//47 217//47 218//47
f 7//47 218//47 187//47
f 192//47 219//47 7//47
f 7//47 219//47 220//47
f 7//47 220//47 180//47
f 180//47 153//47 7//47
f 7//47 153//47 155//47
f 7//47 155//47 157//47
f 107//47 109//47 7//47
f 7//47 109//47 111//47
f 7//47 111//47 6//47
f 6//47 111//47 113//47
f 6//47 113//47 115//47
f 198//47 221//47 177//47
f 177//47 221//47 222//47
f 177//47 222//47 223//47
f 223//47 222//47 224//47
f 223//47 224//47 172//47
f 172//47 224//47 225//47
f 172//47 225//47 171//47
f 202//47 226//47 11//47
f 11//47 226//47 227//47
f 11//47 227//47 12//47
f 12//47 227//47 228//47
f 12//47 228//47 178//47
f 179//47 229//47 12//47
f 12//47 229//47 230//47
f 12//47 230//47 203//47
f 206//47 231//47 12//47
f 12//47 231//47 232//47
f 12//47 232//47 233//47
f 234//47 235//47 177//47
f 177//48 235//48 236//48
f 177//47 236//47 175//47
f 195//47 237//47 153//47
f 153//47 237//47 238//47
f 153//47 238//47 151//47
f 151//47 238//47 239//47
f 151//47 239//47 167//47
f 157//47 159//47 7//47
f 7//47 159//47 161//47
f 7//47 161//47 163//47
f 101//47 103//47 7//47
f 7//47 103//47 105//47
f 7//47 105//47 107//47
f 117//47 119//47 6//47
f 6//47 119//47 121//47
f 6//47 121//47 123//47
f 163//47 165//47 7//47
f 7//47 165//47 93//47
f 7//47 93//47 95//47
f 95//47 97//47 7//47
f 7//47 97//47 99//47
f 7//47 99//47 101//47
f 233//47 240//47 12//47
f 12//47 240//47 235//47
f 12//47 235//47 207//47
f 207//47 235//47 234//47
f 55//27 238//27 81//27
f 81//27 238//27 237//27
f 81//26 237//26 82//26
f 82//26 237//26 195//26
f 82//25 195//25 39//25
f 39//25 195//25 194//25
f 39//24 194//24 40//24
f 40//24 194//24 193//24
f 40//22 193//22 41//22
f 41//22 193//22 174//22
f 41//21 174//21 42//21
f 42//21 174//21 173//21
f 42//20 173//20 43//20
f 43//20 173//20 180//20
f 43//19 180//19 44//19
f 44//19 180//19 220//19
f 44//18 220//18 45//18
f 45//18 220//18 219//18
f 45//17 219//17 18//17
f 18//17 219//17 192//17
f 18//16 192//16 19//16
f 19//16 192//16 191//16
f 19//49 191//49 20//49
f 20//49 191//49 190//49
f 20//14 190//14 35//14
f 35//14 190//14 189//14
f 35//13 189//13 36//13
f 36//13 189//13 188//13
f 36//12 188//12 21//12
f 21//12 188//12 187//12
f 21//11 187//11 22//11
f 22//11 187//11 218//11
f 22//10 218//10 23//10
f 23//50 218//50 217//50
f 23//9 217//9 51//9
f 51//9 217//9 216//9
f 51//3 216//3 52//3
f 52//3 216//3 215//3
f 52//5 215//5 53//5
f 53//5 215//5 214//5
f 53//51 214//51 15//51
f 15//45 214//45 213//45
f 15//44 213//44 16//44
f 16//44 213//44 212//44
f 16//43 212//43 37//43
f 37//43 212//43 211//43
f 37//42 211//42 38//42
f 38//42 211//42 210//42
f 38//41 210//41 33//41
f 33//41 210//41 209//41
f 33//52 209//52 34//52
f 34//52 209//52 208//52
f 34//39 208//39 89//39
f 89//39 208//39 207//39
f 89//38 207//38 90//38
f 90//38 207//38 234//38
f 90//37 234//37 24//37
f 24//37 234//37 177//37
f 24//36 177//36 25//36
f 25//36 177//36 223//36
f 25//35 223//35 27//35
f 27//35 223//35 172//35
f 27//34 172//34 28//34
f 28//34 172//34 170//34
f 28//33 170//33 66//33
f 66//33 170//33 169//33
f 66//31 169//31 67//31
f 67//31 169//31 168//31
f 67//30 168//30 68//30
f 68//30 168//30 167//30
f 68//29 167//29 54//29
f 54//29 167//29 239//29
f 54//28 239//28 55//28
f 55//28 239//28 238//28
f 75//27 186//27 76//27
f 76//27 186//27 185//27
f 76//26 185//26 77//26
f 77//26 185//26 184//26
f 77//25 184//25 83//25
f 83//25 184//25 183//25
f 83//24 183//24 84//24
f 84//24 183//24 182//24
f 84//23 182//23 85//23
f 85//22 182//22 181//22
f 85//21 181//21 60//21
f 60//21 181//21 199//21
f 60//20 199//20 61//20
f 61//20 199//20 171//20
f 61//19 171//19 62//19
f 62//19 171//19 225//19
f 62//18 225//18 63//18
f 63//18 225//18 224//18
f 63//17 224//17 88//17
f 88//17 224//17 222//17
f 88//16 222//16 64//16
f 64//16 222//16 221//16
f 64//49 221//49 65//49
f 65//15 221//15 198//15
f 65//14 198//14 86//14
f 86//14 198//14 197//14
f 86//13 197//13 87//13
f 87//13 197//13 196//13
f 87//12 196//12 78//12
f 78//12 196//12 176//12
f 78//11 176//11 79//11
f 79//11 176//11 175//11
f 79//50 175//50 80//50
f 80//10 175//10 236//10
f 80//9 236//9 29//9
f 29//9 236//9 235//9
f 29//3 235//3 30//3
f 30//3 235//3 240//3
f 30//5 240//5 46//5
f 46//5 240//5 233//5
f 46//45 233//45 47//45
f 47//51 233//51 232//51
f 47//44 232//44 31//44
f 31//44 232//44 231//44
f 31//43 231//43 32//43
f 32//43 231//43 206//43
f 32//42 206//42 48//42
f 48//42 206//42 205//42
f 48//41 205//41 49//41
f 49//41 205//41 204//41
f 49//40 204//40 50//40
f 50//52 204//52 203//52
f 50//39 203//39 69//39
f 69//39 203//39 230//39
f 69//38 230//38 70//38
f 70//38 230//38 229//38
f 70//37 229//37 71//37
f 71//37 229//37 179//37
f 71//36 179//36 56//36
f 56//36 179//36 178//36
f 56//35 178//35 57//35
f 57//35 178//35 228//35
f 57//34 228//34 58//34
f 58//34 228//34 227//34
f 58//33 227//33 59//33
f 59//32 227//32 226//32
f 59//31 226//31 72//31
f 72//31 226//31 202//31
f 72//30 202//30 73//30
f 73//30 202//30 201//30
f 73//29 201//29 74//29
f 74//29 201//29 200//29
f 74//28 200//28 75//28
f 75//28 200//28 186//28
f 14//4 166//4 13//4
f 13//4 166//4 241//4
f 100//4 98//4 1//4
f 120//4 118//4 10//4
f 110//4 108//4 1//4
f 1//4 108//4 106//4
f 148//4 146//4 13//4
f 106//4 104//4 1//4
f 1//4 104//4 102//4
f 1//4 102//4 100//4
f 98//4 96//4 1//4
f 1//4 96//4 94//4
f 1//4 94//4 92//4
f 160//4 158//4 241//4
f 241//4 158//4 156//4
f 118//4 116//4 10//4
f 10//4 116//4 114//4
f 10//4 114//4 1//4
f 1//4 114//4 112//4
f 1//4 112//4 110//4
f 92//4 91//4 1//4
f 1//4 91//4 164//4
f 1//4 164//4 241//4
f 241//4 164//4 162//4
f 241//4 162//4 160//4
f 126//4 124//4 10//4
f 10//4 124//4 122//4
f 10//4 122//4 120//4
f 156//4 154//4 241//4
f 241//4 154//4 152//4
f 241//4 152//4 13//4
f 13//4 152//4 150//4
f 13//4 150//4 148//4
f 146//4 144//4 13//4
f 13//4 144//4 142//4
f 13//4 142//4 10//4
f 10//4 142//4 140//4
f 10//4 140//4 138//4
f 138//4 136//4 10//4
f 10//4 136//4 134//4
f 10//4 134//4 132//4
f 132//4 130//4 10//4
f 10//4 130//4 128//4
f 10//4 128//4 126//4
f 241//2 166//2 26//2
f 26//2 166//2 17//2
f 1//3 241//3 2//3
f 2//3 241//3 26//3
f 242//3 9//3 243//3
f 243//3 9//3 8//3
f 244//47 4//47 242//47
f 242//47 4//47 9//47
f 245//46 5//46 244//46
f 244//46 5//46 4//46
f 243//4 8//4 245//4
f 245//4 8//4 5//4
f 245//1 244//1 243//1
f 243//1 244//1 242//1
