v -0.004999 0.000500 -0.008659
v -0.004999 0.000500 0.008659
v -0.004999 0.083331 -0.008659
v -0.004999 0.083711 -0.005752
v -0.004999 0.084044 0.008659
v -0.004999 0.084415 0.005864
v -0.004999 0.084421 -0.000324
v -0.004999 0.084825 0.002770
v -0.002453 0.083523 -0.007189
v -0.002000 0.000500 -0.003464
v -0.002000 0.000500 0.003464
v -0.002000 0.084010 -0.003464
v -0.002000 0.084663 0.001532
v -0.002000 0.084733 0.003464
v -0.002000 0.084773 0.002375
v -0.002000 0.084825 0.002770
v -0.001058 0.084805 0.002920
v -0.000798 0.084825 0.002770
v -0.000385 0.084794 0.002532
v 0.000000 0.083708 -0.005773
v 0.000000 0.084161 -0.002309
v 0.000000 0.084427 0.005773
v 0.000000 0.084765 0.002309
v 0.000000 0.084825 0.002770
v 0.003033 0.084390 -0.000558
v 0.004000 0.000500 0.000000
v 0.004000 0.084463 0.000000
v 0.005201 0.084825 0.002770
v 0.007621 0.084642 0.001373
v 0.009999 0.000500 0.000000
v 0.009999 0.084463 0.000000

f 2 4 1 
f 1 10 2 
f 4 3 1 
f 3 9 1 
f 9 30 1 
f 10 1 30 
f 4 2 7 
f 6 2 5 
f 2 22 5 
f 8 2 6 
f 7 2 8 
f 11 2 10 
f 2 11 30 
f 2 28 22 
f 2 29 28 
f 29 2 30 
f 3 4 9 
f 12 4 7 
f 9 4 20 
f 4 12 20 
f 22 6 5 
f 14 8 6 
f 24 14 6 
f 24 6 22 
f 8 13 7 
f 7 13 12 
f 8 15 13 
f 16 8 14 
f 8 16 15 
f 30 9 20 
f 10 15 11 
f 13 10 12 
f 10 21 12 
f 15 10 13 
f 10 25 21 
f 25 10 26 
f 10 30 26 
f 11 16 14 
f 14 17 11 
f 11 15 16 
f 17 26 11 
f 30 11 26 
f 12 21 20 
f 24 17 14 
f 24 18 17 
f 26 17 18 
f 18 24 19 
f 26 18 19 
f 23 19 24 
f 26 19 23 
f 31 20 21 
f 30 20 31 
f 21 25 31 
f 28 24 22 
f 24 28 23 
f 26 23 27 
f 23 29 27 
f 23 28 29 
f 27 25 26 
f 25 27 31 
f 27 29 31 
f 31 29 30 


