v -0.015067 0.014992 0.027835
v -0.015063 0.011990 0.027800
v -0.015063 0.011990 0.027834
v -0.015053 0.007293 0.023046
v -0.015053 0.007832 0.022632
v -0.015053 0.008246 0.022094
v -0.015052 0.006665 0.023305
v -0.015052 0.008506 0.021467
v -0.015052 0.015007 0.014794
v -0.015051 0.005318 0.023304
v -0.015051 0.005992 0.023394
v -0.015051 0.008508 0.020120
v -0.015051 0.008596 0.020794
v -0.015050 0.004691 0.023045
v -0.015050 0.008249 0.019493
v -0.015048 0.004153 0.022630
v -0.015048 0.007836 0.018954
v -0.015047 0.003740 0.022092
v -0.015047 0.007298 0.018540
v -0.015046 0.001289 0.023043
v -0.015046 0.001828 0.022629
v -0.015046 0.002243 0.022091
v -0.015046 0.003481 0.021464
v -0.015046 0.006671 0.018280
v -0.015045 0.000662 0.023302
v -0.015045 0.002503 0.021464
v -0.015045 0.003393 0.020791
v -0.015045 0.003483 0.020117
v -0.015045 0.005324 0.018279
v -0.015045 0.005998 0.018191
v -0.015044 -0.000685 0.023301
v -0.015044 -0.000012 0.023390
v -0.015044 0.002504 0.020117
v -0.015044 0.002593 0.020790
v -0.015044 0.003743 0.019490
v -0.015044 0.004158 0.018952
v -0.015044 0.004696 0.018538
v -0.015043 -0.001312 0.023041
v -0.015043 0.002246 0.019489
v -0.015042 0.001832 0.018951
v -0.015041 -0.001850 0.022627
v -0.015040 -0.002264 0.022088
v -0.015040 0.001294 0.018536
v -0.015039 -0.004714 0.023039
v -0.015039 -0.004175 0.022625
v -0.015039 -0.003761 0.022087
v -0.015039 -0.002522 0.021461
v -0.015039 -0.000006 0.018187
v -0.015039 0.000667 0.018277
v -0.015038 -0.006015 0.023387
v -0.015038 -0.005342 0.023298
v -0.015038 -0.003501 0.021460
v -0.015038 -0.003411 0.020787
v -0.015038 -0.002610 0.020787
v -0.015038 -0.002521 0.020114
v -0.015038 -0.000679 0.018276
v -0.015037 -0.006689 0.023297
v -0.015037 -0.003499 0.020113
v -0.015037 -0.002261 0.019487
v -0.015037 -0.001846 0.018949
v -0.015037 -0.001307 0.018535
v -0.015036 -0.012024 0.027786
v -0.015036 -0.012024 0.027820
v -0.015036 -0.007316 0.023038
v -0.015036 -0.003758 0.019486
v -0.015035 -0.007854 0.022623
v -0.015035 -0.004171 0.018947
v -0.015033 -0.008267 0.022085
v -0.015033 -0.004709 0.018533
v -0.015032 -0.015026 0.027818
v -0.015032 -0.008614 0.020784
v -0.015032 -0.008526 0.021457
v -0.015032 -0.006009 0.018184
v -0.015032 -0.005336 0.018273
v -0.015031 -0.008524 0.020110
v -0.015031 -0.006683 0.018272
v -0.015030 -0.008264 0.019483
v -0.015030 -0.007849 0.018945
v -0.015030 -0.007310 0.018531
v -0.015017 -0.015011 0.014777
v -0.014550 0.006665 0.023305
v -0.014550 0.007293 0.023047
v -0.014550 0.007479 0.022279
v -0.014550 0.007832 0.022633
v -0.014550 0.008247 0.022095
v -0.014550 0.008507 0.021467
v -0.014549 0.005992 0.022894
v -0.014549 0.005992 0.023394
v -0.014549 0.006537 0.022822
v -0.014549 0.007043 0.022613
v -0.014549 0.007814 0.021844
v -0.014549 0.008023 0.021338
v -0.014549 0.008096 0.020794
v -0.014549 0.008596 0.020794
v -0.014548 0.005319 0.023305
v -0.014548 0.005448 0.022821
v -0.014548 0.008025 0.020249
v -0.014548 0.008508 0.020121
v -0.014547 0.004692 0.023045
v -0.014547 0.004942 0.022612
v -0.014547 0.007816 0.019743
v -0.014547 0.008250 0.019493
v -0.014546 0.004154 0.022631
v -0.014546 0.004507 0.022278
v -0.014546 0.007482 0.019308
v -0.014546 0.007836 0.018955
v -0.014545 0.003740 0.022092
v -0.014545 0.004174 0.021842
v -0.014545 0.007048 0.018973
v -0.014545 0.007298 0.018540
v -0.014544 0.003482 0.021464
v -0.014544 0.003894 0.020791
v -0.014544 0.003965 0.021336
v -0.014544 0.005997 0.018691
v -0.014544 0.006542 0.018764
v -0.014544 0.006671 0.018280
v -0.014543 0.000662 0.023302
v -0.014543 0.001290 0.023043
v -0.014543 0.001476 0.022276
v -0.014543 0.001810 0.021841
v -0.014543 0.001828 0.022629
v -0.014543 0.002243 0.022091
v -0.014543 0.002503 0.021464
v -0.014543 0.003393 0.020791
v -0.014543 0.003966 0.020247
v -0.014543 0.004176 0.019741
v -0.014543 0.004511 0.019306
v -0.014543 0.004946 0.018972
v -0.014543 0.005453 0.018763
v -0.014543 0.005998 0.018191
v -0.014542 -0.000012 0.023391
v -0.014542 -0.000011 0.022890
v -0.014542 0.000533 0.022819
v -0.014542 0.001040 0.022610
v -0.014542 0.002020 0.021335
v -0.014542 0.002093 0.020790
v -0.014542 0.002593 0.020791
v -0.014542 0.003483 0.020118
v -0.014542 0.003743 0.019490
v -0.014542 0.004158 0.018952
v -0.014542 0.004697 0.018538
v -0.014542 0.005324 0.018280
v -0.014541 -0.000685 0.023301
v -0.014541 -0.000555 0.022818
v -0.014541 0.002021 0.020246
v -0.014541 0.002505 0.020117
v -0.014540 -0.001312 0.023042
v -0.014540 -0.001061 0.022608
v -0.014540 0.001813 0.019739
v -0.014540 0.002246 0.019490
v -0.014539 -0.001850 0.022627
v -0.014539 -0.001496 0.022274
v -0.014539 0.001479 0.019304
v -0.014539 0.001833 0.018951
v -0.014538 -0.002263 0.022088
v -0.014538 -0.001830 0.021839
v -0.014538 0.001044 0.018970
v -0.014538 0.001295 0.018536
v -0.014537 -0.002522 0.021461
v -0.014537 -0.002110 0.020788
v -0.014537 -0.002038 0.021332
v -0.014537 -0.000006 0.018688
v -0.014537 0.000538 0.018760
v -0.014537 0.000668 0.018277
v -0.014536 -0.005342 0.023298
v -0.014536 -0.004964 0.022606
v -0.014536 -0.004714 0.023040
v -0.014536 -0.004528 0.022272
v -0.014536 -0.004193 0.021837
v -0.014536 -0.004175 0.022626
v -0.014536 -0.003760 0.022088
v -0.014536 -0.003500 0.021460
v -0.014536 -0.002610 0.020788
v -0.014536 -0.002520 0.020114
v -0.014536 -0.002037 0.020244
v -0.014536 -0.001827 0.019737
v -0.014536 -0.001493 0.019302
v -0.014536 -0.001057 0.018968
v -0.014536 -0.000679 0.018276
v -0.014536 -0.000551 0.018760
v -0.014536 -0.000006 0.018188
v -0.014535 -0.006015 0.023387
v -0.014535 -0.006014 0.022887
v -0.014535 -0.005470 0.022815
v -0.014535 -0.003984 0.021331
v -0.014535 -0.003911 0.020787
v -0.014535 -0.003411 0.020787
v -0.014535 -0.002260 0.019487
v -0.014535 -0.001846 0.018949
v -0.014535 -0.001307 0.018535
v -0.014534 -0.006688 0.023298
v -0.014534 -0.006559 0.022814
v -0.014534 -0.003982 0.020242
v -0.014534 -0.003499 0.020114
v -0.014533 -0.007315 0.023038
v -0.014533 -0.007065 0.022605
v -0.014533 -0.004191 0.019736
v -0.014533 -0.003757 0.019486
v -0.014532 -0.007853 0.022624
v -0.014532 -0.007500 0.022271
v -0.014532 -0.004524 0.019301
v -0.014532 -0.004171 0.018948
v -0.014531 -0.008267 0.022085
v -0.014531 -0.008042 0.021329
v -0.014531 -0.007833 0.021835
v -0.014531 -0.005465 0.018757
v -0.014531 -0.004959 0.018966
v -0.014531 -0.004709 0.018533
v -0.014530 -0.008525 0.021458
v -0.014530 -0.008113 0.020784
v -0.014530 -0.006010 0.018684
v -0.014530 -0.005336 0.018274
v -0.014529 -0.008614 0.020784
v -0.014529 -0.008524 0.020111
v -0.014529 -0.008041 0.020240
v -0.014529 -0.007831 0.019734
v -0.014529 -0.007496 0.019299
v -0.014529 -0.007061 0.018965
v -0.014529 -0.006683 0.018273
v -0.014529 -0.006554 0.018756
v -0.014529 -0.006009 0.018184
v -0.014528 -0.008264 0.019484
v -0.014528 -0.007849 0.018945
v -0.014528 -0.007310 0.018532
v -0.013549 0.013507 0.014794
v -0.013549 0.013507 0.014754
v -0.013549 0.013507 0.014794
v -0.013549 0.013507 0.014794
v -0.013549 0.013507 0.014794
v -0.013549 0.013507 0.014794
v -0.013545 0.009758 0.014792
v -0.013532 -0.001502 0.014785
v -0.013521 -0.010510 0.014780
v -0.013518 -0.013134 0.014778
v -0.013518 -0.013509 0.014778
v -0.013518 -0.013509 0.014778
v -0.013518 -0.013509 0.014738
v -0.012814 -0.013509 0.014778
v -0.012062 0.011992 0.027801
v -0.012052 0.011992 -0.040277
v -0.012050 0.006538 0.022823
v -0.012050 0.007045 0.022615
v -0.012050 0.007480 0.022281
v -0.012050 0.007815 0.021846
v -0.012050 0.008025 0.021339
v -0.012050 0.012003 0.017636
v -0.012049 0.005994 0.022895
v -0.012049 0.008098 0.020795
v -0.012048 0.010155 0.017635
v -0.012048 0.004944 0.022613
v -0.012048 0.005450 0.022823
v -0.012048 0.007818 0.019744
v -0.012048 0.008026 0.020251
v -0.012048 0.009933 0.017635
v -0.012048 0.009933 0.017635
v -0.012048 0.010155 0.017635
v -0.012048 0.010268 0.017635
v -0.012048 0.010278 0.017635
v -0.012048 0.010318 0.017635
v -0.012047 0.009603 0.017635
v -0.012047 0.004509 0.022279
v -0.012047 0.007484 0.019309
v -0.012047 0.009162 0.017634
v -0.012047 0.009602 0.017635
v -0.012047 0.009162 0.017634
v -0.012046 0.008720 0.017634
v -0.012046 0.004175 0.021843
v -0.012046 0.007049 0.018974
v -0.012046 0.008601 0.017634
v -0.012046 0.008639 0.017634
v -0.012046 0.008099 0.017634
v -0.012046 0.008099 0.017634
v -0.012045 0.003967 0.021337
v -0.012045 0.006543 0.018765
v -0.012045 0.007631 0.017633
v -0.012045 0.007629 0.017633
v -0.012044 0.003895 0.020793
v -0.012044 0.003968 0.020248
v -0.012044 0.005454 0.018764
v -0.012044 0.005999 0.018693
v -0.012043 0.000535 0.022820
v -0.012043 0.001041 0.022611
v -0.012043 0.001477 0.022277
v -0.012043 0.001812 0.021842
v -0.012043 0.002021 0.021336
v -0.012043 0.004177 0.019742
v -0.012043 0.004512 0.019307
v -0.012043 0.004948 0.018973
v -0.012042 -0.000010 0.022892
v -0.012042 0.002094 0.020792
v -0.012042 0.004993 0.017632
v -0.012041 -0.001060 0.022610
v -0.012041 -0.000554 0.022819
v -0.012041 0.001814 0.019741
v -0.012041 0.002023 0.020247
v -0.012040 -0.001495 0.022275
v -0.012040 0.001480 0.019305
v -0.012040 0.003260 0.017631
v -0.012039 -0.001828 0.021840
v -0.012039 0.001046 0.018971
v -0.012038 -0.002037 0.021334
v -0.012038 0.000540 0.018762
v -0.012037 0.000771 0.017629
v -0.012037 -0.002108 0.020789
v -0.012037 -0.002036 0.020245
v -0.012037 -0.000549 0.018761
v -0.012037 -0.000005 0.018689
v -0.012036 -0.005469 0.022816
v -0.012036 -0.004962 0.022608
v -0.012036 -0.004526 0.022274
v -0.012036 -0.004192 0.021839
v -0.012036 -0.003982 0.021332
v -0.012036 -0.001826 0.019739
v -0.012036 -0.001491 0.019304
v -0.012036 -0.001056 0.018970
v -0.012035 -0.006557 0.022816
v -0.012035 -0.006013 0.022888
v -0.012035 -0.003981 0.020244
v -0.012035 -0.003909 0.020788
v -0.012035 -0.001263 0.017628
v -0.012035 -0.001113 0.017628
v -0.012035 -0.001113 0.017628
v -0.012034 -0.012022 0.027788
v -0.012034 -0.007063 0.022606
v -0.012034 -0.004189 0.019737
v -0.012033 -0.007498 0.022272
v -0.012033 -0.004523 0.019302
v -0.012032 -0.007832 0.021837
v -0.012032 -0.004958 0.018968
v -0.012031 -0.008040 0.021330
v -0.012031 -0.005464 0.018758
v -0.012030 -0.008112 0.020786
v -0.012030 -0.008039 0.020242
v -0.012030 -0.007829 0.019735
v -0.012030 -0.007059 0.018966
v -0.012030 -0.006553 0.018758
v -0.012030 -0.006008 0.018686
v -0.012029 -0.007495 0.019300
v -0.012027 -0.008107 0.017624
v -0.012027 -0.008107 0.017624
v -0.012027 -0.008164 0.017624
v -0.012026 -0.009169 0.017623
v -0.012026 -0.009169 0.017623
v -0.012026 -0.008862 0.017624
v -0.012026 -0.008646 0.017624
v -0.012025 -0.009610 0.017623
v -0.012025 -0.009610 0.017623
v -0.012025 -0.009941 0.017623
v -0.012025 -0.009852 0.017623
v -0.012024 -0.012022 -0.040291
v -0.012024 -0.010325 0.017623
v -0.012024 -0.010285 0.017623
v -0.012024 -0.010163 0.017623
v -0.012022 -0.012010 0.017622
v -0.011676 0.013508 0.014795
v -0.011444 0.003695 0.014749
v -0.011444 0.003652 0.014749
v -0.011444 0.003695 0.014749
v -0.011432 -0.003721 0.014745
v -0.011432 -0.003721 0.014745
v -0.011407 -0.003757 0.014745
v -0.011406 -0.003757 0.014745
v -0.011351 0.003681 -0.040281
v -0.011338 -0.003736 -0.040286
v -0.011338 -0.003694 -0.040286
v -0.011325 0.003716 -0.040281
v -0.009889 0.014989 0.032307
v -0.009886 0.011988 0.032305
v -0.009858 -0.012026 0.032291
v -0.009854 -0.015028 0.032290
v -0.009577 0.012005 0.017637
v -0.009268 0.009225 0.017636
v -0.008662 0.014997 0.026805
v -0.008661 0.014494 0.026804
v -0.008628 -0.014518 0.026787
v -0.008627 -0.015021 0.026787
v -0.008574 0.014996 0.027478
v -0.008573 0.014494 0.027478
v -0.008572 0.014495 0.026131
v -0.008572 0.014997 0.026131
v -0.008540 -0.014519 0.027461
v -0.008539 -0.015021 0.027461
v -0.008538 -0.014518 0.026114
v -0.008537 -0.015020 0.026114
v -0.008315 0.014493 0.028105
v -0.008315 0.014995 0.028105
v -0.008312 0.014496 0.025504
v -0.008312 0.014998 0.025504
v -0.008281 -0.015022 0.028088
v -0.008281 -0.014520 0.028088
v -0.008278 -0.015019 0.025487
v -0.008278 -0.014517 0.025487
v -0.008204 0.008171 0.014754
v -0.008161 0.014495 0.026805
v -0.008158 0.011995 0.026803
v -0.008131 -0.012019 0.026789
v -0.008128 -0.014518 0.026788
v -0.008122 -0.008146 -0.040287
v -0.008090 0.014494 0.027349
v -0.008088 0.014495 0.026260
v -0.008087 0.011995 0.027347
v -0.008086 0.011996 0.026259
v -0.008059 -0.012019 0.027334
v -0.008058 -0.012018 0.026245
v -0.008056 -0.014519 0.027332
v -0.008055 -0.014518 0.026244
v -0.007902 0.014995 0.028644
v -0.007901 0.014493 0.028644
v -0.007897 0.014497 0.024966
v -0.007897 0.014999 0.024966
v -0.007897 0.014999 0.024966
v -0.007897 0.014999 0.024966
v -0.007895 0.014999 0.024965
v -0.007881 0.014494 0.027855
v -0.007879 0.014496 0.025754
v -0.007878 0.011994 0.027854
v -0.007876 0.011996 0.025753
v -0.007868 -0.014520 0.028627
v -0.007867 -0.015022 0.028627
v -0.007863 -0.015018 0.024949
v -0.007863 -0.014516 0.024949
v -0.007851 -0.012020 0.027840
v -0.007848 -0.014519 0.027839
v -0.007848 -0.012017 0.025739
v -0.007845 -0.014517 0.025737
v -0.007548 0.014493 0.028291
v -0.007545 0.011994 0.028289
v -0.007544 0.014497 0.025319
v -0.007541 0.011997 0.025318
v -0.007517 -0.012020 0.028275
v -0.007514 -0.014520 0.028274
v -0.007513 -0.012017 0.025304
v -0.007511 -0.014516 0.025302
v -0.007364 0.014995 0.029059
v -0.007363 0.014492 0.029058
v -0.007359 0.015000 0.024552
v -0.007358 0.014498 0.024552
v -0.007330 -0.014520 0.029042
v -0.007329 -0.015023 0.029041
v -0.007325 -0.014515 0.024535
v -0.007324 -0.015017 0.024535
v -0.007323 0.007284 0.017636
v -0.007124 0.007085 0.017636
v -0.007121 0.009667 0.014755
v -0.007113 0.014493 0.028625
v -0.007110 0.011994 0.028624
v -0.007108 0.014497 0.024985
v -0.007106 0.011998 0.024984
v -0.007095 0.009702 0.014755
v -0.007095 0.009702 0.014755
v -0.007082 -0.012020 0.028610
v -0.007079 -0.014520 0.028608
v -0.007078 -0.012016 0.024970
v -0.007075 -0.014515 0.024968
v -0.007062 -0.009714 0.014744
v -0.007019 -0.009728 0.014744
v -0.007019 -0.009728 0.014744
v -0.007002 0.009688 -0.040276
v -0.006992 -0.009695 -0.040287
v -0.006969 -0.009728 -0.040287
v -0.006961 0.009701 -0.040276
v -0.006737 0.014995 0.029318
v -0.006736 0.014492 0.029318
v -0.006731 0.015001 0.024293
v -0.006730 0.014498 0.024293
v -0.006703 -0.014520 0.029301
v -0.006702 -0.015023 0.029301
v -0.006697 -0.014514 0.024276
v -0.006696 -0.015017 0.024276
v -0.006607 0.014493 0.028835
v -0.006604 0.011994 0.028833
v -0.006602 0.014498 0.024776
v -0.006599 0.011998 0.024775
v -0.006576 -0.012020 0.028819
v -0.006573 -0.014520 0.028818
v -0.006571 -0.012015 0.024761
v -0.006568 -0.014515 0.024760
v -0.006064 0.014995 0.029407
v -0.006063 0.014493 0.029407
v -0.006062 0.014493 0.028907
v -0.006059 0.011994 0.028905
v -0.006058 0.014498 0.024704
v -0.006058 0.015001 0.024204
v -0.006057 0.014499 0.024204
v -0.006055 0.011999 0.024703
v -0.006044 0.013511 0.014798
v -0.006032 -0.012020 0.028892
v -0.006029 -0.015022 0.029390
v -0.006029 -0.014520 0.029390
v -0.006029 -0.014519 0.028890
v -0.006027 -0.012015 0.024689
v -0.006024 -0.014515 0.024688
v -0.006023 -0.015016 0.024187
v -0.006023 -0.014514 0.024187
v -0.006014 -0.013505 0.014783
v -0.005518 0.014494 0.028835
v -0.005515 0.011994 0.028834
v -0.005513 0.014498 0.024777
v -0.005510 0.011999 0.024775
v -0.005487 -0.012020 0.028820
v -0.005484 -0.014519 0.028818
v -0.005483 -0.012015 0.024762
v -0.005480 -0.014514 0.024760
v -0.005390 0.014996 0.029319
v -0.005389 0.014493 0.029319
v -0.005384 0.014499 0.024294
v -0.005384 0.015001 0.024294
v -0.005356 -0.014519 0.029302
v -0.005355 -0.015022 0.029302
v -0.005350 -0.015016 0.024277
v -0.005350 -0.014514 0.024277
v -0.005297 -0.005478 0.017629
v -0.005011 0.014494 0.028626
v -0.005009 0.011995 0.028625
v -0.005007 0.014498 0.024986
v -0.005004 0.011999 0.024985
v -0.004981 -0.012019 0.028611
v -0.004978 -0.014518 0.028610
v -0.004977 -0.012015 0.024971
v -0.004974 -0.014514 0.024970
v -0.004920 0.013512 0.014799
v -0.004762 0.014494 0.029060
v -0.004762 0.014996 0.029060
v -0.004757 0.014499 0.024553
v -0.004757 0.015001 0.024553
v -0.004728 -0.015021 0.029043
v -0.004728 -0.014519 0.029043
v -0.004723 -0.014514 0.024536
v -0.004722 -0.015016 0.024536
v -0.004576 0.014495 0.028292
v -0.004573 0.011995 0.028291
v -0.004572 0.014498 0.025321
v -0.004570 0.011999 0.025319
v -0.004545 -0.012018 0.028277
v -0.004542 -0.014518 0.028276
v -0.004542 -0.012015 0.025305
v -0.004539 -0.014514 0.025304
v -0.004241 0.014496 0.027857
v -0.004239 0.014498 0.025756
v -0.004238 0.011996 0.027856
v -0.004236 0.011999 0.025755
v -0.004224 0.014997 0.028646
v -0.004223 0.014495 0.028646
v -0.004219 0.014499 0.024968
v -0.004219 0.015001 0.024968
v -0.004210 -0.012018 0.027842
v -0.004208 -0.014517 0.027841
v -0.004208 -0.012015 0.025741
v -0.004205 -0.014515 0.025739
v -0.004189 -0.015020 0.028629
v -0.004189 -0.014518 0.028629
v -0.004185 -0.015016 0.024951
v -0.004185 -0.014514 0.024951
v -0.004031 0.014496 0.027351
v -0.004030 0.014498 0.026263
v -0.004029 0.011997 0.027350
v -0.004027 0.011998 0.026261
v -0.004001 -0.012017 0.027336
v -0.003999 -0.012016 0.026247
v -0.003998 -0.014516 0.027334
v -0.003997 -0.014515 0.026246
v -0.003995 0.003961 0.017636
v -0.003959 0.014497 0.026807
v -0.003956 0.011998 0.026805
v -0.003928 -0.012016 0.026792
v -0.003925 -0.014516 0.026790
v -0.003809 0.014998 0.028108
v -0.003808 0.014496 0.028108
v -0.003806 0.015001 0.025507
v -0.003805 0.014499 0.025506
v -0.003775 -0.014517 0.028091
v -0.003774 -0.015019 0.028091
v -0.003772 -0.014514 0.025490
v -0.003771 -0.015016 0.025489
v -0.003549 0.014999 0.027481
v -0.003548 0.014496 0.027481
v -0.003547 0.014498 0.026134
v -0.003547 0.015000 0.026134
v -0.003515 -0.014516 0.027464
v -0.003514 -0.015019 0.027464
v -0.003513 -0.015017 0.026117
v -0.003513 -0.014515 0.026117
v -0.003459 0.015000 0.026807
v -0.003458 0.014497 0.026807
v -0.003425 -0.014515 0.026790
v -0.003424 -0.015018 0.026790
v -0.002667 0.012009 0.017641
v -0.002639 -0.012005 0.017627
v -0.002517 -0.012005 0.017627
v -0.002072 0.012009 0.017641
v -0.002072 0.012009 0.017641
v -0.002066 0.012009 0.017641
v -0.002066 0.012009 0.017641
v -0.002044 -0.012005 0.017627
v -0.002044 -0.012005 0.017627
v -0.002038 -0.012005 0.017627
v -0.002038 -0.012005 0.017627
v -0.002011 0.012009 0.017642
v -0.002011 0.012009 0.017642
v -0.001983 -0.012005 0.017627
v -0.001983 -0.012005 0.017627
v -0.001908 0.012009 0.017642
v -0.001908 0.012009 0.017642
v -0.001880 -0.012005 0.017627
v -0.001880 -0.012005 0.017627
v -0.001825 -0.012005 0.017627
v -0.001765 0.012009 0.017642
v -0.001765 0.012009 0.017642
v -0.001737 -0.012004 0.017628
v -0.001665 -0.009531 -0.009221
v -0.001644 0.012009 0.017642
v -0.001598 0.012009 0.017642
v -0.001570 -0.012004 0.017628
v -0.001425 0.012010 0.017642
v -0.001397 -0.012004 0.017628
v -0.001263 0.012010 0.017642
v -0.001235 -0.012004 0.017628
v -0.001145 0.012010 0.017642
v -0.001128 0.012010 0.017642
v -0.001128 0.012010 0.017642
v -0.001109 0.001226 -0.070305
v -0.001106 -0.001175 -0.070306
v -0.001100 -0.012004 0.017628
v -0.000596 0.000569 0.017636
v -0.000584 -0.003423 -0.011480
v -0.000573 -0.013501 0.014786
v -0.000277 0.011886 -0.040587
v -0.000218 -0.011909 -0.040580
v -0.000097 0.011886 -0.040586
v -0.000088 0.011992 0.014761
v -0.000063 0.014995 0.032313
v -0.000060 0.011993 0.032311
v -0.000046 0.012006 0.014761
v -0.000046 0.012006 0.014761
v -0.000043 0.012010 0.017643
v -0.000043 0.012010 0.017643
v -0.000043 0.015015 0.014802
v -0.000042 0.013515 0.014802
v -0.000032 -0.012020 0.032297
v -0.000029 -0.015022 0.032295
v -0.000028 0.011886 -0.040586
v -0.000015 -0.012003 0.017629
v -0.000011 -0.000015 0.017635
v -0.000010 -0.013501 0.014786
v -0.000009 -0.015002 0.014785
v -0.000005 -0.011994 0.014747
v 0.000011 0.000008 0.017636
v 0.000015 0.011886 -0.040586
v 0.000039 -0.011980 0.014747
v 0.000048 0.011992 -0.040290
v 0.000048 0.011992 -0.040271
v 0.000049 0.011886 -0.040586
v 0.000049 0.011992 -0.040586
v 0.000052 -0.011996 -0.040284
v 0.000057 -0.011974 0.014747
v 0.000058 -0.011998 -0.040332
v 0.000082 0.011981 -0.040320
v 0.000084 0.011886 -0.040586
v 0.000088 0.011979 -0.040270
v 0.000089 -0.012008 -0.040284
v 0.000090 -0.012008 -0.040579
v 0.000090 -0.012008 -0.040304
v 0.000090 -0.011908 -0.040579
v 0.000097 -0.011961 0.014747
v 0.000117 0.010990 0.017642
v 0.000126 0.011886 -0.040586
v 0.000139 0.000631 -0.016387
v 0.000195 0.011886 -0.040586
v 0.000349 0.001758 -0.022888
v 0.000377 0.011886 -0.040585
v 0.000395 -0.011908 -0.040579
v 0.000439 -0.013501 0.014786
v 0.000509 0.002790 -0.010367
v 0.001042 0.012011 0.017643
v 0.001042 0.012011 0.017643
v 0.001069 -0.012003 0.017629
v 0.001085 -0.012003 0.017629
v 0.001177 0.012011 0.017643
v 0.001177 0.012011 0.017643
v 0.001204 -0.012003 0.017629
v 0.001204 -0.012003 0.017629
v 0.001313 0.001228 -0.070303
v 0.001315 -0.001174 -0.070305
v 0.001339 0.012011 0.017643
v 0.001339 0.012011 0.017643
v 0.001366 -0.012003 0.017629
v 0.001366 -0.012003 0.017629
v 0.001380 0.007772 -0.006124
v 0.001512 0.012011 0.017643
v 0.001512 0.012011 0.017643
v 0.001540 -0.012003 0.017629
v 0.001540 -0.012003 0.017629
v 0.001586 -0.012003 0.017629
v 0.001679 0.012011 0.017644
v 0.001679 0.012011 0.017644
v 0.001707 -0.012002 0.017630
v 0.001822 0.012011 0.017644
v 0.001822 0.012011 0.017644
v 0.001850 -0.012002 0.017630
v 0.001893 0.012012 0.017644
v 0.001925 0.012012 0.017644
v 0.001953 -0.012002 0.017630
v 0.001980 0.012012 0.017644
v 0.001986 0.012012 0.017644
v 0.002008 -0.012002 0.017630
v 0.002014 -0.012002 0.017630
v 0.002458 0.012012 0.017644
v 0.002580 0.012012 0.017644
v 0.002580 0.012012 0.017644
v 0.002608 -0.012002 0.017630
v 0.002675 -0.002697 0.017635
v 0.002848 -0.002869 0.017635
v 0.002945 -0.002824 0.017635
v 0.003345 0.014501 0.026811
v 0.003345 0.015004 0.026811
v 0.003379 -0.014512 0.026794
v 0.003380 -0.015014 0.026794
v 0.003433 0.015003 0.027485
v 0.003434 0.014500 0.027485
v 0.003435 0.014502 0.026138
v 0.003435 0.015004 0.026138
v 0.003467 -0.014512 0.027468
v 0.003468 -0.015015 0.027467
v 0.003469 -0.015013 0.026121
v 0.003469 -0.014511 0.026121
v 0.003692 0.014500 0.028112
v 0.003692 0.015002 0.028112
v 0.003695 0.014503 0.025511
v 0.003695 0.015005 0.025511
v 0.003726 -0.015015 0.028095
v 0.003726 -0.014513 0.028095
v 0.003729 -0.015012 0.025493
v 0.003729 -0.014510 0.025494
v 0.003846 0.014502 0.026811
v 0.003849 0.012002 0.026810
v 0.003876 -0.012012 0.026796
v 0.003879 -0.014511 0.026795
v 0.003917 0.014501 0.027356
v 0.003918 0.014502 0.026267
v 0.003920 0.012001 0.027354
v 0.003921 0.012003 0.026266
v 0.003948 -0.012012 0.027340
v 0.003949 -0.012011 0.026252
v 0.003951 -0.014512 0.027339
v 0.003952 -0.014511 0.026250
v 0.004059 0.000485 0.017638
v 0.004105 0.015002 0.028651
v 0.004106 0.014500 0.028651
v 0.004109 0.015006 0.024973
v 0.004110 0.014504 0.024972
v 0.004126 0.014500 0.027862
v 0.004128 0.014503 0.025761
v 0.004129 0.012001 0.027861
v 0.004131 0.012003 0.025759
v 0.004139 -0.014513 0.028634
v 0.004140 -0.015015 0.028634
v 0.004144 -0.015011 0.024955
v 0.004144 -0.014509 0.024956
v 0.004156 -0.012013 0.027847
v 0.004159 -0.014512 0.027845
v 0.004159 -0.012010 0.025746
v 0.004162 -0.014510 0.025744
v 0.004347 -0.010591 -0.009210
v 0.004459 0.014500 0.028298
v 0.004462 0.012001 0.028296
v 0.004463 0.014504 0.025326
v 0.004466 0.012004 0.025324
v 0.004490 -0.012013 0.028282
v 0.004493 -0.014513 0.028281
v 0.004493 -0.012010 0.025311
v 0.004496 -0.014509 0.025309
v 0.004643 0.015002 0.029065
v 0.004644 0.014499 0.029065
v 0.004648 0.015007 0.024559
v 0.004649 0.014505 0.024559
v 0.004677 -0.014513 0.029048
v 0.004678 -0.015016 0.029048
v 0.004682 -0.014508 0.024542
v 0.004683 -0.015010 0.024541
v 0.004894 0.014500 0.028632
v 0.004897 0.012001 0.028631
v 0.004898 0.014504 0.024992
v 0.004901 0.012005 0.024990
v 0.004925 -0.012013 0.028617
v 0.004928 -0.014513 0.028615
v 0.004929 -0.012009 0.024977
v 0.004932 -0.014509 0.024975
v 0.005092 -0.005110 0.017635
v 0.005212 -0.005229 0.017635
v 0.005270 0.015002 0.029325
v 0.005271 0.014499 0.029325
v 0.005276 0.014505 0.024300
v 0.005276 0.015008 0.024300
v 0.005304 -0.014513 0.029308
v 0.005305 -0.015016 0.029308
v 0.005310 -0.014508 0.024283
v 0.005311 -0.015010 0.024283
v 0.005400 0.014500 0.028841
v 0.005403 0.012001 0.028840
v 0.005405 0.014505 0.024783
v 0.005408 0.012005 0.024782
v 0.005431 -0.012013 0.028826
v 0.005434 -0.014513 0.028825
v 0.005436 -0.012009 0.024768
v 0.005439 -0.014508 0.024766
v 0.005855 -0.006272 0.017635
v 0.005943 0.015002 0.029414
v 0.005944 0.014500 0.029414
v 0.005945 0.014500 0.028914
v 0.005947 0.012001 0.028912
v 0.005949 0.014505 0.024711
v 0.005949 0.015008 0.024211
v 0.005950 0.014506 0.024211
v 0.005952 0.012006 0.024710
v 0.005962 0.013518 0.014805
v 0.005973 0.003242 0.017641
v 0.005975 -0.012013 0.028898
v 0.005978 -0.015015 0.029397
v 0.005978 -0.014513 0.029397
v 0.005978 -0.014512 0.028897
v 0.005980 -0.012008 0.024696
v 0.005983 -0.014508 0.024695
v 0.005984 -0.015009 0.024194
v 0.005984 -0.014507 0.024194
v 0.005993 -0.013498 0.014789
v 0.006037 -0.006053 0.017635
v 0.006148 -0.010003 -0.010270
v 0.006149 -0.006165 0.017635
v 0.006489 0.014501 0.028842
v 0.006492 0.012001 0.028841
v 0.006494 0.014505 0.024784
v 0.006496 0.012006 0.024782
v 0.006520 -0.012013 0.028827
v 0.006523 -0.014512 0.028825
v 0.006524 -0.012008 0.024768
v 0.006527 -0.014507 0.024767
v 0.006617 0.014500 0.029325
v 0.006617 0.015002 0.029326
v 0.006623 0.014506 0.024300
v 0.006623 0.015008 0.024301
v 0.006651 -0.014513 0.029309
v 0.006652 -0.015015 0.029308
v 0.006657 -0.015009 0.024283
v 0.006657 -0.014507 0.024284
v 0.006689 0.007314 0.017644
v 0.006693 0.005144 0.017642
v 0.006967 0.009741 0.014763
v 0.006995 0.014501 0.028633
v 0.006998 0.012002 0.028632
v 0.007000 0.014505 0.024993
v 0.007003 0.012006 0.024992
v 0.007011 0.009727 0.014763
v 0.007026 -0.012012 0.028618
v 0.007029 -0.014512 0.028616
v 0.007030 -0.012008 0.024978
v 0.007033 -0.014507 0.024976
v 0.007045 -0.009690 0.014752
v 0.007046 -0.009688 0.014752
v 0.007050 0.009673 0.014763
v 0.007072 -0.009652 0.014752
v 0.007085 -0.009696 -0.008967
v 0.007088 -0.009697 -0.010823
v 0.007102 -0.009716 -0.040279
v 0.007105 0.009712 -0.040268
v 0.007112 -0.009597 0.014753
v 0.007113 -0.009712 -0.040279
v 0.007127 0.009682 -0.040268
v 0.007129 0.009679 -0.040268
v 0.007130 -0.009707 -0.040279
v 0.007139 -0.009704 -0.040279
v 0.007153 0.009648 -0.040268
v 0.007165 -0.009667 -0.040279
v 0.007201 -0.009536 -0.008935
v 0.007245 0.014501 0.029067
v 0.007245 0.015003 0.029067
v 0.007247 0.002523 0.017641
v 0.007250 0.014506 0.024560
v 0.007250 0.015008 0.024560
v 0.007279 -0.015014 0.029050
v 0.007279 -0.014512 0.029050
v 0.007284 -0.015009 0.024543
v 0.007284 -0.014507 0.024543
v 0.007431 0.014502 0.028299
v 0.007434 0.012002 0.028298
v 0.007435 0.014505 0.025328
v 0.007437 0.012006 0.025326
v 0.007462 -0.012011 0.028284
v 0.007465 -0.014511 0.028283
v 0.007465 -0.012008 0.025312
v 0.007468 -0.014507 0.025311
v 0.007726 -0.000578 0.017639
v 0.007766 0.014503 0.027864
v 0.007768 0.014505 0.025763
v 0.007769 0.012003 0.027863
v 0.007771 0.012006 0.025762
v 0.007783 0.015004 0.028653
v 0.007784 0.014502 0.028653
v 0.007788 0.014506 0.024975
v 0.007788 0.015008 0.024975
v 0.007796 -0.012011 0.027849
v 0.007799 -0.014510 0.027847
v 0.007799 -0.012008 0.025748
v 0.007802 -0.014508 0.025746
v 0.007817 -0.014511 0.028636
v 0.007818 -0.015013 0.028636
v 0.007822 -0.015009 0.024958
v 0.007822 -0.014507 0.024958
v 0.007976 0.014503 0.027358
v 0.007977 0.014505 0.026269
v 0.007978 0.012004 0.027357
v 0.007980 0.012005 0.026268
v 0.008006 -0.012010 0.027343
v 0.008007 -0.012009 0.026254
v 0.008009 -0.014509 0.027341
v 0.008010 -0.014508 0.026253
v 0.008048 0.014504 0.026814
v 0.008051 0.012004 0.026812
v 0.008079 -0.012009 0.026798
v 0.008082 -0.014509 0.026797
v 0.008154 -0.008158 0.014754
v 0.008174 -0.003487 0.017638
v 0.008198 0.015005 0.028115
v 0.008199 0.014503 0.028115
v 0.008201 0.015008 0.025513
v 0.008202 0.014506 0.025513
v 0.008232 -0.014510 0.028098
v 0.008233 -0.015013 0.028098
v 0.008235 -0.014507 0.025496
v 0.008236 -0.015010 0.025496
v 0.008260 0.008129 -0.040268
v 0.008458 0.015006 0.027488
v 0.008459 0.014503 0.027487
v 0.008460 0.014505 0.026141
v 0.008460 0.015007 0.026141
v 0.008482 -0.002038 0.017639
v 0.008492 -0.014509 0.027471
v 0.008493 -0.015012 0.027470
v 0.008494 -0.015010 0.026124
v 0.008494 -0.014508 0.026124
v 0.008517 -0.002007 0.017639
v 0.008543 0.002461 0.017642
v 0.008548 0.014504 0.026814
v 0.008548 0.015007 0.026814
v 0.008582 -0.014509 0.026797
v 0.008583 -0.015011 0.026797
v 0.008804 -0.001747 0.017639
v 0.008807 0.004383 0.017643
v 0.008926 -0.007152 -0.008466
v 0.009065 0.002098 0.017642
v 0.009235 -0.001356 0.017640
v 0.009298 -0.002136 0.017639
v 0.009376 0.002208 0.017642
v 0.009459 -0.006434 -0.015141
v 0.009470 0.003763 0.017643
v 0.009498 -0.011998 0.017634
v 0.009514 0.006338 -0.006110
v 0.009704 0.006078 -0.006721
v 0.009741 0.002097 0.017642
v 0.009747 0.006017 -0.006158
v 0.009762 0.015001 0.032318
v 0.009766 0.011999 0.032316
v 0.009794 -0.012015 0.032303
v 0.009797 -0.015016 0.032301
v 0.009833 0.002908 0.017643
v 0.009846 0.002899 0.017643
v 0.009961 0.002817 0.017643
v 0.009984 0.003282 0.017643
v 0.010149 0.002683 0.017643
v 0.010248 -0.005333 -0.011461
v 0.010304 -0.010313 0.017635
v 0.010351 0.002938 0.017643
v 0.010361 0.002532 0.017643
v 0.010474 0.002612 0.017643
v 0.010603 0.002702 0.017643
v 0.010769 0.002547 0.017643
v 0.011349 0.003777 0.014762
v 0.011353 0.003772 0.014762
v 0.011381 0.003734 0.014762
v 0.011393 -0.003560 0.014758
v 0.011394 -0.003635 0.014758
v 0.011394 -0.003682 0.014758
v 0.011417 0.003729 -0.006500
v 0.011426 -0.000706 -0.007269
v 0.011427 0.003727 -0.012257
v 0.011428 0.000865 -0.010348
v 0.011430 0.000146 -0.010472
v 0.011430 0.000617 -0.011018
v 0.011431 -0.000271 -0.010545
v 0.011432 -0.003688 -0.007785
v 0.011434 0.000010 -0.012658
v 0.011438 -0.003689 -0.011137
v 0.011442 -0.003690 -0.013635
v 0.011443 -0.001846 -0.015799
v 0.011443 -0.001362 -0.016367
v 0.011444 0.000953 -0.019752
v 0.011447 0.000492 -0.020999
v 0.011451 -0.003691 -0.018769
v 0.011452 -0.000200 -0.022868
v 0.011465 -0.003728 -0.040273
v 0.011474 0.003720 -0.040269
v 0.011475 0.003681 -0.040269
v 0.011475 0.003681 -0.040269
v 0.011475 0.003671 -0.040269
v 0.011475 0.003671 -0.040269
v 0.011475 0.003655 -0.040269
v 0.011487 -0.003640 -0.040273
v 0.011488 -0.003697 -0.040273
v 0.011952 0.012006 0.027815
v 0.011964 0.012017 0.017649
v 0.011964 0.006552 0.022837
v 0.011964 0.007059 0.022628
v 0.011964 0.007494 0.022294
v 0.011964 0.007829 0.021859
v 0.011964 0.008039 0.021353
v 0.011965 0.005464 0.022836
v 0.011965 0.006008 0.022909
v 0.011965 0.008040 0.020264
v 0.011965 0.008111 0.020809
v 0.011966 0.010332 0.017648
v 0.011966 0.010292 0.017648
v 0.011966 0.010332 0.017648
v 0.011966 0.010292 0.017648
v 0.011966 0.010170 0.017648
v 0.011966 0.010170 0.017648
v 0.011966 0.009948 0.017648
v 0.011966 0.009948 0.017648
v 0.011966 0.004958 0.022627
v 0.011966 0.007831 0.019758
v 0.011966 0.009860 0.017648
v 0.011967 0.004523 0.022293
v 0.011967 0.007498 0.019323
v 0.011967 0.009176 0.017648
v 0.011967 0.009617 0.017648
v 0.011968 0.008914 0.017647
v 0.011968 0.008869 0.017647
v 0.011968 0.008653 0.017647
v 0.011968 0.008653 0.017647
v 0.011968 0.008653 0.017647
v 0.011968 0.004189 0.021857
v 0.011968 0.007063 0.018988
v 0.011968 0.008114 0.017647
v 0.011968 0.008171 0.017647
v 0.011968 0.008284 0.017647
v 0.011968 0.008298 0.017647
v 0.011968 0.008465 0.017647
v 0.011968 0.008498 0.017647
v 0.011968 0.008652 0.017647
v 0.011968 0.008653 0.017647
v 0.011968 0.008653 0.017647
v 0.011969 0.003980 0.021351
v 0.011969 0.006557 0.018779
v 0.011970 0.003909 0.020806
v 0.011970 0.003982 0.020262
v 0.011970 0.004191 0.019756
v 0.011970 0.004962 0.018987
v 0.011970 0.005468 0.018778
v 0.011970 0.006013 0.018706
v 0.011971 0.000549 0.022834
v 0.011971 0.001055 0.022625
v 0.011971 0.001491 0.022291
v 0.011971 0.001826 0.021856
v 0.011971 0.002035 0.021350
v 0.011971 0.004526 0.019321
v 0.011972 -0.000540 0.022833
v 0.011972 0.000004 0.022905
v 0.011972 0.002037 0.020261
v 0.011972 0.002108 0.020805
v 0.011973 -0.001046 0.022624
v 0.011973 0.001828 0.019755
v 0.011973 0.003839 0.017644
v 0.011974 -0.001481 0.022289
v 0.011974 0.001494 0.019319
v 0.011975 -0.001815 0.021854
v 0.011975 0.001059 0.018985
v 0.011976 -0.002023 0.021347
v 0.011976 0.000009 0.018703
v 0.011976 0.000553 0.018775
v 0.011976 0.001119 0.017643
v 0.011976 0.001270 0.017643
v 0.011977 -0.002094 0.020803
v 0.011977 -0.002022 0.020259
v 0.011977 -0.001812 0.019752
v 0.011977 -0.001042 0.018983
v 0.011977 -0.000535 0.018775
v 0.011977 0.000023 0.017642
v 0.011978 -0.005455 0.022830
v 0.011978 -0.004948 0.022621
v 0.011978 -0.004513 0.022287
v 0.011978 -0.004178 0.021852
v 0.011978 -0.003968 0.021346
v 0.011978 -0.001477 0.019317
v 0.011979 -0.006543 0.022830
v 0.011979 -0.005999 0.022902
v 0.011979 -0.003967 0.020258
v 0.011979 -0.003896 0.020802
v 0.011980 -0.012008 0.027801
v 0.011980 -0.007049 0.022620
v 0.011980 -0.004175 0.019751
v 0.011981 -0.003251 0.017640
v 0.011981 -0.003252 0.017640
v 0.011981 -0.007484 0.022286
v 0.011981 -0.004509 0.019316
v 0.011982 -0.003957 0.017640
v 0.011982 -0.007818 0.021850
v 0.011982 -0.004944 0.018981
v 0.011982 -0.004186 0.017640
v 0.011983 -0.004443 0.017640
v 0.011983 -0.008098 0.020799
v 0.011983 -0.008027 0.021344
v 0.011983 -0.005994 0.018699
v 0.011983 -0.005450 0.018772
v 0.011983 -0.004843 0.017640
v 0.011983 -0.005019 0.017640
v 0.011984 -0.005234 0.017639
v 0.011984 -0.005113 0.017639
v 0.011984 -0.005439 0.017639
v 0.011984 -0.008025 0.020255
v 0.011984 -0.007816 0.019749
v 0.011984 -0.007481 0.019314
v 0.011984 -0.007045 0.018980
v 0.011984 -0.006539 0.018771
v 0.011985 -0.005846 0.017639
v 0.011985 -0.006818 0.017638
v 0.011985 -0.006485 0.017638
v 0.011986 -0.006817 0.017638
v 0.011986 -0.006817 0.017638
v 0.011987 -0.008093 0.017638
v 0.011987 -0.007625 0.017638
v 0.011987 -0.008170 0.017638
v 0.011987 -0.008260 0.017638
v 0.011988 -0.008401 0.017638
v 0.011988 -0.008595 0.017637
v 0.011988 -0.009065 0.017637
v 0.011988 -0.008759 0.017637
v 0.011988 -0.009155 0.017637
v 0.011988 -0.008633 0.017637
v 0.011988 -0.008633 0.017637
v 0.011988 -0.009155 0.017637
v 0.011988 -0.009155 0.017637
v 0.011988 -0.008714 0.017637
v 0.011988 -0.009249 0.017637
v 0.011989 -0.010149 0.017636
v 0.011989 -0.010149 0.017636
v 0.011989 -0.010111 0.017636
v 0.011989 -0.009927 0.017637
v 0.011989 -0.009596 0.017637
v 0.011990 -0.010272 0.017636
v 0.011990 -0.010272 0.017636
v 0.011990 -0.010312 0.017636
v 0.011990 -0.010312 0.017636
v 0.011991 -0.011997 0.017635
v 0.011992 -0.011997 0.017635
v 0.011992 -0.011997 0.017635
v 0.012162 0.012006 -0.040264
v 0.012190 -0.012008 -0.040277
v 0.012928 -0.013493 0.014794
v 0.013123 -0.013493 0.014794
v 0.013466 0.013522 0.014769
v 0.013466 0.013522 0.014809
v 0.013469 0.010529 0.014807
v 0.013480 0.001517 0.014802
v 0.013480 0.001513 0.014802
v 0.013496 -0.013493 0.014794
v 0.013497 -0.013493 0.014794
v 0.013498 -0.013493 0.014794
v 0.013498 -0.013493 0.014754
v 0.014462 0.007310 0.023063
v 0.014462 0.007849 0.022649
v 0.014462 0.008263 0.022111
v 0.014463 0.006682 0.023322
v 0.014463 0.007060 0.022630
v 0.014463 0.007496 0.022296
v 0.014463 0.007830 0.021861
v 0.014463 0.008523 0.021484
v 0.014464 0.005335 0.023321
v 0.014464 0.006009 0.022910
v 0.014464 0.006009 0.023411
v 0.014464 0.006554 0.022839
v 0.014464 0.008040 0.021355
v 0.014464 0.008113 0.020810
v 0.014464 0.008525 0.020137
v 0.014464 0.008613 0.020811
v 0.014465 0.005465 0.022838
v 0.014465 0.008041 0.020266
v 0.014465 0.008266 0.019510
v 0.014466 0.004708 0.023062
v 0.014466 0.004959 0.022628
v 0.014466 0.007833 0.019759
v 0.014467 0.004170 0.022647
v 0.014467 0.004190 0.021859
v 0.014467 0.004524 0.022294
v 0.014467 0.007064 0.018990
v 0.014467 0.007499 0.019324
v 0.014467 0.007853 0.018971
v 0.014468 0.003757 0.022108
v 0.014468 0.003982 0.021352
v 0.014468 0.006558 0.018780
v 0.014468 0.007315 0.018556
v 0.014469 0.001306 0.023060
v 0.014469 0.001845 0.022646
v 0.014469 0.002260 0.022108
v 0.014469 0.003498 0.021481
v 0.014469 0.003910 0.020808
v 0.014469 0.006014 0.018708
v 0.014469 0.006688 0.018297
v 0.014470 0.000679 0.023318
v 0.014470 0.001057 0.022626
v 0.014470 0.001492 0.022292
v 0.014470 0.001827 0.021857
v 0.014470 0.002520 0.021480
v 0.014470 0.003410 0.020808
v 0.014470 0.003500 0.020134
v 0.014470 0.003983 0.020264
v 0.014470 0.004193 0.019757
v 0.014470 0.004528 0.019322
v 0.014470 0.004963 0.018988
v 0.014470 0.005341 0.018296
v 0.014470 0.005470 0.018780
v 0.014470 0.006015 0.018208
v 0.014471 -0.000668 0.023318
v 0.014471 0.000005 0.023407
v 0.014471 0.000006 0.022907
v 0.014471 0.000550 0.022835
v 0.014471 0.002037 0.021351
v 0.014471 0.002109 0.020807
v 0.014471 0.002521 0.020134
v 0.014471 0.002610 0.020807
v 0.014471 0.003760 0.019507
v 0.014471 0.004175 0.018969
v 0.014471 0.004714 0.018555
v 0.014472 -0.001295 0.023058
v 0.014472 -0.000538 0.022834
v 0.014472 0.002038 0.020262
v 0.014472 0.002263 0.019506
v 0.014473 -0.001045 0.022625
v 0.014473 0.001829 0.019756
v 0.014474 -0.001833 0.022644
v 0.014474 -0.001813 0.021855
v 0.014474 -0.001479 0.022291
v 0.014474 0.001061 0.018986
v 0.014474 0.001496 0.019321
v 0.014474 0.001849 0.018968
v 0.014475 -0.002247 0.022105
v 0.014475 -0.002022 0.021349
v 0.014475 0.000555 0.018777
v 0.014475 0.001312 0.018553
v 0.014476 -0.004697 0.023056
v 0.014476 -0.004158 0.022642
v 0.014476 -0.003743 0.022104
v 0.014476 -0.002505 0.021478
v 0.014476 -0.002093 0.020804
v 0.014476 -0.002020 0.020260
v 0.014476 -0.000534 0.018776
v 0.014476 0.000011 0.018704
v 0.014476 0.000684 0.018294
v 0.014477 -0.005998 0.023404
v 0.014477 -0.005325 0.023315
v 0.014477 -0.004947 0.022623
v 0.014477 -0.004511 0.022289
v 0.014477 -0.004176 0.021854
v 0.014477 -0.003967 0.021348
v 0.014477 -0.003484 0.021477
v 0.014477 -0.003394 0.020804
v 0.014477 -0.002593 0.020804
v 0.014477 -0.002503 0.020131
v 0.014477 -0.001811 0.019754
v 0.014477 -0.001476 0.019319
v 0.014477 -0.001040 0.018985
v 0.014477 -0.000662 0.018293
v 0.014477 0.000011 0.018204
v 0.014478 -0.006672 0.023314
v 0.014478 -0.005998 0.022903
v 0.014478 -0.005453 0.022832
v 0.014478 -0.003894 0.020803
v 0.014478 -0.003482 0.020130
v 0.014478 -0.002244 0.019504
v 0.014478 -0.001829 0.018965
v 0.014478 -0.001290 0.018552
v 0.014479 -0.007299 0.023055
v 0.014479 -0.006542 0.022831
v 0.014479 -0.003965 0.020259
v 0.014479 -0.003740 0.019503
v 0.014480 -0.007836 0.022640
v 0.014480 -0.007483 0.022287
v 0.014480 -0.007048 0.022622
v 0.014480 -0.004508 0.019317
v 0.014480 -0.004174 0.019753
v 0.014480 -0.004154 0.018964
v 0.014481 -0.007817 0.021852
v 0.014481 -0.004943 0.018983
v 0.014482 -0.008250 0.022102
v 0.014482 -0.008025 0.021345
v 0.014482 -0.005449 0.018773
v 0.014482 -0.004692 0.018550
v 0.014483 -0.008597 0.020801
v 0.014483 -0.008508 0.021474
v 0.014483 -0.008096 0.020801
v 0.014483 -0.008024 0.020257
v 0.014483 -0.006537 0.018773
v 0.014483 -0.005993 0.018701
v 0.014483 -0.005992 0.018201
v 0.014483 -0.005319 0.018290
v 0.014484 -0.008507 0.020127
v 0.014484 -0.007814 0.019750
v 0.014484 -0.007479 0.019315
v 0.014484 -0.007044 0.018981
v 0.014484 -0.006666 0.018289
v 0.014485 -0.008247 0.019500
v 0.014485 -0.007832 0.018962
v 0.014485 -0.007293 0.018548
v 0.014950 0.015009 0.027853
v 0.014954 0.012007 0.027817
v 0.014954 0.012007 0.027851
v 0.014965 0.006682 0.023322
v 0.014965 0.007310 0.023063
v 0.014965 0.007849 0.022649
v 0.014965 0.008264 0.022111
v 0.014965 0.008524 0.021484
v 0.014965 0.015024 0.014811
v 0.014966 0.006009 0.023411
v 0.014966 0.008613 0.020811
v 0.014967 0.005336 0.023321
v 0.014967 0.008525 0.020137
v 0.014968 0.004709 0.023062
v 0.014968 0.008267 0.019510
v 0.014969 0.004171 0.022647
v 0.014969 0.007853 0.018971
v 0.014970 0.003757 0.022109
v 0.014970 0.007315 0.018557
v 0.014971 0.003499 0.021481
v 0.014971 0.006688 0.018297
v 0.014972 0.000679 0.023319
v 0.014972 0.001307 0.023060
v 0.014972 0.001845 0.022646
v 0.014972 0.002260 0.022108
v 0.014972 0.002520 0.021481
v 0.014972 0.003410 0.020808
v 0.014972 0.006015 0.018208
v 0.014973 0.000005 0.023407
v 0.014973 0.002610 0.020807
v 0.014973 0.003500 0.020134
v 0.014973 0.003760 0.019507
v 0.014973 0.004175 0.018969
v 0.014973 0.004714 0.018555
v 0.014973 0.005341 0.018296
v 0.014974 -0.000668 0.023318
v 0.014974 0.002522 0.020134
v 0.014975 -0.001295 0.023058
v 0.014975 0.002263 0.019506
v 0.014976 -0.001833 0.022644
v 0.014976 0.001850 0.018968
v 0.014977 -0.002246 0.022105
v 0.014977 0.001312 0.018553
v 0.014978 -0.002505 0.021478
v 0.014978 0.000685 0.018294
v 0.014979 -0.005324 0.023315
v 0.014979 -0.004697 0.023056
v 0.014979 -0.004158 0.022643
v 0.014979 -0.003743 0.022104
v 0.014979 -0.003483 0.021477
v 0.014979 -0.002593 0.020804
v 0.014979 -0.002503 0.020131
v 0.014979 -0.000662 0.018293
v 0.014979 0.000011 0.018204
v 0.014980 -0.005998 0.023404
v 0.014980 -0.003393 0.020804
v 0.014980 -0.002243 0.019504
v 0.014980 -0.001828 0.018966
v 0.014980 -0.001290 0.018552
v 0.014981 -0.006671 0.023314
v 0.014981 -0.003482 0.020130
v 0.014982 -0.012007 0.027803
v 0.014982 -0.012007 0.027837
v 0.014982 -0.007298 0.023055
v 0.014982 -0.003740 0.019503
v 0.014983 -0.007836 0.022640
v 0.014983 -0.004154 0.018964
v 0.014984 -0.008250 0.022102
v 0.014984 -0.004692 0.018550
v 0.014985 -0.015008 0.027835
v 0.014985 -0.008508 0.021474
v 0.014985 -0.005319 0.018290
v 0.014986 -0.008596 0.020801
v 0.014986 -0.008507 0.020128
v 0.014986 -0.006665 0.018290
v 0.014986 -0.005992 0.018201
v 0.014987 -0.008247 0.019500
v 0.014987 -0.007832 0.018962
v 0.014987 -0.007293 0.018548
v 0.015000 -0.014993 0.014794

f 3 1 9 
f 368 1 3 
f 9 1 637 
f 368 367 1 
f 367 434 1 
f 1 377 373 
f 1 373 380 
f 1 386 377 
f 1 380 388 
f 407 386 1 
f 1 388 410 
f 434 407 1 
f 1 410 413 
f 1 413 637 
f 2 3 9 
f 471 3 2 
f 4 2 5 
f 7 2 4 
f 5 2 6 
f 6 2 8 
f 62 2 7 
f 8 2 13 
f 15 2 9 
f 13 2 12 
f 12 2 15 
f 2 62 323 
f 2 323 239 
f 446 2 239 
f 446 471 2 
f 632 368 3 
f 471 632 3 
f 4 5 84 
f 7 4 82 
f 82 4 84 
f 5 6 85 
f 84 5 85 
f 6 8 86 
f 85 6 86 
f 11 62 7 
f 11 7 81 
f 81 7 82 
f 8 13 94 
f 86 8 94 
f 17 15 9 
f 19 17 9 
f 24 19 9 
f 24 9 80 
f 232 80 9 
f 228 225 9 
f 231 9 225 
f 228 9 227 
f 227 9 637 
f 232 9 231 
f 11 10 25 
f 10 11 95 
f 25 10 14 
f 14 10 99 
f 10 95 99 
f 32 11 25 
f 62 11 32 
f 88 11 81 
f 11 88 95 
f 13 12 98 
f 12 15 102 
f 98 12 102 
f 94 13 98 
f 20 14 16 
f 16 14 103 
f 25 14 20 
f 14 99 103 
f 15 17 106 
f 102 15 106 
f 16 18 22 
f 18 16 107 
f 20 16 21 
f 21 16 22 
f 16 103 107 
f 17 19 110 
f 106 17 110 
f 22 18 23 
f 23 18 111 
f 18 107 111 
f 19 24 116 
f 110 19 116 
f 20 21 121 
f 25 20 118 
f 118 20 121 
f 21 22 122 
f 121 21 122 
f 22 23 26 
f 22 26 123 
f 122 22 123 
f 26 23 27 
f 27 23 124 
f 23 111 124 
f 30 24 80 
f 24 30 130 
f 116 24 130 
f 131 32 25 
f 117 25 118 
f 131 25 117 
f 26 27 34 
f 26 34 137 
f 123 26 137 
f 34 27 28 
f 28 27 138 
f 27 124 138 
f 34 28 33 
f 33 28 35 
f 35 28 139 
f 28 138 139 
f 49 29 30 
f 30 29 130 
f 37 29 49 
f 29 37 142 
f 29 142 130 
f 49 30 48 
f 48 30 80 
f 50 32 31 
f 31 32 143 
f 44 31 38 
f 38 31 147 
f 51 31 44 
f 51 50 31 
f 31 143 147 
f 50 62 32 
f 32 131 143 
f 34 33 146 
f 33 35 39 
f 33 39 150 
f 146 33 150 
f 137 34 146 
f 39 35 36 
f 36 35 140 
f 35 139 140 
f 36 37 43 
f 37 36 141 
f 39 36 40 
f 40 36 43 
f 36 140 141 
f 43 37 49 
f 37 141 142 
f 45 38 41 
f 41 38 151 
f 44 38 45 
f 38 147 151 
f 39 40 154 
f 150 39 154 
f 40 43 158 
f 154 40 158 
f 45 41 42 
f 42 41 155 
f 41 151 155 
f 46 45 42 
f 46 42 47 
f 47 42 159 
f 42 155 159 
f 43 49 164 
f 158 43 164 
f 44 45 170 
f 51 44 167 
f 167 44 170 
f 45 46 171 
f 170 45 171 
f 52 46 47 
f 46 52 172 
f 171 46 172 
f 52 47 54 
f 54 47 173 
f 47 159 173 
f 164 49 48 
f 73 56 48 
f 48 56 181 
f 73 48 80 
f 164 48 181 
f 50 51 165 
f 62 50 57 
f 57 50 191 
f 182 50 165 
f 50 182 191 
f 165 51 167 
f 53 52 54 
f 52 53 187 
f 172 52 187 
f 53 54 55 
f 58 53 55 
f 53 58 194 
f 187 53 194 
f 55 54 174 
f 54 173 174 
f 58 55 59 
f 59 55 188 
f 55 174 188 
f 69 61 56 
f 56 61 179 
f 74 69 56 
f 74 56 73 
f 56 179 181 
f 62 57 64 
f 64 57 195 
f 57 191 195 
f 65 58 59 
f 58 65 198 
f 194 58 198 
f 67 59 60 
f 60 59 189 
f 65 59 67 
f 59 188 189 
f 67 60 61 
f 61 60 190 
f 60 189 190 
f 69 67 61 
f 61 190 179 
f 63 62 80 
f 63 474 62 
f 62 64 66 
f 62 66 68 
f 62 68 72 
f 62 72 71 
f 62 71 75 
f 62 75 77 
f 62 77 80 
f 62 451 323 
f 474 451 62 
f 70 63 80 
f 70 369 63 
f 369 639 63 
f 639 474 63 
f 66 64 199 
f 64 195 199 
f 65 67 202 
f 198 65 202 
f 68 66 203 
f 66 199 203 
f 67 69 208 
f 202 67 208 
f 72 68 209 
f 68 203 209 
f 69 74 212 
f 208 69 212 
f 70 80 645 
f 370 369 70 
f 439 370 70 
f 382 70 376 
f 376 70 384 
f 389 70 382 
f 384 70 391 
f 389 419 70 
f 391 70 645 
f 419 439 70 
f 71 72 213 
f 75 71 214 
f 71 213 214 
f 72 209 213 
f 74 73 221 
f 76 73 80 
f 73 76 221 
f 212 74 221 
f 77 75 222 
f 75 214 222 
f 79 76 80 
f 76 79 219 
f 76 219 221 
f 77 78 80 
f 78 77 223 
f 77 222 223 
f 78 79 80 
f 79 78 224 
f 78 223 224 
f 79 224 219 
f 80 232 233 
f 234 80 233 
f 80 234 235 
f 80 235 236 
f 238 80 236 
f 495 80 238 
f 495 645 80 
f 81 82 90 
f 88 81 89 
f 89 81 90 
f 82 84 83 
f 90 82 83 
f 83 84 91 
f 90 83 243 
f 83 91 244 
f 243 83 244 
f 84 85 91 
f 85 86 92 
f 91 85 92 
f 92 86 93 
f 86 94 93 
f 87 88 89 
f 95 88 87 
f 87 89 241 
f 95 87 96 
f 96 87 251 
f 247 87 241 
f 87 247 251 
f 89 90 242 
f 241 89 242 
f 242 90 243 
f 91 92 245 
f 244 91 245 
f 92 93 248 
f 245 92 248 
f 93 94 97 
f 93 97 253 
f 248 93 253 
f 97 94 98 
f 99 95 96 
f 99 96 100 
f 100 96 250 
f 96 251 250 
f 97 98 101 
f 97 101 252 
f 253 97 252 
f 101 98 102 
f 103 99 100 
f 103 100 104 
f 104 100 261 
f 100 250 261 
f 101 102 105 
f 101 105 262 
f 252 101 262 
f 105 102 106 
f 103 104 107 
f 107 104 108 
f 108 104 267 
f 104 261 267 
f 109 105 106 
f 105 109 268 
f 262 105 268 
f 109 106 110 
f 107 108 111 
f 111 108 113 
f 113 108 273 
f 108 267 273 
f 115 109 110 
f 109 115 274 
f 268 109 274 
f 115 110 116 
f 111 113 124 
f 113 112 124 
f 112 113 277 
f 124 112 138 
f 112 125 138 
f 125 112 278 
f 112 277 278 
f 113 273 277 
f 114 115 116 
f 115 114 280 
f 114 116 130 
f 129 114 142 
f 114 129 280 
f 142 114 130 
f 274 115 280 
f 117 118 133 
f 131 117 132 
f 132 117 133 
f 118 121 134 
f 133 118 134 
f 119 122 120 
f 119 120 284 
f 119 121 122 
f 134 121 119 
f 134 119 283 
f 283 119 284 
f 120 122 123 
f 120 123 135 
f 120 135 285 
f 284 120 285 
f 135 123 137 
f 125 126 139 
f 126 125 286 
f 138 125 139 
f 125 278 286 
f 126 127 140 
f 127 126 287 
f 139 126 140 
f 126 286 287 
f 127 128 140 
f 128 127 288 
f 127 287 288 
f 128 129 141 
f 129 128 279 
f 140 128 141 
f 128 288 279 
f 141 129 142 
f 129 279 280 
f 131 132 144 
f 143 131 144 
f 132 133 281 
f 144 132 293 
f 289 132 281 
f 132 289 293 
f 133 134 282 
f 281 133 282 
f 282 134 283 
f 135 137 136 
f 135 136 290 
f 285 135 290 
f 136 137 146 
f 145 136 146 
f 136 145 295 
f 290 136 295 
f 143 144 148 
f 147 143 148 
f 148 144 292 
f 144 293 292 
f 145 146 150 
f 149 145 150 
f 145 149 294 
f 295 145 294 
f 147 148 152 
f 151 147 152 
f 152 148 296 
f 148 292 296 
f 149 150 154 
f 153 149 154 
f 149 153 297 
f 294 149 297 
f 151 152 156 
f 155 151 156 
f 156 152 299 
f 152 296 299 
f 157 153 154 
f 153 157 300 
f 297 153 300 
f 157 154 158 
f 155 156 161 
f 159 155 161 
f 161 156 301 
f 156 299 301 
f 163 157 158 
f 157 163 302 
f 300 157 302 
f 163 158 164 
f 159 161 160 
f 173 159 160 
f 160 161 304 
f 173 160 175 
f 175 160 305 
f 160 304 305 
f 161 301 304 
f 162 163 164 
f 163 162 307 
f 162 164 181 
f 180 162 179 
f 179 162 181 
f 180 306 162 
f 162 306 307 
f 302 163 307 
f 165 167 184 
f 182 165 183 
f 183 165 184 
f 167 170 166 
f 184 167 166 
f 166 170 168 
f 166 168 310 
f 184 166 309 
f 309 166 310 
f 168 171 169 
f 168 169 311 
f 168 170 171 
f 310 168 311 
f 169 171 172 
f 169 172 185 
f 169 185 312 
f 311 169 312 
f 185 172 187 
f 173 175 174 
f 174 175 176 
f 174 176 188 
f 176 175 313 
f 175 305 313 
f 188 176 177 
f 177 176 314 
f 176 313 314 
f 177 178 189 
f 178 177 315 
f 188 177 189 
f 177 314 315 
f 178 180 190 
f 180 178 306 
f 189 178 190 
f 178 315 306 
f 190 180 179 
f 182 183 192 
f 191 182 192 
f 183 184 308 
f 192 183 316 
f 317 183 308 
f 183 317 316 
f 308 184 309 
f 186 185 187 
f 185 186 319 
f 312 185 319 
f 186 187 194 
f 193 186 194 
f 186 193 318 
f 319 186 318 
f 191 192 196 
f 195 191 196 
f 196 192 324 
f 192 316 324 
f 193 194 198 
f 197 193 198 
f 193 197 325 
f 318 193 325 
f 195 196 200 
f 199 195 200 
f 200 196 326 
f 196 324 326 
f 197 198 202 
f 201 197 202 
f 197 201 327 
f 325 197 327 
f 199 200 205 
f 203 199 205 
f 205 200 328 
f 200 326 328 
f 207 201 202 
f 201 207 329 
f 327 201 329 
f 207 202 208 
f 203 205 204 
f 209 203 204 
f 204 205 330 
f 209 204 210 
f 210 204 332 
f 204 330 332 
f 205 328 330 
f 206 207 208 
f 207 206 331 
f 206 208 212 
f 211 206 212 
f 206 211 337 
f 331 206 337 
f 329 207 331 
f 213 209 210 
f 213 210 215 
f 215 210 333 
f 210 332 333 
f 211 212 221 
f 220 211 219 
f 219 211 221 
f 211 220 337 
f 213 215 214 
f 214 215 216 
f 214 216 222 
f 216 215 334 
f 215 333 334 
f 222 216 217 
f 217 216 338 
f 216 334 338 
f 217 218 223 
f 218 217 335 
f 222 217 223 
f 217 338 335 
f 218 220 224 
f 220 218 336 
f 223 218 224 
f 218 335 336 
f 224 220 219 
f 220 336 337 
f 226 225 229 
f 225 226 231 
f 229 225 228 
f 227 226 229 
f 226 227 355 
f 231 226 233 
f 234 233 226 
f 234 226 237 
f 226 359 237 
f 486 226 355 
f 357 226 356 
f 356 226 358 
f 359 226 357 
f 358 226 393 
f 226 444 393 
f 226 449 444 
f 226 450 449 
f 226 630 450 
f 521 226 486 
f 226 521 638 
f 226 633 630 
f 226 1158 633 
f 226 638 815 
f 226 815 1159 
f 226 1159 1158 
f 227 230 228 
f 227 229 230 
f 227 637 355 
f 229 228 230 
f 231 233 232 
f 234 237 235 
f 1166 236 235 
f 1166 235 237 
f 1166 238 236 
f 360 237 359 
f 360 362 237 
f 362 455 237 
f 455 457 237 
f 457 646 237 
f 646 1166 237 
f 1166 495 238 
f 239 241 242 
f 239 323 241 
f 239 242 243 
f 239 243 244 
f 246 239 244 
f 587 239 246 
f 401 239 395 
f 395 239 402 
f 416 239 401 
f 402 239 417 
f 416 427 239 
f 590 417 239 
f 427 446 239 
f 590 239 587 
f 365 240 350 
f 350 240 621 
f 363 240 365 
f 366 240 363 
f 458 240 366 
f 461 240 458 
f 651 240 461 
f 621 240 627 
f 650 627 240 
f 650 240 1154 
f 1154 240 651 
f 323 247 241 
f 259 244 245 
f 246 244 259 
f 258 245 248 
f 259 245 258 
f 1079 246 259 
f 371 587 246 
f 1079 371 246 
f 251 247 281 
f 247 289 281 
f 247 323 289 
f 249 248 253 
f 258 248 249 
f 256 249 253 
f 256 442 249 
f 257 258 249 
f 249 442 257 
f 251 281 250 
f 250 282 261 
f 250 281 282 
f 255 253 252 
f 254 255 252 
f 254 252 260 
f 260 252 262 
f 256 253 255 
f 254 442 255 
f 260 442 254 
f 255 442 256 
f 372 258 257 
f 442 372 257 
f 1079 259 258 
f 1079 258 372 
f 264 260 262 
f 264 442 260 
f 267 261 284 
f 261 282 283 
f 261 283 284 
f 264 262 263 
f 263 262 268 
f 263 442 264 
f 265 263 268 
f 265 442 263 
f 266 265 270 
f 266 442 265 
f 265 268 270 
f 442 266 270 
f 267 284 273 
f 270 268 274 
f 269 270 271 
f 443 270 269 
f 271 562 269 
f 562 443 269 
f 270 274 271 
f 1079 442 270 
f 1079 270 443 
f 272 271 280 
f 272 562 271 
f 271 274 280 
f 272 280 275 
f 275 562 272 
f 277 273 290 
f 273 284 285 
f 273 285 290 
f 276 275 307 
f 276 562 275 
f 275 280 307 
f 291 276 298 
f 291 562 276 
f 276 307 298 
f 278 277 295 
f 277 290 295 
f 286 278 294 
f 278 295 294 
f 279 302 280 
f 279 288 302 
f 280 302 307 
f 286 294 287 
f 288 287 300 
f 287 294 297 
f 287 297 300 
f 288 300 302 
f 289 317 293 
f 323 317 289 
f 562 291 298 
f 293 309 292 
f 292 310 296 
f 292 309 310 
f 293 308 309 
f 317 308 293 
f 296 310 299 
f 303 298 322 
f 624 298 303 
f 298 307 337 
f 298 337 322 
f 1079 562 298 
f 746 298 624 
f 1079 298 746 
f 299 312 301 
f 310 311 299 
f 299 311 312 
f 301 319 304 
f 301 312 319 
f 303 322 512 
f 643 303 512 
f 643 624 303 
f 304 318 305 
f 304 319 318 
f 305 318 313 
f 306 337 307 
f 315 329 306 
f 329 331 306 
f 306 331 337 
f 313 327 314 
f 318 325 313 
f 313 325 327 
f 314 327 315 
f 327 329 315 
f 317 323 316 
f 316 323 324 
f 321 336 320 
f 321 320 512 
f 320 336 339 
f 320 339 512 
f 321 322 337 
f 322 321 512 
f 321 337 336 
f 324 323 326 
f 326 323 328 
f 351 328 323 
f 351 323 354 
f 354 323 588 
f 323 403 396 
f 323 396 404 
f 323 422 403 
f 323 404 424 
f 430 422 323 
f 588 323 424 
f 451 430 323 
f 352 330 328 
f 352 328 351 
f 353 332 330 
f 353 330 352 
f 348 333 332 
f 348 332 353 
f 347 334 333 
f 347 333 348 
f 342 338 334 
f 342 334 346 
f 347 346 334 
f 340 336 335 
f 345 335 338 
f 340 335 345 
f 340 339 336 
f 342 343 338 
f 345 338 343 
f 512 339 340 
f 341 340 345 
f 512 340 341 
f 345 512 341 
f 342 712 343 
f 346 712 342 
f 344 345 343 
f 343 712 344 
f 711 345 344 
f 711 344 712 
f 1079 512 345 
f 1079 345 711 
f 347 712 346 
f 349 347 348 
f 349 712 347 
f 712 349 348 
f 1079 348 353 
f 1079 712 348 
f 364 365 350 
f 350 398 364 
f 398 350 459 
f 459 350 460 
f 460 350 654 
f 350 621 622 
f 628 350 622 
f 656 350 628 
f 654 350 660 
f 662 350 656 
f 660 350 1155 
f 1155 350 662 
f 1079 352 351 
f 1079 351 354 
f 1079 353 352 
f 1079 354 588 
f 355 637 486 
f 357 356 363 
f 356 358 366 
f 363 356 366 
f 365 359 357 
f 365 357 363 
f 366 358 444 
f 444 358 393 
f 360 359 365 
f 360 361 362 
f 361 360 364 
f 364 360 365 
f 459 362 361 
f 459 361 364 
f 460 455 362 
f 459 460 362 
f 398 459 364 
f 366 444 458 
f 367 368 631 
f 367 631 434 
f 631 368 632 
f 369 370 640 
f 369 640 639 
f 640 370 439 
f 371 846 587 
f 1079 846 371 
f 816 372 442 
f 941 372 816 
f 952 372 941 
f 958 372 952 
f 1079 372 958 
f 373 377 374 
f 373 374 379 
f 380 373 379 
f 377 378 374 
f 374 378 394 
f 374 400 379 
f 374 394 400 
f 382 376 375 
f 375 376 383 
f 381 382 375 
f 381 375 397 
f 406 375 383 
f 397 375 406 
f 376 384 383 
f 377 386 378 
f 386 385 378 
f 378 385 399 
f 378 399 394 
f 380 379 387 
f 379 415 387 
f 379 400 415 
f 388 380 387 
f 389 382 381 
f 390 389 381 
f 390 381 405 
f 405 381 397 
f 383 384 392 
f 425 383 392 
f 406 383 425 
f 384 391 392 
f 386 407 385 
f 385 414 399 
f 407 408 385 
f 385 408 414 
f 388 387 409 
f 387 428 409 
f 387 415 428 
f 410 388 409 
f 419 389 390 
f 423 390 405 
f 418 419 390 
f 418 390 423 
f 392 391 421 
f 391 420 421 
f 420 391 645 
f 433 392 421 
f 425 392 433 
f 394 399 395 
f 394 395 402 
f 400 394 402 
f 399 401 395 
f 396 397 404 
f 405 397 396 
f 403 405 396 
f 397 406 404 
f 399 414 401 
f 400 402 417 
f 415 400 417 
f 414 416 401 
f 423 405 403 
f 422 423 403 
f 404 406 424 
f 406 425 424 
f 407 434 408 
f 408 426 414 
f 408 435 426 
f 434 435 408 
f 410 409 412 
f 412 409 437 
f 428 447 409 
f 409 447 437 
f 413 410 412 
f 436 411 413 
f 413 411 637 
f 411 436 637 
f 413 412 437 
f 436 413 437 
f 414 426 416 
f 415 417 429 
f 428 415 429 
f 426 427 416 
f 592 429 417 
f 590 591 417 
f 592 417 591 
f 439 419 418 
f 431 418 423 
f 438 418 431 
f 438 439 418 
f 421 420 440 
f 420 441 440 
f 441 420 645 
f 454 433 421 
f 454 421 440 
f 431 423 422 
f 430 431 422 
f 424 425 432 
f 594 424 432 
f 588 424 594 
f 425 433 432 
f 426 445 427 
f 435 445 426 
f 445 446 427 
f 428 429 448 
f 447 428 448 
f 598 448 429 
f 592 593 429 
f 598 429 593 
f 452 431 430 
f 451 452 430 
f 452 438 431 
f 432 433 453 
f 596 432 453 
f 595 594 432 
f 595 432 596 
f 433 454 453 
f 434 462 435 
f 631 462 434 
f 435 463 445 
f 462 463 435 
f 436 437 465 
f 464 436 465 
f 436 464 637 
f 447 472 437 
f 437 472 465 
f 467 439 438 
f 466 438 452 
f 466 467 438 
f 467 640 439 
f 440 441 468 
f 477 454 440 
f 477 440 468 
f 441 469 468 
f 469 441 645 
f 1079 816 442 
f 562 876 443 
f 949 443 876 
f 1079 443 949 
f 444 449 458 
f 445 470 446 
f 463 470 445 
f 470 471 446 
f 447 448 473 
f 472 447 473 
f 602 473 448 
f 598 599 448 
f 602 448 599 
f 449 450 461 
f 458 449 461 
f 461 450 630 
f 475 452 451 
f 474 475 451 
f 475 466 452 
f 453 454 476 
f 600 453 476 
f 597 596 453 
f 597 453 600 
f 454 477 476 
f 455 456 457 
f 654 456 455 
f 654 455 460 
f 456 660 457 
f 654 660 456 
f 660 646 457 
f 461 630 651 
f 462 478 463 
f 631 478 462 
f 463 479 470 
f 478 479 463 
f 464 465 484 
f 483 464 484 
f 464 483 637 
f 472 482 465 
f 465 482 484 
f 488 467 466 
f 489 466 475 
f 489 488 466 
f 488 640 467 
f 468 469 494 
f 492 477 468 
f 492 468 494 
f 469 493 494 
f 493 469 645 
f 470 480 471 
f 479 480 470 
f 480 481 471 
f 481 632 471 
f 472 473 485 
f 482 472 485 
f 607 485 473 
f 602 603 473 
f 607 473 603 
f 490 475 474 
f 487 490 474 
f 639 487 474 
f 490 489 475 
f 476 477 491 
f 604 476 491 
f 601 600 476 
f 601 476 604 
f 477 492 491 
f 479 478 505 
f 478 504 505 
f 478 631 504 
f 479 505 480 
f 481 480 497 
f 480 496 497 
f 480 505 496 
f 632 481 497 
f 482 506 484 
f 498 482 485 
f 482 498 506 
f 507 483 484 
f 483 507 637 
f 506 507 484 
f 499 498 485 
f 612 499 485 
f 607 608 485 
f 612 485 608 
f 521 486 637 
f 490 487 500 
f 487 639 500 
f 488 489 508 
f 509 488 508 
f 640 488 509 
f 508 489 490 
f 501 490 500 
f 508 490 501 
f 492 503 491 
f 503 502 491 
f 609 491 502 
f 605 604 491 
f 605 491 609 
f 511 492 494 
f 503 492 511 
f 493 510 494 
f 510 493 645 
f 510 511 494 
f 626 645 495 
f 1166 626 495 
f 497 496 514 
f 505 522 496 
f 496 513 514 
f 496 522 513 
f 632 497 514 
f 515 498 499 
f 498 524 506 
f 498 515 524 
f 516 515 499 
f 614 516 499 
f 614 499 612 
f 501 500 517 
f 500 639 517 
f 527 508 501 
f 518 501 517 
f 527 501 518 
f 503 520 502 
f 520 519 502 
f 613 502 519 
f 609 502 613 
f 528 503 511 
f 520 503 528 
f 505 504 522 
f 504 523 522 
f 504 631 523 
f 525 507 506 
f 524 525 506 
f 507 525 637 
f 509 508 527 
f 526 509 527 
f 640 509 526 
f 510 529 511 
f 529 510 645 
f 529 528 511 
f 1079 643 512 
f 514 513 531 
f 522 543 513 
f 513 530 531 
f 513 543 530 
f 632 514 531 
f 532 515 516 
f 515 544 524 
f 515 532 544 
f 533 532 516 
f 616 533 516 
f 616 516 614 
f 518 517 534 
f 517 639 534 
f 551 527 518 
f 535 518 534 
f 551 518 535 
f 520 537 519 
f 537 536 519 
f 615 519 536 
f 613 519 615 
f 553 520 528 
f 537 520 553 
f 521 637 638 
f 522 523 543 
f 523 542 543 
f 523 631 542 
f 545 525 524 
f 544 545 524 
f 525 545 637 
f 526 527 551 
f 550 526 551 
f 640 526 550 
f 529 552 528 
f 552 553 528 
f 552 529 645 
f 531 530 540 
f 530 538 540 
f 530 568 538 
f 530 543 568 
f 632 531 540 
f 539 532 533 
f 532 539 544 
f 541 539 533 
f 620 541 533 
f 619 533 616 
f 619 620 533 
f 535 534 546 
f 534 639 546 
f 547 535 546 
f 571 535 547 
f 551 535 571 
f 537 549 536 
f 549 548 536 
f 617 536 548 
f 615 536 617 
f 549 537 553 
f 540 538 556 
f 538 554 556 
f 538 576 554 
f 538 568 576 
f 555 539 541 
f 539 570 544 
f 539 555 570 
f 632 540 556 
f 557 555 541 
f 632 557 541 
f 635 541 620 
f 636 632 541 
f 635 636 541 
f 543 542 568 
f 542 567 568 
f 542 631 567 
f 569 545 544 
f 570 569 544 
f 545 569 637 
f 547 546 558 
f 546 639 558 
f 560 547 558 
f 579 547 560 
f 571 547 579 
f 549 561 548 
f 561 559 548 
f 559 639 548 
f 617 548 623 
f 623 548 639 
f 573 549 553 
f 561 549 573 
f 550 551 571 
f 572 550 571 
f 640 550 572 
f 552 574 553 
f 574 552 645 
f 574 573 553 
f 556 554 564 
f 554 563 564 
f 563 554 584 
f 554 576 584 
f 563 555 557 
f 555 563 577 
f 555 577 570 
f 632 556 564 
f 564 563 557 
f 632 564 557 
f 560 558 565 
f 558 639 565 
f 561 566 559 
f 566 565 559 
f 565 639 559 
f 566 560 565 
f 560 566 585 
f 579 560 585 
f 566 561 582 
f 582 561 573 
f 1079 876 562 
f 563 584 577 
f 585 566 582 
f 568 567 576 
f 567 575 576 
f 567 631 575 
f 578 569 570 
f 578 631 569 
f 569 631 637 
f 577 578 570 
f 572 571 579 
f 580 572 579 
f 640 572 580 
f 574 581 573 
f 581 582 573 
f 640 581 574 
f 640 574 645 
f 576 575 584 
f 575 583 584 
f 575 631 583 
f 583 578 577 
f 584 583 577 
f 583 631 578 
f 580 579 585 
f 586 580 585 
f 640 580 586 
f 581 586 582 
f 640 586 581 
f 586 585 582 
f 587 846 590 
f 589 588 594 
f 788 588 589 
f 1079 588 788 
f 788 589 594 
f 590 846 591 
f 591 846 592 
f 592 846 593 
f 593 846 598 
f 596 594 595 
f 597 594 596 
f 788 594 597 
f 601 597 600 
f 788 597 601 
f 598 846 599 
f 602 599 846 
f 606 601 604 
f 788 601 606 
f 602 846 603 
f 603 846 607 
f 606 604 605 
f 606 605 609 
f 789 606 609 
f 788 606 789 
f 607 846 608 
f 611 612 608 
f 608 846 611 
f 1079 609 613 
f 609 950 789 
f 1079 950 609 
f 669 625 610 
f 673 610 625 
f 610 953 669 
f 610 673 688 
f 989 610 688 
f 763 827 610 
f 763 610 861 
f 862 610 827 
f 861 610 873 
f 610 862 953 
f 948 873 610 
f 989 948 610 
f 972 612 611 
f 964 611 846 
f 965 611 964 
f 966 611 965 
f 968 611 966 
f 972 611 968 
f 1079 614 612 
f 1079 612 972 
f 1079 613 615 
f 1079 616 614 
f 1079 615 617 
f 618 619 616 
f 616 665 618 
f 1079 665 616 
f 1079 617 623 
f 619 618 665 
f 620 619 665 
f 620 665 635 
f 622 621 682 
f 621 627 629 
f 621 629 641 
f 621 641 648 
f 621 648 652 
f 621 652 658 
f 621 658 666 
f 621 666 668 
f 621 668 670 
f 621 670 1154 
f 621 1154 682 
f 671 628 622 
f 1155 671 622 
f 622 682 683 
f 1155 622 683 
f 623 639 642 
f 1079 623 642 
f 624 643 647 
f 746 624 647 
f 667 625 669 
f 625 667 992 
f 625 991 673 
f 625 969 991 
f 625 992 969 
f 626 644 645 
f 1166 644 626 
f 653 629 627 
f 627 650 653 
f 661 656 628 
f 663 661 628 
f 671 663 628 
f 653 641 629 
f 630 633 651 
f 631 632 961 
f 631 729 637 
f 631 718 715 
f 631 715 721 
f 631 727 718 
f 631 721 729 
f 631 747 727 
f 631 772 747 
f 631 790 772 
f 631 807 790 
f 807 631 838 
f 838 631 875 
f 631 960 875 
f 960 631 961 
f 674 632 636 
f 674 754 632 
f 740 632 735 
f 735 632 741 
f 753 632 740 
f 741 632 754 
f 765 632 753 
f 781 632 765 
f 799 632 781 
f 810 632 799 
f 632 810 830 
f 632 830 1313 
f 961 632 1313 
f 633 634 659 
f 633 1158 634 
f 651 633 659 
f 659 634 847 
f 634 1158 847 
f 635 973 636 
f 665 973 635 
f 674 636 947 
f 973 947 636 
f 638 637 815 
f 729 749 637 
f 749 774 637 
f 774 793 637 
f 793 812 637 
f 812 840 637 
f 815 637 1319 
f 840 878 637 
f 878 899 637 
f 899 924 637 
f 924 1311 637 
f 1311 1319 637 
f 639 640 962 
f 642 639 761 
f 639 742 736 
f 639 736 743 
f 639 759 742 
f 639 743 761 
f 639 768 759 
f 639 784 768 
f 639 802 784 
f 639 817 802 
f 817 639 833 
f 833 639 1373 
f 639 962 1373 
f 732 640 645 
f 723 640 717 
f 717 640 724 
f 730 640 723 
f 724 640 732 
f 756 640 730 
f 777 640 756 
f 795 640 777 
f 818 640 795 
f 640 818 842 
f 640 842 879 
f 963 640 879 
f 640 963 962 
f 653 648 641 
f 642 761 676 
f 1079 642 676 
f 1079 647 643 
f 672 645 644 
f 1166 672 644 
f 825 645 672 
f 757 732 645 
f 779 757 645 
f 797 779 645 
f 823 797 645 
f 843 823 645 
f 1156 645 825 
f 881 843 645 
f 906 881 645 
f 929 906 645 
f 1380 929 645 
f 1156 1157 645 
f 1163 645 1157 
f 1163 1390 645 
f 1390 1380 645 
f 863 649 646 
f 649 1166 646 
f 863 646 660 
f 1079 746 647 
f 653 652 648 
f 649 763 655 
f 655 1166 649 
f 863 763 649 
f 653 650 657 
f 657 650 1154 
f 1154 651 659 
f 653 658 652 
f 653 657 670 
f 653 666 658 
f 653 668 666 
f 653 670 668 
f 655 861 664 
f 655 664 1166 
f 763 861 655 
f 661 662 656 
f 670 657 1154 
f 659 847 864 
f 1154 659 864 
f 863 660 1155 
f 671 662 661 
f 663 671 661 
f 662 671 1155 
f 861 857 664 
f 664 857 1166 
f 1079 973 665 
f 667 669 673 
f 667 673 990 
f 667 990 994 
f 992 667 993 
f 994 993 667 
f 669 688 673 
f 688 669 984 
f 669 953 997 
f 984 669 995 
f 995 669 996 
f 998 996 669 
f 669 997 998 
f 1166 825 672 
f 985 673 986 
f 985 987 673 
f 988 986 673 
f 990 673 987 
f 991 988 673 
f 674 675 754 
f 675 674 975 
f 674 947 954 
f 967 674 954 
f 967 971 674 
f 674 971 974 
f 674 974 975 
f 678 754 675 
f 975 678 675 
f 677 676 680 
f 806 676 677 
f 676 770 680 
f 676 761 770 
f 1079 676 806 
f 806 677 680 
f 678 679 767 
f 678 975 679 
f 678 767 754 
f 684 767 679 
f 679 975 684 
f 681 680 786 
f 806 680 681 
f 680 770 786 
f 681 786 686 
f 806 681 686 
f 682 1155 683 
f 682 1154 1155 
f 684 685 783 
f 975 685 684 
f 684 783 767 
f 689 783 685 
f 975 689 685 
f 687 686 804 
f 806 686 687 
f 686 786 804 
f 687 804 691 
f 806 687 691 
f 688 957 956 
f 688 956 959 
f 688 984 957 
f 959 982 688 
f 982 983 688 
f 983 989 688 
f 689 690 801 
f 975 690 689 
f 689 801 783 
f 694 801 690 
f 975 694 690 
f 693 691 692 
f 692 691 821 
f 806 691 693 
f 691 804 821 
f 693 692 696 
f 692 821 696 
f 828 693 696 
f 693 828 806 
f 694 695 814 
f 695 694 975 
f 694 814 801 
f 697 814 695 
f 697 695 975 
f 696 835 699 
f 1079 696 699 
f 696 821 835 
f 696 951 828 
f 1079 951 696 
f 697 698 814 
f 698 697 975 
f 700 701 698 
f 700 698 975 
f 701 832 698 
f 698 832 814 
f 699 855 702 
f 1079 699 702 
f 699 835 855 
f 1079 701 700 
f 975 1079 700 
f 703 851 701 
f 1079 703 701 
f 701 851 832 
f 702 889 705 
f 1079 702 705 
f 702 855 889 
f 704 886 703 
f 1079 704 703 
f 703 886 851 
f 707 708 704 
f 704 845 707 
f 708 895 704 
f 1079 845 704 
f 704 895 886 
f 705 902 706 
f 1079 705 706 
f 705 889 902 
f 1079 706 710 
f 706 1096 710 
f 706 902 1096 
f 708 707 1070 
f 1070 707 845 
f 708 709 895 
f 709 708 1070 
f 709 1008 895 
f 1009 1008 709 
f 709 1019 1009 
f 709 1021 1019 
f 709 1020 1022 
f 709 1023 1020 
f 1021 709 1022 
f 709 1024 1023 
f 1024 709 1026 
f 709 1025 1026 
f 709 1029 1025 
f 709 1043 1029 
f 709 1042 1043 
f 1070 1042 709 
f 970 710 955 
f 710 1151 955 
f 970 1103 710 
f 1079 710 1085 
f 1085 710 1099 
f 710 1096 1153 
f 1099 710 1100 
f 710 1103 1100 
f 1151 710 1153 
f 711 712 713 
f 891 711 713 
f 1079 711 891 
f 1079 713 712 
f 1079 891 713 
f 715 718 714 
f 715 714 720 
f 718 719 714 
f 719 738 714 
f 714 734 720 
f 714 738 734 
f 721 715 720 
f 723 717 716 
f 716 717 725 
f 722 723 716 
f 744 722 716 
f 737 716 725 
f 744 716 737 
f 717 724 725 
f 718 727 719 
f 727 726 719 
f 726 751 719 
f 719 751 738 
f 721 720 728 
f 720 739 728 
f 734 739 720 
f 729 721 728 
f 730 723 722 
f 731 730 722 
f 760 731 722 
f 760 722 744 
f 725 724 733 
f 724 732 733 
f 745 725 733 
f 745 737 725 
f 727 747 726 
f 747 748 726 
f 748 764 726 
f 726 764 751 
f 729 728 750 
f 739 752 728 
f 728 752 750 
f 749 729 750 
f 756 730 731 
f 755 756 731 
f 769 755 731 
f 769 731 760 
f 733 732 758 
f 732 757 758 
f 762 745 733 
f 762 733 758 
f 734 738 735 
f 734 735 741 
f 739 734 741 
f 738 740 735 
f 736 737 743 
f 744 737 736 
f 742 744 736 
f 737 745 743 
f 738 751 740 
f 739 741 754 
f 752 739 754 
f 751 753 740 
f 760 744 742 
f 759 760 742 
f 743 745 761 
f 745 762 761 
f 747 772 748 
f 748 780 764 
f 772 773 748 
f 748 773 780 
f 749 750 775 
f 774 749 775 
f 752 766 750 
f 766 782 750 
f 750 782 775 
f 751 764 753 
f 752 754 767 
f 766 752 767 
f 764 765 753 
f 777 756 755 
f 785 755 769 
f 776 777 755 
f 776 755 785 
f 758 757 778 
f 757 779 778 
f 771 762 758 
f 787 771 758 
f 787 758 778 
f 769 760 759 
f 768 769 759 
f 761 762 770 
f 762 771 770 
f 866 827 763 
f 866 763 863 
f 764 780 765 
f 780 781 765 
f 766 767 783 
f 782 766 783 
f 785 769 768 
f 784 785 768 
f 770 771 786 
f 771 787 786 
f 772 790 773 
f 773 798 780 
f 790 791 773 
f 773 791 798 
f 774 775 792 
f 793 774 792 
f 782 800 775 
f 775 800 792 
f 795 777 776 
f 803 776 785 
f 794 795 776 
f 794 776 803 
f 778 779 796 
f 805 787 778 
f 805 778 796 
f 779 797 796 
f 780 798 781 
f 798 799 781 
f 782 783 801 
f 800 782 801 
f 803 785 784 
f 802 803 784 
f 786 787 804 
f 787 805 804 
f 935 788 789 
f 1079 788 935 
f 789 940 935 
f 789 946 940 
f 789 950 946 
f 790 807 791 
f 791 809 798 
f 807 808 791 
f 791 808 809 
f 793 792 813 
f 800 811 792 
f 792 811 813 
f 812 793 813 
f 818 795 794 
f 820 794 803 
f 819 818 794 
f 819 794 820 
f 796 797 824 
f 822 805 796 
f 822 796 824 
f 797 823 824 
f 798 809 799 
f 809 810 799 
f 800 801 814 
f 811 800 814 
f 820 803 802 
f 817 820 802 
f 804 805 821 
f 805 822 821 
f 826 806 828 
f 1079 806 826 
f 808 807 837 
f 807 838 837 
f 809 808 829 
f 808 837 829 
f 810 809 830 
f 809 829 830 
f 811 839 813 
f 831 811 814 
f 811 831 839 
f 840 812 813 
f 839 840 813 
f 832 831 814 
f 815 1319 1159 
f 1079 941 816 
f 820 817 833 
f 818 819 841 
f 842 818 841 
f 819 820 834 
f 841 819 834 
f 834 820 833 
f 822 836 821 
f 836 835 821 
f 844 822 824 
f 836 822 844 
f 823 843 824 
f 843 844 824 
f 1166 1156 825 
f 921 826 828 
f 1079 826 921 
f 869 862 827 
f 869 827 866 
f 828 951 921 
f 830 829 849 
f 829 837 848 
f 829 848 849 
f 830 849 1312 
f 1313 830 1312 
f 850 831 832 
f 831 877 839 
f 831 850 877 
f 851 850 832 
f 834 833 853 
f 853 833 1372 
f 833 1373 1372 
f 841 834 854 
f 854 834 853 
f 836 856 835 
f 856 855 835 
f 882 836 844 
f 856 836 882 
f 837 838 874 
f 837 874 848 
f 838 875 874 
f 878 840 839 
f 877 878 839 
f 842 841 880 
f 880 841 854 
f 879 842 880 
f 843 881 844 
f 881 882 844 
f 1079 1070 845 
f 1079 964 846 
f 847 852 864 
f 847 1158 852 
f 849 848 884 
f 848 874 883 
f 848 883 884 
f 849 884 1008 
f 849 1008 1312 
f 885 850 851 
f 850 898 877 
f 850 885 898 
f 886 885 851 
f 852 859 956 
f 852 1158 859 
f 864 852 956 
f 854 853 887 
f 887 853 1096 
f 1096 853 1372 
f 880 854 888 
f 888 854 887 
f 856 890 855 
f 890 889 855 
f 907 856 882 
f 890 856 907 
f 873 858 857 
f 857 858 1166 
f 873 857 861 
f 948 860 858 
f 858 860 1166 
f 948 858 873 
f 956 859 976 
f 859 1158 976 
f 860 989 865 
f 860 865 1166 
f 948 989 860 
f 870 862 869 
f 953 862 870 
f 866 863 1155 
f 867 864 956 
f 1154 864 867 
f 865 981 920 
f 865 920 1166 
f 989 981 865 
f 869 866 1155 
f 867 868 871 
f 868 867 957 
f 1154 867 871 
f 867 956 957 
f 871 868 984 
f 868 957 984 
f 870 869 1155 
f 953 870 872 
f 872 870 1155 
f 871 984 930 
f 1154 871 930 
f 999 953 872 
f 1155 999 872 
f 874 875 897 
f 874 897 883 
f 875 896 897 
f 896 875 1311 
f 875 960 1311 
f 1079 949 876 
f 899 878 877 
f 898 899 877 
f 879 880 904 
f 905 879 904 
f 879 905 1380 
f 963 879 1380 
f 904 880 888 
f 881 906 882 
f 906 907 882 
f 884 883 894 
f 883 892 894 
f 883 897 892 
f 884 894 1008 
f 893 885 886 
f 893 925 885 
f 885 925 898 
f 895 893 886 
f 888 887 900 
f 900 887 1096 
f 901 888 900 
f 904 888 901 
f 890 903 889 
f 903 902 889 
f 928 903 890 
f 928 890 907 
f 894 892 910 
f 897 923 892 
f 892 908 910 
f 892 923 908 
f 909 893 895 
f 909 933 893 
f 893 933 925 
f 1008 894 910 
f 911 909 895 
f 1008 911 895 
f 897 896 923 
f 896 922 923 
f 922 896 1311 
f 924 899 898 
f 925 924 898 
f 901 900 912 
f 900 1096 912 
f 926 904 901 
f 914 901 912 
f 926 901 914 
f 903 915 902 
f 915 913 902 
f 913 1096 902 
f 939 915 903 
f 939 903 928 
f 905 904 926 
f 927 905 926 
f 905 927 1380 
f 906 929 907 
f 929 928 907 
f 910 908 917 
f 908 916 917 
f 908 932 916 
f 923 932 908 
f 916 909 911 
f 916 942 909 
f 909 942 933 
f 1008 910 917 
f 917 916 911 
f 1008 917 911 
f 914 912 918 
f 912 1096 918 
f 915 919 913 
f 919 918 913 
f 918 1096 913 
f 919 914 918 
f 936 914 919 
f 936 926 914 
f 944 919 915 
f 944 915 939 
f 916 932 942 
f 936 919 944 
f 920 981 1166 
f 1079 921 951 
f 923 922 932 
f 922 931 932 
f 922 1311 931 
f 934 924 925 
f 934 1311 924 
f 933 934 925 
f 927 926 936 
f 937 927 936 
f 1380 927 937 
f 929 938 928 
f 938 939 928 
f 1380 938 929 
f 930 984 1000 
f 1154 930 1000 
f 932 931 942 
f 931 943 942 
f 931 1311 943 
f 943 934 933 
f 942 943 933 
f 943 1311 934 
f 1079 935 940 
f 937 936 944 
f 945 937 944 
f 1380 937 945 
f 938 945 939 
f 1380 945 938 
f 945 944 939 
f 1079 940 946 
f 1079 952 941 
f 1079 946 950 
f 1079 954 947 
f 1079 947 973 
f 1079 958 952 
f 999 997 953 
f 1079 967 954 
f 970 955 1151 
f 959 956 977 
f 977 956 976 
f 959 977 978 
f 959 978 982 
f 960 961 1311 
f 1311 961 1313 
f 962 963 1380 
f 962 1380 1373 
f 1079 965 964 
f 1079 966 965 
f 1079 968 966 
f 1079 971 967 
f 1079 972 968 
f 969 992 991 
f 1103 970 1123 
f 1144 1123 970 
f 970 1143 1142 
f 970 1142 1144 
f 970 1147 1143 
f 970 1148 1147 
f 970 1150 1148 
f 970 1149 1150 
f 970 1152 1149 
f 1151 1152 970 
f 1079 974 971 
f 1079 975 974 
f 977 976 978 
f 976 1158 978 
f 982 978 979 
f 979 978 1166 
f 978 1158 1166 
f 980 982 979 
f 980 979 1166 
f 983 980 981 
f 981 980 1166 
f 983 982 980 
f 983 981 989 
f 1000 984 995 
f 986 987 985 
f 988 987 986 
f 990 987 988 
f 991 990 988 
f 992 990 991 
f 993 990 992 
f 994 990 993 
f 1001 995 996 
f 1001 1000 995 
f 998 1003 996 
f 1002 1001 996 
f 1003 1002 996 
f 998 997 1007 
f 1007 997 999 
f 998 1004 1003 
f 998 1005 1004 
f 1005 998 1006 
f 998 1007 1006 
f 1007 999 1155 
f 1154 1000 1001 
f 1154 1001 1002 
f 1004 1002 1003 
f 1154 1002 1004 
f 1154 1004 1005 
f 1005 1006 1155 
f 1154 1005 1155 
f 1006 1007 1155 
f 1019 1008 1009 
f 1010 1008 1011 
f 1096 1008 1010 
f 1011 1008 1012 
f 1012 1008 1013 
f 1019 1013 1008 
f 1008 1096 1372 
f 1008 1372 1312 
f 1178 1010 1011 
f 1016 1096 1010 
f 1176 1016 1010 
f 1176 1010 1178 
f 1171 1011 1012 
f 1178 1011 1171 
f 1172 1012 1013 
f 1171 1012 1172 
f 1022 1014 1013 
f 1173 1013 1014 
f 1019 1021 1013 
f 1022 1013 1021 
f 1172 1013 1173 
f 1023 1018 1014 
f 1179 1014 1018 
f 1022 1020 1014 
f 1023 1014 1020 
f 1173 1014 1179 
f 1016 1015 1058 
f 1016 1176 1015 
f 1058 1015 1027 
f 1015 1183 1027 
f 1015 1176 1183 
f 1065 1016 1058 
f 1096 1016 1065 
f 1026 1017 1018 
f 1180 1018 1017 
f 1026 1025 1017 
f 1033 1017 1025 
f 1033 1028 1017 
f 1184 1017 1028 
f 1180 1017 1184 
f 1023 1024 1018 
f 1026 1018 1024 
f 1179 1018 1180 
f 1029 1033 1025 
f 1059 1027 1030 
f 1027 1187 1030 
f 1058 1027 1059 
f 1027 1183 1187 
f 1032 1031 1028 
f 1188 1028 1031 
f 1032 1028 1033 
f 1184 1028 1188 
f 1034 1033 1029 
f 1029 1043 1034 
f 1030 1039 1061 
f 1030 1191 1039 
f 1059 1030 1060 
f 1060 1030 1061 
f 1030 1187 1191 
f 1036 1031 1032 
f 1036 1040 1031 
f 1193 1031 1040 
f 1188 1031 1193 
f 1036 1032 1033 
f 1037 1033 1034 
f 1047 1036 1033 
f 1048 1033 1037 
f 1079 1047 1033 
f 1079 1033 1048 
f 1035 1037 1034 
f 1045 1035 1034 
f 1043 1045 1034 
f 1035 1038 1037 
f 1038 1035 1046 
f 1045 1046 1035 
f 1036 1047 1040 
f 1038 1048 1037 
f 1038 1046 1049 
f 1038 1049 1048 
f 1061 1039 1050 
f 1039 1190 1050 
f 1039 1191 1190 
f 1041 1040 1044 
f 1041 1051 1040 
f 1044 1040 1047 
f 1192 1040 1051 
f 1193 1040 1192 
f 1041 1043 1042 
f 1070 1041 1042 
f 1041 1045 1043 
f 1045 1041 1044 
f 1079 1051 1041 
f 1079 1041 1070 
f 1079 1045 1044 
f 1079 1044 1047 
f 1045 1049 1046 
f 1049 1045 1048 
f 1079 1048 1045 
f 1062 1050 1052 
f 1050 1196 1052 
f 1061 1050 1062 
f 1050 1190 1196 
f 1078 1057 1051 
f 1197 1051 1057 
f 1078 1051 1079 
f 1192 1051 1197 
f 1067 1052 1053 
f 1052 1203 1053 
f 1062 1052 1067 
f 1052 1196 1203 
f 1053 1054 1069 
f 1053 1213 1054 
f 1067 1053 1066 
f 1066 1053 1069 
f 1053 1203 1213 
f 1069 1054 1063 
f 1054 1214 1063 
f 1054 1213 1214 
f 1055 1056 1077 
f 1055 1216 1056 
f 1063 1055 1074 
f 1063 1215 1055 
f 1074 1055 1077 
f 1055 1215 1216 
f 1077 1056 1057 
f 1056 1218 1057 
f 1056 1216 1218 
f 1077 1057 1076 
f 1099 1076 1057 
f 1099 1057 1078 
f 1197 1057 1204 
f 1057 1218 1204 
f 1223 1058 1059 
f 1222 1065 1058 
f 1222 1058 1223 
f 1207 1059 1060 
f 1223 1059 1207 
f 1208 1060 1061 
f 1207 1060 1208 
f 1209 1061 1062 
f 1208 1061 1209 
f 1224 1062 1067 
f 1209 1062 1224 
f 1069 1063 1072 
f 1072 1063 1074 
f 1063 1214 1215 
f 1093 1065 1064 
f 1064 1065 1232 
f 1087 1064 1068 
f 1064 1232 1068 
f 1086 1064 1087 
f 1086 1093 1064 
f 1093 1096 1065 
f 1065 1222 1232 
f 1225 1067 1066 
f 1233 1066 1069 
f 1225 1066 1233 
f 1224 1067 1225 
f 1088 1068 1071 
f 1068 1235 1071 
f 1087 1068 1088 
f 1068 1232 1235 
f 1236 1069 1072 
f 1233 1069 1236 
f 1088 1071 1073 
f 1071 1239 1073 
f 1071 1235 1239 
f 1241 1072 1074 
f 1236 1072 1241 
f 1090 1073 1075 
f 1073 1238 1075 
f 1089 1088 1073 
f 1089 1073 1090 
f 1073 1239 1238 
f 1240 1074 1077 
f 1241 1074 1240 
f 1090 1075 1080 
f 1075 1244 1080 
f 1075 1238 1244 
f 1245 1077 1076 
f 1110 1084 1076 
f 1076 1084 1254 
f 1099 1100 1076 
f 1107 1076 1100 
f 1112 1076 1107 
f 1128 1110 1076 
f 1128 1076 1112 
f 1245 1076 1254 
f 1240 1077 1245 
f 1079 1085 1078 
f 1085 1099 1078 
f 1079 1115 1122 
f 1079 1124 1115 
f 1079 1122 1116 
f 1079 1116 1125 
f 1079 1126 1124 
f 1079 1125 1126 
f 1095 1080 1081 
f 1080 1251 1081 
f 1095 1090 1080 
f 1080 1244 1251 
f 1094 1081 1082 
f 1081 1252 1082 
f 1094 1095 1081 
f 1081 1251 1252 
f 1102 1082 1091 
f 1082 1266 1091 
f 1098 1094 1082 
f 1098 1082 1102 
f 1082 1252 1266 
f 1105 1083 1084 
f 1083 1268 1084 
f 1102 1091 1083 
f 1091 1267 1083 
f 1105 1102 1083 
f 1083 1267 1268 
f 1111 1105 1084 
f 1111 1084 1110 
f 1084 1253 1254 
f 1084 1268 1253 
f 1273 1086 1087 
f 1272 1093 1086 
f 1272 1086 1273 
f 1258 1087 1088 
f 1273 1087 1258 
f 1259 1088 1089 
f 1258 1088 1259 
f 1260 1089 1090 
f 1259 1089 1260 
f 1261 1090 1095 
f 1260 1090 1261 
f 1091 1266 1267 
f 1096 1093 1092 
f 1093 1272 1092 
f 1096 1092 1097 
f 1092 1280 1097 
f 1092 1272 1280 
f 1274 1095 1094 
f 1281 1094 1098 
f 1274 1094 1281 
f 1261 1095 1274 
f 1096 1097 1101 
f 1096 1101 1104 
f 1153 1096 1104 
f 1097 1285 1101 
f 1097 1280 1285 
f 1287 1098 1102 
f 1281 1098 1287 
f 1103 1107 1100 
f 1101 1284 1104 
f 1101 1285 1284 
f 1286 1102 1105 
f 1287 1102 1286 
f 1107 1103 1123 
f 1149 1104 1109 
f 1104 1289 1109 
f 1152 1104 1149 
f 1152 1153 1104 
f 1104 1284 1289 
f 1290 1105 1111 
f 1286 1105 1290 
f 1106 1116 1114 
f 1106 1114 1139 
f 1116 1106 1139 
f 1113 1112 1107 
f 1113 1107 1133 
f 1107 1123 1133 
f 1148 1109 1108 
f 1109 1292 1108 
f 1143 1108 1117 
f 1108 1297 1117 
f 1147 1108 1143 
f 1147 1148 1108 
f 1108 1292 1297 
f 1150 1109 1148 
f 1150 1149 1109 
f 1109 1289 1292 
f 1293 1111 1110 
f 1127 1121 1110 
f 1121 1299 1110 
f 1127 1110 1128 
f 1293 1110 1300 
f 1110 1299 1300 
f 1290 1111 1293 
f 1112 1113 1127 
f 1112 1127 1128 
f 1113 1129 1127 
f 1113 1133 1129 
f 1122 1114 1116 
f 1114 1122 1130 
f 1114 1130 1139 
f 1115 1132 1122 
f 1132 1115 1124 
f 1125 1116 1139 
f 1145 1117 1118 
f 1117 1298 1118 
f 1142 1143 1117 
f 1142 1117 1145 
f 1117 1297 1298 
f 1146 1118 1119 
f 1118 1304 1119 
f 1145 1118 1146 
f 1118 1298 1304 
f 1138 1119 1120 
f 1119 1305 1120 
f 1141 1119 1138 
f 1146 1119 1141 
f 1119 1304 1305 
f 1137 1120 1121 
f 1120 1306 1121 
f 1133 1120 1134 
f 1135 1120 1133 
f 1134 1120 1137 
f 1135 1138 1120 
f 1120 1305 1306 
f 1131 1121 1127 
f 1136 1121 1131 
f 1136 1137 1121 
f 1121 1306 1299 
f 1122 1132 1130 
f 1133 1123 1135 
f 1135 1123 1138 
f 1123 1144 1138 
f 1132 1124 1126 
f 1125 1132 1126 
f 1132 1125 1140 
f 1125 1139 1140 
f 1129 1131 1127 
f 1131 1129 1133 
f 1130 1132 1131 
f 1130 1131 1134 
f 1130 1134 1139 
f 1132 1136 1131 
f 1131 1133 1134 
f 1137 1136 1132 
f 1140 1137 1132 
f 1139 1134 1137 
f 1140 1139 1137 
f 1141 1138 1145 
f 1138 1144 1145 
f 1141 1145 1146 
f 1144 1142 1145 
f 1153 1152 1151 
f 1166 1157 1156 
f 1157 1165 1163 
f 1166 1165 1157 
f 1158 1159 1160 
f 1158 1160 1161 
f 1158 1161 1162 
f 1158 1162 1165 
f 1158 1165 1166 
f 1159 1319 1160 
f 1160 1319 1161 
f 1162 1161 1390 
f 1161 1319 1390 
f 1162 1390 1165 
f 1163 1165 1164 
f 1163 1164 1390 
f 1165 1390 1164 
f 1168 1167 1172 
f 1315 1167 1168 
f 1167 1170 1171 
f 1314 1170 1167 
f 1167 1171 1172 
f 1314 1167 1315 
f 1169 1168 1173 
f 1316 1168 1169 
f 1168 1172 1173 
f 1315 1168 1316 
f 1169 1173 1179 
f 1174 1169 1179 
f 1317 1169 1174 
f 1316 1169 1317 
f 1170 1178 1171 
f 1170 1177 1178 
f 1320 1177 1170 
f 1320 1170 1314 
f 1174 1179 1180 
f 1182 1174 1180 
f 1318 1174 1182 
f 1317 1174 1318 
f 1177 1175 1176 
f 1176 1175 1183 
f 1177 1320 1175 
f 1175 1186 1183 
f 1175 1322 1186 
f 1175 1320 1322 
f 1177 1176 1178 
f 1182 1180 1184 
f 1182 1184 1181 
f 1321 1182 1181 
f 1181 1184 1188 
f 1181 1188 1185 
f 1323 1181 1185 
f 1321 1181 1323 
f 1318 1182 1321 
f 1183 1186 1187 
f 1185 1188 1193 
f 1185 1193 1194 
f 1325 1185 1194 
f 1323 1185 1325 
f 1186 1189 1187 
f 1186 1324 1189 
f 1186 1322 1324 
f 1187 1189 1191 
f 1191 1189 1195 
f 1189 1326 1195 
f 1189 1324 1326 
f 1191 1195 1190 
f 1190 1195 1202 
f 1190 1202 1196 
f 1193 1192 1194 
f 1194 1192 1198 
f 1192 1197 1198 
f 1327 1194 1198 
f 1325 1194 1327 
f 1195 1328 1202 
f 1195 1326 1328 
f 1196 1202 1211 
f 1203 1196 1211 
f 1198 1197 1205 
f 1197 1204 1205 
f 1329 1198 1205 
f 1327 1198 1329 
f 1200 1199 1208 
f 1333 1199 1200 
f 1199 1206 1207 
f 1332 1206 1199 
f 1199 1207 1208 
f 1332 1199 1333 
f 1201 1200 1209 
f 1334 1200 1201 
f 1200 1208 1209 
f 1333 1200 1334 
f 1201 1209 1224 
f 1210 1201 1224 
f 1335 1201 1210 
f 1334 1201 1335 
f 1202 1330 1211 
f 1202 1328 1330 
f 1203 1211 1212 
f 1213 1203 1212 
f 1205 1204 1219 
f 1204 1218 1217 
f 1204 1217 1219 
f 1331 1205 1219 
f 1329 1205 1331 
f 1206 1223 1207 
f 1206 1221 1223 
f 1221 1206 1332 
f 1210 1224 1225 
f 1227 1210 1225 
f 1336 1210 1227 
f 1335 1210 1336 
f 1211 1337 1212 
f 1211 1330 1337 
f 1213 1212 1228 
f 1212 1341 1228 
f 1212 1337 1341 
f 1214 1213 1228 
f 1215 1214 1229 
f 1214 1228 1229 
f 1216 1215 1229 
f 1218 1216 1230 
f 1216 1229 1230 
f 1218 1230 1217 
f 1217 1345 1219 
f 1230 1344 1217 
f 1217 1344 1345 
f 1331 1219 1338 
f 1219 1345 1338 
f 1221 1220 1222 
f 1221 1339 1220 
f 1222 1220 1232 
f 1220 1231 1232 
f 1220 1346 1231 
f 1220 1339 1346 
f 1221 1222 1223 
f 1339 1221 1332 
f 1227 1225 1233 
f 1227 1233 1226 
f 1340 1227 1226 
f 1226 1233 1236 
f 1226 1236 1234 
f 1347 1226 1234 
f 1340 1226 1347 
f 1336 1227 1340 
f 1228 1342 1229 
f 1228 1341 1342 
f 1229 1343 1230 
f 1229 1342 1343 
f 1230 1343 1344 
f 1232 1231 1235 
f 1231 1237 1235 
f 1231 1348 1237 
f 1231 1346 1348 
f 1234 1236 1241 
f 1234 1241 1242 
f 1349 1234 1242 
f 1347 1234 1349 
f 1235 1237 1239 
f 1239 1237 1243 
f 1237 1350 1243 
f 1237 1348 1350 
f 1239 1243 1238 
f 1238 1243 1250 
f 1238 1250 1244 
f 1241 1240 1242 
f 1242 1240 1246 
f 1240 1245 1246 
f 1351 1242 1246 
f 1349 1242 1351 
f 1243 1352 1250 
f 1243 1350 1352 
f 1244 1250 1264 
f 1244 1264 1251 
f 1246 1245 1255 
f 1245 1254 1255 
f 1353 1246 1255 
f 1351 1246 1353 
f 1248 1247 1258 
f 1357 1247 1248 
f 1247 1257 1273 
f 1356 1257 1247 
f 1247 1273 1258 
f 1356 1247 1357 
f 1248 1259 1249 
f 1358 1248 1249 
f 1248 1258 1259 
f 1357 1248 1358 
f 1249 1259 1260 
f 1249 1260 1262 
f 1359 1249 1262 
f 1358 1249 1359 
f 1250 1354 1264 
f 1250 1352 1354 
f 1252 1251 1265 
f 1251 1264 1265 
f 1252 1265 1276 
f 1266 1252 1276 
f 1254 1253 1269 
f 1253 1268 1278 
f 1253 1278 1269 
f 1255 1254 1270 
f 1254 1269 1270 
f 1355 1255 1270 
f 1353 1255 1355 
f 1257 1256 1272 
f 1365 1256 1257 
f 1256 1271 1280 
f 1256 1365 1271 
f 1272 1256 1280 
f 1257 1272 1273 
f 1365 1257 1356 
f 1262 1260 1261 
f 1262 1261 1263 
f 1261 1274 1263 
f 1360 1262 1263 
f 1359 1262 1360 
f 1263 1274 1275 
f 1366 1263 1275 
f 1360 1263 1366 
f 1264 1361 1265 
f 1264 1354 1361 
f 1265 1362 1276 
f 1265 1361 1362 
f 1267 1266 1277 
f 1266 1276 1277 
f 1268 1267 1277 
f 1268 1277 1278 
f 1269 1363 1270 
f 1278 1369 1269 
f 1269 1369 1363 
f 1355 1270 1364 
f 1270 1363 1364 
f 1271 1279 1285 
f 1271 1370 1279 
f 1280 1271 1285 
f 1271 1365 1370 
f 1274 1281 1275 
f 1275 1281 1282 
f 1371 1275 1282 
f 1366 1275 1371 
f 1276 1367 1277 
f 1276 1362 1367 
f 1277 1368 1278 
f 1277 1367 1368 
f 1278 1368 1369 
f 1279 1283 1284 
f 1279 1374 1283 
f 1285 1279 1284 
f 1279 1370 1374 
f 1281 1287 1282 
f 1282 1287 1288 
f 1375 1282 1288 
f 1371 1282 1375 
f 1284 1283 1289 
f 1283 1291 1289 
f 1283 1376 1291 
f 1283 1374 1376 
f 1287 1286 1288 
f 1286 1290 1288 
f 1288 1290 1294 
f 1377 1288 1294 
f 1375 1288 1377 
f 1289 1291 1292 
f 1290 1293 1294 
f 1291 1296 1292 
f 1291 1378 1296 
f 1291 1376 1378 
f 1292 1296 1297 
f 1294 1293 1302 
f 1293 1300 1302 
f 1379 1294 1302 
f 1377 1294 1379 
f 1296 1295 1297 
f 1296 1381 1295 
f 1297 1295 1298 
f 1298 1295 1303 
f 1295 1383 1303 
f 1295 1381 1383 
f 1296 1378 1381 
f 1298 1303 1304 
f 1300 1299 1307 
f 1299 1306 1310 
f 1299 1310 1307 
f 1302 1300 1301 
f 1300 1307 1301 
f 1382 1302 1301 
f 1307 1385 1301 
f 1382 1301 1386 
f 1301 1385 1386 
f 1379 1302 1382 
f 1304 1303 1308 
f 1303 1384 1308 
f 1303 1383 1384 
f 1304 1308 1305 
f 1306 1305 1309 
f 1305 1308 1309 
f 1306 1309 1310 
f 1310 1389 1307 
f 1307 1389 1385 
f 1308 1387 1309 
f 1308 1384 1387 
f 1309 1388 1310 
f 1309 1387 1388 
f 1310 1388 1389 
f 1311 1313 1319 
f 1313 1312 1319 
f 1312 1314 1315 
f 1312 1372 1314 
f 1312 1315 1316 
f 1312 1316 1317 
f 1312 1317 1318 
f 1312 1318 1321 
f 1312 1325 1319 
f 1312 1321 1323 
f 1312 1323 1325 
f 1372 1320 1314 
f 1325 1327 1319 
f 1327 1329 1319 
f 1329 1331 1319 
f 1331 1338 1319 
f 1338 1364 1319 
f 1364 1386 1319 
f 1386 1385 1319 
f 1385 1390 1319 
f 1322 1320 1332 
f 1320 1339 1332 
f 1320 1372 1339 
f 1322 1332 1324 
f 1324 1333 1326 
f 1324 1332 1333 
f 1328 1326 1335 
f 1326 1333 1334 
f 1326 1334 1335 
f 1330 1328 1336 
f 1328 1335 1336 
f 1330 1336 1340 
f 1337 1330 1340 
f 1337 1340 1347 
f 1341 1337 1347 
f 1345 1355 1338 
f 1338 1355 1364 
f 1339 1365 1346 
f 1372 1365 1339 
f 1342 1341 1349 
f 1341 1347 1349 
f 1342 1349 1343 
f 1344 1343 1353 
f 1343 1349 1351 
f 1343 1351 1353 
f 1345 1344 1355 
f 1344 1353 1355 
f 1346 1357 1348 
f 1346 1356 1357 
f 1365 1356 1346 
f 1348 1358 1350 
f 1348 1357 1358 
f 1350 1358 1352 
f 1352 1360 1354 
f 1358 1359 1352 
f 1352 1359 1360 
f 1354 1360 1366 
f 1354 1366 1361 
f 1361 1371 1362 
f 1361 1366 1371 
f 1362 1375 1367 
f 1362 1371 1375 
f 1363 1386 1364 
f 1369 1379 1363 
f 1379 1382 1363 
f 1363 1382 1386 
f 1365 1372 1370 
f 1367 1377 1368 
f 1367 1375 1377 
f 1368 1377 1369 
f 1377 1379 1369 
f 1370 1372 1374 
f 1372 1373 1390 
f 1374 1372 1376 
f 1376 1372 1378 
f 1378 1372 1381 
f 1381 1372 1383 
f 1383 1372 1384 
f 1384 1372 1387 
f 1387 1372 1390 
f 1373 1380 1390 
f 1385 1389 1390 
f 1388 1387 1390 
f 1389 1388 1390 


