v -0.026336 0.007237 0.062575
v -0.026330 0.010501 0.062452
v -0.026220 0.015444 0.062267
v -0.026150 0.008428 0.061590
v -0.026031 0.004877 0.064535
v -0.025841 0.010407 0.059952
v -0.025818 0.018219 0.059970
v -0.025548 0.019366 0.058356
v -0.025547 0.010644 0.066252
v -0.025491 0.000703 0.068000
v -0.025327 0.020304 0.057034
v -0.025159 0.040907 0.011279
v -0.024870 -0.001950 0.070205
v -0.024857 0.040307 0.012900
v -0.024850 0.015802 0.054143
v -0.024839 0.042392 0.007276
v -0.024810 0.023911 0.051952
v -0.024689 0.000886 0.072836
v -0.024663 0.001747 0.073635
v -0.024608 0.002798 0.072765
v -0.024564 0.020118 0.052097
v -0.024517 0.017614 0.052192
v -0.024463 0.018126 0.051471
v -0.024459 0.046315 0.011081
v -0.024355 0.032196 0.031629
v -0.024316 0.031614 0.032450
v -0.024310 0.000941 0.074307
v -0.024266 0.019995 0.048836
v -0.024256 0.038493 0.031392
v -0.024175 0.029497 0.035436
v -0.024148 0.050078 0.000934
v -0.024144 0.039106 0.030529
v -0.024104 0.038808 0.016952
v -0.024079 0.039300 0.030007
v -0.024077 0.035804 0.035187
v -0.024064 0.029807 0.043644
v -0.024060 0.039523 0.029404
v -0.024015 0.048383 0.005507
v -0.023916 0.051277 -0.002297
v -0.023900 0.031202 0.041678
v -0.023891 0.048214 0.001007
v -0.023854 0.043942 0.003106
v -0.023842 0.051659 -0.003327
v -0.023810 0.042553 0.021236
v -0.023809 0.024138 0.042998
v -0.023795 0.025625 0.040901
v -0.023793 0.029735 0.041734
v -0.023725 0.024905 0.041917
v -0.023725 0.044853 0.015032
v -0.023715 0.051767 -0.004481
v -0.023638 -0.003875 0.071812
v -0.023589 0.054081 -0.029234
v -0.023568 0.035205 0.025438
v -0.023547 0.053757 -0.025767
v -0.023539 0.049041 -0.029044
v -0.023523 0.054838 -0.037332
v -0.023522 0.047995 -0.050752
v -0.023521 0.049252 -0.031308
v -0.023517 0.048868 -0.027183
v -0.023484 0.052281 -0.055373
v -0.023460 0.048288 -0.049030
v -0.023439 0.055020 -0.039276
v -0.023429 0.048173 -0.019744
v -0.023391 0.044671 0.001144
v -0.023376 0.048103 -0.019000
v -0.023354 0.048602 -0.047180
v -0.023320 0.048031 -0.018224
v -0.023315 0.050785 -0.064158
v -0.023264 0.053328 -0.049218
v -0.023257 0.049819 -0.037398
v -0.023237 0.049944 -0.069105
v -0.023202 0.052204 -0.009145
v -0.023184 0.049976 -0.039084
v -0.023132 0.051636 -0.059161
v -0.023116 0.034454 -0.098543
v -0.023113 0.053776 -0.046583
v -0.023089 0.037632 0.020132
v -0.023082 0.034621 -0.094126
v -0.023082 0.053143 -0.019187
v -0.023055 0.049488 -0.041958
v -0.023049 0.034228 -0.094981
v -0.023048 0.035112 -0.093056
v -0.023032 0.038975 0.021377
v -0.023020 0.047645 -0.014095
v -0.023018 0.037141 -0.088636
v -0.022968 0.042549 -0.088839
v -0.022962 0.033209 -0.097199
v -0.022957 0.036403 -0.090243
v -0.022920 0.036889 -0.101167
v -0.022909 0.038033 -0.098676
v -0.022895 0.046848 -0.057488
v -0.022890 0.032625 -0.098472
v -0.022890 0.045031 -0.083432
v -0.022876 0.037390 0.020788
v -0.022860 0.042552 -0.076074
v -0.022851 0.046469 -0.080299
v -0.022849 -0.005185 0.072904
v -0.022847 0.047065 -0.079001
v -0.022844 0.045201 -0.078931
v -0.022833 0.036771 0.022219
v -0.022794 0.048962 -0.074868
v -0.022782 0.049121 -0.073936
v -0.022778 0.046500 -0.059533
v -0.022769 0.049290 -0.072941
v -0.022765 0.040083 -0.094210
v -0.022760 0.037260 0.021138
v -0.022757 0.046597 -0.058968
v -0.022733 0.037856 -0.087077
v -0.022723 0.044904 -0.068911
v -0.022721 0.045883 -0.063159
v -0.022720 0.052676 -0.014195
v -0.022714 -0.005408 0.073090
v -0.022711 0.045577 -0.068936
v -0.022710 0.045770 -0.063821
v -0.022700 0.045653 -0.064510
v -0.022678 -0.005477 0.073148
v -0.022678 0.043276 -0.087253
v -0.022657 0.037145 0.021449
v -0.022646 0.045005 -0.068318
v -0.022614 0.047203 -0.009362
v -0.022608 0.047838 -0.008976
v -0.022596 0.046928 -0.007995
v -0.022593 0.046973 -0.008174
v -0.022579 0.047164 -0.008950
v -0.022564 0.042089 -0.077480
v -0.022521 -0.002452 0.077136
v -0.022488 -0.005837 0.073448
v -0.022485 -0.005408 0.073092
v -0.022446 0.000705 0.068025
v -0.022403 0.007239 0.062609
v -0.022387 0.018221 0.059999
v -0.022383 0.010409 0.059981
v -0.022320 0.017615 0.052211
v -0.022293 0.019996 0.048853
v -0.022289 0.041657 -0.078792
v -0.022237 0.024906 0.041929
v -0.022185 0.029498 0.035453
v -0.022154 0.032197 0.031648
v -0.022148 0.039107 0.030545
v -0.022070 0.037145 0.021454
v -0.022040 0.039597 -0.083280
v -0.022033 0.038809 0.016970
v -0.022016 -0.005795 0.073417
v -0.021986 0.040909 0.011306
v -0.021902 0.044671 0.001157
v -0.021868 0.051660 -0.003310
v -0.021864 0.034129 -0.107171
v -0.021863 0.034127 -0.107175
v -0.021818 0.047165 -0.008944
v -0.021789 0.026923 -0.108255
v -0.021785 0.027386 -0.107460
v -0.021774 0.047645 -0.014084
v -0.021766 0.029587 -0.103681
v -0.021763 0.033897 -0.107676
v -0.021733 0.048104 -0.018986
v -0.021682 0.033221 -0.108492
v -0.021678 0.033611 -0.108020
v -0.021648 0.049042 -0.029028
v -0.021636 0.026286 -0.109023
v -0.021565 0.055021 -0.039260
v -0.021564 0.049977 -0.039070
v -0.021479 0.048289 -0.049013
v -0.021394 0.046597 -0.058956
v -0.021352 0.045771 -0.063809
v -0.021309 0.044905 -0.068899
v -0.021260 0.048963 -0.074855
v -0.021223 0.041658 -0.078783
v -0.021191 0.031168 -0.110964
v -0.021138 0.037142 -0.088620
v -0.021090 0.034622 -0.094110
v -0.021052 0.032626 -0.098456
v -0.020975 0.033897 -0.107669
v -0.020966 0.026924 -0.108248
v -0.020949 0.025304 -0.110202
v -0.020941 0.030812 -0.111391
v -0.020020 0.024917 -0.110662
v -0.019362 0.023947 -0.111826
v -0.016742 -0.001936 0.076760
v -0.016029 0.028766 -0.113820
v -0.015950 0.021394 -0.114880
v -0.014139 0.023713 -0.118077
v -0.013641 0.025246 -0.118048
v -0.013550 0.025180 -0.118127
v -0.013500 -0.005766 0.073469
v -0.012596 0.018884 -0.117881
v -0.012518 -0.001922 0.076786
v -0.012488 -0.005763 0.073476
v -0.012486 -0.005403 0.073177
v -0.012446 0.000710 0.068110
v -0.012403 0.007245 0.062693
v -0.012383 0.010414 0.060066
v -0.012321 0.017620 0.052295
v -0.012294 0.020001 0.048937
v -0.012237 0.024911 0.042014
v -0.012185 0.029503 0.035537
v -0.012154 0.032202 0.031732
v -0.012070 0.037151 0.021539
v -0.012033 0.038814 0.017054
v -0.011986 0.040914 0.011390
v -0.011902 0.044676 0.001242
v -0.011823 -0.005402 0.073182
v -0.011818 0.047170 -0.008859
v -0.011775 0.047650 -0.014000
v -0.011733 0.048109 -0.018901
v -0.011649 0.049048 -0.028943
v -0.011564 0.049982 -0.038985
v -0.011479 0.048294 -0.048928
v -0.011394 0.046602 -0.058871
v -0.011352 0.045776 -0.063724
v -0.011309 0.044910 -0.068814
v -0.011224 0.041663 -0.078699
v -0.011188 0.023642 -0.119964
v -0.011138 0.037147 -0.088535
v -0.011090 0.034627 -0.094025
v -0.011052 0.032631 -0.098372
v -0.010966 0.026929 -0.108163
v -0.010935 0.023951 -0.111755
v -0.010910 0.018125 -0.118783
v -0.010880 0.018885 -0.117867
v -0.010872 0.018100 -0.118813
v -0.010864 0.023496 -0.120138
v -0.010863 0.023496 -0.120138
v -0.010863 0.023496 -0.120138
v -0.010863 0.023496 -0.120138
v -0.010702 0.023473 -0.120164
v -0.010269 -0.000625 0.069236
v -0.009834 0.000711 0.068132
v -0.009112 0.001204 0.067730
v -0.008925 0.017833 -0.119121
v -0.008221 0.001913 0.067150
v -0.007221 0.000950 0.074452
v -0.006505 0.001269 0.074193
v -0.005994 0.007843 -0.014354
v -0.005664 0.000895 0.072997
v -0.004626 0.005802 0.063958
v -0.004434 0.017216 -0.119830
v -0.003289 0.007249 0.062770
v -0.003122 0.007477 0.062583
v -0.002862 0.007833 0.062290
v -0.002764 0.002463 0.073237
v -0.002752 0.007928 0.062212
v -0.002490 0.002482 0.073224
v -0.002488 0.002420 0.072967
v -0.002404 0.007803 0.062757
v -0.002398 0.008142 0.062038
v -0.002383 0.010419 0.060151
v -0.002321 0.017625 0.052380
v -0.002294 0.020007 0.049022
v -0.002238 0.024916 0.042098
v -0.002237 0.002491 0.073219
v -0.002194 0.003320 -0.013312
v -0.002185 0.029509 0.035622
v -0.002154 0.032207 0.031817
v -0.002071 0.037156 0.021624
v -0.002033 0.038819 0.017139
v -0.001987 0.040919 0.011475
v -0.001903 0.044682 0.001326
v -0.001818 0.047175 -0.008774
v -0.001775 0.047656 -0.013915
v -0.001734 0.048114 -0.018816
v -0.001649 0.049053 -0.028859
v -0.001643 0.002306 0.073377
v -0.001565 0.049987 -0.038900
v -0.001479 0.048299 -0.048844
v -0.001394 0.046608 -0.058787
v -0.001353 0.045781 -0.063640
v -0.001309 0.044915 -0.068730
v -0.001291 0.007250 0.062787
v -0.001224 0.041668 -0.078614
v -0.001138 0.037153 -0.088450
v -0.001091 0.034632 -0.093940
v -0.001053 0.032636 -0.098287
v -0.000967 0.026934 -0.108079
v -0.000935 0.023957 -0.111670
v -0.000881 0.018890 -0.117782
v -0.000858 0.016834 -0.120262
v -0.000852 0.022421 -0.121356
v 0.000357 0.022381 -0.121395
v 0.001228 -0.000736 -0.008859
v 0.001522 0.000899 0.073058
v 0.001917 -0.001936 0.070432
v 0.001985 -0.001672 -0.015682
v 0.002508 0.003941 0.065564
v 0.002560 -0.002297 -0.003222
v 0.002861 -0.002539 0.070940
v 0.003191 0.016699 -0.120393
v 0.003382 0.000955 0.074542
v 0.003953 0.002683 0.066620
v 0.003968 -0.000304 0.069096
v 0.003996 -0.003264 0.071551
v 0.004142 -0.003325 0.071602
v 0.004453 -0.004635 -0.020277
v 0.005090 0.002034 0.067168
v 0.005945 0.000719 0.068266
v 0.006165 0.016600 -0.120489
v 0.007488 -0.000875 0.076095
v 0.007513 -0.004073 0.073296
v 0.007518 -0.004732 0.072798
v 0.007553 0.000720 0.068279
v 0.007596 0.007255 0.062863
v 0.007616 0.010424 0.060235
v 0.007679 0.017630 0.052465
v 0.007706 0.020012 0.049107
v 0.007762 0.024921 0.042183
v 0.007814 0.029514 0.035707
v 0.007845 0.032212 0.031902
v 0.007929 0.037161 0.021708
v 0.007966 0.038824 0.017224
v 0.008013 0.040924 0.011560
v 0.008097 0.044687 0.001411
v 0.008181 0.047180 -0.008690
v 0.008225 0.047661 -0.013830
v 0.008266 0.048119 -0.018732
v 0.008351 0.049058 -0.028774
v 0.008435 0.049992 -0.038816
v 0.008520 0.048304 -0.048759
v 0.008530 0.022207 -0.121540
v 0.008605 0.046613 -0.058702
v 0.008647 0.045786 -0.063555
v 0.008690 0.044920 -0.068645
v 0.008776 0.041673 -0.078529
v 0.008861 0.037158 -0.088366
v 0.008909 0.034637 -0.093855
v 0.008947 0.032641 -0.098202
v 0.008957 -0.004812 0.072878
v 0.009033 0.026939 -0.107994
v 0.009065 0.023962 -0.111585
v 0.009119 0.018895 -0.117698
v 0.009144 0.016537 -0.120542
v 0.009150 0.022194 -0.121551
v 0.010621 0.022111 -0.121639
v 0.012961 -0.001226 0.076435
v 0.014010 0.016263 -0.120834
v 0.016636 0.016116 -0.120991
v 0.017189 -0.005188 0.073263
v 0.017484 -0.001456 0.076666
v 0.017513 -0.005011 0.073417
v 0.017514 -0.005203 0.073278
v 0.017553 0.000725 0.068364
v 0.017595 0.007260 0.062947
v 0.017616 0.010429 0.060320
v 0.017678 0.017636 0.052549
v 0.017705 0.020017 0.049191
v 0.017762 0.024927 0.042268
v 0.017814 0.029519 0.035792
v 0.017845 0.032217 0.031986
v 0.017929 0.037166 0.021793
v 0.017966 0.038829 0.017308
v 0.018013 0.040929 0.011644
v 0.018097 0.044692 0.001496
v 0.018181 0.047185 -0.008605
v 0.018224 0.047666 -0.013745
v 0.018266 0.048124 -0.018647
v 0.018279 -0.005325 0.073386
v 0.018350 0.049063 -0.028689
v 0.018435 0.049997 -0.038731
v 0.018520 0.048310 -0.048674
v 0.018605 0.046618 -0.058617
v 0.018646 0.045791 -0.063470
v 0.018676 -0.005387 0.073441
v 0.018690 0.044925 -0.068560
v 0.018775 0.041678 -0.078444
v 0.018861 0.037163 -0.088281
v 0.018909 -0.001668 0.076854
v 0.018909 0.034642 -0.093771
v 0.018947 0.032646 -0.098118
v 0.019032 0.026944 -0.107909
v 0.019064 0.023967 -0.111501
v 0.019119 0.018900 -0.117613
v 0.019149 0.016118 -0.120969
v 0.019151 0.022120 -0.121562
v 0.020790 0.021942 -0.121764
v 0.022081 -0.002137 0.077272
v 0.024646 -0.006411 0.074343
v 0.026734 0.014824 -0.121856
v 0.027473 -0.003062 0.078087
v 0.027503 -0.006901 0.074775
v 0.027513 -0.005382 0.073515
v 0.027560 0.000696 0.067540
v 0.027595 0.006416 0.063064
v 0.027629 0.010374 0.058796
v 0.027678 0.016032 0.052695
v 0.027712 0.019990 0.048427
v 0.027761 0.024022 0.042387
v 0.027814 0.029524 0.035876
v 0.027845 0.032223 0.032071
v 0.027929 0.035273 0.021949
v 0.027965 0.038834 0.017393
v 0.028012 0.040934 0.011729
v 0.028097 0.042889 0.001649
v 0.028173 0.014551 -0.122022
v 0.028181 0.045962 -0.008474
v 0.028224 0.047671 -0.013661
v 0.028265 0.048130 -0.018562
v 0.028281 -0.007500 0.074332
v 0.028350 0.049068 -0.028604
v 0.028434 0.049717 -0.038636
v 0.028519 0.048315 -0.048590
v 0.028605 0.046623 -0.058533
v 0.028646 0.045797 -0.063386
v 0.028690 0.043702 -0.068429
v 0.028775 0.039876 -0.078292
v 0.028861 0.037168 -0.088196
v 0.028908 0.034647 -0.093686
v 0.028947 0.030754 -0.097961
v 0.029032 0.026949 -0.107825
v 0.029064 0.023972 -0.111416
v 0.029082 0.047487 -0.018531
v 0.029119 0.017996 -0.117494
v 0.029143 0.022773 -0.120696
v 0.029158 0.014538 -0.121912
v 0.029405 -0.008304 0.073642
v 0.029422 0.045981 -0.058501
v 0.029439 0.014204 -0.121780
v 0.029534 -0.008409 0.073560
v 0.029803 -0.008645 0.073402
v 0.029925 -0.008757 0.073328
v 0.029939 -0.009101 0.073087
v 0.030130 0.013597 -0.121182
v 0.030153 -0.011786 0.071385
v 0.030239 0.029386 0.032198
v 0.030311 0.038625 0.011836
v 0.030392 -0.015068 0.069738
v 0.030412 -0.019314 0.067643
v 0.030432 -0.020631 0.065339
v 0.030436 -0.020896 0.064875
v 0.030438 0.000537 0.063310
v 0.030440 -0.009456 0.063686
v 0.030442 -0.021360 0.064135
v 0.030442 -0.019449 0.064063
v 0.030484 0.047111 -0.028513
v 0.030490 -0.020094 0.058486
v 0.030507 -0.019736 0.056445
v 0.030514 -0.019599 0.055624
v 0.030521 0.010154 0.052941
v 0.030523 0.000161 0.053317
v 0.030525 -0.009832 0.053694
v 0.030527 -0.019298 0.054051
v 0.030533 -0.019159 0.053352
v 0.030551 -0.018728 0.051185
v 0.030604 0.019770 0.042571
v 0.030606 0.009777 0.042948
v 0.030608 -0.000216 0.043325
v 0.030610 -0.010209 0.043701
v 0.030611 -0.017055 0.043959
v 0.030620 0.023663 -0.119610
v 0.030635 -0.017259 0.041123
v 0.030637 -0.017269 0.040915
v 0.030654 0.046358 -0.048498
v 0.030689 0.019393 0.032579
v 0.030691 0.009400 0.032955
v 0.030693 -0.000593 0.033332
v 0.030695 -0.010586 0.033709
v 0.030696 -0.017612 0.033974
v 0.030716 -0.018333 0.031665
v 0.030757 -0.019824 0.026894
v 0.030772 0.029009 0.022210
v 0.030774 0.019016 0.022586
v 0.030776 0.009024 0.022963
v 0.030777 -0.020661 0.024560
v 0.030778 -0.000969 0.023340
v 0.030779 -0.010962 0.023716
v 0.030781 -0.020810 0.024087
v 0.030782 -0.020867 0.023998
v 0.030784 -0.020965 0.023845
v 0.030814 -0.023598 0.020431
v 0.030832 -0.025254 0.018330
v 0.030843 -0.026202 0.017128
v 0.030850 0.038759 -0.014502
v 0.030857 0.028633 0.012217
v 0.030859 0.018640 0.012594
v 0.030860 0.008647 0.012970
v 0.030862 -0.001346 0.013347
v 0.030864 -0.011339 0.013724
v 0.030866 -0.021332 0.014100
v 0.030868 -0.028358 0.014365
v 0.030883 -0.029001 0.012619
v 0.030887 -0.029193 0.012178
v 0.030935 -0.031621 0.006612
v 0.030940 0.038249 0.001848
v 0.030941 0.028256 0.002224
v 0.030943 0.018263 0.002601
v 0.030944 -0.031928 0.005566
v 0.030945 0.008270 0.002978
v 0.030947 -0.001723 0.003354
v 0.030949 -0.011716 0.003731
v 0.030950 -0.032100 0.004915
v 0.030951 -0.021708 0.004108
v 0.030953 -0.032209 0.004504
v 0.030953 -0.031701 0.004485
v 0.030958 -0.031967 0.003855
v 0.030963 -0.031746 0.003307
v 0.030982 -0.030433 0.000953
v 0.030992 0.021560 -0.003336
v 0.031019 0.027021 -0.006842
v 0.031023 0.027893 -0.007402
v 0.031024 0.037872 -0.008145
v 0.031026 0.028498 -0.007791
v 0.031027 0.020632 -0.007495
v 0.031028 0.028835 -0.008008
v 0.031028 0.017886 -0.007391
v 0.031030 0.007894 -0.007015
v 0.031032 -0.002099 -0.006638
v 0.031034 -0.012092 -0.006261
v 0.031036 -0.022085 -0.005885
v 0.031037 -0.026833 -0.005706
v 0.031038 0.024277 -0.008979
v 0.031039 0.031164 -0.009503
v 0.031045 0.020180 -0.009522
v 0.031047 0.020119 -0.009798
v 0.031051 0.033536 -0.011026
v 0.031053 0.027387 -0.010975
v 0.031055 0.027750 -0.011208
v 0.031058 0.028343 -0.011589
v 0.031061 -0.026165 -0.008575
v 0.031065 0.029705 -0.012464
v 0.031066 0.023560 -0.012195
v 0.031068 0.019593 -0.012152
v 0.031071 0.037664 -0.013677
v 0.031072 0.031234 -0.013445
v 0.031074 0.023339 -0.013183
v 0.031075 0.023324 -0.013254
v 0.031081 0.037619 -0.014872
v 0.031082 0.027742 -0.014414
v 0.031083 0.027628 -0.014446
v 0.031086 0.026563 -0.014742
v 0.031088 0.035113 -0.015568
v 0.031090 0.025084 -0.015152
v 0.031096 0.022983 -0.015736
v 0.031097 0.022756 -0.015799
v 0.031098 -0.025150 -0.012979
v 0.031105 0.029211 -0.017205
v 0.031109 0.037496 -0.018137
v 0.031110 0.027506 -0.017679
v 0.031110 0.027443 -0.017696
v 0.031111 0.027503 -0.017761
v 0.031111 0.027244 -0.017751
v 0.031113 0.018418 -0.017418
v 0.031113 0.017510 -0.017384
v 0.031114 0.026298 -0.018014
v 0.031115 0.007517 -0.017007
v 0.031117 -0.002476 -0.016631
v 0.031119 -0.012469 -0.016254
v 0.031119 0.018248 -0.018180
v 0.031121 -0.024499 -0.015800
v 0.031121 -0.022462 -0.015877
v 0.031123 0.018156 -0.018591
v 0.031133 0.019773 -0.019824
v 0.031138 0.017757 -0.020384
v 0.031145 -0.024798 -0.018633
v 0.031159 0.034859 -0.088090
v 0.031183 -0.025411 -0.023095
v 0.031194 0.037119 -0.028130
v 0.031196 0.027126 -0.027753
v 0.031198 0.017133 -0.027377
v 0.031200 0.007140 -0.027000
v 0.031201 0.012504 -0.120031
v 0.031202 -0.002853 -0.026623
v 0.031204 -0.012846 -0.026246
v 0.031206 -0.025777 -0.025759
v 0.031206 -0.022838 -0.025870
v 0.031230 -0.026898 -0.028561
v 0.031250 -0.027841 -0.030874
v 0.031277 0.046735 -0.038499
v 0.031279 0.036742 -0.038122
v 0.031281 0.026749 -0.037746
v 0.031283 0.016756 -0.037369
v 0.031285 0.006764 -0.036992
v 0.031287 -0.003229 -0.036616
v 0.031288 -0.013222 -0.036239
v 0.031290 -0.023215 -0.035862
v 0.031292 -0.029774 -0.035615
v 0.031314 -0.030635 -0.038260
v 0.031316 -0.030689 -0.038425
v 0.031364 0.036366 -0.048115
v 0.031366 0.026373 -0.047738
v 0.031368 0.016380 -0.047362
v 0.031369 0.006387 -0.046985
v 0.031371 -0.003606 -0.046608
v 0.031373 -0.013599 -0.046232
v 0.031375 -0.023592 -0.045855
v 0.031377 -0.033157 -0.045494
v 0.031380 -0.033212 -0.045880
v 0.031390 -0.033377 -0.047026
v 0.031401 -0.033689 -0.048255
v 0.031427 0.024113 -0.107697
v 0.031448 0.035989 -0.058108
v 0.031450 0.025996 -0.057731
v 0.031451 -0.034909 -0.054131
v 0.031452 0.016003 -0.057354
v 0.031453 -0.034943 -0.054413
v 0.031454 0.006010 -0.056977
v 0.031456 -0.003983 -0.056601
v 0.031458 -0.013976 -0.056224
v 0.031460 -0.023968 -0.055847
v 0.031462 -0.035062 -0.055429
v 0.031462 -0.033961 -0.055471
v 0.031486 -0.035665 -0.058250
v 0.031530 -0.036335 -0.063310
v 0.031533 0.035612 -0.068100
v 0.031535 0.025619 -0.067723
v 0.031537 0.015627 -0.067347
v 0.031539 0.005634 -0.066970
v 0.031541 -0.004359 -0.066593
v 0.031543 -0.014352 -0.066217
v 0.031545 -0.024345 -0.065840
v 0.031547 -0.036609 -0.065378
v 0.031547 -0.034338 -0.065463
v 0.031581 -0.035090 -0.069473
v 0.031593 -0.034544 -0.070939
v 0.031605 -0.033740 -0.072368
v 0.031618 0.035236 -0.078093
v 0.031620 0.025243 -0.077716
v 0.031622 0.015250 -0.077339
v 0.031624 0.005257 -0.076963
v 0.031626 -0.004736 -0.076586
v 0.031628 -0.014729 -0.076209
v 0.031630 -0.024722 -0.075832
v 0.031631 -0.031913 -0.075561
v 0.031660 -0.026838 -0.079303
v 0.031672 -0.024908 -0.080775
v 0.031697 -0.017875 -0.084233
v 0.031702 -0.016297 -0.084917
v 0.031705 0.024866 -0.087708
v 0.031706 -0.015077 -0.085446
v 0.031707 0.014873 -0.087332
v 0.031709 -0.014423 -0.085808
v 0.031709 0.004880 -0.086955
v 0.031711 -0.005113 -0.086578
v 0.031712 -0.013481 -0.086263
v 0.031727 -0.013454 -0.087982
v 0.031773 -0.013369 -0.093430
v 0.031790 0.024489 -0.097701
v 0.031792 0.014497 -0.097324
v 0.031794 0.004504 -0.096948
v 0.031795 -0.005489 -0.096571
v 0.031796 -0.009654 -0.096414
v 0.031847 -0.008927 -0.102494
v 0.031856 -0.008714 -0.103493
v 0.031876 0.014120 -0.107317
v 0.031878 0.004127 -0.106940
v 0.031880 -0.005866 -0.106563
v 0.031881 -0.008077 -0.106480
v 0.031909 -0.005993 -0.109924
v 0.031959 0.000112 -0.116249
v 0.031961 0.013743 -0.117309
v 0.031963 0.003750 -0.116933
v 0.031964 0.000661 -0.116816
v 0.031974 0.003703 -0.118200
v 0.031976 0.009014 -0.118750
v 0.031978 0.011710 -0.119194
v 0.032493 -0.020954 0.024107
v 0.032633 -0.003328 0.078352
v 0.032673 0.025204 -0.117735
v 0.033028 0.028157 -0.114171
v 0.033604 0.023737 -0.117672
v 0.033605 0.003751 -0.116919
v 0.033737 -0.005865 -0.106548
v 0.033774 0.029221 -0.112881
v 0.034453 0.013744 -0.117288
v 0.034787 -0.005488 -0.096546
v 0.035312 -0.003380 0.078420
v 0.035355 -0.008519 0.073700
v 0.035358 -0.008907 0.073377
v 0.035359 -0.009094 0.073246
v 0.035407 -0.017135 0.068130
v 0.035417 -0.019335 0.067044
v 0.035424 -0.019812 0.066210
v 0.035442 -0.021091 0.064167
v 0.035453 0.018251 0.060489
v 0.035456 -0.020709 0.062464
v 0.035504 -0.019720 0.056832
v 0.035523 -0.019342 0.054566
v 0.035527 -0.019251 0.054091
v 0.035593 -0.017679 0.046185
v 0.035611 -0.017175 0.044006
v 0.035661 0.004129 -0.106908
v 0.035678 -0.017737 0.036180
v 0.035692 0.039137 0.031035
v 0.035696 -0.017844 0.034025
v 0.035714 -0.018511 0.031891
v 0.035770 -0.020820 0.025449
v 0.035773 -0.020914 0.025149
v 0.035781 -0.021409 0.024152
v 0.035796 -0.022699 0.022516
v 0.035800 -0.023062 0.022055
v 0.035868 -0.029011 0.014432
v 0.035909 -0.030785 0.009613
v 0.035925 -0.031575 0.007803
v 0.035928 -0.031668 0.007487
v 0.035953 -0.032445 0.004555
v 0.035955 -0.032371 0.004359
v 0.035967 -0.031762 0.002849
v 0.035972 0.051690 -0.002820
v 0.035990 0.025754 -0.003356
v 0.035991 0.025755 -0.003356
v 0.036011 0.030034 -0.006104
v 0.036013 0.030503 -0.006406
v 0.036020 -0.028140 -0.003647
v 0.036020 0.024970 -0.006872
v 0.036024 0.024861 -0.007361
v 0.036025 0.032816 -0.007890
v 0.036027 0.033353 -0.008236
v 0.036032 0.034308 -0.008849
v 0.036032 0.034308 -0.008849
v 0.036033 0.034309 -0.008849
v 0.036035 0.034870 -0.009210
v 0.036036 0.028472 -0.008999
v 0.036036 0.035226 -0.009438
v 0.036037 0.028536 -0.009040
v 0.036037 0.028458 -0.009061
v 0.036037 -0.027055 -0.005655
v 0.036037 0.028472 -0.008999
v 0.036040 0.029195 -0.009464
v 0.036042 0.036401 -0.010192
v 0.036043 0.028309 -0.009725
v 0.036045 0.037000 -0.010577
v 0.036045 0.037001 -0.010578
v 0.036046 0.037001 -0.010577
v 0.036049 0.024228 -0.010197
v 0.036049 0.031057 -0.010659
v 0.036051 0.031493 -0.010939
v 0.036052 0.024132 -0.010630
v 0.036052 0.024132 -0.010630
v 0.036053 0.024132 -0.010630
v 0.036054 0.032102 -0.011330
v 0.036054 0.032102 -0.011330
v 0.036055 0.032103 -0.011330
v 0.036055 0.024053 -0.010982
v 0.036058 0.032934 -0.011864
v 0.036061 0.027827 -0.011886
v 0.036062 0.033669 -0.012336
v 0.036062 0.033670 -0.012337
v 0.036063 0.033670 -0.012336
v 0.036066 0.027698 -0.012464
v 0.036068 0.027634 -0.012754
v 0.036068 0.027634 -0.012754
v 0.036069 0.027634 -0.012754
v 0.036070 0.035428 -0.013465
v 0.036072 0.035429 -0.013465
v 0.036076 0.043144 -0.014523
v 0.036077 0.043145 -0.014523
v 0.036077 0.023483 -0.013536
v 0.036082 0.031411 -0.014580
v 0.036082 0.031411 -0.014580
v 0.036083 0.031412 -0.014580
v 0.036083 0.023330 -0.014220
v 0.036084 0.027217 -0.014620
v 0.036094 0.027218 -0.015744
v 0.036094 0.027216 -0.015745
v 0.036095 0.026950 -0.015819
v 0.036095 0.027217 -0.015745
v 0.036096 0.026951 -0.015819
v 0.036103 -0.025213 -0.013572
v 0.036105 0.022761 -0.016769
v 0.036107 0.032092 -0.017590
v 0.036107 0.032091 -0.017590
v 0.036108 0.032092 -0.017590
v 0.036110 -0.025010 -0.014451
v 0.036118 0.022425 -0.018275
v 0.036118 0.022425 -0.018276
v 0.036119 0.022426 -0.018275
v 0.036121 -0.024710 -0.015750
v 0.036136 0.021950 -0.020404
v 0.036137 0.021951 -0.020404
v 0.036188 -0.025536 -0.023566
v 0.036206 -0.025831 -0.025715
v 0.036273 -0.028922 -0.033445
v 0.036275 0.055051 -0.038770
v 0.036291 -0.029789 -0.035572
v 0.036358 -0.032312 -0.043324
v 0.036377 -0.033056 -0.045456
v 0.036396 -0.033385 -0.047751
v 0.036413 -0.033662 -0.049681
v 0.036416 -0.033756 -0.050052
v 0.036431 -0.034124 -0.051823
v 0.036462 -0.034546 -0.055406
v 0.036529 -0.036210 -0.063191
v 0.036547 -0.036494 -0.065340
v 0.036557 -0.036036 -0.066574
v 0.036580 0.048993 -0.074365
v 0.036591 -0.034531 -0.070620
v 0.036600 -0.033898 -0.071745
v 0.036623 -0.032312 -0.074562
v 0.036631 -0.031761 -0.075525
v 0.036640 -0.030231 -0.076653
v 0.036671 -0.024905 -0.080714
v 0.036679 -0.022785 -0.081756
v 0.036703 -0.015063 -0.085105
v 0.036711 -0.013259 -0.086102
v 0.036712 -0.012975 -0.086240
v 0.036730 -0.012941 -0.088400
v 0.036731 -0.012862 -0.088464
v 0.036755 -0.008991 -0.091573
v 0.036780 -0.005418 -0.094695
v 0.036794 -0.001153 -0.096692
v 0.036848 0.003904 -0.103281
v 0.036850 0.004253 -0.103629
v 0.036865 0.033927 -0.107180
v 0.036877 0.010247 -0.107128
v 0.036892 0.013257 -0.109112
v 0.036892 0.015919 -0.109212
v 0.036895 0.026180 -0.110179
v 0.036896 0.014034 -0.109624
v 0.036897 0.025539 -0.110407
v 0.036898 0.027302 -0.110678
v 0.036900 0.019635 -0.110437
v 0.036907 0.022548 -0.111398
v 0.036907 0.030023 -0.111889
v 0.036908 0.022928 -0.111523
v 0.036911 0.023952 -0.111983

f 2 4 1 
f 2 1 5 
f 130 1 4 
f 1 130 5 
f 3 7 2 
f 3 2 9 
f 2 6 4 
f 2 5 10 
f 21 6 2 
f 7 8 2 
f 8 11 2 
f 9 2 18 
f 2 10 18 
f 11 21 2 
f 7 3 131 
f 3 9 131 
f 6 132 4 
f 132 130 4 
f 10 5 129 
f 5 130 129 
f 21 15 6 
f 6 15 132 
f 7 131 8 
f 8 131 11 
f 20 9 18 
f 9 20 131 
f 13 18 10 
f 10 129 13 
f 17 21 11 
f 17 11 131 
f 24 12 14 
f 12 144 14 
f 12 24 16 
f 144 12 16 
f 51 18 13 
f 13 129 51 
f 49 24 14 
f 49 14 33 
f 33 14 142 
f 14 144 142 
f 21 22 15 
f 22 133 15 
f 15 133 132 
f 24 38 16 
f 38 41 16 
f 41 42 16 
f 16 42 145 
f 144 16 145 
f 17 36 21 
f 36 17 131 
f 18 19 20 
f 27 19 18 
f 127 27 18 
f 51 97 18 
f 97 112 18 
f 116 18 112 
f 127 18 116 
f 20 19 27 
f 20 27 126 
f 20 126 131 
f 21 23 22 
f 21 28 23 
f 47 28 21 
f 36 47 21 
f 133 22 23 
f 28 134 23 
f 134 133 23 
f 38 24 49 
f 29 25 26 
f 25 138 26 
f 32 25 29 
f 34 25 32 
f 53 25 34 
f 138 25 53 
f 35 29 26 
f 35 26 30 
f 30 26 137 
f 26 138 137 
f 126 27 127 
f 47 45 28 
f 28 45 134 
f 32 29 139 
f 29 35 139 
f 35 30 47 
f 47 30 46 
f 30 137 46 
f 31 41 38 
f 31 38 146 
f 31 39 41 
f 39 31 146 
f 32 139 34 
f 49 33 83 
f 77 83 33 
f 33 142 77 
f 37 83 34 
f 34 139 37 
f 83 53 34 
f 40 35 47 
f 35 40 139 
f 40 47 36 
f 40 36 131 
f 44 83 37 
f 37 139 44 
f 146 38 49 
f 39 121 41 
f 39 43 121 
f 43 39 146 
f 40 131 139 
f 41 64 42 
f 64 41 122 
f 41 121 122 
f 42 64 145 
f 50 121 43 
f 43 146 50 
f 44 49 83 
f 49 44 139 
f 47 48 45 
f 48 136 45 
f 45 136 134 
f 48 47 46 
f 136 48 46 
f 137 136 46 
f 49 139 146 
f 72 121 50 
f 50 146 72 
f 51 128 97 
f 129 128 51 
f 54 52 59 
f 160 52 54 
f 55 52 58 
f 52 55 59 
f 52 56 58 
f 160 56 52 
f 100 53 83 
f 140 53 100 
f 138 53 140 
f 54 59 63 
f 79 54 63 
f 160 54 79 
f 158 55 58 
f 59 55 158 
f 56 70 58 
f 56 62 70 
f 62 56 160 
f 69 60 57 
f 60 91 57 
f 61 69 57 
f 162 61 57 
f 162 57 91 
f 58 70 161 
f 158 58 161 
f 155 63 59 
f 155 59 158 
f 74 60 69 
f 60 74 91 
f 69 61 66 
f 66 61 162 
f 70 62 73 
f 73 62 80 
f 62 76 80 
f 160 76 62 
f 65 79 63 
f 155 65 63 
f 145 64 122 
f 79 65 67 
f 65 155 67 
f 76 69 66 
f 76 66 80 
f 162 80 66 
f 111 79 67 
f 111 67 84 
f 84 67 152 
f 67 155 152 
f 71 113 68 
f 166 71 68 
f 74 68 103 
f 166 68 74 
f 68 110 103 
f 110 68 114 
f 68 113 114 
f 160 74 69 
f 160 69 76 
f 70 73 161 
f 71 104 113 
f 166 104 71 
f 72 111 121 
f 72 146 111 
f 161 73 80 
f 74 107 91 
f 107 74 103 
f 166 74 160 
f 78 75 81 
f 90 75 78 
f 81 75 87 
f 75 92 87 
f 90 89 75 
f 89 147 75 
f 92 75 153 
f 75 147 153 
f 94 83 77 
f 77 140 94 
f 142 140 77 
f 170 78 81 
f 82 105 78 
f 78 170 82 
f 105 90 78 
f 160 79 111 
f 161 80 162 
f 87 170 81 
f 105 82 88 
f 88 82 170 
f 94 106 83 
f 118 100 83 
f 106 118 83 
f 111 84 121 
f 121 84 120 
f 84 152 120 
f 85 86 88 
f 86 85 108 
f 85 88 169 
f 108 85 169 
f 86 105 88 
f 105 86 117 
f 117 86 108 
f 171 87 92 
f 171 170 87 
f 88 170 169 
f 172 89 90 
f 172 147 89 
f 172 90 105 
f 91 107 163 
f 162 91 163 
f 171 92 153 
f 96 93 99 
f 93 96 166 
f 99 93 135 
f 93 117 141 
f 117 93 166 
f 141 135 93 
f 94 140 106 
f 113 99 95 
f 99 125 95 
f 109 113 95 
f 165 109 95 
f 95 125 167 
f 165 95 167 
f 98 96 99 
f 96 98 166 
f 128 112 97 
f 98 99 101 
f 98 101 166 
f 101 99 113 
f 99 135 125 
f 100 118 140 
f 102 101 113 
f 166 101 102 
f 104 102 113 
f 166 102 104 
f 107 103 163 
f 103 110 163 
f 172 105 117 
f 140 118 106 
f 117 108 141 
f 141 108 169 
f 113 109 119 
f 109 165 119 
f 114 164 110 
f 110 164 163 
f 111 146 160 
f 112 128 116 
f 114 113 115 
f 115 113 119 
f 164 114 115 
f 119 165 115 
f 165 164 115 
f 116 128 127 
f 172 117 166 
f 121 120 124 
f 149 124 120 
f 152 149 120 
f 121 123 122 
f 121 124 123 
f 122 123 149 
f 145 122 149 
f 123 124 149 
f 125 135 167 
f 178 126 127 
f 126 232 131 
f 178 231 126 
f 126 231 232 
f 128 143 127 
f 178 127 143 
f 188 128 129 
f 143 128 184 
f 128 188 184 
f 130 190 129 
f 189 188 129 
f 129 190 189 
f 190 130 132 
f 131 670 139 
f 232 240 131 
f 240 242 131 
f 242 250 131 
f 250 364 131 
f 131 364 670 
f 133 192 132 
f 191 190 132 
f 132 192 191 
f 192 133 134 
f 136 194 134 
f 193 192 134 
f 134 194 193 
f 167 135 141 
f 194 136 137 
f 138 196 137 
f 195 194 137 
f 137 196 195 
f 138 140 197 
f 196 138 197 
f 139 679 146 
f 139 670 679 
f 197 140 142 
f 167 141 169 
f 144 199 142 
f 198 197 142 
f 142 199 198 
f 143 186 178 
f 184 186 143 
f 144 145 200 
f 199 144 200 
f 145 149 202 
f 200 145 202 
f 146 694 160 
f 146 679 694 
f 153 147 148 
f 172 148 147 
f 148 154 153 
f 172 154 148 
f 202 149 152 
f 150 151 157 
f 151 150 173 
f 157 156 150 
f 150 156 159 
f 150 159 173 
f 157 151 153 
f 153 151 173 
f 155 204 152 
f 203 202 152 
f 152 204 203 
f 153 154 157 
f 171 153 173 
f 157 154 172 
f 155 158 205 
f 204 155 205 
f 156 157 172 
f 156 168 159 
f 168 156 172 
f 158 161 206 
f 205 158 206 
f 174 159 168 
f 173 159 174 
f 781 166 160 
f 160 694 769 
f 781 160 769 
f 161 162 207 
f 206 161 207 
f 162 163 208 
f 207 162 208 
f 164 209 163 
f 163 209 208 
f 209 164 165 
f 165 167 211 
f 210 209 165 
f 210 165 211 
f 799 172 166 
f 799 166 781 
f 167 169 213 
f 211 167 213 
f 175 168 172 
f 168 175 174 
f 170 214 169 
f 169 214 213 
f 214 170 171 
f 171 173 216 
f 215 214 171 
f 215 171 216 
f 172 179 175 
f 317 179 172 
f 655 317 172 
f 659 655 172 
f 809 659 172 
f 809 172 799 
f 174 217 173 
f 173 217 216 
f 176 174 175 
f 176 217 174 
f 176 175 179 
f 177 176 179 
f 177 217 176 
f 181 177 179 
f 177 181 180 
f 217 177 180 
f 186 231 178 
f 181 179 182 
f 179 317 182 
f 180 181 185 
f 185 219 180 
f 219 217 180 
f 181 182 183 
f 183 212 181 
f 185 181 218 
f 181 212 218 
f 317 183 182 
f 183 317 212 
f 187 186 184 
f 184 188 187 
f 185 218 219 
f 231 186 187 
f 188 201 187 
f 234 187 201 
f 234 231 187 
f 226 188 189 
f 226 201 188 
f 190 235 189 
f 227 226 189 
f 189 228 227 
f 228 189 230 
f 189 235 230 
f 238 190 191 
f 190 237 235 
f 238 237 190 
f 192 247 191 
f 239 238 191 
f 191 241 239 
f 191 245 241 
f 246 245 191 
f 191 247 246 
f 247 192 193 
f 194 249 193 
f 248 247 193 
f 193 249 248 
f 249 194 195 
f 196 253 195 
f 252 249 195 
f 195 253 252 
f 196 197 254 
f 253 196 254 
f 254 197 198 
f 199 256 198 
f 255 254 198 
f 198 256 255 
f 199 200 257 
f 256 199 257 
f 200 202 258 
f 257 200 258 
f 234 201 226 
f 258 202 203 
f 204 260 203 
f 259 258 203 
f 203 260 259 
f 204 205 261 
f 260 204 261 
f 205 206 263 
f 261 205 263 
f 206 207 264 
f 263 206 264 
f 207 208 265 
f 264 207 265 
f 209 266 208 
f 208 266 265 
f 266 209 210 
f 210 211 269 
f 267 266 210 
f 267 210 269 
f 211 213 270 
f 269 211 270 
f 212 221 218 
f 222 221 212 
f 224 222 212 
f 225 224 212 
f 317 225 212 
f 214 271 213 
f 213 271 270 
f 271 214 215 
f 215 216 273 
f 272 271 215 
f 272 215 273 
f 217 274 216 
f 216 274 273 
f 274 217 219 
f 218 220 219 
f 221 220 218 
f 220 229 219 
f 219 229 275 
f 275 274 219 
f 222 220 221 
f 229 220 222 
f 224 223 222 
f 229 222 223 
f 236 223 224 
f 236 229 223 
f 236 224 225 
f 276 236 225 
f 277 276 225 
f 317 277 225 
f 234 226 227 
f 227 228 243 
f 227 243 234 
f 228 230 243 
f 275 229 236 
f 230 235 243 
f 234 232 231 
f 232 234 240 
f 233 251 284 
f 251 233 292 
f 284 500 233 
f 534 292 233 
f 519 469 233 
f 469 523 233 
f 233 500 508 
f 233 508 511 
f 511 519 233 
f 523 527 233 
f 527 532 233 
f 532 534 233 
f 234 243 240 
f 235 237 244 
f 243 235 244 
f 275 236 276 
f 238 244 237 
f 239 244 238 
f 241 244 239 
f 243 242 240 
f 241 245 244 
f 250 242 243 
f 243 244 283 
f 262 250 243 
f 262 243 280 
f 280 243 293 
f 288 243 283 
f 293 243 288 
f 268 244 245 
f 283 244 268 
f 300 245 246 
f 300 268 245 
f 247 302 246 
f 301 300 246 
f 246 302 301 
f 302 247 248 
f 249 304 248 
f 303 302 248 
f 248 304 303 
f 304 249 252 
f 250 262 336 
f 250 336 364 
f 279 284 251 
f 251 512 279 
f 251 292 282 
f 525 251 282 
f 251 513 512 
f 251 514 513 
f 514 251 516 
f 516 251 520 
f 251 524 520 
f 524 251 525 
f 253 306 252 
f 305 304 252 
f 252 306 305 
f 253 254 307 
f 306 253 307 
f 307 254 255 
f 256 309 255 
f 308 307 255 
f 255 309 308 
f 256 257 310 
f 309 256 310 
f 257 258 311 
f 310 257 311 
f 311 258 259 
f 260 313 259 
f 312 311 259 
f 259 313 312 
f 260 261 314 
f 313 260 314 
f 261 263 315 
f 314 261 315 
f 287 262 280 
f 262 287 336 
f 263 264 316 
f 315 263 316 
f 264 265 318 
f 316 264 318 
f 266 319 265 
f 265 319 318 
f 319 266 267 
f 267 269 321 
f 320 319 267 
f 320 267 321 
f 268 300 283 
f 269 270 322 
f 321 269 322 
f 271 323 270 
f 270 323 322 
f 323 271 272 
f 272 273 326 
f 324 323 272 
f 324 272 326 
f 274 327 273 
f 273 327 326 
f 327 274 275 
f 276 286 275 
f 275 286 328 
f 328 327 275 
f 286 276 277 
f 278 295 277 
f 317 278 277 
f 295 286 277 
f 329 295 278 
f 317 329 278 
f 292 279 282 
f 517 282 279 
f 284 279 292 
f 512 507 279 
f 507 517 279 
f 285 280 281 
f 289 281 280 
f 290 280 285 
f 287 280 297 
f 294 289 280 
f 290 291 280 
f 291 298 280 
f 280 293 294 
f 298 297 280 
f 281 289 285 
f 517 521 282 
f 282 521 522 
f 522 530 282 
f 526 525 282 
f 528 526 282 
f 529 528 282 
f 530 529 282 
f 283 300 288 
f 518 284 292 
f 494 495 284 
f 499 494 284 
f 496 284 495 
f 498 284 496 
f 500 284 498 
f 499 284 509 
f 510 509 284 
f 518 510 284 
f 289 299 285 
f 291 290 285 
f 285 299 291 
f 329 286 295 
f 328 286 329 
f 296 287 297 
f 287 296 336 
f 288 300 293 
f 294 299 289 
f 299 298 291 
f 538 518 292 
f 534 535 292 
f 292 535 537 
f 540 292 537 
f 544 538 292 
f 292 540 548 
f 547 544 292 
f 549 547 292 
f 292 548 549 
f 294 293 299 
f 293 300 299 
f 332 296 297 
f 296 332 336 
f 297 298 325 
f 297 325 335 
f 337 332 297 
f 297 335 338 
f 297 338 337 
f 335 298 299 
f 335 325 298 
f 300 340 299 
f 339 335 299 
f 299 340 339 
f 340 300 301 
f 302 342 301 
f 341 340 301 
f 301 342 341 
f 342 302 303 
f 304 344 303 
f 343 342 303 
f 303 344 343 
f 344 304 305 
f 306 346 305 
f 345 344 305 
f 305 346 345 
f 306 307 347 
f 346 306 347 
f 347 307 308 
f 309 349 308 
f 348 347 308 
f 308 349 348 
f 309 310 350 
f 349 309 350 
f 310 311 351 
f 350 310 351 
f 351 311 312 
f 313 353 312 
f 352 351 312 
f 312 353 352 
f 313 314 355 
f 353 313 355 
f 314 315 356 
f 355 314 356 
f 315 316 357 
f 356 315 357 
f 316 318 358 
f 357 316 358 
f 330 329 317 
f 371 330 317 
f 410 371 317 
f 446 410 317 
f 654 446 317 
f 654 317 655 
f 319 359 318 
f 318 359 358 
f 359 319 320 
f 320 321 362 
f 361 359 320 
f 361 320 362 
f 321 322 363 
f 362 321 363 
f 323 365 322 
f 322 365 363 
f 365 323 324 
f 324 326 367 
f 366 365 324 
f 366 324 367 
f 327 368 326 
f 326 368 367 
f 368 327 328 
f 329 333 328 
f 328 333 369 
f 369 368 328 
f 333 329 330 
f 334 330 331 
f 371 331 330 
f 334 333 330 
f 371 334 331 
f 337 336 332 
f 370 333 334 
f 369 333 370 
f 371 370 334 
f 339 338 335 
f 364 336 337 
f 338 354 337 
f 337 354 360 
f 360 374 337 
f 373 364 337 
f 337 374 373 
f 378 338 339 
f 378 354 338 
f 340 380 339 
f 379 378 339 
f 339 380 379 
f 380 340 341 
f 342 382 341 
f 381 380 341 
f 341 382 381 
f 382 342 343 
f 344 384 343 
f 383 382 343 
f 343 384 383 
f 384 344 345 
f 346 386 345 
f 385 384 345 
f 345 386 385 
f 346 347 387 
f 386 346 387 
f 387 347 348 
f 349 389 348 
f 388 387 348 
f 348 389 388 
f 349 350 390 
f 389 349 390 
f 350 351 392 
f 390 350 392 
f 392 351 352 
f 353 394 352 
f 393 392 352 
f 352 394 393 
f 353 355 396 
f 394 353 396 
f 378 360 354 
f 355 356 397 
f 396 355 397 
f 356 357 398 
f 397 356 398 
f 357 358 399 
f 398 357 399 
f 359 400 358 
f 358 400 399 
f 400 359 361 
f 360 378 374 
f 361 362 402 
f 401 400 361 
f 401 361 402 
f 362 363 403 
f 402 362 403 
f 365 404 363 
f 363 404 403 
f 364 373 662 
f 364 662 670 
f 404 365 366 
f 366 367 406 
f 405 404 366 
f 405 366 406 
f 368 407 367 
f 367 407 406 
f 407 368 369 
f 370 375 369 
f 369 375 409 
f 409 407 369 
f 372 370 371 
f 372 375 370 
f 410 372 371 
f 372 391 375 
f 411 391 372 
f 410 411 372 
f 373 374 377 
f 377 376 373 
f 662 373 376 
f 374 378 377 
f 411 375 391 
f 409 375 411 
f 653 376 377 
f 662 376 653 
f 377 378 395 
f 653 377 395 
f 379 416 378 
f 378 412 395 
f 378 415 412 
f 378 416 415 
f 380 427 379 
f 416 379 417 
f 379 427 417 
f 381 427 380 
f 382 435 381 
f 381 435 427 
f 383 435 382 
f 384 441 383 
f 383 441 435 
f 385 441 384 
f 386 421 385 
f 385 421 441 
f 387 421 386 
f 388 457 387 
f 457 421 387 
f 389 422 388 
f 388 422 457 
f 390 422 389 
f 392 480 390 
f 480 422 390 
f 393 497 392 
f 497 480 392 
f 394 408 393 
f 393 408 497 
f 396 408 394 
f 412 663 395 
f 395 662 653 
f 395 663 662 
f 397 431 396 
f 431 408 396 
f 398 564 397 
f 564 431 397 
f 399 449 398 
f 449 564 398 
f 399 400 413 
f 413 449 399 
f 401 413 400 
f 402 600 401 
f 401 600 413 
f 403 612 402 
f 612 600 402 
f 403 404 551 
f 551 612 403 
f 405 551 404 
f 406 633 405 
f 405 633 551 
f 406 407 586 
f 586 633 406 
f 409 586 407 
f 408 431 533 
f 408 469 497 
f 469 408 523 
f 408 533 523 
f 409 411 419 
f 409 419 646 
f 409 646 586 
f 411 410 414 
f 410 446 414 
f 411 414 419 
f 412 415 663 
f 449 413 575 
f 413 587 575 
f 600 587 413 
f 656 419 414 
f 414 446 656 
f 416 664 415 
f 664 663 415 
f 416 417 664 
f 417 427 418 
f 418 665 417 
f 665 664 417 
f 418 428 420 
f 665 418 420 
f 427 428 418 
f 557 646 419 
f 419 660 557 
f 656 660 419 
f 420 428 423 
f 666 420 423 
f 666 665 420 
f 421 450 441 
f 421 457 450 
f 422 470 457 
f 422 480 470 
f 423 428 424 
f 424 666 423 
f 424 430 425 
f 668 424 425 
f 428 430 424 
f 667 666 424 
f 667 424 668 
f 430 426 425 
f 668 425 426 
f 430 429 426 
f 429 669 426 
f 669 668 426 
f 427 436 428 
f 435 436 427 
f 428 437 430 
f 436 437 428 
f 430 432 429 
f 429 432 671 
f 669 429 671 
f 430 433 432 
f 437 433 430 
f 431 553 533 
f 431 564 553 
f 433 672 432 
f 672 671 432 
f 437 434 433 
f 433 434 672 
f 437 438 434 
f 434 438 673 
f 434 673 672 
f 435 442 436 
f 441 442 435 
f 436 443 437 
f 442 443 436 
f 438 437 439 
f 437 444 439 
f 443 444 437 
f 674 438 439 
f 438 674 673 
f 439 444 440 
f 674 439 440 
f 444 445 440 
f 440 445 675 
f 674 440 675 
f 441 450 442 
f 442 451 443 
f 450 451 442 
f 443 452 444 
f 451 452 443 
f 445 444 447 
f 447 444 448 
f 444 453 448 
f 452 453 444 
f 676 445 447 
f 675 445 676 
f 654 656 446 
f 447 448 678 
f 678 676 447 
f 453 454 448 
f 678 448 454 
f 564 449 565 
f 449 575 565 
f 450 458 451 
f 457 458 450 
f 451 459 452 
f 458 459 451 
f 452 461 453 
f 459 461 452 
f 454 453 455 
f 453 462 455 
f 461 462 453 
f 454 455 681 
f 678 454 680 
f 680 454 681 
f 462 456 455 
f 681 455 456 
f 462 460 456 
f 682 456 460 
f 682 681 456 
f 457 470 458 
f 458 471 459 
f 470 471 458 
f 459 472 461 
f 471 472 459 
f 462 463 460 
f 652 460 463 
f 683 460 652 
f 682 460 683 
f 461 473 462 
f 472 473 461 
f 463 462 464 
f 462 474 464 
f 473 474 462 
f 463 464 652 
f 464 474 465 
f 464 465 652 
f 465 475 466 
f 652 465 466 
f 474 475 465 
f 466 475 467 
f 686 466 467 
f 685 652 466 
f 685 466 686 
f 475 468 467 
f 467 468 686 
f 475 476 468 
f 687 468 476 
f 686 468 687 
f 497 469 519 
f 470 481 471 
f 480 481 470 
f 471 482 472 
f 481 482 471 
f 472 484 473 
f 482 484 472 
f 473 485 474 
f 484 485 473 
f 474 486 475 
f 485 486 474 
f 476 475 477 
f 477 475 478 
f 475 488 478 
f 486 488 475 
f 476 477 687 
f 478 688 477 
f 477 688 687 
f 478 488 479 
f 478 479 688 
f 479 490 483 
f 690 479 483 
f 488 490 479 
f 479 689 688 
f 689 479 690 
f 480 497 481 
f 481 495 482 
f 481 496 495 
f 497 496 481 
f 482 501 484 
f 495 494 482 
f 494 501 482 
f 483 490 487 
f 487 691 483 
f 691 690 483 
f 484 502 485 
f 501 502 484 
f 485 503 486 
f 502 503 485 
f 486 504 488 
f 503 504 486 
f 490 489 487 
f 489 691 487 
f 488 505 490 
f 504 505 488 
f 489 490 491 
f 489 491 692 
f 691 489 692 
f 490 492 491 
f 490 493 492 
f 505 493 490 
f 492 692 491 
f 492 493 693 
f 693 692 492 
f 505 506 493 
f 493 506 699 
f 493 699 693 
f 494 499 501 
f 497 498 496 
f 497 500 498 
f 497 508 500 
f 497 511 508 
f 497 519 511 
f 499 509 501 
f 501 539 502 
f 509 510 501 
f 510 518 501 
f 518 539 501 
f 502 541 503 
f 539 541 502 
f 503 542 504 
f 541 542 503 
f 504 543 505 
f 542 543 504 
f 506 505 515 
f 515 505 531 
f 505 546 531 
f 543 546 505 
f 712 506 515 
f 506 712 699 
f 517 507 512 
f 517 512 513 
f 514 525 513 
f 517 513 521 
f 513 525 521 
f 514 516 525 
f 515 531 754 
f 712 515 754 
f 516 520 524 
f 525 516 524 
f 518 538 539 
f 522 521 525 
f 522 525 526 
f 522 526 528 
f 528 529 522 
f 529 530 522 
f 523 533 527 
f 533 532 527 
f 546 545 531 
f 531 545 759 
f 754 531 759 
f 532 533 534 
f 533 536 534 
f 533 553 536 
f 534 536 535 
f 536 537 535 
f 537 536 540 
f 540 536 548 
f 536 554 548 
f 553 554 536 
f 538 544 539 
f 539 555 541 
f 544 547 539 
f 547 549 539 
f 549 555 539 
f 541 556 542 
f 555 556 541 
f 542 558 543 
f 556 558 542 
f 543 559 546 
f 558 559 543 
f 545 546 550 
f 763 545 550 
f 759 545 763 
f 546 561 550 
f 559 561 546 
f 548 554 549 
f 549 554 555 
f 550 561 552 
f 550 552 766 
f 763 550 766 
f 612 551 613 
f 551 624 613 
f 633 624 551 
f 561 560 552 
f 552 560 766 
f 553 565 554 
f 564 565 553 
f 554 566 555 
f 565 566 554 
f 555 567 556 
f 566 567 555 
f 556 568 558 
f 567 568 556 
f 557 651 646 
f 557 660 651 
f 558 569 559 
f 568 569 558 
f 559 570 561 
f 569 570 559 
f 560 561 562 
f 767 560 562 
f 766 560 767 
f 562 561 563 
f 561 571 563 
f 570 571 561 
f 562 563 768 
f 768 767 562 
f 571 572 563 
f 768 563 572 
f 565 575 566 
f 566 576 567 
f 575 576 566 
f 567 577 568 
f 576 577 567 
f 568 578 569 
f 577 578 568 
f 569 579 570 
f 578 579 569 
f 570 580 571 
f 579 580 570 
f 572 571 573 
f 571 581 573 
f 580 581 571 
f 770 572 573 
f 768 572 770 
f 581 574 573 
f 770 573 574 
f 581 582 574 
f 574 582 771 
f 770 574 771 
f 575 587 576 
f 576 588 577 
f 587 588 576 
f 577 590 578 
f 588 590 577 
f 578 592 579 
f 590 592 578 
f 579 593 580 
f 592 593 579 
f 580 594 581 
f 593 594 580 
f 582 581 583 
f 581 595 583 
f 594 595 581 
f 582 583 772 
f 771 582 772 
f 583 595 584 
f 583 584 772 
f 584 595 585 
f 584 585 774 
f 772 584 773 
f 584 774 773 
f 585 597 589 
f 776 585 589 
f 595 597 585 
f 585 775 774 
f 775 585 776 
f 633 586 634 
f 586 640 634 
f 646 640 586 
f 587 600 588 
f 588 601 590 
f 600 601 588 
f 589 597 591 
f 591 777 589 
f 777 776 589 
f 590 602 592 
f 601 602 590 
f 597 596 591 
f 777 591 596 
f 592 603 593 
f 602 603 592 
f 593 604 594 
f 603 604 593 
f 594 605 595 
f 604 605 594 
f 595 606 597 
f 605 606 595 
f 596 597 598 
f 777 596 598 
f 597 608 598 
f 606 608 597 
f 598 608 599 
f 598 599 778 
f 777 598 778 
f 608 607 599 
f 779 599 607 
f 778 599 779 
f 600 612 601 
f 601 613 602 
f 612 613 601 
f 602 614 603 
f 613 614 602 
f 603 615 604 
f 614 615 603 
f 604 616 605 
f 615 616 604 
f 605 617 606 
f 616 617 605 
f 606 618 608 
f 617 618 606 
f 607 608 609 
f 607 609 780 
f 779 607 780 
f 608 610 609 
f 618 610 608 
f 610 782 609 
f 782 780 609 
f 618 611 610 
f 610 611 783 
f 610 783 782 
f 618 619 611 
f 619 784 611 
f 611 784 783 
f 613 624 614 
f 614 626 615 
f 624 626 614 
f 615 628 616 
f 626 628 615 
f 616 629 617 
f 628 629 616 
f 617 623 618 
f 617 625 623 
f 629 625 617 
f 618 620 619 
f 618 621 620 
f 622 621 618 
f 623 622 618 
f 786 619 620 
f 619 785 784 
f 785 619 786 
f 621 787 620 
f 787 786 620 
f 788 621 622 
f 787 621 788 
f 789 622 623 
f 789 788 622 
f 625 789 623 
f 624 633 626 
f 629 627 625 
f 627 790 625 
f 625 790 789 
f 626 634 628 
f 633 634 626 
f 629 630 627 
f 630 790 627 
f 628 635 629 
f 634 635 628 
f 630 629 631 
f 629 636 631 
f 635 636 629 
f 631 791 630 
f 630 791 790 
f 636 632 631 
f 632 792 631 
f 792 791 631 
f 636 637 632 
f 637 661 632 
f 632 661 794 
f 793 792 632 
f 632 794 793 
f 634 640 635 
f 635 641 636 
f 640 641 635 
f 637 636 638 
f 636 642 638 
f 641 642 636 
f 638 661 637 
f 638 642 639 
f 639 658 638 
f 658 661 638 
f 642 643 639 
f 643 658 639 
f 640 646 641 
f 641 647 642 
f 646 647 641 
f 642 644 643 
f 647 644 642 
f 658 643 644 
f 647 645 644 
f 645 657 644 
f 644 657 658 
f 647 648 645 
f 645 648 657 
f 649 647 646 
f 650 649 646 
f 651 650 646 
f 647 649 648 
f 657 648 649 
f 660 649 650 
f 660 657 649 
f 651 660 650 
f 683 652 684 
f 652 685 684 
f 654 655 656 
f 655 811 656 
f 655 659 805 
f 655 805 811 
f 804 660 656 
f 802 804 656 
f 807 802 656 
f 808 807 656 
f 810 808 656 
f 810 656 811 
f 658 657 677 
f 660 677 657 
f 661 658 677 
f 805 659 803 
f 659 806 803 
f 659 809 806 
f 804 677 660 
f 797 661 677 
f 661 795 794 
f 795 661 796 
f 796 661 797 
f 662 663 670 
f 663 664 670 
f 664 665 670 
f 665 666 670 
f 666 667 670 
f 667 668 670 
f 668 669 670 
f 670 669 671 
f 670 671 672 
f 670 672 673 
f 673 674 670 
f 674 675 670 
f 675 676 670 
f 676 678 670 
f 678 680 670 
f 670 685 679 
f 680 681 670 
f 681 682 670 
f 682 683 670 
f 683 684 670 
f 684 685 670 
f 797 677 798 
f 677 800 798 
f 800 677 801 
f 804 801 677 
f 685 686 679 
f 686 687 679 
f 687 688 679 
f 688 689 679 
f 689 690 679 
f 690 693 679 
f 679 693 699 
f 679 695 694 
f 679 759 695 
f 699 712 679 
f 712 754 679 
f 754 759 679 
f 690 691 692 
f 690 692 693 
f 694 695 697 
f 694 697 698 
f 694 698 702 
f 694 702 703 
f 694 703 704 
f 694 704 705 
f 694 705 707 
f 694 707 709 
f 694 709 715 
f 715 717 694 
f 717 718 694 
f 694 718 741 
f 694 741 769 
f 697 695 696 
f 695 700 696 
f 695 759 700 
f 696 698 697 
f 706 698 696 
f 700 701 696 
f 701 725 696 
f 706 696 713 
f 713 696 725 
f 706 702 698 
f 701 700 759 
f 720 725 701 
f 701 763 720 
f 701 759 763 
f 706 703 702 
f 706 704 703 
f 704 706 705 
f 705 706 707 
f 709 707 706 
f 709 706 719 
f 706 713 719 
f 710 708 711 
f 710 713 708 
f 713 711 708 
f 715 709 719 
f 714 710 711 
f 714 713 710 
f 711 713 716 
f 714 711 716 
f 721 713 714 
f 716 713 731 
f 719 713 728 
f 728 713 721 
f 738 713 725 
f 713 738 731 
f 714 716 721 
f 717 715 719 
f 716 731 721 
f 719 718 717 
f 719 742 718 
f 718 742 741 
f 734 719 728 
f 742 719 734 
f 723 725 720 
f 720 766 723 
f 720 763 766 
f 728 721 722 
f 722 721 731 
f 728 722 726 
f 735 726 722 
f 722 731 735 
f 725 723 724 
f 723 766 724 
f 729 725 724 
f 729 724 766 
f 743 725 729 
f 738 725 753 
f 762 725 743 
f 753 725 762 
f 727 728 726 
f 727 726 735 
f 728 727 730 
f 730 727 735 
f 728 730 734 
f 729 767 743 
f 729 766 767 
f 730 732 734 
f 732 730 748 
f 736 730 735 
f 730 736 737 
f 748 730 737 
f 731 738 735 
f 734 732 733 
f 733 732 748 
f 734 733 740 
f 733 739 740 
f 744 739 733 
f 745 744 733 
f 745 733 749 
f 733 748 749 
f 740 742 734 
f 735 738 736 
f 738 737 736 
f 737 738 748 
f 748 738 753 
f 739 744 740 
f 746 742 740 
f 744 746 740 
f 741 742 756 
f 741 756 769 
f 742 746 752 
f 742 752 758 
f 742 758 756 
f 762 743 747 
f 743 768 747 
f 743 767 768 
f 746 744 745 
f 749 746 745 
f 752 746 749 
f 755 762 747 
f 747 770 755 
f 747 768 770 
f 749 748 750 
f 750 748 751 
f 751 748 753 
f 752 749 750 
f 751 752 750 
f 753 752 751 
f 753 762 752 
f 758 752 762 
f 762 755 760 
f 755 771 760 
f 755 770 771 
f 758 757 756 
f 756 757 769 
f 757 758 765 
f 764 757 765 
f 757 764 769 
f 758 762 765 
f 761 762 760 
f 760 771 761 
f 765 762 761 
f 765 761 764 
f 761 773 764 
f 771 773 761 
f 764 773 769 
f 773 774 769 
f 774 775 769 
f 775 776 769 
f 776 777 769 
f 777 778 769 
f 778 780 769 
f 769 780 782 
f 783 781 769 
f 769 782 783 
f 771 772 773 
f 778 779 780 
f 784 781 783 
f 785 781 784 
f 786 781 785 
f 787 781 786 
f 787 788 781 
f 788 789 781 
f 789 790 781 
f 791 781 790 
f 793 781 791 
f 793 794 781 
f 794 796 781 
f 796 799 781 
f 792 793 791 
f 794 795 796 
f 797 799 796 
f 797 798 799 
f 798 800 799 
f 800 801 799 
f 801 802 799 
f 802 807 799 
f 803 806 799 
f 808 803 799 
f 806 809 799 
f 807 808 799 
f 801 804 802 
f 808 805 803 
f 805 808 810 
f 805 810 811 


