####
#
#	OBJ File Generated by LightWave3D
#	LightWave3D OBJ Export v2.2
#
####
#	Object: 2
#
#	                Vertices: 1028
#	                  Points: 0
#	                   Lines: 0
#	                   Faces: 1656
#	               Materials: 1
#
####

o 2

#	             Vertex list

v -5.5372e-014 -0.01085 -0.01305
v 5.5372e-014 0.01085 -0.01305
v 6.37927e-014 0.0125 -0.01305
v 1.22482e-013 0.024 -0.01455
v -1.22482e-013 -0.024 -0.01455
v -1.22482e-013 -0.024 -0.01405
v 1.14827e-013 0.0225 -0.01605
v -6.63444e-014 -0.013 -0.01605
v 1.22482e-013 0.024 -0.01405
v 6.37927e-014 0.0125 -0.01555
v -6.37927e-014 -0.0125 -0.01305
v -6.37927e-014 -0.0125 -0.01555
v 6.63444e-014 0.013 -0.01605
v -1.14827e-013 -0.0225 -0.01605
v 0.0068943 0.0079943 -0.01305
v 0.00791055 0.00647334 -0.01305
v 0.00767212 0.00767212 -0.01305
v 0.00791055 0.00731525 -0.01305
v 0.00767212 0.00611647 -0.01305
v 0.0105278 0.000777824 -0.01305
v 0.0107663 0.000420954 -0.01305
v 0.01085 5.5372e-014 -0.01305
v 0.0105278 -0.000777824 -0.01305
v 0.0101709 -0.00101628 -0.01305
v 0.00767212 -0.00767212 -0.01305
v 0.00791055 -0.00647334 -0.01305
v 0.00647334 -0.00791055 -0.01305
v 0.00101628 -0.0101709 -0.01305
v 0.0011 -0.00974999 -0.01305
v -0.00731525 -0.00791055 -0.01305
v -0.00791055 -0.00647334 -0.01305
v -0.0068943 -0.0079943 -0.01305
v -0.00791055 -0.00731525 -0.01305
v -0.00767212 -0.00611647 -0.01305
v -0.0101709 0.00101628 -0.01305
v -0.0107663 0.000420954 -0.01305
v -0.0107663 -0.000420954 -0.01305
v -0.01085 -5.5372e-014 -0.01305
v -0.0105278 0.000777824 -0.01305
v -0.00791055 0.00647334 -0.01305
v -0.00791055 0.00731525 -0.01305
v -0.00767212 0.00611647 -0.01305
v -0.00731525 0.00791055 -0.01305
v -0.00767212 0.00767212 -0.01305
v 0.0011 0.00974999 -0.01305
v 0.000420954 0.0107663 -0.01305
v 0.000420954 -0.0107663 -0.01305
v 0.000777824 -0.0105278 -0.01305
v -0.000420954 -0.0107663 -0.01305
v 0.00792991 -0.00966264 -0.01305
v 0.0068943 -0.0079943 -0.01305
v 0.00694464 -0.0103934 -0.01305
v 0.00611647 -0.00767212 -0.01305
v 0.00731525 -0.00791055 -0.01305
v 0.00373959 -0.0069963 -0.01305
v 0.00303583 -0.00732914 -0.01305
v 0.00478353 -0.0115485 -0.01305
v -0.000777824 -0.0105278 -0.01305
v -0.00694464 -0.0103934 -0.01305
v -0.00647334 -0.00791055 -0.01305
v -0.00611647 -0.00767212 -0.01305
v -0.00767212 -0.00767212 -0.01305
v -0.00883884 -0.00883884 -0.01305
v -0.0011 -0.00974999 -0.01305
v -0.00230284 -0.00759143 -0.01305
v -0.00101628 -0.0101709 -0.01305
v 0.00883884 -0.00883884 -0.01305
v 0.00791055 -0.00731525 -0.01305
v 0.0079943 -0.0068943 -0.01305
v 0.00966264 -0.00792991 -0.01305
v 0.0069963 -0.00373959 -0.01305
v 0.00767212 -0.00611647 -0.01305
v 0.0119617 -0.00362857 -0.01305
v 0.00759143 -0.00230284 -0.01305
v 0.0124398 -0.00122522 -0.01305
v 0.0125 6.37927e-014 -0.01305
v 0.00974999 -0.0011 -0.01305
v 0.0107663 -0.000420954 -0.01305
v 0.0115485 -0.00478353 -0.01305
v 0.0115485 0.00478353 -0.01305
v 0.00759143 0.00230284 -0.01305
v 0.0069963 0.00373959 -0.01305
v 0.0101709 0.00101628 -0.01305
v 0.0119617 0.00362857 -0.01305
v 0.00974999 0.0011 -0.01305
v 0.0103934 0.00694464 -0.01305
v 0.0079943 0.0068943 -0.01305
v -0.0069963 -0.00373959 -0.01305
v -0.0105278 -0.000777824 -0.01305
v -0.0079943 -0.0068943 -0.01305
v -0.0101709 -0.00101628 -0.01305
v -0.0119617 -0.00362857 -0.01305
v -0.00732914 -0.00303583 -0.01305
v -0.00974999 -0.0011 -0.01305
v -0.0119617 0.00362857 -0.01305
v -0.00974999 0.0011 -0.01305
v -0.0124398 0.00122522 -0.01305
v -0.00732914 0.00303583 -0.01305
v -0.0125 -6.37927e-014 -0.01305
v -0.011024 0.00589247 -0.01305
v -0.0115485 0.00478353 -0.01305
v -0.0079943 0.0068943 -0.01305
v -0.0103934 0.00694464 -0.01305
v -0.00966264 0.00792991 -0.01305
v -0.00883884 0.00883884 -0.01305
v 0.00373959 0.0069963 -0.01305
v 0.00303583 0.00732914 -0.01305
v 0.00101628 0.0101709 -0.01305
v 0.00883884 0.00883884 -0.01305
v 0.00731525 0.00791055 -0.01305
v 0.00647334 0.00791055 -0.01305
v 0.00589247 0.011024 -0.01305
v 0.00611647 0.00767212 -0.01305
v 0.00694464 0.0103934 -0.01305
v 0.00478353 0.0115485 -0.01305
v 0.00243863 0.0122598 -0.01305
v -0.00230284 0.00759143 -0.01305
v -0.00694464 0.0103934 -0.01305
v -0.0068943 0.0079943 -0.01305
v -0.00647334 0.00791055 -0.01305
v -0.00611647 0.00767212 -0.01305
v -0.0011 0.00974999 -0.01305
v 0.000777824 0.0105278 -0.01305
v -0.00243863 0.0122598 -0.01305
v -0.00101628 0.0101709 -0.01305
v -0.000777824 0.0105278 -0.01305
v -0.000420954 0.0107663 -0.01305
v -0.00122522 0.0124398 -0.01305
v -0.00478353 0.0115485 -0.01305
v -0.00362857 0.0119617 -0.01305
v -0.0133337 0.0199553 -0.01455
v -0.00468216 0.0235388 -0.01455
v 0.00696684 0.0229666 -0.01455
v 0.0221731 0.00918441 -0.01455
v 0.0235388 0.00468216 -0.01405
v 0.0235388 -0.00468216 -0.01455
v 0.0211661 -0.0113135 -0.01405
v 0.0211661 -0.0113135 -0.01455
v -0.0152254 0.0185523 -0.01405
v -0.0152254 0.0185523 -0.01455
v 0.0133337 0.0199553 -0.01405
v 0.0133337 0.0199553 -0.01455
v 0.0113135 0.0211661 -0.01405
v 0.0113135 0.0211661 -0.01455
v 0.0185523 0.0152254 -0.01455
v 0.0235388 0.00468216 -0.01455
v 0.0238844 -0.00235242 -0.01405
v 0.0235388 -0.00468216 -0.01405
v 0.0221731 -0.00918441 -0.01455
v 0.0152254 0.0185523 -0.01455
v 0.0185523 -0.0152254 -0.01455
v 0.0169706 -0.0169706 -0.01455
v -0.0169706 0.0169706 -0.01405
v 0.0152254 -0.0185523 -0.01455
v 0.0133337 -0.0199553 -0.01455
v 0.00468216 -0.0235388 -0.01455
v 0.00235242 -0.0238844 -0.01455
v 0.00696684 -0.0229666 -0.01455
v -0.0133337 -0.0199553 -0.01455
v -0.0113135 -0.0211661 -0.01455
v -0.00918441 -0.0221731 -0.01455
v -0.0199553 -0.0133337 -0.01455
v -0.024 -1.22482e-013 -0.01455
v -0.0238844 0.00235242 -0.01455
v -0.0235388 0.00468216 -0.01455
v -0.0229666 0.00696684 -0.01455
v -0.0221731 0.00918441 -0.01455
v -0.0199553 0.0133337 -0.01455
v 0.0169706 -0.0169706 -0.01405
v 0.00235242 -0.0238844 -0.01405
v 0.00696684 -0.0229666 -0.01405
v 0.0113135 -0.0211661 -0.01405
v -0.00235242 -0.0238844 -0.01405
v -0.00468216 -0.0235388 -0.01455
v -0.00468216 -0.0235388 -0.01405
v -0.0113135 -0.0211661 -0.01405
v -0.0133337 -0.0199553 -0.01405
v -0.00696684 -0.0229666 -0.01455
v -0.0221731 -0.00918441 -0.01455
v -0.0229666 -0.00696684 -0.01455
v -0.0211661 0.0113135 -0.01405
v -0.0238844 -0.00235242 -0.01455
v -0.0185523 0.0152254 -0.01455
v -0.0169706 0.0169706 -0.01455
v -0.0220677 0.00438953 -0.01605
v -0.0215311 0.00653141 -0.01605
v -0.0198432 0.0106064 -0.01605
v -0.0207873 0.00861037 -0.01605
v -0.018274 0.00810423 -0.01605
v -0.0186522 0.00719112 -0.01605
v -0.0225 -1.14827e-013 -0.01605
v -0.0187081 0.0125003 -0.01605
v -0.0151985 0.00903717 -0.01605
v -0.0173927 0.0142739 -0.01605
v -0.011465 0.00612816 -0.01605
v -0.0120104 0.00497489 -0.01605
v -0.0136835 0.00620278 -0.01605
v -0.0223916 -0.00220538 -0.01605
v -0.0215311 -0.00653141 -0.01605
v -0.0198432 -0.0106064 -0.01605
v -0.0151985 -0.00903717 -0.01605
v -0.0187081 -0.0125003 -0.01605
v -0.0156737 -0.00918131 -0.01605
v -0.0147606 -0.00880308 -0.01605
v -0.013 -6.63444e-014 -0.01605
v -0.0166621 -0.00421262 -0.01605
v -0.0161679 -0.00416395 -0.01605
v -0.0129374 -0.00127422 -0.01605
v -0.0127502 0.00253616 -0.01605
v -0.0156737 0.00421262 -0.01605
v -0.0138277 -0.00572762 -0.01605
v -0.0138277 -0.0076663 -0.01605
v -0.0136349 -0.00669696 -0.01605
v -0.0140618 -0.0052897 -0.01605
v -0.0124402 -0.0037737 -0.01605
v -0.0136835 -0.00719112 -0.01605
v -0.00880308 -0.0147606 -0.01605
v -0.0220677 -0.00438953 -0.01605
v -0.00918131 0.0156737 -0.01605
v -0.0142739 0.0173927 -0.01605
v -0.00880308 0.0147606 -0.01605
v -0.00810423 0.0140618 -0.01605
v -0.00722241 0.0108091 -0.01605
v -0.00612816 0.011465 -0.01605
v -0.00719112 0.0136835 -0.01605
v -0.00669696 0.0136349 -0.01605
v -0.0052897 0.0140618 -0.01605
v -0.00490586 0.0143768 -0.01605
v -0.00253616 0.0127502 -0.01605
v -0.0037737 0.0124402 -0.01605
v -0.00497489 0.0120104 -0.01605
v -0.00620278 0.0136835 -0.01605
v -0.00653141 0.0215311 -0.01605
v -0.00421262 0.0156737 -0.01605
v -0.00421262 0.0166621 -0.01605
v -0.00435676 0.0151985 -0.01605
v 0.00253616 0.0127502 -0.01605
v 0.0037737 0.0124402 -0.01605
v 0.00435676 0.0171372 -0.01605
v 0.00416395 0.0161679 -0.01605
v 0.00572762 0.0138277 -0.01605
v 0.0082471 0.0100491 -0.01605
v 0.00620278 0.0136835 -0.01605
v 0.00497489 0.0120104 -0.01605
v 0.00719112 0.0136835 -0.01605
v 0.0106064 0.0198432 -0.01605
v 0.00903717 0.0151985 -0.01605
v 0.0133266 0.0139799 -0.01605
v 0.0142739 0.0173927 -0.01605
v 0.0153941 0.0156647 -0.01605
v 0.00438953 0.0220677 -0.01605
v -0.00918131 -0.0156737 -0.01605
v -0.00903717 -0.0151985 -0.01605
v -0.0082471 -0.0100491 -0.01605
v -0.0106064 -0.0198432 -0.01605
v -0.00861037 -0.0207873 -0.01605
v -0.00438953 -0.0220677 -0.01605
v -0.00669696 -0.0136349 -0.01605
v -0.00612816 -0.011465 -0.01605
v -0.00572762 -0.0138277 -0.01605
v -0.0052897 -0.0140618 -0.01605
v -0.00490586 -0.0143768 -0.01605
v -0.00459085 -0.0147606 -0.01605
v -0.00719112 -0.0136835 -0.01605
v -0.00421262 -0.0166621 -0.01605
v 0.0037737 -0.0124402 -0.01605
v 0.00620278 -0.0136835 -0.01605
v 0.00612816 -0.011465 -0.01605
v 0.00459085 -0.0175751 -0.01605
v 0.00490586 -0.0143768 -0.01605
v 0.00253616 -0.0127502 -0.01605
v 0.00438953 -0.0220677 -0.01605
v 0.00653141 -0.0215311 -0.01605
v 0.00861037 -0.0207873 -0.01605
v 0.00669696 -0.0136349 -0.01605
v 0.00719112 -0.0136835 -0.01605
v 0.0076663 -0.0138277 -0.01605
v 0.0136835 -0.00719112 -0.01605
v 0.00722241 -0.0108091 -0.01605
v 0.0108091 -0.00722241 -0.01605
v 0.0106064 -0.0198432 -0.01605
v 0.0125003 -0.0187081 -0.01605
v 0.00919239 -0.00919239 -0.01605
v 0.0159099 -0.0159099 -0.01605
v 0.00880308 -0.0147606 -0.01605
v 0.00903717 -0.0151985 -0.01605
v 0.0136349 0.00669696 -0.01605
v 0.0120104 0.00497489 -0.01605
v 0.0108091 0.00722241 -0.01605
v 0.0100491 0.0082471 -0.01605
v 0.0143768 0.00490586 -0.01605
v 0.0147606 0.00459085 -0.01605
v 0.0156737 0.00421262 -0.01605
v 0.0127502 0.00253616 -0.01605
v 0.0225 1.14827e-013 -0.01605
v 0.0166621 0.00421262 -0.01605
v 0.0161679 0.00416395 -0.01605
v 0.0151985 0.00435676 -0.01605
v 0.0140618 0.0052897 -0.01605
v 0.00919239 0.00919239 -0.01605
v 0.013435 0.013435 -0.01605
v 0.0147606 0.00880308 -0.01605
v 0.0137886 0.0132886 -0.01605
v 0.0173927 0.0142739 -0.01605
v 0.0187081 0.0125003 -0.01605
v 0.018274 0.00810423 -0.01605
v 0.0120104 -0.00497489 -0.01605
v 0.0136835 -0.00620278 -0.01605
v 0.011465 -0.00612816 -0.01605
v 0.0136349 -0.00669696 -0.01605
v 0.0147606 -0.00459085 -0.01605
v 0.0143768 -0.00490586 -0.01605
v 0.0124402 -0.0037737 -0.01605
v 0.0140618 -0.0052897 -0.01605
v 0.0151985 -0.00435676 -0.01605
v 0.0127502 -0.00253616 -0.01605
v 0.0143768 -0.00848807 -0.01605
v 0.0156737 -0.00918131 -0.01605
v 0.0151985 -0.00903717 -0.01605
v 0.0187081 -0.0125003 -0.01605
v 0.0198432 -0.0106064 -0.01605
v 0.0129374 -0.00127422 -0.01605
v 0.0161679 -0.00416395 -0.01605
v 0.013 6.63444e-014 -0.01605
v 0.0171372 0.00435676 -0.01605
v 0.0215311 0.00653141 -0.01605
v 0.0175751 -0.00459085 -0.01605
v 0.0144218 0.00553027 -0.0153
v 0.0157582 0.0046373 -0.0153
v 0.0142277 0.00589333 -0.0153
v 0.014683 0.00521203 -0.0153
v 0.0153643 0.00475681 -0.0153
v 0.0169715 0.00475681 -0.0153
v 0.0173346 0.00495087 -0.0153
v 0.0165776 0.0046373 -0.0153
v 0.0150012 0.00844304 -0.0153
v 0.014683 0.00818187 -0.0153
v 0.018108 0.00750059 -0.0153
v 0.0153643 0.00863712 -0.0153
v 0.0186522 0.00719112 -0.01605
v 0.0185081 0.0076663 -0.01605
v 0.0151985 0.00903717 -0.01605
v 0.0141083 0.00710664 -0.0153
v 0.0136835 0.00620278 -0.01605
v 0.0144218 0.00786366 -0.0153
v 0.0138277 0.0076663 -0.01605
v 0.0140679 0.00669696 -0.0153
v 0.0141083 0.00628726 -0.0153
v 0.0161679 0.00459697 -0.0153
v 0.0143768 0.00848807 -0.01605
v 0.0140618 0.00810423 -0.01605
v 0.0142277 0.00750059 -0.0153
v 0.0138277 0.00572762 -0.01605
v 0.0136835 0.00719112 -0.01605
v 0.0150012 0.00495087 -0.0153
v 0.0175751 0.00459085 -0.01605
v 0.0153643 -0.00475681 -0.0153
v 0.0169715 -0.00475681 -0.0153
v 0.0150012 -0.00495087 -0.0153
v 0.0150012 -0.00844304 -0.0153
v 0.014683 -0.00818187 -0.0153
v 0.0141083 -0.00628726 -0.0153
v 0.0140679 -0.00669696 -0.0153
v 0.0142277 -0.00750059 -0.0153
v 0.0153643 -0.00863712 -0.0153
v 0.0087566 -0.0157582 -0.0153
v 0.00844304 -0.0150012 -0.0153
v 0.00863712 -0.0153643 -0.0153
v 0.00750059 -0.0142277 -0.0153
v 0.00786366 -0.0144218 -0.0153
v 0.00553027 -0.0144218 -0.0153
v 0.00669696 -0.0140679 -0.0153
v 0.00818187 -0.014683 -0.0153
v 0.00495087 -0.0150012 -0.0153
v 0.0046373 -0.0157582 -0.0153
v -0.0046373 -0.0165776 -0.0153
v -0.0046373 -0.0157582 -0.0153
v -0.00628726 -0.0141083 -0.0153
v -0.00786366 -0.0144218 -0.0153
v -0.00750059 -0.0142277 -0.0153
v -0.00475681 -0.0153643 -0.0153
v -0.00495087 -0.0150012 -0.0153
v -0.00459697 -0.0161679 -0.0153
v -0.00521203 -0.014683 -0.0153
v -0.00863712 -0.0153643 -0.0153
v -0.00818187 -0.014683 -0.0153
v -0.0141083 -0.00710664 -0.0153
v -0.0144218 -0.00553027 -0.0153
v -0.0169715 -0.00475681 -0.0153
v -0.0144218 -0.00786366 -0.0153
v -0.0141083 -0.00628726 -0.0153
v -0.0140679 -0.00669696 -0.0153
v -0.0157582 -0.0046373 -0.0153
v -0.0161679 -0.00459697 -0.0153
v -0.014683 -0.00818187 -0.0153
v -0.0153643 -0.00863712 -0.0153
v -0.0150012 -0.00844304 -0.0153
v -0.0144218 0.00786366 -0.0153
v -0.014683 0.00818187 -0.0153
v -0.0153643 0.00863712 -0.0153
v -0.0157582 0.0087566 -0.0153
v -0.0150012 0.00495087 -0.0153
v -0.0161679 0.00459697 -0.0153
v -0.0165776 0.0046373 -0.0153
v -0.0169715 0.00475681 -0.0153
v -0.0173346 0.00495087 -0.0153
v -0.0157582 0.0046373 -0.0153
v -0.00475681 0.0153643 -0.0153
v -0.0046373 0.0165776 -0.0153
v -0.00475681 0.0169715 -0.0153
v -0.00459697 0.0161679 -0.0153
v -0.00589333 0.0142277 -0.0153
v -0.00863712 0.0153643 -0.0153
v 0.00818187 0.014683 -0.0153
v 0.00844304 0.0150012 -0.0153
v 0.0046373 0.0157582 -0.0153
v 0.00628726 0.0141083 -0.0153
v 0.00475681 0.0169715 -0.0153
v 0.00495087 0.0173346 -0.0153
v 0.00669696 0.0140679 -0.0153
v 0.00750059 0.0142277 -0.0153
v 0.00521203 0.014683 -0.0153
v 0.0165776 -0.0046373 -0.0153
v 0.0166621 -0.00421262 -0.01605
v 0.0157582 -0.0046373 -0.0153
v 0.0161679 -0.00459697 -0.0153
v 0.0156737 -0.00421262 -0.01605
v 0.0173346 -0.00495087 -0.0153
v 0.0171372 -0.00435676 -0.01605
v 0.0144218 -0.00786366 -0.0153
v 0.0144218 -0.00553027 -0.0153
v 0.014683 -0.00521203 -0.0153
v 0.0142277 -0.00589333 -0.0153
v 0.0138277 -0.00572762 -0.01605
v 0.0138277 -0.0076663 -0.01605
v 0.0141083 -0.00710664 -0.0153
v 0.0147606 -0.00880308 -0.01605
v 0.0140618 -0.00810423 -0.01605
v 0.00918131 -0.0156737 -0.01605
v 0.00628726 -0.0141083 -0.0153
v 0.00589333 -0.0142277 -0.0153
v 0.00710664 -0.0141083 -0.0153
v 0.00810423 -0.0140618 -0.01605
v 0.0052897 -0.0140618 -0.01605
v 0.00572762 -0.0138277 -0.01605
v 0.00848807 -0.0143768 -0.01605
v 0.00521203 -0.014683 -0.0153
v 0.00475681 -0.0153643 -0.0153
v 0.00495087 -0.0173346 -0.0153
v 0.00459697 -0.0161679 -0.0153
v 0.00459085 -0.0147606 -0.01605
v 0.00421262 -0.0156737 -0.01605
v 0.00435676 -0.0151985 -0.01605
v 0.00416395 -0.0161679 -0.01605
v 0.00421262 -0.0166621 -0.01605
v 0.00475681 -0.0169715 -0.0153
v 0.00435676 -0.0171372 -0.01605
v 0.0046373 -0.0165776 -0.0153
v -0.00416395 -0.0161679 -0.01605
v -0.00620278 -0.0136835 -0.01605
v -0.00810423 -0.0140618 -0.01605
v -0.0076663 -0.0138277 -0.01605
v -0.00553027 -0.0144218 -0.0153
v -0.00669696 -0.0140679 -0.0153
v -0.00459085 -0.0175751 -0.01605
v -0.00475681 -0.0169715 -0.0153
v -0.00435676 -0.0171372 -0.01605
v -0.00495087 -0.0173346 -0.0153
v -0.00421262 -0.0156737 -0.01605
v -0.00435676 -0.0151985 -0.01605
v -0.00589333 -0.0142277 -0.0153
v -0.00710664 -0.0141083 -0.0153
v -0.0087566 -0.0157582 -0.0153
v -0.00844304 -0.0150012 -0.0153
v -0.00848807 -0.0143768 -0.01605
v -0.0142277 -0.00750059 -0.0153
v -0.0136835 -0.00620278 -0.01605
v -0.0153643 -0.00475681 -0.0153
v -0.0171372 -0.00435676 -0.01605
v -0.0165776 -0.0046373 -0.0153
v -0.0150012 -0.00495087 -0.0153
v -0.0147606 -0.00459085 -0.01605
v -0.0140618 -0.00810423 -0.01605
v -0.0142277 -0.00589333 -0.0153
v -0.0143768 -0.00490586 -0.01605
v -0.0151985 -0.00435676 -0.01605
v -0.0156737 -0.00421262 -0.01605
v -0.014683 -0.00521203 -0.0153
v -0.0173346 -0.00495087 -0.0153
v -0.0143768 -0.00848807 -0.01605
v -0.0157582 -0.0087566 -0.0153
v -0.0175751 -0.00459085 -0.01605
v -0.0144218 0.00553027 -0.0153
v -0.0142277 0.00589333 -0.0153
v -0.0138277 0.00572762 -0.01605
v -0.0141083 0.00710664 -0.0153
v -0.0136835 0.00719112 -0.01605
v -0.0143768 0.00490586 -0.01605
v -0.0140618 0.0052897 -0.01605
v -0.0141083 0.00628726 -0.0153
v -0.0136349 0.00669696 -0.01605
v -0.0138277 0.0076663 -0.01605
v -0.0140618 0.00810423 -0.01605
v -0.0142277 0.00750059 -0.0153
v -0.0140679 0.00669696 -0.0153
v -0.0143768 0.00848807 -0.01605
v -0.0147606 0.00880308 -0.01605
v -0.0156737 0.00918131 -0.01605
v -0.0150012 0.00844304 -0.0153
v -0.0147606 0.00459085 -0.01605
v -0.014683 0.00521203 -0.0153
v -0.018108 0.00750059 -0.0153
v -0.017914 0.00786366 -0.0153
v -0.0171372 0.00435676 -0.01605
v -0.0185081 0.0076663 -0.01605
v -0.0175751 0.00459085 -0.01605
v -0.0153643 0.00475681 -0.0153
v -0.0151985 0.00435676 -0.01605
v -0.0161679 0.00416395 -0.01605
v -0.0166621 0.00421262 -0.01605
v -0.0046373 0.0157582 -0.0153
v -0.00495087 0.0150012 -0.0153
v -0.00495087 0.0173346 -0.0153
v -0.00459085 0.0147606 -0.01605
v -0.00435676 0.0171372 -0.01605
v -0.00416395 0.0161679 -0.01605
v -0.00459085 0.0175751 -0.01605
v -0.00844304 0.0150012 -0.0153
v -0.00669696 0.0140679 -0.0153
v -0.00710664 0.0141083 -0.0153
v -0.00572762 0.0138277 -0.01605
v -0.00818187 0.014683 -0.0153
v -0.0076663 0.0138277 -0.01605
v -0.00750059 0.0142277 -0.0153
v -0.00903717 0.0151985 -0.01605
v -0.0087566 0.0157582 -0.0153
v -0.00848807 0.0143768 -0.01605
v -0.00786366 0.0144218 -0.0153
v -0.00628726 0.0141083 -0.0153
v -0.00521203 0.014683 -0.0153
v -0.00553027 0.0144218 -0.0153
v 0.00863712 0.0153643 -0.0153
v 0.00848807 0.0143768 -0.01605
v 0.00880308 0.0147606 -0.01605
v 0.00475681 0.0153643 -0.0153
v 0.0046373 0.0165776 -0.0153
v 0.00553027 0.0144218 -0.0153
v 0.00810423 0.0140618 -0.01605
v 0.00710664 0.0141083 -0.0153
v 0.00421262 0.0166621 -0.01605
v 0.00459085 0.0175751 -0.01605
v 0.00459697 0.0161679 -0.0153
v 0.00421262 0.0156737 -0.01605
v 0.00435676 0.0151985 -0.01605
v 0.00490586 0.0143768 -0.01605
v 0.0052897 0.0140618 -0.01605
v 0.00589333 0.0142277 -0.0153
v 0.0076663 0.0138277 -0.01605
v 0.00669696 0.0136349 -0.01605
v 0.00495087 0.0150012 -0.0153
v 0.00459085 0.0147606 -0.01605
v 0.00786366 0.0144218 -0.0153
v 0.0185523 -0.0152254 -0.01405
v 0.024 1.22482e-013 -0.01405
v 0.0199553 0.0133337 -0.01405
v 0.0211661 0.0113135 -0.01405
v -0.0199553 -0.0133337 -0.01405
v -0.0211661 -0.0113135 -0.01405
v -0.0238844 -0.00235242 -0.01405
v -0.024 -1.22482e-013 -0.01405
v -0.0238844 0.00235242 -0.01405
v -0.0221731 0.00918441 -0.01405
v -0.0199553 0.0133337 -0.01405
v 0.00918441 0.0221731 -0.01405
v -0.0133337 0.0199553 -0.01405
v -0.00468216 0.0235388 -0.01405
v 0.011024 0.00589247 -0.01305
v 0.011024 -0.00589247 -0.01305
v 0.0122598 -0.00243863 -0.01305
v 0.0122598 0.00243863 -0.01305
v 0.00966264 0.00792991 -0.01555
v 0.0124398 0.00122522 -0.01555
v 0.0124398 0.00122522 -0.01305
v 0.00362857 0.0119617 -0.01305
v 0.00362857 0.0119617 -0.01555
v -0.00243863 0.0122598 -0.01555
v -0.00589247 0.011024 -0.01305
v -0.00362857 0.0119617 -0.01555
v 0.00122522 0.0124398 -0.01305
v 0.0103934 -0.00694464 -0.01305
v 0.0103934 -0.00694464 -0.01555
v 0.0119617 -0.00362857 -0.01555
v 0.0122598 -0.00243863 -0.01555
v 0.0119617 0.00362857 -0.01555
v 0.0115485 0.00478353 -0.01555
v 0.00792991 0.00966264 -0.01305
v 0.00589247 0.011024 -0.01555
v -0.00792991 0.00966264 -0.01555
v 0.00122522 0.0124398 -0.01555
v 0.00966264 0.00792991 -0.01305
v -0.00792991 0.00966264 -0.01305
v 0.00792991 -0.00966264 -0.01555
v -0.0124398 -0.00122522 -0.01305
v -0.0122598 -0.00243863 -0.01305
v -0.011024 -0.00589247 -0.01555
v -0.011024 -0.00589247 -0.01305
v -0.0103934 -0.00694464 -0.01555
v -0.0103934 -0.00694464 -0.01305
v -0.00792991 -0.00966264 -0.01305
v -0.00589247 -0.011024 -0.01555
v -0.00122522 -0.0124398 -0.01555
v -0.00243863 -0.0122598 -0.01555
v -0.00478353 -0.0115485 -0.01555
v 0.00362857 -0.0119617 -0.01305
v 0.00122522 -0.0124398 -0.01305
v 0.00589247 -0.011024 -0.01305
v 0.00694464 -0.0103934 -0.01555
v -0.00122522 -0.0124398 -0.01305
v -0.00883884 -0.00883884 -0.01555
v -0.00966264 -0.00792991 -0.01305
v -0.0103934 0.00694464 -0.01555
v -0.0122598 0.00243863 -0.01305
v -0.0124398 0.00122522 -0.01555
v -0.0122598 0.00243863 -0.01555
v -0.0124398 -0.00122522 -0.01555
v -0.0115485 -0.00478353 -0.01305
v -0.00792991 -0.00966264 -0.01555
v -0.00478353 -0.0115485 -0.01305
v -0.00243863 -0.0122598 -0.01305
v -0.00362857 -0.0119617 -0.01305
v -0.00589247 -0.011024 -0.01305
v 0.00122522 -0.0124398 -0.01555
v 0.00243863 -0.0122598 -0.01305
v 0.0100491 -0.0082471 -0.01605
v 0.011024 -0.00589247 -0.01555
v 0.00966264 -0.00792991 -0.01555
v 0.0115485 -0.00478353 -0.01555
v 0.0129374 0.00127422 -0.01605
v 0.011024 0.00589247 -0.01555
v 0.00694464 0.0103934 -0.01555
v 0.00792991 0.00966264 -0.01555
v 0.00478353 0.0115485 -0.01555
v -0.00122522 0.0124398 -0.01555
v -0.00694464 0.0103934 -0.01555
v 0.0103934 0.00694464 -0.01555
v 0.0122598 0.00243863 -0.01555
v 0.011465 0.00612816 -0.01605
v 0.0124402 0.0037737 -0.01605
v 0.0124398 -0.00122522 -0.01555
v 0.0125 6.37927e-014 -0.01555
v 0.00127422 0.0129374 -0.01605
v 0.00243863 0.0122598 -0.01555
v -0.00478353 0.0115485 -0.01555
v -0.00589247 0.011024 -0.01555
v -0.00127422 0.0129374 -0.01605
v 0.00722241 0.0108091 -0.01605
v 0.00612816 0.011465 -0.01605
v 0.00883884 0.00883884 -0.01555
v -0.00883884 0.00883884 -0.01555
v -0.0100491 0.0082471 -0.01605
v -0.011024 0.00589247 -0.01555
v -0.0108091 0.00722241 -0.01605
v -0.00966264 0.00792991 -0.01555
v -0.0129374 0.00127422 -0.01605
v -0.0119617 0.00362857 -0.01555
v -0.0115485 0.00478353 -0.01555
v -0.0125 -6.37927e-014 -0.01555
v -0.0119617 -0.00362857 -0.01555
v -0.0122598 -0.00243863 -0.01555
v -0.011465 -0.00612816 -0.01605
v -0.0108091 -0.00722241 -0.01605
v -0.00694464 -0.0103934 -0.01555
v -0.00497489 -0.0120104 -0.01605
v -0.00362857 -0.0119617 -0.01555
v -0.00253616 -0.0127502 -0.01605
v 0.00127422 -0.0129374 -0.01605
v 0.00243863 -0.0122598 -0.01555
v -0.00127422 -0.0129374 -0.01605
v -0.00966264 -0.00792991 -0.01555
v -0.0124402 0.0037737 -0.01605
v -0.0127502 -0.00253616 -0.01605
v -0.0120104 -0.00497489 -0.01605
v -0.0115485 -0.00478353 -0.01555
v -0.00722241 -0.0108091 -0.01605
v 0.00478353 -0.0115485 -0.01555
v 0.00497489 -0.0120104 -0.01605
v 0.0082471 -0.0100491 -0.01605
v 0.00362857 -0.0119617 -0.01555
v 0.00589247 -0.011024 -0.01555
v -0.0100491 -0.0082471 -0.01605
v -0.00919239 -0.00919239 -0.01605
v -0.0037737 -0.0124402 -0.01605
v 0.00883884 -0.00883884 -0.01555
v -0.0082471 0.0100491 -0.01605
v -0.00919239 0.00919239 -0.01605
v -0.0125003 0.0187081 -0.01605
v -0.0159099 0.0159099 -0.01605
v -0.00861037 0.0207873 -0.01605
v -0.0106064 0.0198432 -0.01605
v -0.00438953 0.0220677 -0.01605
v 0.00220538 0.0223916 -0.01605
v 0.00918441 0.0221731 -0.01455
v 0.0125003 0.0187081 -0.01605
v 0.00861037 0.0207873 -0.01605
v 0.0159099 0.0159099 -0.01605
v 0.0220677 0.00438953 -0.01605
v 0.0223916 0.00220538 -0.01605
v 0.0207873 0.00861037 -0.01605
v 0.0223916 -0.00220538 -0.01605
v 0.0220677 -0.00438953 -0.01605
v 0.0238844 -0.00235242 -0.01455
v 0.0229666 -0.00696684 -0.01455
v 0.0215311 -0.00653141 -0.01605
v 0.0198432 0.0106064 -0.01605
v -0.00696684 0.0229666 -0.01455
v -0.0113135 0.0211661 -0.01455
v -0.00918441 0.0221731 -0.01455
v 0.00235242 0.0238844 -0.01455
v 0.00468216 0.0235388 -0.01455
v 0.00653141 0.0215311 -0.01605
v -0.00235242 0.0238844 -0.01455
v -0.00220538 0.0223916 -0.01605
v 0.0211661 0.0113135 -0.01455
v 0.0199553 0.0133337 -0.01455
v 0.0229666 0.00696684 -0.01455
v 0.0207873 -0.00861037 -0.01605
v 0.0173927 -0.0142739 -0.01605
v 0.0199553 -0.0133337 -0.01455
v 0.0238844 0.00235242 -0.01455
v 0.024 1.22482e-013 -0.01455
v 0.0169706 0.0169706 -0.01455
v 0.0142739 -0.0173927 -0.01605
v 0.0113135 -0.0211661 -0.01455
v 0.00220538 -0.0223916 -0.01605
v -0.00653141 -0.0215311 -0.01605
v -0.0125003 -0.0187081 -0.01605
v -0.0223916 0.00220538 -0.01605
v -0.0159099 -0.0159099 -0.01605
v -0.0142739 -0.0173927 -0.01605
v -0.0211661 -0.0113135 -0.01455
v -0.0185523 -0.0152254 -0.01455
v 0.00918441 -0.0221731 -0.01455
v -0.00235242 -0.0238844 -0.01455
v -0.00220538 -0.0223916 -0.01605
v -0.0152254 -0.0185523 -0.01455
v -0.0169706 -0.0169706 -0.01455
v -0.0173927 -0.0142739 -0.01605
v -0.0235388 -0.00468216 -0.01455
v -0.0207873 -0.00861037 -0.01605
v -0.0211661 0.0113135 -0.01455
v -0.00373959 0.0069963 -0.01305
v 0.00732914 -0.00303583 -0.01305
v 0.00732914 0.00303583 -0.01305
v 0.00230284 0.00759143 -0.01305
v -0.00303583 0.00732914 -0.01305
v -0.00759143 -0.00230284 -0.01305
v -0.0069963 0.00373959 -0.01305
v -0.00759143 0.00230284 -0.01305
v -0.00373959 -0.0069963 -0.01305
v -0.00303583 -0.00732914 -0.01305
v 0.00230284 -0.00759143 -0.01305
v 0.0156647 0.0153941 -0.01575
v 0.0155564 0.0148492 -0.01575
v 0.0155564 0.0155564 -0.01575
v 0.0155564 0.0155564 -0.01605
v 0.0155564 0.0148492 -0.01605
v 0.0133266 0.0139799 -0.01575
v 0.0133266 0.0135972 -0.01605
v 0.0133266 0.0135972 -0.01575
v 0.0132886 0.0137886 -0.01605
v 0.0141421 0.013435 -0.01575
v 0.0139799 0.0133266 -0.01605
v 0.0135972 0.0133266 -0.01605
v 0.013435 0.013435 -0.01575
v 0.0148492 0.0155564 -0.01575
v 0.013435 0.0141421 -0.01575
v 0.0132886 0.0137886 -0.01575
v 0.0153941 0.0156647 -0.01575
v 0.0139799 0.0133266 -0.01575
v 0.0137886 0.0132886 -0.01575
v 0.0135972 0.0133266 -0.01575
v 0.00468216 0.0235388 -0.01405
v 0.00235242 0.0238844 -0.01405
v 0.00696684 0.0229666 -0.01405
v 0.0238844 0.00235242 -0.01405
v 0.0169706 0.0169706 -0.01405
v -0.00235242 0.0238844 -0.01405
v -0.00696684 0.0229666 -0.01405
v -0.00918441 0.0221731 -0.01405
v -0.0113135 0.0211661 -0.01405
v -0.0229666 0.00696684 -0.01405
v 0.0221731 -0.00918441 -0.01405
v 0.0229666 -0.00696684 -0.01405
v 0.0199553 -0.0133337 -0.01405
v 0.00918441 -0.0221731 -0.01405
v -0.0169706 -0.0169706 -0.01405
v -0.0229666 -0.00696684 -0.01405
v -0.00696684 -0.0229666 -0.01405
v -0.00918441 -0.0221731 -0.01405
v -0.0185523 0.0152254 -0.01405
v -0.0235388 0.00468216 -0.01405
v -0.0235388 -0.00468216 -0.01405
v -0.0221731 -0.00918441 -0.01405
v -0.0185523 -0.0152254 -0.01405
v -0.0152254 -0.0185523 -0.01405
v 0.0152254 -0.0185523 -0.01405
v 0.0229666 0.00696684 -0.01405
v 0.0152254 0.0185523 -0.01405
v 0.00468216 -0.0235388 -0.01405
v 0.0133337 -0.0199553 -0.01405
v 0.0221731 0.00918441 -0.01405
v 0.0185523 0.0152254 -0.01405
v 0.0176528 0.00818187 -0.0153
v 0.018108 0.00589333 -0.0153
v 0.0182679 0.00669696 -0.0153
v 0.0165776 0.0087566 -0.0153
v 0.017914 0.00553027 -0.0153
v 0.0169715 0.00863712 -0.0153
v 0.0161679 0.00879696 -0.0153
v 0.0182275 0.00628726 -0.0153
v 0.0173346 0.00844304 -0.0153
v 0.018108 -0.00750059 -0.0153
v 0.018108 -0.00589333 -0.0153
v 0.0182679 -0.00669696 -0.0153
v 0.0173346 -0.00844304 -0.0153
v 0.0176528 -0.00818187 -0.0153
v 0.0161679 -0.00879696 -0.0153
v 0.0087566 -0.0165776 -0.0153
v 0.00844304 -0.0173346 -0.0153
v 0.00553027 -0.017914 -0.0153
v 0.00710664 -0.0182275 -0.0153
v -0.00863712 -0.0169715 -0.0153
v -0.00553027 -0.017914 -0.0153
v -0.00750059 -0.018108 -0.0153
v -0.00589333 -0.018108 -0.0153
v -0.00628726 -0.0182275 -0.0153
v -0.00669696 -0.0182679 -0.0153
v -0.017914 -0.00553027 -0.0153
v -0.018108 -0.00589333 -0.0153
v -0.0173346 -0.00844304 -0.0153
v -0.0169715 -0.00863712 -0.0153
v -0.0182275 -0.00628726 -0.0153
v -0.0182679 -0.00669696 -0.0153
v -0.018108 -0.00750059 -0.0153
v -0.0176528 -0.00818187 -0.0153
v -0.0182275 0.00628726 -0.0153
v -0.00628726 0.0182275 -0.0153
v -0.00669696 0.0182679 -0.0153
v -0.00710664 0.0182275 -0.0153
v -0.00844304 0.0173346 -0.0153
v -0.00818187 0.0176528 -0.0153
v 0.00879696 0.0161679 -0.0153
v 0.00710664 0.0182275 -0.0153
v 0.00863712 0.0169715 -0.0153
v 0.0182275 -0.00628726 -0.0153
v 0.017914 -0.00786366 -0.0153
v 0.0182275 -0.00710664 -0.0153
v 0.017914 -0.00553027 -0.0153
v 0.0165776 -0.0087566 -0.0153
v 0.0169715 -0.00863712 -0.0153
v 0.00863712 -0.0169715 -0.0153
v 0.00818187 -0.0176528 -0.0153
v 0.00628726 -0.0182275 -0.0153
v 0.00750059 -0.018108 -0.0153
v 0.00589333 -0.018108 -0.0153
v 0.00669696 -0.0182679 -0.0153
v 0.00786366 -0.017914 -0.0153
v -0.0087566 -0.0165776 -0.0153
v -0.00786366 -0.017914 -0.0153
v -0.00844304 -0.0173346 -0.0153
v -0.00818187 -0.0176528 -0.0153
v -0.00710664 -0.0182275 -0.0153
v -0.0182275 -0.00710664 -0.0153
v -0.0165776 -0.0087566 -0.0153
v -0.017914 -0.00786366 -0.0153
v -0.0165776 0.0087566 -0.0153
v -0.0169715 0.00863712 -0.0153
v -0.0173346 0.00844304 -0.0153
v -0.0182679 0.00669696 -0.0153
v -0.018108 0.00589333 -0.0153
v -0.017914 0.00553027 -0.0153
v -0.0087566 0.0165776 -0.0153
v -0.00863712 0.0169715 -0.0153
v 0.0087566 0.0165776 -0.0153
v 0.00844304 0.0173346 -0.0153
v 0.00628726 0.0182275 -0.0153
v 0.00669696 0.0182679 -0.0153
v 0.00818187 0.0176528 -0.0153
v 0.00553027 0.017914 -0.0153
v 0.00669696 -0.0187009 -0.01605
v 0.00719112 -0.0186522 -0.01605
v 0.00810423 -0.018274 -0.01605
v 0.0076663 -0.0185081 -0.01605
v 0.00620278 -0.0186522 -0.01605
v 0.0052897 -0.018274 -0.01605
v 0.00572762 -0.0185081 -0.01605
v -0.0052897 -0.018274 -0.01605
v -0.00572762 -0.0185081 -0.01605
v -0.00810423 -0.018274 -0.01605
v -0.0076663 -0.0185081 -0.01605
v -0.00620278 -0.0186522 -0.01605
v -0.00669696 -0.0187009 -0.01605
v -0.00719112 -0.0186522 -0.01605
v 0.00848807 -0.017959 -0.01605
v 0.00922998 -0.0161679 -0.01605
v 0.00903717 -0.0171372 -0.01605
v 0.00879696 -0.0161679 -0.0153
v 0.00918131 -0.0166621 -0.01605
v 0.00880308 -0.0175751 -0.01605
v 0.00490586 -0.017959 -0.01605
v 0.00521203 -0.0176528 -0.0153
v -0.00490586 -0.017959 -0.01605
v -0.00521203 -0.0176528 -0.0153
v -0.00922998 -0.0161679 -0.01605
v -0.00918131 -0.0166621 -0.01605
v -0.00879696 -0.0161679 -0.0153
v -0.00903717 -0.0171372 -0.01605
v -0.00848807 -0.017959 -0.01605
v -0.00880308 -0.0175751 -0.01605
v 0.0171372 -0.00903717 -0.01605
v 0.0166621 -0.00918131 -0.01605
v 0.0161679 -0.00922998 -0.01605
v -0.0171372 -0.00903717 -0.01605
v -0.0161679 -0.00922998 -0.01605
v -0.0166621 -0.00918131 -0.01605
v 0.018274 -0.00810423 -0.01605
v 0.0186522 -0.00620278 -0.01605
v 0.0185081 -0.0076663 -0.01605
v 0.0187009 -0.00669696 -0.01605
v 0.0186522 -0.00719112 -0.01605
v 0.017959 -0.00848807 -0.01605
v 0.0157582 -0.0087566 -0.0153
v 0.0175751 -0.00880308 -0.01605
v -0.017959 -0.00848807 -0.01605
v -0.0161679 -0.00879696 -0.0153
v -0.0175751 -0.00880308 -0.01605
v -0.0186522 -0.00719112 -0.01605
v -0.018274 -0.00810423 -0.01605
v -0.0187009 -0.00669696 -0.01605
v -0.0185081 -0.0076663 -0.01605
v -0.0186522 -0.00620278 -0.01605
v 0.0185081 -0.00572762 -0.01605
v 0.018274 -0.0052897 -0.01605
v 0.0176528 -0.00521203 -0.0153
v 0.017959 -0.00490586 -0.01605
v -0.017959 -0.00490586 -0.01605
v -0.0176528 -0.00521203 -0.0153
v -0.0185081 -0.00572762 -0.01605
v -0.018274 -0.0052897 -0.01605
v 0.018274 0.0052897 -0.01605
v 0.0185081 0.00572762 -0.01605
v 0.0176528 0.00521203 -0.0153
v 0.017959 0.00490586 -0.01605
v -0.0176528 0.00521203 -0.0153
v -0.017959 0.00490586 -0.01605
v -0.0185081 0.00572762 -0.01605
v -0.018274 0.0052897 -0.01605
v 0.0186522 0.00620278 -0.01605
v 0.0182275 0.00710664 -0.0153
v 0.0187009 0.00669696 -0.01605
v 0.0175751 0.00880308 -0.01605
v 0.0157582 0.0087566 -0.0153
v 0.017914 0.00786366 -0.0153
v 0.017959 0.00848807 -0.01605
v -0.017959 0.00848807 -0.01605
v -0.0161679 0.00879696 -0.0153
v -0.0176528 0.00818187 -0.0153
v -0.0175751 0.00880308 -0.01605
v -0.0182275 0.00710664 -0.0153
v -0.0187009 0.00669696 -0.01605
v -0.0186522 0.00620278 -0.01605
v 0.0156737 0.00918131 -0.01605
v 0.0161679 0.00922998 -0.01605
v 0.0171372 0.00903717 -0.01605
v 0.0166621 0.00918131 -0.01605
v -0.0166621 0.00918131 -0.01605
v -0.0161679 0.00922998 -0.01605
v -0.0171372 0.00903717 -0.01605
v 0.0141421 0.013435 -0.01605
v 0.013435 0.0141421 -0.01605
v 0.0156647 0.0150115 -0.01605
v 0.0156647 0.0150115 -0.01575
v 0.0156647 0.0153941 -0.01605
v 0.0157028 0.0152028 -0.01575
v 0.0157028 0.0152028 -0.01605
v 0.0152028 0.0157028 -0.01605
v 0.0152028 0.0157028 -0.01575
v 0.0150115 0.0156647 -0.01605
v 0.0150115 0.0156647 -0.01575
v 0.0148492 0.0155564 -0.01605
v 0.00880308 0.0175751 -0.01605
v 0.0087566 0.0157582 -0.0153
v 0.00903717 0.0171372 -0.01605
v 0.00848807 0.017959 -0.01605
v 0.00922998 0.0161679 -0.01605
v 0.00918131 0.0166621 -0.01605
v 0.00918131 0.0156737 -0.01605
v 0.00786366 0.017914 -0.0153
v 0.00490586 0.017959 -0.01605
v 0.00521203 0.0176528 -0.0153
v -0.00521203 0.0176528 -0.0153
v -0.00490586 0.017959 -0.01605
v -0.00553027 0.017914 -0.0153
v -0.00880308 0.0175751 -0.01605
v -0.00879696 0.0161679 -0.0153
v -0.00918131 0.0166621 -0.01605
v -0.00922998 0.0161679 -0.01605
v -0.00903717 0.0171372 -0.01605
v -0.00848807 0.017959 -0.01605
v -0.00786366 0.017914 -0.0153
v 0.00669696 0.0187009 -0.01605
v 0.0076663 0.0185081 -0.01605
v 0.00810423 0.018274 -0.01605
v 0.00620278 0.0186522 -0.01605
v 0.00719112 0.0186522 -0.01605
v 0.00750059 0.018108 -0.0153
v 0.00572762 0.0185081 -0.01605
v 0.0052897 0.018274 -0.01605
v 0.00589333 0.018108 -0.0153
v -0.00572762 0.0185081 -0.01605
v -0.0052897 0.018274 -0.01605
v -0.00589333 0.018108 -0.0153
v -0.0076663 0.0185081 -0.01605
v -0.00810423 0.018274 -0.01605
v -0.00669696 0.0187009 -0.01605
v -0.00620278 0.0186522 -0.01605
v -0.00719112 0.0186522 -0.01605
v -0.00750059 0.018108 -0.0153

#	               Face list

f 11 47 615
f 1 47 11
f 11 618 49
f 47 48 615
f 761 57 614
f 633 28 614
f 633 615 48
f 28 633 48
f 11 49 1
f 49 618 58
f 58 618 629
f 29 614 28
f 614 29 761
f 50 52 51
f 616 27 52
f 27 616 53
f 54 50 51
f 52 27 51
f 616 55 53
f 54 67 50
f 56 55 57
f 55 616 57
f 761 56 57
f 629 66 58
f 759 628 631
f 631 59 60
f 60 59 32
f 628 65 630
f 759 631 61
f 60 61 631
f 609 32 59
f 609 30 32
f 62 30 63
f 63 33 62
f 63 30 609
f 630 64 66
f 760 65 628
f 759 760 628
f 64 630 65
f 66 629 630
f 25 68 67
f 67 54 25
f 68 70 67
f 68 69 70
f 69 590 70
f 26 578 590
f 26 590 69
f 578 26 72
f 72 71 578
f 73 79 74
f 24 23 579
f 24 579 73
f 71 79 578
f 23 75 579
f 75 78 76
f 21 583 76
f 75 23 78
f 74 77 73
f 24 73 77
f 21 76 22
f 22 76 78
f 752 74 79
f 752 79 71
f 21 20 583
f 84 85 81
f 82 80 753
f 753 80 81
f 20 83 580
f 583 20 580
f 84 580 83
f 85 84 83
f 82 577 80
f 577 16 86
f 87 600 86
f 84 81 80
f 19 577 82
f 16 577 19
f 18 600 87
f 87 86 16
f 18 109 600
f 33 620 90
f 31 606 34
f 608 31 90
f 606 31 608
f 88 34 606
f 606 626 88
f 92 756 626
f 92 604 91
f 89 91 604
f 90 620 608
f 63 620 33
f 91 94 92
f 88 626 93
f 626 756 93
f 92 94 756
f 604 603 89
f 37 99 38
f 99 36 38
f 95 758 96
f 101 98 758
f 35 95 96
f 97 36 99
f 39 36 97
f 39 97 622
f 101 758 95
f 622 95 35
f 757 98 101
f 622 35 39
f 37 603 99
f 89 603 37
f 101 100 757
f 100 40 42
f 103 102 40
f 100 42 757
f 103 104 102
f 104 41 102
f 105 43 44
f 44 41 105
f 105 41 104
f 40 100 103
f 106 107 115
f 754 115 107
f 754 45 584
f 45 108 584
f 109 18 17
f 17 110 109
f 110 596 109
f 110 15 596
f 113 112 111
f 115 112 106
f 114 596 15
f 114 111 112
f 113 106 112
f 15 111 114
f 754 584 115
f 116 584 108
f 129 755 751
f 129 117 755
f 43 601 119
f 119 118 120
f 751 121 587
f 120 587 121
f 120 118 587
f 601 118 119
f 105 601 43
f 587 129 751
f 122 130 125
f 108 123 116
f 116 123 589
f 123 46 589
f 46 2 3
f 124 128 126
f 125 124 126
f 125 130 124
f 130 122 117
f 2 127 3
f 3 589 46
f 3 127 128
f 126 128 127
f 117 129 130
f 140 184 139
f 716 131 790
f 131 140 575
f 715 717 788
f 721 132 787
f 132 715 576
f 717 716 789
f 718 4 783
f 133 719 784
f 719 718 782
f 144 702 143
f 150 142 808
f 142 144 141
f 702 133 574
f 4 721 9
f 145 731 812
f 723 724 566
f 724 145 565
f 725 134 807
f 729 146 785
f 146 725 135
f 134 723 811
f 711 730 147
f 712 136 793
f 136 711 148
f 138 149 137
f 151 728 563
f 728 138 794
f 149 712 792
f 730 729 564
f 731 150 786
f 153 139 184
f 575 790 131
f 140 139 575
f 789 788 717
f 576 787 132
f 715 788 576
f 716 790 789
f 9 783 4
f 782 784 719
f 718 783 782
f 574 143 702
f 141 808 142
f 144 143 141
f 133 784 574
f 721 787 9
f 786 812 731
f 565 566 724
f 145 812 565
f 811 807 134
f 135 785 146
f 725 807 135
f 723 566 811
f 564 147 730
f 148 793 136
f 711 147 148
f 792 137 149
f 794 563 728
f 138 137 794
f 712 793 792
f 729 785 564
f 150 808 786
f 152 151 563
f 153 184 800
f 154 152 806
f 733 155 172
f 155 154 810
f 158 742 171
f 157 156 170
f 156 158 809
f 742 733 795
f 743 5 173
f 178 174 798
f 174 743 175
f 160 161 176
f 745 159 805
f 159 160 177
f 161 178 799
f 5 157 6
f 741 746 804
f 740 162 568
f 162 741 567
f 180 179 797
f 182 748 569
f 748 180 802
f 179 740 803
f 164 163 571
f 166 165 791
f 165 164 801
f 750 167 181
f 183 168 800
f 168 750 573
f 167 166 572
f 163 182 570
f 746 745 796
f 169 806 152
f 810 172 155
f 154 806 810
f 795 171 742
f 809 170 156
f 158 171 809
f 733 172 795
f 6 173 5
f 175 798 174
f 743 173 175
f 799 176 161
f 177 805 159
f 160 176 177
f 178 798 799
f 157 170 6
f 796 804 746
f 567 568 162
f 741 804 567
f 803 797 179
f 802 569 748
f 180 797 802
f 740 568 803
f 570 571 163
f 801 791 165
f 164 571 801
f 572 181 167
f 573 800 168
f 750 181 573
f 166 791 572
f 182 569 570
f 745 805 796
f 184 183 800
f 169 152 563
f 190 186 188
f 186 956 185
f 956 186 971
f 956 957 185
f 185 955 737
f 186 970 971
f 189 187 965
f 188 187 189
f 187 968 965
f 188 189 515
f 188 515 190
f 970 186 190
f 955 185 957
f 514 191 737
f 516 737 955
f 206 191 520
f 516 514 737
f 198 191 479
f 514 520 191
f 519 205 520
f 518 209 210
f 680 498 499
f 498 680 510
f 519 210 664
f 209 518 510
f 978 187 192
f 187 978 968
f 978 192 976
f 977 192 194
f 977 976 192
f 977 194 508
f 535 697 220
f 697 193 194
f 221 507 697
f 507 193 697
f 508 194 193
f 507 695 506
f 501 195 197
f 497 195 501
f 499 495 196
f 196 680 499
f 196 495 197
f 195 196 197
f 660 506 695
f 503 662 502
f 221 695 507
f 502 662 497
f 660 662 503
f 195 497 662
f 503 506 660
f 695 537 694
f 218 198 946
f 749 199 937
f 749 937 940
f 937 199 939
f 940 938 749
f 934 200 938
f 749 938 200
f 218 946 949
f 198 492 946
f 948 941 199
f 941 939 199
f 948 218 949
f 198 479 492
f 923 200 936
f 200 923 202
f 936 200 934
f 202 924 747
f 925 202 923
f 747 201 738
f 925 924 202
f 924 203 747
f 201 204 738
f 483 690 490
f 204 490 691
f 747 203 201
f 691 217 204
f 207 206 205
f 520 205 206
f 482 486 681
f 486 487 681
f 487 207 208
f 209 510 680
f 210 209 664
f 205 208 207
f 208 681 487
f 205 519 664
f 215 482 681
f 191 206 479
f 477 211 682
f 211 214 682
f 212 216 671
f 216 213 670
f 213 477 670
f 215 214 485
f 682 214 215
f 215 485 482
f 483 212 671
f 477 682 670
f 216 670 671
f 671 690 483
f 691 490 690
f 738 204 217
f 199 218 948
f 1007 220 696
f 219 220 1007
f 1007 696 1006
f 220 219 535
f 221 537 695
f 221 697 535
f 1004 699 1009
f 699 1004 1008
f 1009 699 1024
f 699 1008 696
f 1006 696 1008
f 1024 699 698
f 222 533 223
f 533 225 223
f 224 225 226
f 225 224 223
f 224 226 232
f 694 537 222
f 232 531 231
f 531 227 231
f 228 230 227
f 228 524 230
f 229 230 524
f 227 230 231
f 224 232 231
f 694 222 223
f 1023 698 1027
f 698 1023 1024
f 698 233 1027
f 1025 233 1026
f 1027 233 1025
f 1026 233 1020
f 1002 700 722
f 233 700 1020
f 525 722 7
f 722 527 1002
f 700 1002 1021
f 1021 1020 700
f 234 526 655
f 235 13 526
f 655 229 234
f 234 229 236
f 526 13 655
f 7 235 525
f 239 7 701
f 722 525 527
f 235 550 13
f 251 999 701
f 720 1017 251
f 999 251 1018
f 999 551 701
f 7 550 235
f 229 524 236
f 651 553 237
f 237 554 561
f 237 553 554
f 555 238 561
f 556 238 555
f 561 238 237
f 701 551 239
f 13 550 240
f 240 553 651
f 550 7 239
f 240 651 13
f 657 244 243
f 241 244 556
f 242 543 768
f 242 656 548
f 656 657 245
f 241 243 244
f 243 559 657
f 245 558 656
f 548 543 242
f 656 558 548
f 657 559 245
f 300 242 768
f 556 244 238
f 720 1015 1011
f 720 1011 1014
f 993 703 996
f 704 1015 720
f 1012 704 1013
f 704 1012 1015
f 1013 704 246
f 993 991 246
f 246 994 1013
f 994 246 991
f 993 246 703
f 995 996 703
f 1017 720 1014
f 544 247 770
f 247 997 248
f 248 770 247
f 770 768 544
f 543 544 768
f 248 997 980
f 980 703 249
f 995 703 980
f 980 249 990
f 988 990 249
f 986 249 705
f 986 988 249
f 986 705 250
f 300 768 301
f 251 1017 1018
f 736 739 914
f 736 914 915
f 914 739 252
f 915 917 736
f 919 255 917
f 736 917 255
f 691 475 217
f 475 691 254
f 253 252 739
f 253 738 217
f 462 461 684
f 475 254 461
f 899 255 918
f 255 899 256
f 918 255 919
f 900 903 256
f 900 256 899
f 256 903 735
f 903 902 735
f 902 901 735
f 897 257 898
f 465 744 912
f 897 912 257
f 735 901 898
f 465 467 744
f 460 258 259
f 258 264 259
f 261 260 673
f 260 460 673
f 684 461 254
f 264 684 259
f 692 261 673
f 259 673 460
f 262 692 263
f 262 261 692
f 675 263 692
f 462 684 264
f 470 675 469
f 675 470 263
f 675 678 469
f 459 8 265
f 469 678 459
f 455 265 8
f 678 8 459
f 676 454 8
f 467 265 14
f 266 686 444
f 451 271 266
f 676 271 452
f 267 686 268
f 735 898 257
f 739 738 253
f 467 14 744
f 265 455 14
f 455 457 14
f 269 910 734
f 734 457 269
f 734 14 457
f 266 270 451
f 271 451 453
f 676 452 454
f 8 454 455
f 452 271 453
f 444 270 266
f 895 896 272
f 910 272 734
f 910 895 272
f 273 896 894
f 896 273 272
f 273 894 890
f 273 890 891
f 891 893 274
f 274 892 281
f 892 274 893
f 904 281 892
f 274 273 891
f 904 909 281
f 268 275 267
f 686 267 445
f 277 276 279
f 279 276 268
f 268 276 275
f 278 280 309
f 283 446 687
f 317 283 634
f 279 687 443
f 438 634 280
f 279 443 277
f 444 686 445
f 908 905 282
f 439 732 905
f 281 909 906
f 281 906 282
f 282 906 908
f 905 732 282
f 437 285 283
f 283 285 446
f 732 286 284
f 286 732 439
f 437 284 285
f 285 284 286
f 687 446 443
f 284 319 727
f 744 257 912
f 647 289 354
f 290 351 289
f 287 647 354
f 287 344 647
f 647 344 288
f 289 346 354
f 350 351 290
f 350 290 773
f 302 303 342
f 289 351 346
f 350 773 302
f 342 772 972
f 291 648 299
f 648 291 292
f 353 299 288
f 292 298 294
f 292 294 648
f 294 293 638
f 288 344 353
f 293 297 638
f 325 295 296
f 297 296 324
f 294 298 293
f 297 324 638
f 648 288 299
f 773 300 301
f 302 773 303
f 979 304 305
f 979 766 304
f 772 342 303
f 765 705 983
f 250 705 765
f 983 705 985
f 981 985 304
f 981 304 766
f 304 985 705
f 972 772 979
f 974 975 305
f 975 973 305
f 340 326 960
f 340 708 326
f 714 974 305
f 974 714 961
f 961 714 964
f 341 306 708
f 714 306 964
f 306 714 708
f 340 341 708
f 960 326 958
f 305 973 979
f 290 300 773
f 308 307 434
f 309 307 308
f 434 307 314
f 309 308 310
f 309 310 278
f 278 435 280
f 316 311 313
f 313 312 314
f 313 311 312
f 315 311 316
f 307 313 314
f 315 316 427
f 438 317 634
f 283 317 437
f 318 727 319
f 437 319 284
f 922 727 318
f 320 727 922
f 320 922 921
f 320 921 920
f 321 933 931
f 933 321 920
f 931 926 321
f 726 321 926
f 920 321 320
f 438 280 435
f 324 323 322
f 316 322 427
f 322 323 427
f 296 295 424
f 424 323 324
f 295 325 707
f 950 951 706
f 707 953 706
f 953 707 356
f 951 326 706
f 950 706 953
f 325 356 707
f 326 951 958
f 424 295 429
f 324 296 424
f 927 713 929
f 942 713 927
f 928 930 726
f 928 726 926
f 930 929 713
f 726 930 713
f 709 429 295
f 327 709 945
f 429 709 327
f 710 942 943
f 942 710 713
f 945 709 710
f 945 710 943
f 338 963 306
f 959 338 340
f 339 972 962
f 339 336 302
f 960 959 340
f 341 338 306
f 338 341 340
f 342 339 302
f 339 342 972
f 963 964 306
f 337 302 336
f 953 356 952
f 343 354 352
f 347 348 344
f 345 350 337
f 352 346 345
f 347 287 343
f 348 330 344
f 328 299 330
f 329 349 297
f 355 332 298
f 335 297 349
f 329 298 332
f 333 325 335
f 325 333 334
f 328 331 299
f 291 331 355
f 350 345 351
f 346 352 354
f 345 346 351
f 287 347 344
f 353 330 299
f 330 353 344
f 343 287 354
f 291 355 292
f 298 329 293
f 355 298 292
f 297 335 296
f 325 334 356
f 335 325 296
f 329 297 293
f 331 291 299
f 952 356 334
f 350 302 337
f 358 423 424
f 428 358 429
f 426 425 427
f 359 311 357
f 426 323 423
f 944 428 945
f 425 357 427
f 945 428 327
f 429 358 424
f 428 429 327
f 323 426 427
f 315 357 311
f 357 315 427
f 423 323 424
f 312 311 359
f 364 430 438
f 436 278 363
f 431 433 434
f 362 308 433
f 308 362 363
f 436 364 435
f 431 312 432
f 365 319 360
f 932 318 365
f 361 360 317
f 438 430 361
f 312 431 314
f 434 433 308
f 431 434 314
f 310 363 278
f 435 364 438
f 436 435 278
f 363 310 308
f 317 360 437
f 319 365 318
f 360 319 437
f 932 922 318
f 361 317 438
f 312 359 432
f 439 907 366
f 366 368 439
f 367 285 368
f 373 370 443
f 369 442 276
f 370 369 277
f 372 440 267
f 371 444 441
f 372 276 442
f 367 373 285
f 267 440 441
f 905 907 439
f 286 368 285
f 368 286 439
f 446 373 443
f 277 369 276
f 370 277 443
f 275 372 267
f 445 441 444
f 441 445 267
f 372 275 276
f 373 446 285
f 447 444 371
f 374 270 447
f 448 453 374
f 448 375 452
f 458 455 450
f 456 457 458
f 456 449 269
f 452 375 450
f 449 911 269
f 270 374 451
f 453 448 452
f 374 453 451
f 454 450 455
f 457 456 269
f 458 457 455
f 450 454 452
f 911 910 269
f 270 444 447
f 376 383 459
f 466 467 468
f 459 383 377
f 265 466 376
f 381 382 263
f 381 470 377
f 468 912 913
f 384 262 382
f 471 378 460
f 463 471 260
f 378 464 460
f 379 461 380
f 380 462 472
f 384 463 262
f 258 464 472
f 912 468 465
f 467 466 265
f 468 467 465
f 459 377 469
f 470 381 263
f 377 470 469
f 376 459 265
f 262 463 261
f 260 471 460
f 463 260 261
f 258 472 264
f 462 380 461
f 472 462 264
f 464 258 460
f 382 262 263
f 386 461 379
f 385 473 252
f 252 473 916
f 474 385 253
f 474 475 386
f 475 474 217
f 253 385 252
f 474 253 217
f 916 914 252
f 475 461 386
f 395 390 490
f 483 390 476
f 387 392 213
f 391 477 392
f 477 391 484
f 388 214 484
f 476 387 212
f 488 481 482
f 207 393 394
f 487 478 393
f 389 489 479
f 389 479 480
f 394 480 207
f 388 488 214
f 482 481 478
f 490 390 483
f 212 387 216
f 476 212 483
f 213 392 477
f 211 484 214
f 484 211 477
f 387 213 216
f 485 488 482
f 486 478 487
f 478 486 482
f 207 480 206
f 479 489 492
f 480 479 206
f 393 207 487
f 488 485 214
f 947 492 489
f 490 397 395
f 491 203 935
f 491 396 201
f 204 396 397
f 924 935 203
f 201 396 204
f 491 201 203
f 490 204 397
f 946 492 947
f 511 493 499
f 494 495 493
f 495 494 500
f 505 496 497
f 504 398 503
f 497 496 504
f 197 500 505
f 509 400 193
f 400 401 508
f 509 507 399
f 401 966 508
f 503 398 399
f 498 511 499
f 495 500 197
f 493 495 499
f 501 505 497
f 502 504 503
f 504 502 497
f 505 501 197
f 506 399 507
f 193 400 508
f 509 193 507
f 966 977 508
f 399 506 503
f 498 510 511
f 969 190 512
f 513 512 189
f 967 513 189
f 404 403 519
f 520 405 404
f 514 406 405
f 210 407 517
f 210 403 407
f 517 402 510
f 955 954 406
f 965 967 189
f 515 512 190
f 512 515 189
f 969 970 190
f 955 406 516
f 514 405 520
f 406 514 516
f 519 403 210
f 518 517 510
f 517 518 210
f 404 519 520
f 511 510 402
f 411 526 521
f 522 408 236
f 235 409 410
f 409 235 411
f 408 521 234
f 523 527 410
f 522 228 540
f 523 1001 527
f 228 522 524
f 236 408 234
f 522 236 524
f 526 411 235
f 525 410 527
f 410 525 235
f 521 526 234
f 1001 1002 527
f 228 227 540
f 413 528 535
f 535 536 413
f 1005 536 1007
f 529 226 530
f 539 412 531
f 529 539 232
f 538 222 532
f 530 225 534
f 534 533 538
f 541 227 412
f 532 537 528
f 1007 536 219
f 535 528 221
f 536 535 219
f 537 532 222
f 533 534 225
f 538 533 222
f 226 529 232
f 531 412 227
f 539 531 232
f 530 226 225
f 528 537 221
f 540 227 541
f 992 997 542
f 542 247 415
f 415 543 414
f 543 415 544
f 247 542 997
f 415 247 544
f 543 548 414
f 1000 419 551
f 419 418 239
f 546 552 240
f 554 545 560
f 554 416 545
f 552 416 553
f 418 546 550
f 422 555 560
f 547 557 241
f 417 420 559
f 562 548 421
f 245 420 549
f 417 243 557
f 422 547 555
f 245 549 421
f 999 1000 551
f 239 418 550
f 419 239 551
f 240 552 553
f 554 560 561
f 416 554 553
f 546 240 550
f 555 547 556
f 241 557 243
f 547 241 556
f 559 420 245
f 558 421 548
f 421 558 245
f 417 559 243
f 560 555 561
f 414 548 562
f 67 70 636
f 590 578 635
f 70 590 591
f 80 577 639
f 80 595 84
f 578 79 637
f 579 593 73
f 76 650 75
f 75 649 579
f 84 594 580
f 86 600 581
f 580 646 583
f 645 577 86
f 583 582 76
f 79 73 637
f 600 109 658
f 596 114 640
f 109 596 641
f 112 115 642
f 584 116 652
f 115 584 585
f 114 112 597
f 589 3 10
f 128 124 586
f 3 128 643
f 130 129 653
f 587 118 644
f 129 587 654
f 124 130 588
f 116 589 599
f 118 601 598
f 693 67 636
f 591 590 635
f 70 591 636
f 637 73 592
f 593 579 649
f 73 593 592
f 578 637 635
f 650 76 582
f 646 580 594
f 583 646 582
f 595 80 639
f 645 86 581
f 577 645 639
f 84 595 594
f 75 650 649
f 658 109 641
f 640 114 597
f 596 640 641
f 642 115 585
f 652 116 599
f 584 652 585
f 112 642 597
f 10 3 643
f 586 124 588
f 128 586 643
f 653 129 654
f 644 118 598
f 587 644 654
f 130 653 588
f 589 10 599
f 600 658 581
f 105 598 601
f 693 602 67
f 622 624 95
f 95 665 101
f 623 622 97
f 669 603 604
f 625 99 603
f 668 604 92
f 103 621 104
f 101 666 100
f 100 661 103
f 606 605 626
f 620 679 608
f 608 607 606
f 667 97 99
f 92 626 668
f 104 663 105
f 609 627 63
f 631 610 59
f 59 672 609
f 630 674 628
f 618 611 629
f 629 612 630
f 628 613 631
f 615 632 11
f 614 688 633
f 633 677 615
f 616 689 57
f 50 602 52
f 52 617 616
f 57 685 614
f 11 12 618
f 63 619 620
f 659 105 663
f 621 103 661
f 104 621 663
f 666 101 665
f 624 622 623
f 95 624 665
f 100 666 661
f 667 99 625
f 669 604 668
f 603 669 625
f 683 626 605
f 607 608 679
f 606 607 605
f 626 683 668
f 97 667 623
f 619 63 627
f 672 59 610
f 609 672 627
f 613 628 674
f 612 629 611
f 630 612 674
f 631 613 610
f 12 11 632
f 677 633 688
f 615 677 632
f 685 57 689
f 617 52 602
f 616 617 689
f 614 685 688
f 618 12 611
f 620 619 679
f 67 602 50
f 659 598 105
f 636 634 693
f 635 280 591
f 591 280 636
f 592 313 637
f 649 322 593
f 593 313 592
f 637 307 635
f 582 638 650
f 594 648 646
f 646 294 582
f 639 288 595
f 581 290 645
f 645 289 639
f 595 288 594
f 650 324 649
f 641 242 658
f 597 657 640
f 640 656 641
f 585 244 642
f 599 651 652
f 652 237 585
f 642 244 597
f 643 655 10
f 588 230 586
f 586 229 643
f 654 224 653
f 598 223 644
f 644 223 654
f 653 230 588
f 10 13 599
f 658 290 581
f 309 280 635
f 307 637 313
f 635 307 309
f 290 289 645
f 646 648 294
f 647 639 289
f 294 638 582
f 594 288 648
f 324 322 649
f 316 313 593
f 283 693 634
f 288 639 647
f 638 324 650
f 593 322 316
f 634 636 280
f 238 244 585
f 237 238 585
f 599 13 651
f 651 237 652
f 229 655 643
f 653 224 231
f 231 230 653
f 654 223 224
f 13 10 655
f 597 244 657
f 656 242 641
f 656 640 657
f 290 658 300
f 598 694 223
f 658 242 300
f 586 230 229
f 659 694 598
f 283 687 693
f 663 660 659
f 661 195 621
f 621 662 663
f 665 196 666
f 623 664 624
f 624 209 665
f 666 195 661
f 625 208 667
f 668 215 669
f 669 208 625
f 605 670 683
f 679 671 607
f 607 671 605
f 683 215 668
f 667 664 623
f 627 254 619
f 610 684 672
f 672 684 627
f 674 673 613
f 611 675 612
f 612 675 674
f 613 673 610
f 632 676 12
f 688 271 677
f 677 271 632
f 689 268 685
f 602 279 617
f 617 279 689
f 685 686 688
f 12 678 611
f 619 690 679
f 660 695 659
f 195 662 621
f 663 662 660
f 667 208 205
f 680 196 665
f 209 680 665
f 205 664 667
f 195 666 196
f 209 624 664
f 669 681 208
f 670 682 683
f 215 683 682
f 690 671 679
f 215 681 669
f 671 670 605
f 691 619 254
f 684 610 259
f 684 254 627
f 692 673 674
f 611 678 675
f 676 8 12
f 676 632 271
f 8 678 12
f 259 610 673
f 686 685 268
f 602 687 279
f 266 688 686
f 688 266 271
f 279 268 689
f 690 619 691
f 692 674 675
f 693 687 602
f 695 694 659
f 716 699 696
f 131 696 220
f 220 697 184
f 698 715 233
f 716 698 699
f 700 721 722
f 7 718 701
f 722 4 7
f 720 702 704
f 246 142 703
f 704 144 246
f 701 719 251
f 719 720 251
f 249 703 150
f 715 700 233
f 705 145 304
f 304 724 305
f 706 729 707
f 708 725 326
f 708 714 134
f 326 146 706
f 709 711 710
f 711 709 295
f 729 295 707
f 713 710 712
f 726 138 321
f 728 320 321
f 713 149 726
f 728 727 320
f 249 150 705
f 714 305 724
f 184 140 220
f 131 716 696
f 220 140 131
f 717 715 698
f 132 721 700
f 700 715 132
f 698 716 717
f 4 718 7
f 719 133 720
f 701 718 719
f 702 144 704
f 142 150 703
f 246 144 142
f 720 133 702
f 722 721 4
f 731 145 705
f 724 723 714
f 304 145 724
f 134 725 708
f 146 729 706
f 326 725 146
f 714 723 134
f 730 711 295
f 136 712 710
f 710 711 136
f 149 138 726
f 728 151 727
f 321 138 728
f 713 712 149
f 295 729 730
f 705 150 731
f 284 727 151
f 184 697 183
f 284 154 732
f 282 733 281
f 732 155 282
f 281 742 274
f 272 157 734
f 743 744 14
f 14 734 157
f 273 274 158
f 744 174 257
f 161 255 256
f 735 161 256
f 257 178 735
f 159 736 255
f 739 736 745
f 158 272 273
f 188 750 187
f 188 186 167
f 737 165 185
f 745 738 739
f 747 162 202
f 202 740 200
f 738 741 747
f 198 218 182
f 180 199 749
f 182 191 198
f 191 164 737
f 194 192 183
f 180 218 199
f 168 192 187
f 740 749 200
f 186 185 165
f 152 154 284
f 155 733 282
f 732 154 155
f 742 158 274
f 156 157 272
f 272 158 156
f 281 733 742
f 5 743 14
f 174 178 257
f 744 743 174
f 161 160 255
f 159 745 736
f 255 160 159
f 735 178 161
f 14 157 5
f 746 741 738
f 162 740 202
f 747 741 162
f 179 180 749
f 748 182 218
f 218 180 748
f 749 740 179
f 163 164 191
f 165 166 186
f 737 164 165
f 167 750 188
f 168 183 192
f 187 750 168
f 186 166 167
f 191 182 163
f 738 745 746
f 697 194 183
f 152 284 151
f 982 981 763
f 762 983 984
f 763 981 766
f 764 765 983
f 762 764 983
f 987 986 778
f 775 990 989
f 765 778 250
f 778 986 250
f 765 764 778
f 979 771 766
f 763 766 771
f 777 770 767
f 767 248 776
f 770 248 767
f 980 776 248
f 769 768 770
f 777 769 770
f 979 772 771
f 781 773 774
f 779 772 780
f 780 303 781
f 768 774 301
f 773 781 303
f 303 780 772
f 774 773 301
f 771 772 779
f 768 769 774
f 776 990 775
f 990 776 980
f 767 776 777
f 777 776 769
f 769 778 774
f 769 776 775
f 987 775 989
f 775 987 778
f 778 769 775
f 764 774 778
f 780 781 771
f 771 779 780
f 771 781 763
f 762 774 764
f 763 984 982
f 984 763 762
f 763 781 762
f 774 762 781
f 995 980 997
f 973 972 979
f 817 950 952
f 820 815 960
f 814 820 951
f 950 817 814
f 959 960 815
f 972 819 962
f 975 818 816
f 974 821 818
f 816 819 973
f 813 964 963
f 964 813 821
f 953 952 950
f 951 820 958
f 814 951 950
f 820 960 958
f 964 821 961
f 974 818 975
f 821 974 961
f 973 819 972
f 816 973 975
f 856 931 826
f 856 822 928
f 929 824 855
f 929 857 824
f 823 858 943
f 857 930 822
f 855 823 927
f 944 945 858
f 931 856 926
f 928 822 930
f 856 928 926
f 929 855 927
f 942 823 943
f 823 942 927
f 857 929 930
f 858 945 943
f 931 825 826
f 922 932 827
f 859 921 827
f 933 860 825
f 860 921 859
f 922 827 921
f 920 860 933
f 860 920 921
f 931 933 825
f 861 909 829
f 862 829 909
f 828 907 908
f 828 908 861
f 904 862 909
f 906 861 908
f 861 906 909
f 907 905 908
f 904 892 862
f 830 895 911
f 830 865 895
f 890 863 866
f 863 894 865
f 866 831 891
f 893 831 864
f 893 864 867
f 910 911 895
f 896 865 894
f 865 896 895
f 890 866 891
f 893 867 892
f 831 893 891
f 863 890 894
f 862 892 867
f 912 833 913
f 868 915 916
f 917 868 832
f 917 832 870
f 901 837 836
f 869 834 900
f 901 836 835
f 837 902 872
f 834 872 900
f 897 835 833
f 871 918 870
f 871 869 918
f 914 916 915
f 917 870 919
f 868 917 915
f 918 869 899
f 900 872 903
f 869 900 899
f 902 837 901
f 898 835 897
f 835 898 901
f 872 902 903
f 870 918 919
f 912 897 833
f 838 949 947
f 941 839 842
f 839 949 838
f 843 873 939
f 842 843 939
f 937 873 844
f 875 938 844
f 841 874 925
f 845 840 934
f 840 841 923
f 875 845 934
f 935 925 874
f 946 947 949
f 948 839 941
f 839 948 949
f 939 873 937
f 940 844 938
f 844 940 937
f 842 939 941
f 934 840 936
f 923 841 925
f 840 923 936
f 935 924 925
f 875 934 938
f 976 966 876
f 876 877 978
f 877 878 968
f 977 966 976
f 978 877 968
f 876 978 976
f 967 968 878
f 879 970 969
f 846 880 956
f 970 879 846
f 957 880 881
f 954 955 881
f 970 846 971
f 956 880 957
f 846 956 971
f 881 955 957
f 965 968 967
f 848 849 1027
f 1021 1001 1003
f 1027 849 1028
f 1025 847 848
f 847 1026 1022
f 1002 1001 1021
f 1020 1022 1026
f 1022 1020 1021
f 1025 848 1027
f 1023 1028 1024
f 1028 1023 1027
f 847 1025 1026
f 1009 1024 1010
f 850 1009 851
f 882 1006 883
f 882 1005 1007
f 883 1008 850
f 1009 850 1004
f 1008 883 1006
f 850 1008 1004
f 882 1007 1006
f 1009 1010 851
f 884 996 852
f 992 852 997
f 993 884 854
f 991 854 885
f 887 886 1014
f 888 994 885
f 888 998 1013
f 853 1015 1016
f 1011 853 887
f 1019 1014 886
f 995 852 996
f 993 854 991
f 884 993 996
f 852 995 997
f 994 888 1013
f 1012 1016 1015
f 1016 1012 1013
f 1011 887 1014
f 1017 1019 1018
f 1019 1017 1014
f 853 1011 1015
f 885 994 991
f 999 1018 1000
f 984 985 982
f 983 985 984
f 981 982 985
f 989 988 987
f 986 987 988
f 988 989 990
f 1003 1022 1021
f 1024 1028 1010
f 1018 1019 889
f 1013 998 1016
f 1000 1018 889

#	             End of file
