####
#
#	OBJ File Generated by LightWave3D
#	LightWave3D OBJ Export v2.2
#
####
#	Object: XL-320AndConnections.lwo
#
#	                Vertices: 72
#	                  Points: 0
#	                   Lines: 0
#	                   Faces: 18
#	               Materials: 1
#
####

o XL-320AndConnections.lwo

#	             Vertex list

v -0.012 -0.015005 0.0121
v 0.012 -0.015005 0.0121
v 0.012 -0.015005 -0.0121
v -0.012 -0.015005 -0.0121
v -0.0190954 0.00212486 0.0121
v -0.0190954 0.00212486 -0.0121
v -0.00212486 0.0190954 -0.0121
v -0.00212486 0.0190954 0.0121
v -0.012 -0.015005 0.0121
v -0.0123062 -0.010197 0.0121
v 0.0107326 -0.00551481 0.0121
v 0.012 -0.015005 0.0121
v 0.012 -0.015005 0.0121
v 0.0107326 -0.00551481 0.0121
v 0.0107326 -0.00551481 -0.0121
v 0.012 -0.015005 -0.0121
v 0.012 -0.015005 -0.0121
v 0.0107326 -0.00551481 -0.0121
v -0.0123062 -0.010197 -0.0121
v -0.012 -0.015005 -0.0121
v -0.012 -0.015005 -0.0121
v -0.0123062 -0.010197 -0.0121
v -0.0123062 -0.010197 0.0121
v -0.012 -0.015005 0.0121
v 0.00858655 0.0030922 0.0121
v 0.0107326 -0.00551481 0.0121
v -0.0123062 -0.010197 0.0121
v -0.0135866 -0.0065922 0.0121
v 0.0107326 -0.00551481 0.0121
v 0.00858655 0.0030922 0.0121
v 0.00858655 0.0030922 -0.0121
v 0.0107326 -0.00551481 -0.0121
v -0.0123062 -0.010197 -0.0121
v 0.0107326 -0.00551481 -0.0121
v 0.00858655 0.0030922 -0.0121
v -0.0135866 -0.0065922 -0.0121
v -0.0123062 -0.010197 -0.0121
v -0.0135866 -0.0065922 -0.0121
v -0.0135866 -0.0065922 0.0121
v -0.0123062 -0.010197 0.0121
v -0.0135866 -0.0065922 0.0121
v -0.0156722 -0.00188925 0.0121
v 0.00378308 0.0119444 0.0121
v 0.00858655 0.0030922 0.0121
v -0.00212486 0.0190954 0.0121
v 0.00378308 0.0119444 0.0121
v -0.0156722 -0.00188925 0.0121
v -0.0190954 0.00212486 0.0121
v 0.00858655 0.0030922 0.0121
v 0.00378308 0.0119444 0.0121
v 0.00378308 0.0119444 -0.0121
v 0.00858655 0.0030922 -0.0121
v -0.00212486 0.0190954 -0.0121
v 0.00378308 0.0119444 -0.0121
v 0.00378308 0.0119444 0.0121
v -0.00212486 0.0190954 0.0121
v 0.00858655 0.0030922 -0.0121
v 0.00378308 0.0119444 -0.0121
v -0.0156722 -0.00188925 -0.0121
v -0.0135866 -0.0065922 -0.0121
v -0.0190954 0.00212486 -0.0121
v -0.0156722 -0.00188925 -0.0121
v 0.00378308 0.0119444 -0.0121
v -0.00212486 0.0190954 -0.0121
v -0.0156722 -0.00188925 0.0121
v -0.0135866 -0.0065922 0.0121
v -0.0135866 -0.0065922 -0.0121
v -0.0156722 -0.00188925 -0.0121
v -0.0190954 0.00212486 0.0121
v -0.0156722 -0.00188925 0.0121
v -0.0156722 -0.00188925 -0.0121
v -0.0190954 0.00212486 -0.0121

#	               Face list

usemtl Default
f 4 3 2 1
f 8 7 6 5
f 12 11 10 9
f 16 15 14 13
f 20 19 18 17
f 24 23 22 21
f 28 27 26 25
f 32 31 30 29
f 36 35 34 33
f 40 39 38 37
f 44 43 42 41
f 48 47 46 45
f 52 51 50 49
f 56 55 54 53
f 60 59 58 57
f 64 63 62 61
f 68 67 66 65
f 72 71 70 69

#	             End of file
