####
#
# OBJ File Generated by Meshlab
#
####
# Object XM-430_bodyCarving.obj
#
# Vertices: 512
# Faces: 1008
#
####
vn 0.000000 0.008882 -0.087857
v 0.015749 -0.027736 0.004676
vn 0.000000 0.157938 1.562836
v 0.015749 -0.027736 0.007323
vn 0.000000 1.563361 0.152652
v 0.012750 -0.026649 0.006000
vn 0.000000 -0.087534 -0.008546
v 0.015749 -0.029349 0.006000
vn 0.000000 -1.563363 -0.152636
v 0.012750 -0.029349 0.006000
vn 0.000000 0.941921 1.145351
v 0.015749 -0.027249 0.007122
vn 0.000000 0.997740 1.213226
v 0.015749 -0.027045 0.006954
vn 0.000000 0.941921 1.145351
v 0.012750 -0.027045 0.006954
vn 0.000000 0.077382 0.041536
v 0.012750 -0.026877 0.006749
vn 0.000000 0.077382 0.041536
v 0.015749 -0.026752 0.006516
vn 0.000000 1.384020 0.742893
v 0.012750 -0.026752 0.006516
vn 0.000000 1.563362 -0.152647
v 0.015749 -0.026649 0.006000
vn 0.000000 0.087534 -0.008547
v 0.015749 -0.026675 0.005736
vn 0.000000 0.077382 -0.041536
v 0.012750 -0.026752 0.005483
vn 0.000000 0.077382 -0.041536
v 0.015749 -0.026877 0.005250
vn 0.000000 0.454037 1.503746
v 0.012750 -0.027736 0.007323
vn 0.000000 -0.149710 -1.475243
v 0.012750 -0.028263 0.004676
vn 0.000000 0.041545 -0.077715
v 0.012750 -0.027483 0.004752
vn 0.000000 0.698994 -1.307565
v 0.015749 -0.027249 0.004877
vn 0.000000 1.147427 -0.939029
v 0.012750 -0.026877 0.005250
vn 0.000000 0.084361 -0.025706
v 0.015749 -0.026752 0.005483
vn 0.000000 -0.995121 1.215375
v 0.012750 -0.028955 0.006954
vn -0.098766 0.000000 0.000000
v 0.012750 -0.026675 0.006263
vn -2.845817 0.000000 0.000000
v 0.012750 -0.026675 0.005736
vn -0.098146 0.000000 0.000000
v 0.012750 -0.027045 0.005045
vn -0.097948 0.000000 0.000000
v 0.012750 -0.027249 0.004877
vn -1.963429 0.000000 0.000000
v 0.012750 -0.027249 0.007122
vn -1.179628 0.000000 0.000000
v 0.012750 -0.027736 0.004676
vn -1.766059 0.000000 0.000000
v 0.012750 -0.027483 0.007247
vn -1.371562 0.000000 0.000000
v 0.012750 -0.028000 0.004649
vn -0.098110 0.000000 0.000000
v 0.012750 -0.028000 0.007350
vn -1.671893 0.000000 0.000000
v 0.012750 -0.028263 0.007323
vn -1.864030 0.000000 0.000000
v 0.012750 -0.028516 0.007247
vn -1.963427 0.000000 0.000000
v 0.012750 -0.028749 0.004877
vn -1.079871 0.000000 0.000000
v 0.012750 -0.028516 0.004752
vn -0.786333 0.000000 0.000000
v 0.012750 -0.028749 0.007122
vn -0.686135 0.000000 0.000000
v 0.012750 -0.028955 0.005045
vn -0.097521 0.000000 0.000000
v 0.012750 -0.029122 0.006749
vn -0.489288 0.000000 0.000000
v 0.012750 -0.029122 0.005250
vn -0.098766 0.000000 0.000000
v 0.012750 -0.029246 0.006516
vn -2.845817 0.000000 0.000000
v 0.012750 -0.029324 0.006263
vn -0.097324 0.000000 0.000000
v 0.012750 -0.029324 0.005736
vn 0.000000 -0.698996 1.307564
v 0.015749 -0.028749 0.007122
vn 0.000000 -1.386491 -0.738270
v 0.012750 -0.029246 0.005483
vn 0.000000 -1.386491 -0.738270
v 0.015749 -0.029122 0.005250
vn 0.000000 -0.084361 -0.025706
v 0.015749 -0.029324 0.005736
vn 0.000000 -0.055818 -0.068173
v 0.015749 -0.028749 0.004877
vn 0.000000 -0.068185 0.055834
v 0.015749 -0.028955 0.006954
vn 0.000000 0.152402 -1.560724
v 0.015749 -0.028000 0.003300
vn 0.000000 0.000260 0.002662
v 0.015749 -0.027472 0.008648
vn 0.000000 0.152404 1.560724
v 0.215749 -0.028000 0.008699
vn 0.000000 -1.560440 0.155326
v 0.015749 -0.030700 0.006000
vn 0.000000 -1.563072 0.155588
v 0.215749 -0.030700 0.006000
vn 0.000000 0.000770 -0.002538
v 0.015749 -0.027472 0.003351
vn 0.000000 0.000770 -0.002538
v 0.215749 -0.026966 0.003505
vn 0.000000 1.214337 0.996387
v 0.215749 -0.026091 0.007909
vn -1.471583 0.000000 0.000000
v 0.015749 -0.025299 0.006000
vn -1.669745 0.000000 0.000000
v 0.015749 -0.026675 0.006263
vn -0.189009 0.000000 0.000000
v 0.015749 -0.025352 0.006526
vn -1.283503 0.000000 0.000000
v 0.015749 -0.025505 0.007032
vn -1.472565 0.000000 0.000000
v 0.015749 -0.026091 0.004090
vn -0.189015 0.000000 0.000000
v 0.015749 -0.025352 0.005473
vn -0.188782 0.000000 0.000000
v 0.015749 -0.025755 0.004499
vn -1.282528 0.000000 0.000000
v 0.015749 -0.027045 0.005045
vn -0.385345 0.000000 0.000000
v 0.015749 -0.027483 0.004752
vn -0.189333 0.000000 0.000000
v 0.015749 -0.026966 0.003505
vn -1.671551 0.000000 0.000000
v 0.015749 -0.028000 0.004649
vn -1.280687 0.000000 0.000000
v 0.015749 -0.028263 0.004676
vn -1.668882 0.000000 0.000000
v 0.015749 -0.028516 0.004752
vn -1.283275 0.000000 0.000000
v 0.015749 -0.029033 0.003505
vn -1.284685 0.000000 0.000000
v 0.015749 -0.028955 0.005045
vn -1.283257 0.000000 0.000000
v 0.015749 -0.026091 0.007909
vn -1.281976 0.000000 0.000000
v 0.015749 -0.026877 0.006749
vn -1.283621 0.000000 0.000000
v 0.015749 -0.026500 0.008245
vn -1.285058 0.000000 0.000000
v 0.015749 -0.027483 0.007247
vn -1.285559 0.000000 0.000000
v 0.015749 -0.028000 0.007350
vn -0.385116 0.000000 0.000000
v 0.015749 -0.028263 0.007323
vn -0.385345 0.000000 0.000000
v 0.015749 -0.028516 0.007247
vn -1.283902 0.000000 0.000000
v 0.015749 -0.028526 0.008648
vn -1.282206 0.000000 0.000000
v 0.015749 -0.029122 0.006749
vn -0.188290 0.000000 0.000000
v 0.015749 -0.030245 0.007500
vn -1.282390 0.000000 0.000000
v 0.015749 -0.029246 0.006516
vn -0.189611 0.000000 0.000000
v 0.015749 -0.030494 0.007032
vn -1.472474 0.000000 0.000000
v 0.015749 -0.029500 0.008245
vn -1.669752 0.000000 0.000000
v 0.015749 -0.029324 0.006263
vn -1.667200 0.000000 0.000000
v 0.015749 -0.029246 0.005483
vn -0.189611 0.000000 0.000000
v 0.015749 -0.030494 0.004967
vn -0.189015 0.000000 0.000000
v 0.015749 -0.030647 0.005473
vn 0.000000 -0.455775 1.503220
v 0.015749 -0.029033 0.008494
vn 0.000000 0.740543 -1.382278
v 0.215749 -0.026500 0.003755
vn 0.000000 1.503171 -0.455936
v 0.215749 -0.025352 0.005473
vn 0.000000 0.001252 0.002338
v 0.215749 -0.026966 0.008494
vn 0.000000 0.741793 1.384610
v 0.015749 -0.026966 0.008494
vn 0.000000 0.001682 0.002050
v 0.215749 -0.026500 0.008245
vn 0.000000 0.455007 1.500688
v 0.215749 -0.027472 0.008648
vn 0.000000 1.382952 0.739275
v 0.015749 -0.025755 0.007500
vn 0.000000 0.002639 0.000263
v 0.215749 -0.025299 0.006000
vn 0.000000 -0.994736 -1.212269
v 0.215749 -0.029500 0.003755
vn 0.000000 -0.996414 -1.214314
v 0.215749 -0.029909 0.004090
vn 0.000000 -0.996414 -1.214314
v 0.015749 -0.029500 0.003755
vn 0.000000 -0.000770 -0.002538
v 0.215749 -0.028526 0.003351
vn 0.000000 -0.002360 0.001257
v 0.215749 -0.030245 0.007500
vn 0.000000 -0.002050 0.001682
v 0.215749 -0.029909 0.007909
vn 0.000000 -1.214337 0.996387
v 0.015749 -0.029909 0.007909
vn 0.000000 -0.002538 0.000770
v 0.015749 -0.030647 0.006526
vn 0.000000 -1.503171 0.455936
v 0.215749 -0.030647 0.006526
vn 2.847096 0.000000 0.000000
v 0.215749 -0.025352 0.006526
vn 0.294497 0.000000 0.000000
v 0.215749 -0.025505 0.004967
vn 2.650679 0.000000 0.000000
v 0.215749 -0.025505 0.007032
vn 2.454465 0.000000 0.000000
v 0.215749 -0.025755 0.007500
vn 0.098162 0.000000 0.000000
v 0.215749 -0.026091 0.004090
vn 1.276407 0.000000 0.000000
v 0.215749 -0.027472 0.003351
vn 1.473457 0.000000 0.000000
v 0.215749 -0.028000 0.003300
vn 0.098110 0.000000 0.000000
v 0.215749 -0.028526 0.008648
vn 1.767041 0.000000 0.000000
v 0.215749 -0.029033 0.008494
vn 1.865186 0.000000 0.000000
v 0.215749 -0.029033 0.003505
vn 2.454465 0.000000 0.000000
v 0.215749 -0.030245 0.004499
vn 2.554226 0.000000 0.000000
v 0.215749 -0.030494 0.007032
vn 2.847096 0.000000 0.000000
v 0.215749 -0.030647 0.005473
vn 0.196305 0.000000 0.000000
v 0.215749 -0.030494 0.004967
vn 0.000000 -0.001261 0.002358
v 0.215749 -0.029500 0.008245
vn 0.000000 -0.152691 1.560700
v 0.015749 -0.028000 0.008699
vn 0.000000 0.994736 -1.212269
v 0.015749 -0.026500 0.003755
vn 0.000000 0.002359 -0.001261
v 0.015749 -0.025505 0.004967
vn 0.000000 0.002359 -0.001261
v 0.215749 -0.025755 0.004499
vn 0.000000 -1.212291 -0.994708
v 0.015749 -0.029909 0.004090
vn 0.000000 -1.214337 -0.996387
v 0.015749 -0.030245 0.004499
vn 0.000000 -0.000258 -0.002639
v 0.015749 -0.028526 0.003351
vn 0.000000 0.149059 -1.474978
v 0.015749 -0.027736 -0.007323
vn 0.000000 0.087534 0.008547
v 0.012750 -0.026675 -0.005736
vn 0.000000 -1.563362 -0.152641
v 0.012750 -0.029349 -0.006000
vn 0.000000 -1.563362 -0.152641
v 0.015749 -0.029324 -0.006263
vn 0.000000 0.941921 1.145351
v 0.015749 -0.027249 -0.004877
vn 0.000000 0.941921 1.145351
v 0.012750 -0.027045 -0.005045
vn 0.000000 0.997740 1.213226
v 0.012750 -0.027249 -0.004877
vn 0.000000 1.306638 0.701357
v 0.012750 -0.026877 -0.005250
vn 0.000000 0.077382 0.041536
v 0.015749 -0.026752 -0.005483
vn 0.000000 0.428663 -1.419709
v 0.015749 -0.027483 -0.007247
vn 0.000000 0.997740 -1.213226
v 0.012750 -0.027045 -0.006954
vn 0.000000 1.563361 -0.152652
v 0.015749 -0.026649 -0.006000
vn 0.000000 1.475830 -0.144105
v 0.012750 -0.026649 -0.006000
vn 0.000000 0.087531 -0.008547
v 0.015749 -0.026675 -0.006263
vn 0.000000 1.563361 -0.152652
v 0.012750 -0.026675 -0.006263
vn 0.000000 0.025371 0.084037
v 0.012750 -0.027483 -0.004752
vn 0.000000 1.215613 0.994830
v 0.015749 -0.027045 -0.005045
vn 0.000000 0.084361 0.025706
v 0.012750 -0.026752 -0.005483
vn 0.000000 -0.158532 -1.562776
v 0.015749 -0.028263 -0.007323
vn 0.000000 -0.158532 -1.562776
v 0.012750 -0.028000 -0.007350
vn 0.000000 1.147427 -0.939029
v 0.015749 -0.027045 -0.006954
vn 0.000000 0.068186 -0.055802
v 0.012750 -0.026877 -0.006749
vn 0.000000 1.502587 -0.457859
v 0.012750 -0.026752 -0.006516
vn 0.000000 -0.698996 -1.307564
v 0.015749 -0.028516 -0.007247
vn 0.000000 -1.502587 0.457859
v 0.012750 -0.029246 -0.005483
vn 0.000000 -1.418226 0.432153
v 0.015749 -0.029246 -0.005483
vn 0.000000 -0.084361 0.025706
v 0.012750 -0.029324 -0.005736
vn 0.000000 -1.502587 0.457859
v 0.015749 -0.029324 -0.005736
vn 0.000000 -1.147140 -0.939346
v 0.012750 -0.028955 -0.006954
vn 0.000000 -1.215326 -0.995181
v 0.012750 -0.029122 -0.006749
vn 0.000000 -1.563363 0.152636
v 0.015749 -0.029349 -0.006000
vn -0.097948 0.000000 0.000000
v 0.012750 -0.027249 -0.007122
vn -1.864030 0.000000 0.000000
v 0.012750 -0.027483 -0.007247
vn -1.671513 0.000000 0.000000
v 0.012750 -0.027736 -0.007323
vn -1.573072 0.000000 0.000000
v 0.012750 -0.027736 -0.004676
vn -0.097970 0.000000 0.000000
v 0.012750 -0.028263 -0.004676
vn -1.277563 0.000000 0.000000
v 0.012750 -0.028263 -0.007323
vn -1.963429 0.000000 0.000000
v 0.012750 -0.028749 -0.007122
vn -0.098294 0.000000 0.000000
v 0.012750 -0.028516 -0.004752
vn -1.079870 0.000000 0.000000
v 0.012750 -0.028516 -0.007247
vn -0.786333 0.000000 0.000000
v 0.012750 -0.028749 -0.004877
vn -0.587932 0.000000 0.000000
v 0.012750 -0.028955 -0.005045
vn -2.554784 0.000000 0.000000
v 0.012750 -0.029246 -0.006516
vn -0.391767 0.000000 0.000000
v 0.012750 -0.029122 -0.005250
vn -2.747051 0.000000 0.000000
v 0.012750 -0.029324 -0.006263
vn 0.000000 -0.008882 0.087526
v 0.012750 -0.028000 -0.004649
vn 0.000000 -0.158592 1.562770
v 0.015749 -0.028000 -0.004649
vn 0.000000 -0.995121 -1.215375
v 0.015749 -0.028955 -0.006954
vn 0.000000 -0.068185 0.055834
v 0.015749 -0.028955 -0.005045
vn 0.000000 -1.215326 0.995181
v 0.015749 -0.029122 -0.005250
vn 0.000000 0.000260 -0.002662
v 0.215749 -0.027472 -0.008648
vn 0.000000 0.152661 -1.563361
v 0.015749 -0.027472 -0.008648
vn 0.000000 0.000260 0.002662
v 0.015749 -0.027472 -0.003351
vn 0.000000 -1.563072 0.155586
v 0.215749 -0.030700 -0.006000
vn 0.000000 -0.001682 0.002050
v 0.015749 -0.029500 -0.003755
vn 0.000000 1.212291 0.994708
v 0.215749 -0.025755 -0.004499
vn 0.000000 1.214337 0.996387
v 0.215749 -0.026091 -0.004090
vn 0.000000 1.503171 0.455936
v 0.215749 -0.025505 -0.004967
vn 0.000000 1.500639 0.455168
v 0.015749 -0.025505 -0.004967
vn 0.000000 0.002538 0.000770
v 0.215749 -0.025352 -0.005473
vn -0.189015 0.000000 0.000000
v 0.015749 -0.025352 -0.005473
vn -0.385305 0.000000 0.000000
v 0.015749 -0.026877 -0.006749
vn -0.385506 0.000000 0.000000
v 0.015749 -0.026675 -0.005736
vn -1.285277 0.000000 0.000000
v 0.015749 -0.026752 -0.006516
vn -1.282472 0.000000 0.000000
v 0.015749 -0.026966 -0.008494
vn -1.670242 0.000000 0.000000
v 0.015749 -0.027249 -0.007122
vn -1.671513 0.000000 0.000000
v 0.015749 -0.028000 -0.007350
vn -1.472474 0.000000 0.000000
v 0.015749 -0.029500 -0.008245
vn -1.667532 0.000000 0.000000
v 0.015749 -0.028749 -0.007122
vn -1.472564 0.000000 0.000000
v 0.015749 -0.029909 -0.007909
vn -1.282206 0.000000 0.000000
v 0.015749 -0.029122 -0.006749
vn -0.188290 0.000000 0.000000
v 0.015749 -0.030245 -0.007500
vn -1.667534 0.000000 0.000000
v 0.015749 -0.026877 -0.005250
vn -1.473031 0.000000 0.000000
v 0.015749 -0.025755 -0.004499
vn -1.472565 0.000000 0.000000
v 0.015749 -0.026091 -0.004090
vn -1.473830 0.000000 0.000000
v 0.015749 -0.026500 -0.003755
vn -1.472347 0.000000 0.000000
v 0.015749 -0.026966 -0.003505
vn -0.385345 0.000000 0.000000
v 0.015749 -0.027483 -0.004752
vn -1.666180 0.000000 0.000000
v 0.015749 -0.027736 -0.004676
vn -1.473457 0.000000 0.000000
v 0.015749 -0.028000 -0.003300
vn -1.667855 0.000000 0.000000
v 0.015749 -0.028263 -0.004676
vn -1.668882 0.000000 0.000000
v 0.015749 -0.028516 -0.004752
vn -0.188290 0.000000 0.000000
v 0.015749 -0.030245 -0.004499
vn -0.385844 0.000000 0.000000
v 0.015749 -0.028749 -0.004877
vn -1.283275 0.000000 0.000000
v 0.015749 -0.029033 -0.003505
vn -1.473560 0.000000 0.000000
v 0.015749 -0.030494 -0.007032
vn -0.385515 0.000000 0.000000
v 0.015749 -0.029246 -0.006516
vn -1.472584 0.000000 0.000000
v 0.015749 -0.030647 -0.006526
vn -1.473559 0.000000 0.000000
v 0.015749 -0.030494 -0.004967
vn -1.471585 0.000000 0.000000
v 0.015749 -0.030700 -0.006000
vn 0.000000 -0.000770 0.002538
v 0.015749 -0.028526 -0.003351
vn 0.000000 -0.455008 1.500688
v 0.215749 -0.029033 -0.003505
vn 0.000000 -0.455776 1.503220
v 0.215749 -0.028526 -0.003351
vn 0.000000 1.500639 -0.455168
v 0.015749 -0.025352 -0.006526
vn 0.000000 0.002538 -0.000770
v 0.215749 -0.025505 -0.007032
vn 0.000000 0.002050 -0.001682
v 0.015749 -0.025755 -0.007500
vn 0.000000 1.214337 -0.996387
v 0.215749 -0.025755 -0.007500
vn 0.000000 0.994736 1.212269
v 0.215749 -0.026500 -0.003755
vn 0.000000 0.455008 1.500688
v 0.215749 -0.027472 -0.003351
vn 0.000000 0.455776 1.503220
v 0.215749 -0.026966 -0.003505
vn 0.000000 1.563072 0.155586
v 0.015749 -0.025299 -0.006000
vn 0.000000 -1.386397 -0.738447
v 0.215749 -0.030245 -0.007500
vn 0.000000 -0.455007 -1.500688
v 0.015749 -0.029033 -0.008494
vn 0.000000 -0.455775 -1.503220
v 0.015749 -0.028526 -0.008648
vn 0.000000 -1.384061 0.737203
v 0.215749 -0.030245 -0.004499
vn 0.000000 -1.214337 0.996387
v 0.015749 -0.029909 -0.004090
vn 0.000000 -0.002538 0.000770
v 0.015749 -0.030647 -0.005473
vn 0.883646 0.000000 0.000000
v 0.215749 -0.026500 -0.008245
vn 2.159784 0.000000 0.000000
v 0.215749 -0.026091 -0.007909
vn 1.078966 0.000000 0.000000
v 0.215749 -0.026966 -0.008494
vn 1.473273 0.000000 0.000000
v 0.215749 -0.028000 -0.003300
vn 1.375162 0.000000 0.000000
v 0.215749 -0.028000 -0.008699
vn 1.178263 0.000000 0.000000
v 0.215749 -0.028526 -0.008648
vn 2.061825 0.000000 0.000000
v 0.215749 -0.029500 -0.008245
vn 0.981494 0.000000 0.000000
v 0.215749 -0.029033 -0.008494
vn 0.883646 0.000000 0.000000
v 0.215749 -0.029500 -0.003755
vn 0.098162 0.000000 0.000000
v 0.215749 -0.029909 -0.004090
vn 0.098147 0.000000 0.000000
v 0.215749 -0.029909 -0.007909
vn 0.294497 0.000000 0.000000
v 0.215749 -0.030494 -0.004967
vn 0.098192 0.000000 0.000000
v 0.215749 -0.030647 -0.005473
vn 0.000000 0.994735 -1.212270
v 0.015749 -0.026500 -0.008245
vn 0.000000 0.996414 -1.214315
v 0.015749 -0.026091 -0.007909
vn 0.000000 1.560440 -0.155326
v 0.215749 -0.025352 -0.006526
vn 0.000000 1.563072 -0.155588
v 0.215749 -0.025299 -0.006000
vn 0.000000 0.002359 -0.001261
v 0.015749 -0.025505 -0.007032
vn 0.000000 -0.002538 -0.000770
v 0.215749 -0.030647 -0.006526
vn 0.000000 -1.503171 -0.455936
v 0.215749 -0.030494 -0.007032
vn 0.000000 -0.152948 -1.563332
v 0.015749 -0.028000 -0.008699
vn 0.000000 0.157938 1.562836
v -0.012750 -0.027736 0.007323
vn 0.000000 0.008879 0.087858
v -0.012750 -0.028000 0.007350
vn 0.000000 0.157938 1.562836
v -0.015749 -0.028000 0.007350
vn 0.000000 -1.475829 -0.144090
v -0.012750 -0.029349 0.006000
vn 0.000000 -1.563363 -0.152636
v -0.012750 -0.029324 0.005736
vn 0.000000 0.941921 1.145351
v -0.012750 -0.027249 0.007122
vn 0.000000 0.997740 1.213226
v -0.012750 -0.027045 0.006954
vn 0.000000 0.041545 0.077715
v -0.015749 -0.027249 0.007122
vn 0.000000 0.041545 0.077715
v -0.012750 -0.027483 0.007247
vn 0.000000 1.306638 0.701357
v -0.015749 -0.026877 0.006749
vn 0.000000 1.384020 0.742893
v -0.015749 -0.026752 0.006516
vn 0.000000 0.025371 -0.084037
v -0.015749 -0.027736 0.004676
vn 0.000000 0.453984 -1.503762
v -0.012750 -0.027736 0.004676
vn 0.000000 1.475828 -0.144100
v -0.015749 -0.026649 0.006000
vn 0.000000 1.563362 -0.152647
v -0.015749 -0.026675 0.005736
vn 0.000000 0.428663 1.419709
v -0.015749 -0.027483 0.007247
vn 0.000000 1.147427 0.939029
v -0.012750 -0.026877 0.006749
vn 0.000000 -0.008882 -0.087526
v -0.015749 -0.028263 0.004676
vn 0.000000 -0.158592 -1.562770
v -0.015749 -0.028000 0.004649
vn 0.000000 0.041545 -0.077715
v -0.015749 -0.027483 0.004752
vn 0.000000 0.740539 -1.385281
v -0.012750 -0.027483 0.004752
vn 0.000000 1.147427 -0.939029
v -0.012750 -0.027045 0.005045
vn 0.000000 1.215613 -0.994830
v -0.012750 -0.026877 0.005250
vn 0.000000 1.147427 -0.939029
v -0.015749 -0.026877 0.005250
vn 0.000000 1.502587 -0.457859
v -0.012750 -0.026675 0.005736
vn 0.000000 -0.939302 1.147202
v -0.015749 -0.028749 0.007122
vn 0.000000 -0.084361 -0.025706
v -0.015749 -0.029246 0.005483
vn 0.000000 -0.025371 -0.084037
v -0.015749 -0.028516 0.004752
vn 0.000000 -0.453984 -1.503762
v -0.012750 -0.028516 0.004752
vn 2.946926 0.000000 0.000000
v -0.012750 -0.026649 0.006000
vn 0.197010 0.000000 0.000000
v -0.012750 -0.026752 0.006516
vn 2.845817 0.000000 0.000000
v -0.012750 -0.026675 0.006263
vn 2.550667 0.000000 0.000000
v -0.012750 -0.026752 0.005483
vn 0.882554 0.000000 0.000000
v -0.012750 -0.027249 0.004877
vn 1.573784 0.000000 0.000000
v -0.012750 -0.028263 0.007323
vn 1.371552 0.000000 0.000000
v -0.012750 -0.028000 0.004649
vn 0.097970 0.000000 0.000000
v -0.012750 -0.028263 0.004676
vn 0.786333 0.000000 0.000000
v -0.012750 -0.028749 0.004877
vn 0.587932 0.000000 0.000000
v -0.012750 -0.028955 0.005045
vn 2.554784 0.000000 0.000000
v -0.012750 -0.029246 0.006516
vn 0.489288 0.000000 0.000000
v -0.012750 -0.029122 0.006749
vn 0.391767 0.000000 0.000000
v -0.012750 -0.029122 0.005250
vn 0.197010 0.000000 0.000000
v -0.012750 -0.029246 0.005483
vn 0.000000 -0.041545 0.077715
v -0.015749 -0.028516 0.007247
vn 0.000000 -0.698996 1.307564
v -0.012750 -0.028749 0.007122
vn 0.000000 -0.428663 1.419709
v -0.012750 -0.028516 0.007247
vn 0.000000 -1.418226 0.432153
v -0.015749 -0.029324 0.006263
vn 0.000000 -1.502587 0.457859
v -0.012750 -0.029324 0.006263
vn 0.000000 -1.147140 0.939346
v -0.012750 -0.028955 0.006954
vn 0.000000 -0.068185 0.055834
v -0.015749 -0.029122 0.006749
vn 0.000000 0.152402 -1.560724
v -0.015749 -0.027472 0.003351
vn 0.000000 0.152660 -1.563361
v -0.215749 -0.027472 0.003351
vn 0.000000 -0.002639 0.000263
v -0.215749 -0.030700 0.006000
vn 0.000000 -1.563072 0.155588
v -0.015749 -0.030700 0.006000
vn 0.000000 -0.996414 1.214315
v -0.215749 -0.029909 0.007909
vn 0.000000 0.000770 -0.002538
v -0.015749 -0.026966 0.003505
vn 0.000000 0.002050 0.001682
v -0.015749 -0.025755 0.007500
vn -0.098192 0.000000 0.000000
v -0.215749 -0.025505 0.004967
vn -2.748904 0.000000 0.000000
v -0.215749 -0.025352 0.006526
vn -0.098302 0.000000 0.000000
v -0.215749 -0.025505 0.007032
vn -0.098147 0.000000 0.000000
v -0.215749 -0.025755 0.007500
vn -0.098162 0.000000 0.000000
v -0.215749 -0.026091 0.007909
vn -1.473273 0.000000 0.000000
v -0.215749 -0.028000 0.003300
vn -1.375162 0.000000 0.000000
v -0.215749 -0.028000 0.008699
vn -1.079768 0.000000 0.000000
v -0.215749 -0.029033 0.003505
vn -0.098275 0.000000 0.000000
v -0.215749 -0.029500 0.003755
vn -2.061825 0.000000 0.000000
v -0.215749 -0.029500 0.008245
vn -2.356318 0.000000 0.000000
v -0.215749 -0.030245 0.004499
vn -2.748904 0.000000 0.000000
v -0.215749 -0.030647 0.005473
vn -0.098192 0.000000 0.000000
v -0.215749 -0.030494 0.007032
vn 0.000000 0.001252 -0.002338
v -0.215749 -0.026966 0.003505
vn 0.000000 0.001252 -0.002338
v -0.015749 -0.026500 0.003755
vn 0.000000 0.741792 -1.384610
v -0.215749 -0.026500 0.003755
vn 0.000000 0.002538 -0.000770
v -0.215749 -0.025352 0.005473
vn 0.000000 1.214337 -0.996387
v -0.015749 -0.025755 0.004499
vn 0.000000 1.212291 -0.994708
v -0.215749 -0.025755 0.004499
vn 0.000000 0.001252 0.002338
v -0.215749 -0.026500 0.008245
vn 0.000000 0.001252 0.002338
v -0.015749 -0.026966 0.008494
vn 0.000000 0.994735 1.212270
v -0.015749 -0.026500 0.008245
vn 0.000000 0.000770 0.002538
v -0.015749 -0.027472 0.008648
vn 0.000000 0.455007 1.500688
v -0.215749 -0.026966 0.008494
vn 0.000000 0.455775 1.503220
v -0.215749 -0.027472 0.008648
vn 0.000000 1.560440 0.155326
v -0.015749 -0.025299 0.006000
vn 0.000000 -0.994736 -1.212269
v -0.015749 -0.029500 0.003755
vn 0.000000 -0.000770 -0.002538
v -0.015749 -0.028526 0.003351
vn 0.000000 -0.002360 0.001257
v -0.015749 -0.030245 0.007500
vn 0.000000 -1.386397 0.738447
v -0.215749 -0.030245 0.007500
vn 0.000000 -1.500639 0.455168
v -0.215749 -0.030647 0.006526
vn 1.472584 0.000000 0.000000
v -0.015749 -0.025352 0.006526
vn 1.283503 0.000000 0.000000
v -0.015749 -0.025505 0.007032
vn 1.283257 0.000000 0.000000
v -0.015749 -0.026091 0.007909
vn 0.189611 0.000000 0.000000
v -0.015749 -0.025505 0.004967
vn 1.284782 0.000000 0.000000
v -0.015749 -0.026675 0.006263
vn 1.282528 0.000000 0.000000
v -0.015749 -0.027045 0.006954
vn 0.385817 0.000000 0.000000
v -0.015749 -0.027736 0.007323
vn 1.280724 0.000000 0.000000
v -0.015749 -0.028263 0.007323
vn 1.284296 0.000000 0.000000
v -0.015749 -0.028000 0.008699
vn 0.189332 0.000000 0.000000
v -0.015749 -0.029033 0.008494
vn 1.472474 0.000000 0.000000
v -0.015749 -0.029500 0.008245
vn 1.284685 0.000000 0.000000
v -0.015749 -0.028955 0.006954
vn 0.189312 0.000000 0.000000
v -0.015749 -0.029909 0.007909
vn 1.282390 0.000000 0.000000
v -0.015749 -0.029246 0.006516
vn 1.285277 0.000000 0.000000
v -0.015749 -0.026752 0.005483
vn 1.670363 0.000000 0.000000
v -0.015749 -0.027045 0.005045
vn 1.472565 0.000000 0.000000
v -0.015749 -0.026091 0.004090
vn 0.385290 0.000000 0.000000
v -0.015749 -0.027249 0.004877
vn 0.189333 0.000000 0.000000
v -0.015749 -0.029033 0.003505
vn 1.667532 0.000000 0.000000
v -0.015749 -0.028749 0.004877
vn 1.284685 0.000000 0.000000
v -0.015749 -0.028955 0.005045
vn 0.189312 0.000000 0.000000
v -0.015749 -0.029909 0.004090
vn 1.669756 0.000000 0.000000
v -0.015749 -0.029324 0.005736
vn 0.189611 0.000000 0.000000
v -0.015749 -0.030494 0.007032
vn 1.472584 0.000000 0.000000
v -0.015749 -0.030647 0.006526
vn 0.385322 0.000000 0.000000
v -0.015749 -0.029122 0.005250
vn 1.282832 0.000000 0.000000
v -0.015749 -0.029349 0.006000
vn 0.000000 -0.739433 1.382868
v -0.215749 -0.029033 0.008494
vn 0.000000 -0.152691 1.560700
v -0.015749 -0.028526 0.008648
vn 0.000000 -0.152948 1.563332
v -0.215749 -0.028526 0.008648
vn 0.000000 0.996414 -1.214314
v -0.215749 -0.026091 0.004090
vn 0.000000 1.560440 -0.155324
v -0.015749 -0.025352 0.005473
vn 0.000000 0.002639 -0.000263
v -0.215749 -0.025299 0.006000
vn 0.000000 -0.152689 -1.560700
v -0.015749 -0.028000 0.003300
vn 0.000000 -0.152689 -1.560700
v -0.215749 -0.028526 0.003351
vn 0.000000 -1.500639 -0.455168
v -0.015749 -0.030647 0.005473
vn 0.000000 -0.002538 -0.000770
v -0.215749 -0.030494 0.004967
vn 0.000000 -1.503171 -0.455936
v -0.015749 -0.030494 0.004967
vn 0.000000 -1.212291 -0.994708
v -0.215749 -0.029909 0.004090
vn 0.000000 -0.002050 -0.001682
v -0.015749 -0.030245 0.004499
vn 0.000000 1.563362 0.152647
v -0.012750 -0.026675 -0.005736
vn 0.000000 0.087534 0.008547
v -0.012750 -0.026649 -0.006000
vn 0.000000 1.563362 0.152647
v -0.015749 -0.026649 -0.006000
vn 0.000000 -0.087531 -0.008546
v -0.012750 -0.029349 -0.006000
vn 0.000000 0.055819 0.067874
v -0.012750 -0.027249 -0.004877
vn 0.000000 0.740539 1.385281
v -0.015749 -0.027483 -0.004752
vn 0.000000 1.306638 0.701357
v -0.012750 -0.026752 -0.005483
vn 0.000000 1.306638 0.701357
v -0.015749 -0.026877 -0.005250
vn 0.000000 0.454037 -1.503746
v -0.012750 -0.027736 -0.007323
vn 0.000000 0.025374 -0.084037
v -0.012750 -0.027483 -0.007247
vn 0.000000 0.055819 -0.067874
v -0.015749 -0.027249 -0.007122
vn 0.000000 0.087531 -0.008547
v -0.012750 -0.026675 -0.006263
vn 0.000000 1.563361 -0.152652
v -0.015749 -0.026675 -0.006263
vn 0.000000 1.306638 -0.701357
v -0.012750 -0.026877 -0.006749
vn 0.000000 1.502587 0.457859
v -0.015749 -0.026675 -0.005736
vn 0.000000 -0.008879 -0.087527
v -0.012750 -0.028000 -0.007350
vn 0.000000 -0.149653 -1.475249
v -0.015749 -0.028263 -0.007323
vn 0.000000 -0.158532 -1.562776
v -0.015749 -0.028000 -0.007350
vn 0.000000 0.084361 -0.025706
v -0.012750 -0.026752 -0.006516
vn 0.000000 1.502587 -0.457859
v -0.015749 -0.026752 -0.006516
vn 0.000000 -0.041545 -0.077715
v -0.015749 -0.028749 -0.007122
vn 0.000000 -0.740542 -1.385280
v -0.015749 -0.028516 -0.007247
vn 0.000000 -0.084361 -0.025706
v -0.012750 -0.029324 -0.006263
vn 0.000000 -1.502587 -0.457859
v -0.012750 -0.029246 -0.006516
vn 0.000000 -0.428663 -1.419709
v -0.012750 -0.028263 -0.007323
vn 0.000000 -0.454037 -1.503746
v -0.012750 -0.028516 -0.007247
vn 0.000000 -0.087534 0.008546
v -0.015749 -0.029349 -0.006000
vn 2.455746 0.000000 0.000000
v -0.012750 -0.026877 -0.005250
vn 0.098146 0.000000 0.000000
v -0.012750 -0.027045 -0.005045
vn 0.685847 0.000000 0.000000
v -0.012750 -0.027045 -0.006954
vn 0.882554 0.000000 0.000000
v -0.012750 -0.027249 -0.007122
vn 0.098294 0.000000 0.000000
v -0.012750 -0.027483 -0.004752
vn 1.179628 0.000000 0.000000
v -0.012750 -0.027736 -0.004676
vn 1.371562 0.000000 0.000000
v -0.012750 -0.028000 -0.004649
vn 1.573822 0.000000 0.000000
v -0.012750 -0.028263 -0.004676
vn 1.766024 0.000000 0.000000
v -0.012750 -0.028516 -0.004752
vn 0.098294 0.000000 0.000000
v -0.012750 -0.028749 -0.004877
vn 0.098377 0.000000 0.000000
v -0.012750 -0.028955 -0.005045
vn 0.786333 0.000000 0.000000
v -0.012750 -0.028749 -0.007122
vn 2.455458 0.000000 0.000000
v -0.012750 -0.029122 -0.006749
vn 0.489288 0.000000 0.000000
v -0.012750 -0.029122 -0.005250
vn 0.098766 0.000000 0.000000
v -0.012750 -0.029324 -0.005736
vn 0.000000 -0.995121 -1.215375
v -0.012750 -0.028955 -0.006954
vn 0.000000 -1.147140 0.939346
v -0.015749 -0.029122 -0.005250
vn 0.000000 -1.386491 0.738270
v -0.012750 -0.029246 -0.005483
vn 0.000000 -1.563072 0.155586
v -0.215749 -0.030647 -0.005473
vn 0.000000 -1.560440 0.155324
v -0.015749 -0.030647 -0.005473
vn 0.000000 -1.563072 0.155586
v -0.015749 -0.030700 -0.006000
vn 0.000000 -0.994736 1.212269
v -0.015749 -0.029909 -0.004090
vn 0.000000 -0.994736 1.212269
v -0.215749 -0.029500 -0.003755
vn 0.000000 -0.996414 1.214314
v -0.215749 -0.029909 -0.004090
vn 0.000000 0.000770 -0.002538
v -0.215749 -0.027472 -0.008648
vn 0.000000 1.503171 0.455936
v -0.015749 -0.025505 -0.004967
vn -2.943168 0.000000 0.000000
v -0.215749 -0.025299 -0.006000
vn -2.847096 0.000000 0.000000
v -0.215749 -0.025352 -0.006526
vn -0.098302 0.000000 0.000000
v -0.215749 -0.025505 -0.004967
vn -0.588981 0.000000 0.000000
v -0.215749 -0.026091 -0.007909
vn -0.883646 0.000000 0.000000
v -0.215749 -0.026500 -0.003755
vn -0.980880 0.000000 0.000000
v -0.215749 -0.026966 -0.008494
vn -2.062626 0.000000 0.000000
v -0.215749 -0.026500 -0.008245
vn -0.098144 0.000000 0.000000
v -0.215749 -0.026966 -0.003505
vn -0.098295 0.000000 0.000000
v -0.215749 -0.027472 -0.003351
vn -1.473457 0.000000 0.000000
v -0.215749 -0.028000 -0.003300
vn -1.570211 0.000000 0.000000
v -0.215749 -0.028526 -0.008648
vn -1.668320 0.000000 0.000000
v -0.215749 -0.028526 -0.003351
vn -0.981494 0.000000 0.000000
v -0.215749 -0.029033 -0.003505
vn -2.159784 0.000000 0.000000
v -0.215749 -0.029909 -0.007909
vn -0.489415 0.000000 0.000000
v -0.215749 -0.030245 -0.007500
vn -2.943168 0.000000 0.000000
v -0.215749 -0.030700 -0.006000
vn 0.000000 -0.000770 0.002538
v -0.015749 -0.029033 -0.003505
vn 0.000000 0.740543 -1.382278
v -0.015749 -0.026500 -0.008245
vn 0.000000 0.002538 -0.000770
v -0.015749 -0.025505 -0.007032
vn 0.000000 0.002050 -0.001682
v -0.215749 -0.025755 -0.007500
vn 0.000000 0.996414 1.214314
v -0.015749 -0.026091 -0.004090
vn 0.000000 0.001682 0.002050
v -0.015749 -0.026500 -0.003755
vn 0.000000 0.994736 1.212269
v -0.215749 -0.026091 -0.004090
vn 0.000000 0.455008 1.500688
v -0.015749 -0.027472 -0.003351
vn 0.000000 1.385289 0.740524
v -0.015749 -0.025755 -0.004499
vn 0.000000 1.382952 0.739275
v -0.215749 -0.025755 -0.004499
vn 0.000000 1.560440 0.155324
v -0.015749 -0.025299 -0.006000
vn 0.000000 1.560440 0.155324
v -0.215749 -0.025352 -0.005473
vn 0.000000 -0.002639 -0.000263
v -0.215749 -0.030647 -0.006526
vn 0.000000 -1.386397 -0.738447
v -0.215749 -0.030494 -0.007032
vn 0.000000 -0.002360 0.001257
v -0.215749 -0.030494 -0.004967
vn 0.000000 -1.212291 0.994708
v -0.215749 -0.030245 -0.004499
vn 1.284709 0.000000 0.000000
v -0.015749 -0.025352 -0.005473
vn 0.385965 0.000000 0.000000
v -0.015749 -0.026752 -0.005483
vn 1.472584 0.000000 0.000000
v -0.015749 -0.025352 -0.006526
vn 0.385408 0.000000 0.000000
v -0.015749 -0.027045 -0.005045
vn 1.282473 0.000000 0.000000
v -0.015749 -0.026966 -0.003505
vn 1.283378 0.000000 0.000000
v -0.015749 -0.027249 -0.004877
vn 0.385814 0.000000 0.000000
v -0.015749 -0.027736 -0.004676
vn 1.280687 0.000000 0.000000
v -0.015749 -0.028263 -0.004676
vn 1.671932 0.000000 0.000000
v -0.015749 -0.028000 -0.004649
vn 1.285093 0.000000 0.000000
v -0.015749 -0.028516 -0.004752
vn 1.283901 0.000000 0.000000
v -0.015749 -0.028526 -0.003351
vn 1.472474 0.000000 0.000000
v -0.015749 -0.029500 -0.003755
vn 0.385844 0.000000 0.000000
v -0.015749 -0.028749 -0.004877
vn 1.284685 0.000000 0.000000
v -0.015749 -0.028955 -0.005045
vn 1.473072 0.000000 0.000000
v -0.015749 -0.030245 -0.004499
vn 0.188782 0.000000 0.000000
v -0.015749 -0.025755 -0.007500
vn 1.670364 0.000000 0.000000
v -0.015749 -0.027045 -0.006954
vn 0.189254 0.000000 0.000000
v -0.015749 -0.026091 -0.007909
vn 1.281976 0.000000 0.000000
v -0.015749 -0.026877 -0.006749
vn 1.472346 0.000000 0.000000
v -0.015749 -0.026966 -0.008494
vn 0.385345 0.000000 0.000000
v -0.015749 -0.027483 -0.007247
vn 0.188645 0.000000 0.000000
v -0.015749 -0.027472 -0.008648
vn 1.666220 0.000000 0.000000
v -0.015749 -0.027736 -0.007323
vn 1.472180 0.000000 0.000000
v -0.015749 -0.028526 -0.008648
vn 0.189332 0.000000 0.000000
v -0.015749 -0.029033 -0.008494
vn 1.284685 0.000000 0.000000
v -0.015749 -0.028955 -0.006954
vn 0.189312 0.000000 0.000000
v -0.015749 -0.029909 -0.007909
vn 1.284782 0.000000 0.000000
v -0.015749 -0.029324 -0.006263
vn 1.472474 0.000000 0.000000
v -0.015749 -0.029500 -0.008245
vn 1.667200 0.000000 0.000000
v -0.015749 -0.029246 -0.005483
vn 1.284782 0.000000 0.000000
v -0.015749 -0.029324 -0.005736
vn 1.283503 0.000000 0.000000
v -0.015749 -0.030494 -0.004967
vn 0.385322 0.000000 0.000000
v -0.015749 -0.029122 -0.006749
vn 1.473072 0.000000 0.000000
v -0.015749 -0.030245 -0.007500
vn 0.385515 0.000000 0.000000
v -0.015749 -0.029246 -0.006516
vn 0.000000 -0.152947 1.563332
v -0.015749 -0.028000 -0.003300
vn 0.000000 1.382952 -0.739275
v -0.215749 -0.025505 -0.007032
vn 0.000000 -0.002538 -0.000770
v -0.015749 -0.030647 -0.006526
vn 0.000000 -1.503171 -0.455936
v -0.015749 -0.030494 -0.007032
vn 0.000000 -0.001261 -0.002358
v -0.215749 -0.029500 -0.008245
vn 0.000000 -0.740682 -1.385204
v -0.215749 -0.029033 -0.008494
vn 0.000000 -0.152691 -1.560700
v -0.015749 -0.028000 -0.008699
vn 0.000000 -0.152948 -1.563332
v -0.215749 -0.028000 -0.008699
# 512 vertices, 0 vertices normals

f 30//30 1//1 67//67
f 1//1 30//30 28//28
f 16//16 76//76 2//2
f 76//76 16//16 31//31
f 12//12 23//23 58//58
f 23//23 12//12 3//3
f 42//42 4//4 5//5
f 4//4 42//42 46//46
f 8//8 6//6 7//7
f 6//6 8//8 27//27
f 27//27 75//75 6//6
f 75//75 27//27 29//29
f 10//10 9//9 73//73
f 9//9 10//10 11//11
f 28//28 65//65 1//1
f 65//65 28//28 18//18
f 26//26 64//64 19//19
f 64//64 26//26 25//25
f 13//13 3//3 12//12
f 3//3 13//13 24//24
f 15//15 14//14 21//21
f 14//14 15//15 20//20
f 29//29 2//2 75//75
f 2//2 29//29 16//16
f 73//73 8//8 7//7
f 8//8 73//73 9//9
f 58//58 11//11 10//10
f 11//11 58//58 23//23
f 17//17 67//67 68//68
f 67//67 17//17 30//30
f 18//18 19//19 65//65
f 19//19 18//18 26//26
f 64//64 20//20 15//15
f 20//20 64//64 25//25
f 21//21 24//24 13//13
f 24//24 21//21 14//14
f 34//34 69//69 47//47
f 69//69 34//34 35//35
f 36//36 48//48 43//43
f 48//48 36//36 22//22
f 37//37 45//45 39//39
f 45//45 37//37 71//71
f 35//35 68//68 69//69
f 68//68 35//35 17//17
f 5//5 85//85 41//41
f 85//85 5//5 4//4
f 24//24 23//23 3//3
f 14//14 23//23 24//24
f 14//14 11//11 23//23
f 20//20 11//11 14//14
f 20//20 9//9 11//11
f 25//25 9//9 20//20
f 25//25 8//8 9//9
f 26//26 8//8 25//25
f 26//26 27//27 8//8
f 18//18 27//27 26//26
f 18//18 29//29 27//27
f 28//28 29//29 18//18
f 28//28 16//16 29//29
f 30//30 16//16 28//28
f 30//30 31//31 16//16
f 17//17 31//31 30//30
f 17//17 32//32 31//31
f 35//35 32//32 17//17
f 35//35 33//33 32//32
f 34//34 33//33 35//35
f 34//34 36//36 33//33
f 37//37 36//36 34//34
f 37//37 22//22 36//36
f 39//39 22//22 37//37
f 39//39 38//38 22//22
f 44//44 38//38 39//39
f 44//44 40//40 38//38
f 42//42 40//40 44//44
f 42//42 41//41 40//40
f 41//41 42//42 5//5
f 33//33 43//43 78//78
f 43//43 33//33 36//36
f 32//32 78//78 77//77
f 78//78 32//32 33//33
f 31//31 77//77 76//76
f 77//77 31//31 32//32
f 39//39 86//86 44//44
f 86//86 39//39 45//45
f 44//44 46//46 42//42
f 46//46 44//44 86//86
f 37//37 47//47 71//71
f 47//47 37//37 34//34
f 41//41 82//82 40//40
f 82//82 41//41 85//85
f 38//38 48//48 22//22
f 48//48 38//38 80//80
f 40//40 80//80 38//38
f 80//80 40//40 82//82
f 49//49 112//112 113//113
f 112//112 49//49 54//54
f 50//50 51//51 95//95
f 51//51 50//50 122//122
f 52//52 106//106 105//105
f 106//106 52//52 53//53
f 84//84 103//103 121//121
f 103//103 84//84 104//104
f 54//54 55//55 112//112
f 55//55 54//54 66//66
f 110//110 72//72 56//56
f 72//72 110//110 96//96
f 107//107 60//60 109//109
f 60//60 107//107 59//59
f 12//12 57//57 62//62
f 13//13 62//62 124//124
f 57//57 12//12 59//59
f 21//21 124//124 63//63
f 58//58 59//59 12//12
f 15//15 63//63 61//61
f 59//59 58//58 60//60
f 64//64 61//61 123//123
f 10//10 60//60 58//58
f 60//60 10//10 96//96
f 62//62 13//13 12//12
f 124//124 21//21 13//13
f 63//63 15//15 21//21
f 19//19 123//123 66//66
f 61//61 64//64 15//15
f 123//123 19//19 64//64
f 65//65 66//66 54//54
f 66//66 65//65 19//19
f 54//54 1//1 65//65
f 49//49 1//1 54//54
f 49//49 67//67 1//1
f 49//49 68//68 67//67
f 128//128 68//68 49//49
f 68//68 128//128 69//69
f 70//70 69//69 128//128
f 69//69 70//70 47//47
f 100//100 47//47 70//70
f 47//47 100//100 71//71
f 126//126 71//71 100//100
f 71//71 126//126 45//45
f 45//45 127//127 86//86
f 127//127 45//45 126//126
f 73//73 96//96 10//10
f 96//96 73//73 72//72
f 7//7 72//72 73//73
f 72//72 7//7 74//74
f 6//6 74//74 7//7
f 74//74 6//6 93//93
f 75//75 93//93 6//6
f 93//93 75//75 50//50
f 2//2 50//50 75//75
f 76//76 50//50 2//2
f 76//76 122//122 50//50
f 77//77 122//122 76//76
f 79//79 77//77 78//78
f 77//77 79//79 122//122
f 89//89 78//78 43//43
f 84//84 43//43 48//48
f 78//78 89//89 79//79
f 104//104 48//48 80//80
f 81//81 80//80 82//82
f 83//83 82//82 85//85
f 43//43 84//84 89//89
f 105//105 85//85 4//4
f 87//87 86//86 127//127
f 86//86 87//87 46//46
f 48//48 104//104 84//84
f 88//88 46//46 87//87
f 80//80 81//81 104//104
f 46//46 88//88 4//4
f 82//82 83//83 81//81
f 52//52 4//4 88//88
f 85//85 105//105 83//83
f 4//4 52//52 105//105
f 79//79 115//115 114//114
f 115//115 79//79 89//89
f 66//66 90//90 55//55
f 90//90 66//66 123//123
f 108//108 62//62 91//91
f 62//62 108//108 124//124
f 111//111 63//63 125//125
f 63//63 111//111 61//61
f 74//74 92//92 94//94
f 92//92 74//74 93//93
f 72//72 94//94 56//56
f 94//94 72//72 74//74
f 93//93 95//95 92//92
f 95//95 93//93 50//50
f 109//109 96//96 110//110
f 96//96 109//109 60//60
f 97//97 59//59 107//107
f 59//59 97//97 57//57
f 88//88 53//53 52//52
f 53//53 88//88 119//119
f 127//127 120//120 87//87
f 120//120 127//127 117//117
f 126//126 98//98 99//99
f 98//98 126//126 100//100
f 70//70 101//101 116//116
f 101//101 70//70 128//128
f 83//83 102//102 81//81
f 102//102 83//83 118//118
f 81//81 103//103 104//104
f 103//103 81//81 102//102
f 105//105 118//118 83//83
f 118//118 105//105 106//106
f 107//107 91//91 97//97
f 109//109 91//91 107//107
f 109//109 108//108 91//91
f 110//110 108//108 109//109
f 110//110 125//125 108//108
f 56//56 125//125 110//110
f 56//56 111//111 125//125
f 94//94 111//111 56//56
f 94//94 90//90 111//111
f 92//92 90//90 94//94
f 92//92 55//55 90//90
f 95//95 55//55 92//92
f 95//95 112//112 55//55
f 51//51 112//112 95//95
f 51//51 113//113 112//112
f 114//114 113//113 51//51
f 114//114 101//101 113//113
f 115//115 101//101 114//114
f 115//115 116//116 101//101
f 121//121 116//116 115//115
f 121//121 98//98 116//116
f 103//103 98//98 121//121
f 103//103 99//99 98//98
f 102//102 99//99 103//103
f 102//102 117//117 99//99
f 118//118 117//117 102//102
f 118//118 120//120 117//117
f 106//106 120//120 118//118
f 106//106 119//119 120//120
f 119//119 106//106 53//53
f 89//89 121//121 115//115
f 121//121 89//89 84//84
f 122//122 114//114 51//51
f 114//114 122//122 79//79
f 123//123 111//111 90//90
f 111//111 123//123 61//61
f 91//91 57//57 97//97
f 57//57 91//91 62//62
f 125//125 124//124 108//108
f 124//124 125//125 63//63
f 87//87 119//119 88//88
f 119//119 87//87 120//120
f 126//126 117//117 127//127
f 117//117 126//126 99//99
f 100//100 116//116 98//98
f 116//116 100//100 70//70
f 128//128 113//113 101//101
f 113//113 128//128 49//49
f 148//148 129//129 195//195
f 129//129 148//148 162//162
f 163//163 175//175 207//207
f 175//175 163//163 174//174
f 140//140 130//130 191//191
f 130//130 140//140 141//141
f 173//173 159//159 131//131
f 159//159 173//173 132//132
f 134//134 133//133 145//145
f 133//133 134//134 135//135
f 135//135 206//206 133//133
f 206//206 135//135 144//144
f 137//137 136//136 201//201
f 136//136 137//137 146//146
f 162//162 138//138 129//129
f 138//138 162//162 161//161
f 160//160 149//149 194//194
f 149//149 160//160 139//139
f 142//142 141//141 140//140
f 141//141 142//142 143//143
f 190//190 151//151 192//192
f 151//151 190//190 150//150
f 144//144 207//207 206//206
f 207//207 144//144 163//163
f 201//201 134//134 145//145
f 134//134 201//201 136//136
f 191//191 146//146 137//137
f 146//146 191//191 130//130
f 165//165 195//195 147//147
f 195//195 165//165 148//148
f 161//161 194//194 138//138
f 194//194 161//161 160//160
f 149//149 150//150 190//190
f 150//150 149//149 139//139
f 192//192 143//143 142//142
f 143//143 192//192 151//151
f 166//166 152//152 197//197
f 152//152 166//166 168//168
f 155//155 154//154 153//153
f 154//154 155//155 156//156
f 171//171 132//132 173//173
f 132//132 171//171 215//215
f 157//157 199//199 158//158
f 199//199 157//157 176//176
f 168//168 147//147 152//152
f 147//147 168//168 165//165
f 131//131 156//156 155//155
f 156//156 131//131 159//159
f 143//143 130//130 141//141
f 151//151 130//130 143//143
f 151//151 146//146 130//130
f 150//150 146//146 151//151
f 150//150 136//136 146//146
f 139//139 136//136 150//150
f 139//139 134//134 136//136
f 160//160 134//134 139//139
f 160//160 135//135 134//134
f 161//161 135//135 160//160
f 161//161 144//144 135//135
f 162//162 144//144 161//161
f 162//162 163//163 144//144
f 148//148 163//163 162//162
f 148//148 174//174 163//163
f 165//165 174//174 148//148
f 165//165 164//164 174//174
f 168//168 164//164 165//165
f 168//168 167//167 164//164
f 166//166 167//167 168//168
f 166//166 169//169 167//167
f 157//157 169//169 166//166
f 157//157 170//170 169//169
f 158//158 170//170 157//157
f 158//158 172//172 170//170
f 171//171 172//172 158//158
f 171//171 153//153 172//172
f 173//173 153//153 171//171
f 173//173 155//155 153//153
f 155//155 173//173 131//131
f 169//169 177//177 212//212
f 177//177 169//169 170//170
f 167//167 212//212 210//210
f 212//212 167//167 169//169
f 164//164 210//210 209//209
f 210//210 164//164 167//167
f 174//174 209//209 175//175
f 209//209 174//174 164//164
f 158//158 215//215 171//171
f 215//215 158//158 199//199
f 157//157 197//197 176//176
f 197//197 157//157 166//166
f 172//172 177//177 170//170
f 177//177 172//172 178//178
f 153//153 178//178 172//172
f 178//178 153//153 154//154
f 256//256 179//179 240//240
f 179//179 256//256 180//180
f 181//181 239//239 227//227
f 239//239 181//181 208//208
f 218//218 248//248 235//235
f 248//248 218//218 182//182
f 183//183 245//245 244//244
f 245//245 183//183 234//234
f 180//180 238//238 179//179
f 238//238 180//180 193//193
f 184//184 203//203 185//185
f 203//203 184//184 202//202
f 188//188 187//187 186//186
f 187//187 188//188 189//189
f 140//140 229//229 222//222
f 142//142 222//222 253//253
f 229//229 140//140 189//189
f 192//192 253//253 224//224
f 191//191 189//189 140//140
f 190//190 224//224 250//250
f 189//189 191//191 187//187
f 149//149 250//250 249//249
f 137//137 187//187 191//191
f 187//187 137//137 202//202
f 222//222 142//142 140//140
f 253//253 192//192 142//142
f 224//224 190//190 192//192
f 194//194 249//249 193//193
f 250//250 149//149 190//190
f 249//249 194//194 149//149
f 138//138 193//193 180//180
f 193//193 138//138 194//194
f 180//180 129//129 138//138
f 256//256 129//129 180//180
f 256//256 195//195 129//129
f 256//256 147//147 195//195
f 232//232 147//147 256//256
f 147//147 232//232 152//152
f 231//231 152//152 232//232
f 152//152 231//231 197//197
f 196//196 197//197 231//231
f 197//197 196//196 176//176
f 198//198 176//176 196//196
f 176//176 198//198 199//199
f 199//199 200//200 215//215
f 200//200 199//199 198//198
f 201//201 202//202 137//137
f 202//202 201//201 203//203
f 145//145 203//203 201//201
f 203//203 145//145 204//204
f 133//133 204//204 145//145
f 204//204 133//133 205//205
f 206//206 205//205 133//133
f 205//205 206//206 181//181
f 207//207 181//181 206//206
f 175//175 181//181 207//207
f 175//175 208//208 181//181
f 209//209 208//208 175//175
f 219//219 209//209 210//210
f 209//209 219//219 208//208
f 213//213 210//210 212//212
f 183//183 212//212 177//177
f 210//210 213//213 219//219
f 234//234 177//177 178//178
f 211//211 178//178 154//154
f 217//217 154//154 156//156
f 212//212 183//183 213//213
f 235//235 156//156 159//159
f 214//214 215//215 200//200
f 215//215 214//214 132//132
f 177//177 234//234 183//183
f 216//216 132//132 214//214
f 178//178 211//211 234//234
f 132//132 216//216 159//159
f 154//154 217//217 211//211
f 218//218 159//159 216//216
f 156//156 235//235 217//217
f 159//159 218//218 235//235
f 219//219 220//220 221//221
f 220//220 219//219 213//213
f 193//193 236//236 238//238
f 236//236 193//193 249//249
f 223//223 222//222 251//251
f 222//222 223//223 253//253
f 237//237 224//224 225//225
f 224//224 237//237 250//250
f 204//204 228//228 226//226
f 228//228 204//204 205//205
f 203//203 226//226 185//185
f 226//226 203//203 204//204
f 205//205 227//227 228//228
f 227//227 205//205 181//181
f 186//186 202//202 184//184
f 202//202 186//186 187//187
f 252//252 189//189 188//188
f 189//189 252//252 229//229
f 216//216 182//182 218//218
f 182//182 216//216 254//254
f 200//200 255//255 214//214
f 255//255 200//200 230//230
f 198//198 242//242 246//246
f 242//242 198//198 196//196
f 231//231 241//241 243//243
f 241//241 231//231 232//232
f 217//217 233//233 211//211
f 233//233 217//217 247//247
f 211//211 245//245 234//234
f 245//245 211//211 233//233
f 235//235 247//247 217//217
f 247//247 235//235 248//248
f 188//188 251//251 252//252
f 186//186 251//251 188//188
f 186//186 223//223 251//251
f 184//184 223//223 186//186
f 184//184 225//225 223//223
f 185//185 225//225 184//184
f 185//185 237//237 225//225
f 226//226 237//237 185//185
f 226//226 236//236 237//237
f 228//228 236//236 226//226
f 228//228 238//238 236//236
f 227//227 238//238 228//228
f 227//227 179//179 238//238
f 239//239 179//179 227//227
f 239//239 240//240 179//179
f 221//221 240//240 239//239
f 221//221 241//241 240//240
f 220//220 241//241 221//221
f 220//220 243//243 241//241
f 244//244 243//243 220//220
f 244//244 242//242 243//243
f 245//245 242//242 244//244
f 245//245 246//246 242//242
f 233//233 246//246 245//245
f 233//233 230//230 246//246
f 247//247 230//230 233//233
f 247//247 255//255 230//230
f 248//248 255//255 247//247
f 248//248 254//254 255//255
f 254//254 248//248 182//182
f 213//213 244//244 220//220
f 244//244 213//213 183//183
f 208//208 221//221 239//239
f 221//221 208//208 219//219
f 249//249 237//237 236//236
f 237//237 249//249 250//250
f 251//251 229//229 252//252
f 229//229 251//251 222//222
f 225//225 253//253 223//223
f 253//253 225//225 224//224
f 214//214 254//254 216//216
f 254//254 214//214 255//255
f 198//198 230//230 200//200
f 230//230 198//198 246//246
f 196//196 243//243 242//242
f 243//243 196//196 231//231
f 232//232 240//240 241//241
f 240//240 232//232 256//256
f 275//275 269//269 292//292
f 269//269 275//275 268//268
f 351//351 258//258 257//257
f 258//258 351//351 259//259
f 286//286 349//349 288//288
f 349//349 286//286 270//270
f 367//367 260//260 371//371
f 260//260 367//367 261//261
f 350//350 262//262 263//263
f 262//262 350//350 264//264
f 264//264 265//265 262//262
f 265//265 264//264 272//272
f 287//287 266//266 273//273
f 266//266 287//287 267//267
f 268//268 277//277 269//269
f 277//277 268//268 276//276
f 362//362 278//278 290//290
f 278//278 362//362 360//360
f 281//281 270//270 286//286
f 270//270 281//281 271//271
f 279//279 359//359 289//289
f 359//359 279//279 280//280
f 272//272 257//257 265//265
f 257//257 272//272 351//351
f 273//273 350//350 263//263
f 350//350 273//273 266//266
f 288//288 267//267 287//287
f 267//267 288//288 349//349
f 274//274 292//292 293//293
f 292//292 274//274 275//275
f 276//276 290//290 277//277
f 290//290 276//276 362//362
f 278//278 280//280 279//279
f 280//280 278//278 360//360
f 289//289 271//271 281//281
f 271//271 289//289 359//359
f 364//364 285//285 294//294
f 285//285 364//364 284//284
f 282//282 305//305 301//301
f 305//305 282//282 356//356
f 283//283 261//261 367//367
f 261//261 283//283 299//299
f 365//365 298//298 370//370
f 298//298 365//365 295//295
f 284//284 293//293 285//285
f 293//293 284//284 274//274
f 371//371 304//304 303//303
f 304//304 371//371 260//260
f 288//288 281//281 286//286
f 287//287 281//281 288//288
f 287//287 289//289 281//281
f 273//273 289//289 287//287
f 273//273 279//279 289//289
f 263//263 279//279 273//273
f 263//263 278//278 279//279
f 262//262 278//278 263//263
f 262//262 290//290 278//278
f 265//265 290//290 262//262
f 265//265 277//277 290//290
f 257//257 277//277 265//265
f 257//257 269//269 277//277
f 258//258 269//269 257//257
f 258//258 292//292 269//269
f 291//291 292//292 258//258
f 291//291 293//293 292//292
f 302//302 293//293 291//291
f 302//302 285//285 293//293
f 301//301 285//285 302//302
f 301//301 294//294 285//285
f 305//305 294//294 301//301
f 305//305 295//295 294//294
f 297//297 295//295 305//305
f 297//297 298//298 295//295
f 296//296 298//298 297//297
f 296//296 299//299 298//298
f 304//304 299//299 296//296
f 304//304 261//261 299//299
f 261//261 304//304 260//260
f 300//300 301//301 302//302
f 301//301 300//300 282//282
f 352//352 302//302 291//291
f 302//302 352//352 300//300
f 259//259 291//291 258//258
f 291//291 259//259 352//352
f 370//370 299//299 283//283
f 299//299 370//370 298//298
f 365//365 294//294 295//295
f 294//294 365//365 364//364
f 303//303 296//296 358//358
f 296//296 303//303 304//304
f 306//306 305//305 356//356
f 305//305 306//306 297//297
f 358//358 297//297 306//306
f 297//297 358//358 296//296
f 319//319 307//307 378//378
f 307//307 319//319 308//308
f 338//338 353//353 336//336
f 353//353 338//338 320//320
f 309//309 369//369 344//344
f 369//369 309//309 310//310
f 323//323 357//357 355//355
f 357//357 323//323 311//311
f 308//308 312//312 307//307
f 312//312 308//308 327//327
f 313//313 318//318 347//347
f 318//318 313//313 317//317
f 345//345 316//316 346//346
f 316//316 345//345 315//315
f 330//330 315//315 377//377
f 314//314 315//315 330//330
f 314//314 316//316 315//315
f 332//332 316//316 314//314
f 332//332 317//317 316//316
f 375//375 317//317 332//332
f 375//375 318//318 317//317
f 329//329 318//318 375//375
f 329//329 333//333 318//318
f 327//327 333//333 329//329
f 327//327 337//337 333//333
f 308//308 337//337 327//327
f 308//308 338//338 337//337
f 319//319 338//338 308//308
f 319//319 320//320 338//338
f 379//379 320//320 319//319
f 379//379 374//374 320//320
f 321//321 374//374 379//379
f 321//321 372//372 374//374
f 322//322 372//372 321//321
f 322//322 323//323 372//372
f 383//383 323//323 322//322
f 383//383 311//311 323//323
f 324//324 311//311 383//383
f 324//324 343//343 311//311
f 381//381 343//343 324//324
f 381//381 326//326 343//343
f 325//325 326//326 381//381
f 325//325 344//344 326//326
f 344//344 325//325 309//309
f 374//374 354//354 373//373
f 354//354 374//374 372//372
f 327//327 328//328 312//312
f 328//328 327//327 329//329
f 348//348 330//330 376//376
f 330//330 348//348 314//314
f 361//361 332//332 331//331
f 332//332 361//361 375//375
f 333//333 334//334 335//335
f 334//334 333//333 337//337
f 318//318 335//335 347//347
f 335//335 318//318 333//333
f 337//337 336//336 334//334
f 336//336 337//337 338//338
f 346//346 317//317 313//313
f 317//317 346//346 316//316
f 339//339 315//315 345//345
f 315//315 339//339 377//377
f 325//325 310//310 309//309
f 310//310 325//325 380//380
f 324//324 382//382 381//381
f 382//382 324//324 384//384
f 383//383 340//340 366//366
f 340//340 383//383 322//322
f 321//321 341//341 363//363
f 341//341 321//321 379//379
f 326//326 342//342 343//343
f 342//342 326//326 368//368
f 343//343 357//357 311//311
f 357//357 343//343 342//342
f 344//344 368//368 326//326
f 368//368 344//344 369//369
f 270//270 339//339 345//345
f 349//349 345//345 346//346
f 339//339 270//270 376//376
f 267//267 346//346 313//313
f 271//271 376//376 270//270
f 266//266 313//313 347//347
f 376//376 271//271 348//348
f 350//350 347//347 335//335
f 359//359 348//348 271//271
f 348//348 359//359 331//331
f 345//345 349//349 270//270
f 346//346 267//267 349//349
f 313//313 266//266 267//267
f 264//264 335//335 334//334
f 347//347 350//350 266//266
f 335//335 264//264 350//350
f 272//272 334//334 336//336
f 334//334 272//272 264//264
f 336//336 351//351 272//272
f 353//353 351//351 336//336
f 353//353 259//259 351//351
f 353//353 352//352 259//259
f 373//373 352//352 353//353
f 352//352 373//373 300//300
f 354//354 300//300 373//373
f 300//300 354//354 282//282
f 355//355 282//282 354//354
f 282//282 355//355 356//356
f 357//357 356//356 355//355
f 356//356 357//357 306//306
f 306//306 342//342 358//358
f 342//342 306//306 357//357
f 280//280 331//331 359//359
f 331//331 280//280 361//361
f 360//360 361//361 280//280
f 361//361 360//360 328//328
f 362//362 328//328 360//360
f 328//328 362//362 312//312
f 276//276 312//312 362//362
f 312//312 276//276 307//307
f 268//268 307//307 276//276
f 275//275 307//307 268//268
f 275//275 378//378 307//307
f 274//274 378//378 275//275
f 341//341 274//274 284//284
f 274//274 341//341 378//378
f 363//363 284//284 364//364
f 340//340 364//364 365//365
f 284//284 363//363 341//341
f 366//366 365//365 370//370
f 384//384 370//370 283//283
f 382//382 283//283 367//367
f 364//364 340//340 363//363
f 380//380 367//367 371//371
f 368//368 358//358 342//342
f 358//358 368//368 303//303
f 365//365 366//366 340//340
f 369//369 303//303 368//368
f 370//370 384//384 366//366
f 303//303 369//369 371//371
f 283//283 382//382 384//384
f 310//310 371//371 369//369
f 367//367 380//380 382//382
f 371//371 310//310 380//380
f 372//372 355//355 354//354
f 355//355 372//372 323//323
f 320//320 373//373 353//353
f 373//373 320//320 374//374
f 329//329 361//361 328//328
f 361//361 329//329 375//375
f 376//376 377//377 339//339
f 377//377 376//376 330//330
f 331//331 314//314 348//348
f 314//314 331//331 332//332
f 379//379 378//378 341//341
f 378//378 379//379 319//319
f 381//381 380//380 325//325
f 380//380 381//381 382//382
f 383//383 384//384 324//324
f 384//384 383//383 366//366
f 322//322 363//363 340//340
f 363//363 322//322 321//321
f 402//402 393//393 400//400
f 393//393 402//402 492//492
f 476//476 418//418 417//417
f 418//418 476//476 478//478
f 386//386 399//399 385//385
f 399//399 386//386 387//387
f 497//497 388//388 411//411
f 388//388 497//497 407//407
f 473//473 389//389 413//413
f 389//389 473//473 475//475
f 475//475 416//416 389//389
f 416//416 475//475 390//390
f 391//391 392//392 412//412
f 392//392 391//391 471//471
f 492//492 394//394 393//393
f 394//394 492//492 490//490
f 395//395 414//414 415//415
f 414//414 395//395 486//486
f 396//396 387//387 386//386
f 387//387 396//396 397//397
f 398//398 404//404 403//403
f 404//404 398//398 488//488
f 390//390 417//417 416//416
f 417//417 390//390 476//476
f 412//412 473//473 413//413
f 473//473 412//412 392//392
f 385//385 471//471 391//391
f 471//471 385//385 399//399
f 401//401 400//400 409//409
f 400//400 401//401 402//402
f 490//490 415//415 394//394
f 415//415 490//490 395//395
f 414//414 488//488 398//398
f 488//488 414//414 486//486
f 403//403 397//397 396//396
f 397//397 403//403 404//404
f 405//405 410//410 423//423
f 410//410 405//405 406//406
f 500//500 429//429 499//499
f 429//429 500//500 426//426
f 504//504 407//407 497//497
f 407//407 504//504 408//408
f 495//495 424//424 502//502
f 424//424 495//495 427//427
f 406//406 409//409 410//410
f 409//409 406//406 401//401
f 411//411 426//426 500//500
f 426//426 411//411 388//388
f 385//385 396//396 386//386
f 391//391 396//396 385//385
f 391//391 403//403 396//396
f 412//412 403//403 391//391
f 412//412 398//398 403//403
f 413//413 398//398 412//412
f 413//413 414//414 398//398
f 389//389 414//414 413//413
f 389//389 415//415 414//414
f 416//416 415//415 389//389
f 416//416 394//394 415//415
f 417//417 394//394 416//416
f 417//417 393//393 394//394
f 418//418 393//393 417//417
f 418//418 400//400 393//393
f 419//419 400//400 418//418
f 419//419 409//409 400//400
f 420//420 409//409 419//419
f 420//420 410//410 409//409
f 421//421 410//410 420//420
f 421//421 423//423 410//410
f 422//422 423//423 421//421
f 422//422 427//427 423//423
f 425//425 427//427 422//422
f 425//425 424//424 427//427
f 429//429 424//424 425//425
f 429//429 408//408 424//424
f 426//426 408//408 429//429
f 426//426 407//407 408//408
f 407//407 426//426 388//388
f 482//482 422//422 421//421
f 422//422 482//482 483//483
f 479//479 421//421 420//420
f 421//421 479//479 482//482
f 477//477 420//420 419//419
f 420//420 477//477 479//479
f 478//478 419//419 418//418
f 419//419 478//478 477//477
f 502//502 408//408 504//504
f 408//408 502//502 424//424
f 495//495 423//423 427//427
f 423//423 495//495 405//405
f 428//428 422//422 483//483
f 422//422 428//428 425//425
f 499//499 425//425 428//428
f 425//425 499//499 429//429
f 512//512 491//491 511//511
f 491//491 512//512 436//436
f 446//446 505//505 461//461
f 505//505 446//446 447//447
f 453//453 431//431 430//430
f 431//431 453//453 432//432
f 434//434 433//433 481//481
f 433//433 434//434 435//435
f 436//436 489//489 491//491
f 489//489 436//436 443//443
f 462//462 460//460 458//458
f 460//460 462//462 463//463
f 470//470 440//440 437//437
f 440//440 470//470 465//465
f 439//439 465//465 438//438
f 506//506 465//465 439//439
f 506//506 440//440 465//465
f 457//457 440//440 506//506
f 457//457 463//463 440//440
f 441//441 463//463 457//457
f 441//441 460//460 463//463
f 444//444 460//460 441//441
f 444//444 442//442 460//460
f 443//443 442//442 444//444
f 443//443 445//445 442//442
f 436//436 445//445 443//443
f 436//436 446//446 445//445
f 512//512 446//446 436//436
f 512//512 447//447 446//446
f 448//448 447//447 512//512
f 448//448 449//449 447//447
f 510//510 449//449 448//448
f 510//510 450//450 449//449
f 509//509 450//450 510//510
f 509//509 434//434 450//450
f 451//451 434//434 509//509
f 451//451 435//435 434//434
f 452//452 435//435 451//451
f 452//452 469//469 435//435
f 467//467 469//469 452//452
f 467//467 468//468 469//469
f 466//466 468//468 467//467
f 466//466 430//430 468//468
f 430//430 466//466 453//453
f 449//449 454//454 480//480
f 454//454 449//449 450//450
f 443//443 455//455 489//489
f 455//455 443//443 444//444
f 456//456 439//439 472//472
f 439//439 456//456 506//506
f 487//487 457//457 485//485
f 457//457 487//487 441//441
f 442//442 474//474 459//459
f 474//474 442//442 445//445
f 460//460 459//459 458//458
f 459//459 460//460 442//442
f 445//445 461//461 474//474
f 461//461 445//445 446//446
f 437//437 463//463 462//462
f 463//463 437//437 440//440
f 464//464 465//465 470//470
f 465//465 464//464 438//438
f 466//466 432//432 453//453
f 432//432 466//466 507//507
f 452//452 508//508 467//467
f 508//508 452//452 503//503
f 451//451 498//498 496//496
f 498//498 451//451 509//509
f 510//510 493//493 494//494
f 493//493 510//510 448//448
f 468//468 484//484 469//469
f 484//484 468//468 501//501
f 469//469 433//433 435//435
f 433//433 469//469 484//484
f 430//430 501//501 468//468
f 501//501 430//430 431//431
f 387//387 464//464 470//470
f 399//399 470//470 437//437
f 464//464 387//387 472//472
f 471//471 437//437 462//462
f 397//397 472//472 387//387
f 392//392 462//462 458//458
f 472//472 397//397 456//456
f 473//473 458//458 459//459
f 404//404 456//456 397//397
f 456//456 404//404 485//485
f 470//470 399//399 387//387
f 437//437 471//471 399//399
f 462//462 392//392 471//471
f 475//475 459//459 474//474
f 458//458 473//473 392//392
f 459//459 475//475 473//473
f 390//390 474//474 461//461
f 474//474 390//390 475//475
f 461//461 476//476 390//390
f 505//505 476//476 461//461
f 505//505 478//478 476//476
f 505//505 477//477 478//478
f 480//480 477//477 505//505
f 477//477 480//480 479//479
f 454//454 479//479 480//480
f 479//479 454//454 482//482
f 481//481 482//482 454//454
f 482//482 481//481 483//483
f 433//433 483//483 481//481
f 483//483 433//433 428//428
f 428//428 484//484 499//499
f 484//484 428//428 433//433
f 488//488 485//485 404//404
f 485//485 488//488 487//487
f 486//486 487//487 488//488
f 487//487 486//486 455//455
f 395//395 455//455 486//486
f 455//455 395//395 489//489
f 490//490 489//489 395//395
f 489//489 490//490 491//491
f 492//492 491//491 490//490
f 402//402 491//491 492//492
f 402//402 511//511 491//491
f 401//401 511//511 402//402
f 493//493 401//401 406//406
f 401//401 493//493 511//511
f 494//494 406//406 405//405
f 498//498 405//405 495//495
f 406//406 494//494 493//493
f 496//496 495//495 502//502
f 503//503 502//502 504//504
f 508//508 504//504 497//497
f 405//405 498//498 494//494
f 507//507 497//497 411//411
f 501//501 499//499 484//484
f 499//499 501//501 500//500
f 495//495 496//496 498//498
f 431//431 500//500 501//501
f 502//502 503//503 496//496
f 500//500 431//431 411//411
f 504//504 508//508 503//503
f 432//432 411//411 431//431
f 497//497 507//507 508//508
f 411//411 432//432 507//507
f 450//450 481//481 454//454
f 481//481 450//450 434//434
f 447//447 480//480 505//505
f 480//480 447//447 449//449
f 444//444 487//487 455//455
f 487//487 444//444 441//441
f 472//472 438//438 464//464
f 438//438 472//472 439//439
f 485//485 506//506 456//456
f 506//506 485//485 457//457
f 467//467 507//507 466//466
f 507//507 467//467 508//508
f 451//451 503//503 452//452
f 503//503 451//451 496//496
f 509//509 494//494 498//498
f 494//494 509//509 510//510
f 448//448 511//511 493//493
f 511//511 448//448 512//512
# 1008 faces, 0 coords texture

# End of File
