solid OpenSCAD_Model
  facet normal -1 0 0
    outer loop
      vertex -0.00499916 -0.00865936 0.000499725
      vertex -0.00499916 0.00865936 0.100499
      vertex -0.00499916 0.00865936 0.000499725
    endloop
  endfacet
  facet normal -1 -0 0
    outer loop
      vertex -0.00499916 0.00865936 0.100499
      vertex -0.00499916 -0.00865936 0.000499725
      vertex -0.00499916 -0.00865936 0.100499
    endloop
  endfacet
  facet normal 0.500001 0.866025 -0
    outer loop
      vertex 0.00999928 0 0.000499725
      vertex -0.00499916 0.00865936 0.100499
      vertex 0.00999928 0 0.100499
    endloop
  endfacet
  facet normal 0.500001 0.866025 0
    outer loop
      vertex -0.00499916 0.00865936 0.100499
      vertex 0.00999928 0 0.000499725
      vertex -0.00499916 0.00865936 0.000499725
    endloop
  endfacet
  facet normal 0.500001 -0.866025 0
    outer loop
      vertex -0.00499916 -0.00865936 0.000499725
      vertex 0.00999928 0 0.100499
      vertex -0.00499916 -0.00865936 0.100499
    endloop
  endfacet
  facet normal 0.500001 -0.866025 0
    outer loop
      vertex 0.00999928 0 0.100499
      vertex -0.00499916 -0.00865936 0.000499725
      vertex 0.00999928 0 0.000499725
    endloop
  endfacet
  facet normal 0 0 1
    outer loop
      vertex 0.00999928 0 0.100499
      vertex -0.00199986 0.00346375 0.100499
      vertex 0.00399971 0 0.100499
    endloop
  endfacet
  facet normal 0 0 1
    outer loop
      vertex -0.00199986 0.00346375 0.100499
      vertex -0.00499916 0.00865936 0.100499
      vertex -0.00199986 -0.00346375 0.100499
    endloop
  endfacet
  facet normal 0 0 1
    outer loop
      vertex -0.00499916 0.00865936 0.100499
      vertex -0.00199986 0.00346375 0.100499
      vertex 0.00999928 0 0.100499
    endloop
  endfacet
  facet normal 0 0 1
    outer loop
      vertex -0.00199986 -0.00346375 0.100499
      vertex 0.00999928 0 0.100499
      vertex 0.00399971 0 0.100499
    endloop
  endfacet
  facet normal -0 0 1
    outer loop
      vertex -0.00199986 -0.00346375 0.100499
      vertex -0.00499916 -0.00865936 0.100499
      vertex 0.00999928 0 0.100499
    endloop
  endfacet
  facet normal 0 0 1
    outer loop
      vertex -0.00499916 -0.00865936 0.100499
      vertex -0.00199986 -0.00346375 0.100499
      vertex -0.00499916 0.00865936 0.100499
    endloop
  endfacet
  facet normal -0 0 -1
    outer loop
      vertex 0.00999928 0 0.000499725
      vertex -0.00199986 -0.00346375 0.000499725
      vertex 0.00399971 0 0.000499725
    endloop
  endfacet
  facet normal -0 0 -1
    outer loop
      vertex -0.00199986 -0.00346375 0.000499725
      vertex -0.00499916 -0.00865936 0.000499725
      vertex -0.00199986 0.00346375 0.000499725
    endloop
  endfacet
  facet normal 0 0 -1
    outer loop
      vertex -0.00499916 -0.00865936 0.000499725
      vertex -0.00199986 -0.00346375 0.000499725
      vertex 0.00999928 0 0.000499725
    endloop
  endfacet
  facet normal 0 0 -1
    outer loop
      vertex -0.00199986 0.00346375 0.000499725
      vertex 0.00999928 0 0.000499725
      vertex 0.00399971 0 0.000499725
    endloop
  endfacet
  facet normal 0 0 -1
    outer loop
      vertex -0.00199986 0.00346375 0.000499725
      vertex -0.00499916 0.00865936 0.000499725
      vertex 0.00999928 0 0.000499725
    endloop
  endfacet
  facet normal 0 0 -1
    outer loop
      vertex -0.00499916 0.00865936 0.000499725
      vertex -0.00199986 0.00346375 0.000499725
      vertex -0.00499916 -0.00865936 0.000499725
    endloop
  endfacet
  facet normal 1 -0 0
    outer loop
      vertex -0.00199986 -0.00346375 0.100499
      vertex -0.00199986 0.00346375 0.000499725
      vertex -0.00199986 0.00346375 0.100499
    endloop
  endfacet
  facet normal 1 0 0
    outer loop
      vertex -0.00199986 0.00346375 0.000499725
      vertex -0.00199986 -0.00346375 0.100499
      vertex -0.00199986 -0.00346375 0.000499725
    endloop
  endfacet
  facet normal -0.499989 -0.866032 0
    outer loop
      vertex -0.00199986 0.00346375 0.000499725
      vertex 0.00399971 0 0.100499
      vertex -0.00199986 0.00346375 0.100499
    endloop
  endfacet
  facet normal -0.499989 -0.866032 -0
    outer loop
      vertex 0.00399971 0 0.100499
      vertex -0.00199986 0.00346375 0.000499725
      vertex 0.00399971 0 0.000499725
    endloop
  endfacet
  facet normal -0.499989 0.866032 0
    outer loop
      vertex 0.00399971 0 0.000499725
      vertex -0.00199986 -0.00346375 0.100499
      vertex 0.00399971 0 0.100499
    endloop
  endfacet
  facet normal -0.499989 0.866032 0
    outer loop
      vertex -0.00199986 -0.00346375 0.100499
      vertex 0.00399971 0 0.000499725
      vertex -0.00199986 -0.00346375 0.000499725
    endloop
  endfacet
endsolid OpenSCAD_Model
