####
#
#	OBJ File Generated by LightWave3D
#	LightWave3D OBJ Export v2.2
#
####
#	Object: 11
#
#	                Vertices: 1820
#	                  Points: 0
#	                   Lines: 0
#	                   Faces: 1836
#	               Materials: 1
#
####

o 11

#	             Vertex list

v 0.040372 -0.318948 0.0263491
v 0.0440517 -0.327411 0.0303554
v 0.0477172 -0.335651 0.0334646
v 0.0501487 -0.341636 0.035245
v 0.0468707 -0.315402 0.0303666
v 0.0509061 -0.325296 0.0333019
v 0.0535608 -0.334537 0.0353237
v 0.0541849 -0.342148 0.0363844
v 0.0537332 -0.313243 0.0355835
v 0.0575491 -0.324241 0.0375729
v 0.0590435 -0.33392 0.0384669
v 0.0581789 -0.342056 0.0386227
v 0.059189 -0.31199 0.0419722
v 0.0625932 -0.323729 0.0435377
v 0.0630895 -0.333531 0.0438236
v 0.0611472 -0.341655 0.0434497
v 0.0619032 -0.311222 0.0494106
v 0.0650195 -0.323324 0.0513115
v 0.0649226 -0.333134 0.0518631
v 0.062371 -0.341171 0.051704
v 0.0622847 -0.310757 0.0573972
v 0.0652843 -0.322915 0.0599924
v 0.064965 -0.332638 0.0612156
v 0.0621921 -0.340549 0.0616206
v 0.061178 -0.310477 0.065336
v 0.0642128 -0.322476 0.0684242
v 0.0639384 -0.331987 0.0700508
v 0.0612174 -0.339664 0.0707835
v 0.0592506 -0.310337 0.072653
v 0.0624472 -0.322054 0.075622
v 0.0624077 -0.331205 0.0768976
v 0.0599592 -0.33845 0.0772977
v 0.0564615 -0.310584 0.0788621
v 0.0598998 -0.321995 0.081285
v 0.0603114 -0.330636 0.08172
v 0.0585526 -0.337068 0.0813532
v 0.0525927 -0.311542 0.0834994
v 0.0563002 -0.322719 0.0852837
v 0.057431 -0.330704 0.0848409
v 0.0570387 -0.335742 0.0836607
v 0.0298072 -0.271094 0.0168308
v 0.0348005 -0.294778 0.0197717
v 0.0386535 -0.308792 0.0231269
v 0.0305772 -0.264159 0.0203521
v 0.0366644 -0.288724 0.023469
v 0.0423673 -0.304234 0.0270373
v 0.0331842 -0.25724 0.0252123
v 0.0406209 -0.282961 0.0286406
v 0.0478421 -0.300436 0.0323955
v 0.0358477 -0.251686 0.030904
v 0.0444496 -0.278441 0.0347462
v 0.0527412 -0.297651 0.038785
v 0.0371394 -0.248488 0.0369702
v 0.0463893 -0.275847 0.0413009
v 0.0552393 -0.296031 0.0458085
v 0.0370394 -0.247187 0.0431571
v 0.0465177 -0.274788 0.0480432
v 0.0555571 -0.295308 0.0531472
v 0.0358795 -0.246965 0.0492616
v 0.0453714 -0.274605 0.0547668
v 0.0544268 -0.295111 0.0605014
v 0.033931 -0.24715 0.0550622
v 0.0433841 -0.274773 0.0612239
v 0.0524339 -0.295168 0.0675302
v 0.0312213 -0.247667 0.0602658
v 0.0405752 -0.275296 0.067
v 0.0495771 -0.295603 0.0737265
v 0.0277166 -0.248587 0.064561
v 0.0368608 -0.276314 0.0716389
v 0.0457085 -0.296638 0.078542
v 0.0157008 -0.130707 0.0116868
v 0.0197167 -0.185333 0.0131127
v 0.0245853 -0.23366 0.0146928
v 0.0157675 -0.127088 0.015355
v 0.0198013 -0.180298 0.016676
v 0.0248322 -0.227238 0.0181823
v 0.0164603 -0.123608 0.0196324
v 0.0208582 -0.175274 0.0210757
v 0.0264884 -0.220759 0.022775
v 0.0171281 -0.120756 0.0243091
v 0.0219547 -0.171171 0.0260082
v 0.0282325 -0.215504 0.0280573
v 0.015434 -0.117425 0.0388443
v 0.0206781 -0.167083 0.0415096
v 0.0275213 -0.210793 0.0448717
v 0.0135515 -0.117304 0.0433054
v 0.018794 -0.167079 0.0462861
v 0.025612 -0.210907 0.0500982
v 0.0110325 -0.117449 0.0473172
v 0.0162469 -0.167365 0.0505789
v 0.0229968 -0.211332 0.0547909
v 0.0078962 -0.117835 0.0507337
v 0.0130498 -0.167934 0.0542226
v 0.0196732 -0.212092 0.0587365
v 0.0109393 0.0477851 0.00601824
v 0.0113879 -0.0141853 0.00819267
v 0.0129324 -0.0735296 0.0100751
v 0.0104098 0.0508113 0.0101154
v 0.0112104 -0.011479 0.0120655
v 0.0129373 -0.0706851 0.0138299
v 0.0106954 0.0530115 0.014725
v 0.0115445 -0.00923979 0.0163872
v 0.0134008 -0.0681093 0.018063
v 0.0111008 0.054569 0.0196746
v 0.0118715 -0.00750097 0.0210121
v 0.0138152 -0.06602 0.0226179
v 0.0110387 0.0556514 0.0247928
v 0.0117512 -0.0062731 0.025793
v 0.0137523 -0.0645742 0.0273385
v 0.01723 -0.118895 0.0291834
v 0.0103543 0.0563642 0.0299129
v 0.0110574 -0.00547634 0.030578
v 0.0131013 -0.0636857 0.0320709
v 0.0166631 -0.117877 0.0340832
v 0.0090008 0.0567974 0.0348693
v 0.0097428 -0.00500829 0.0352137
v 0.011831 -0.0632074 0.0366616
v 0.0069416 0.0570304 0.0394984
v 0.0077708 -0.00477872 0.0395492
v 0.0099189 -0.0630117 0.0409597
v 0.00418 0.0571002 0.043645
v 0.0051485 -0.00474598 0.0434425
v 0.0073765 -0.063049 0.0448243
v 0.000729301 0.057033 0.0471558
v 0.0018941 -0.00488071 0.0467537
v 0.0042241 -0.0632888 0.0481174
v 0.0169876 0.222215 0.000468329
v 0.0134395 0.17201 0.00157879
v 0.0115363 0.111662 0.00363933
v 0.013189 0.225681 0.00585525
v 0.0112922 0.175897 0.0065151
v 0.01041 0.115233 0.00811358
v 0.012984 0.227511 0.0123189
v 0.0114578 0.178028 0.0123061
v 0.0106853 0.117446 0.0132444
v 0.0140893 0.228433 0.0194509
v 0.01236 0.17915 0.0186395
v 0.0113151 0.118798 0.018801
v 0.0146023 0.229056 0.02687
v 0.0126829 0.179894 0.0252183
v 0.0114212 0.119711 0.0245595
v 0.0141426 0.229508 0.0343025
v 0.0121502 0.180415 0.0318064
v 0.0108007 0.120327 0.0303225
v 0.0127105 0.229798 0.0415016
v 0.0107462 0.180749 0.0381829
v 0.0094196 0.120712 0.0358992
v 0.0102919 0.229941 0.0482133
v 0.0084534 0.180933 0.044126
v 0.0072503 0.120928 0.0411007
v 0.0068159 0.229969 0.0541547
v 0.0052494 0.180996 0.0494112
v 0.0042901 0.121006 0.0457445
v 0.0021973 0.229922 0.0590353
v 0.0011103 0.180967 0.0538127
v 0.000543001 0.120973 0.0496496
v 0.0296707 0.298412 0.00287311
v 0.0270493 0.28132 0.00176333
v 0.0221036 0.257611 0.000707015
v 0.0187728 0.296694 0.00902919
v 0.0183285 0.281352 0.00776486
v 0.0159544 0.259616 0.00645335
v 0.0159874 0.296768 0.0167103
v 0.016461 0.281934 0.0152207
v 0.0150199 0.260867 0.0134901
v 0.0167601 0.297601 0.0253151
v 0.0174868 0.282696 0.0235501
v 0.0161655 0.261662 0.0213106
v 0.0172979 0.29833 0.034295
v 0.018108 0.283327 0.0322235
v 0.0167805 0.262251 0.0294491
v 0.016853 0.298772 0.0433125
v 0.0176751 0.283757 0.0409182
v 0.0163501 0.262677 0.037603
v 0.015439 0.298914 0.0520827
v 0.0162009 0.283973 0.0493626
v 0.0148836 0.262934 0.0455109
v 0.0129937 0.29877 0.0602784
v 0.0136431 0.28398 0.0572533
v 0.0123572 0.263026 0.0528921
v 0.0091535 0.298474 0.0674027
v 0.0097405 0.283855 0.0641583
v 0.0086149 0.263 0.0593907
v 0.0034791 0.298186 0.0729164
v 0.0041768 0.283692 0.0696139
v 0.0034675 0.262912 0.064632
v 0.0171578 0.334214 0.00260265
v 0.0238016 0.325181 0.00329889
v 0.0283735 0.312976 0.00340997
v 0.0040208 0.330858 0.00883012
v 0.0109414 0.322068 0.00952865
v 0.0161518 0.310279 0.00963013
v -0.000437101 0.330848 0.0163534
v 0.0068857 0.322011 0.0171347
v 0.0126379 0.310182 0.0173296
v -0.000776501 0.332204 0.0247667
v 0.0069126 0.32322 0.0256479
v 0.0130576 0.311187 0.0259568
v -0.000795399 0.333276 0.0336742
v 0.0070896 0.324202 0.0346218
v 0.0134348 0.312044 0.0350009
v -0.0012403 0.333718 0.0427192
v 0.0066425 0.324647 0.0437016
v 0.0129857 0.31249 0.0441137
v -0.0020955 0.333515 0.0515544
v 0.0055869 0.324538 0.0525554
v 0.0117247 0.312512 0.0529877
v -0.0033176 0.332653 0.059747
v 0.0038753 0.323902 0.0607929
v 0.0095795 0.312138 0.0612672
v -0.004755 0.331123 0.0665198
v 0.0012099 0.32293 0.0677901
v 0.0061306 0.311568 0.0684048
v -0.0062287 0.328916 0.07101
v -0.0027698 0.321857 0.0728645
v 0.000872199 0.311049 0.0738049
v -0.0117679 0.340487 -0.00337474
v -7.92009e-005 0.34139 -0.000592127
v 0.0093271 0.339497 0.00134678
v -0.0228501 0.337613 0.00420041
v -0.0128094 0.337708 0.00606178
v -0.0039029 0.335828 0.00763972
v -0.0271028 0.337751 0.0123901
v -0.0175316 0.337595 0.0138299
v -0.0086318 0.335744 0.015199
v -0.0279839 0.339101 0.0211284
v -0.018337 0.338955 0.0224021
v -0.0092543 0.337134 0.0236415
v -0.0283727 0.34016 0.0303071
v -0.018632 0.340042 0.0314644
v -0.0094297 0.338234 0.0325902
v -0.028833 0.340616 0.0396488
v -0.0190856 0.340492 0.0406874
v -0.0098774 0.338679 0.0416933
v -0.0293498 0.340455 0.0488341
v -0.0196827 0.340292 0.0497379
v -0.0105813 0.338453 0.0506054
v -0.0298556 0.339485 0.0575224
v -0.0203327 0.339261 0.0582627
v -0.0114509 0.337425 0.058945
v -0.0300737 0.336803 0.0652897
v -0.0206448 0.336565 0.0658285
v -0.0120957 0.335004 0.0661873
v -0.0296749 0.331328 0.0716909
v -0.0201531 0.331202 0.0719822
v -0.0120503 0.330482 0.071772
v -0.0516224 0.333026 -0.00532465
v -0.0415387 0.334307 -0.00469844
v -0.0289094 0.336365 -0.00393634
v -0.0564232 0.334214 0.00119151
v -0.0459277 0.335194 0.00205232
v -0.0349016 0.336201 0.00309186
v -0.0591245 0.335814 0.00890534
v -0.0480646 0.336678 0.00995244
v -0.0374105 0.337308 0.0111187
v -0.0605723 0.337334 0.017488
v -0.0490059 0.33818 0.0186758
v -0.0381791 0.338766 0.0198852
v -0.0614838 0.338364 0.0266104
v -0.0496341 0.339212 0.027898
v -0.0386578 0.339806 0.0291234
v -0.0620613 0.338809 0.035942
v -0.0501343 0.339668 0.0373019
v -0.039127 0.340265 0.0385297
v -0.0623787 0.338651 0.0451518
v -0.0505171 0.339532 0.0465718
v -0.0395747 0.340128 0.0477916
v -0.0625027 0.337693 0.0538833
v -0.0507822 0.338606 0.0553665
v -0.0399607 0.339198 0.0565727
v -0.0624729 0.335009 0.0616779
v -0.0508846 0.335955 0.063242
v -0.0401323 0.336549 0.0644406
v -0.0623219 0.32949 0.0680511
v -0.0507682 0.33046 0.0697283
v -0.0399088 0.33107 0.070939
v -0.07766 0.321723 -0.00750805
v -0.0699542 0.327931 -0.00689687
v -0.0608546 0.331331 -0.00620206
v -0.084093 0.323769 -0.000865296
v -0.076291 0.329688 -0.000262722
v -0.0666895 0.332758 0.000393108
v -0.089196 0.325594 0.00646113
v -0.080899 0.331487 0.00715049
v -0.070424 0.334454 0.00796504
v -0.092842 0.327046 0.0144872
v -0.084001 0.333019 0.0152933
v -0.072692 0.335994 0.0163304
v -0.094982 0.327994 0.0231611
v -0.085832 0.334024 0.0240605
v -0.074051 0.33702 0.0252769
v -0.095882 0.32839 0.0321604
v -0.086673 0.33443 0.0331249
v -0.074761 0.337445 0.0344757
v -0.095889 0.328209 0.041095
v -0.08682 0.334212 0.0421035
v -0.075005 0.337249 0.0435691
v -0.095265 0.327428 0.0494954
v -0.086521 0.333227 0.050575
v -0.074949 0.336241 0.0521738
v -0.093944 0.326034 0.0565759
v -0.085843 0.33085 0.0579647
v -0.074679 0.333551 0.0598041
v -0.091781 0.324013 0.0614714
v -0.084808 0.326339 0.0636597
v -0.074266 0.328138 0.0659488
v -0.083252 0.287709 -0.00887133
v -0.084868 0.300168 -0.00859143
v -0.082839 0.312065 -0.00809903
v -0.087943 0.289117 -0.00261949
v -0.090528 0.302163 -0.00208221
v -0.089058 0.314231 -0.00148077
v -0.091898 0.290142 0.00471099
v -0.09515 0.3036 0.00532903
v -0.094125 0.315938 0.00588055
v -0.094853 0.290902 0.0128688
v -0.098524 0.30462 0.0135093
v -0.097811 0.317207 0.0139602
v -0.096602 0.29149 0.0215951
v -0.100503 0.305333 0.0222925
v -0.099969 0.31805 0.022676
v -0.097164 0.291916 0.0306018
v -0.101207 0.30575 0.0313802
v -0.100809 0.318452 0.0317165
v -0.096614 0.292166 0.0395931
v -0.100821 0.305853 0.0404409
v -0.100626 0.318392 0.0407127
v -0.094925 0.292266 0.0482512
v -0.099382 0.305679 0.049122
v -0.099554 0.317899 0.0492624
v -0.091652 0.292397 0.0561692
v -0.096323 0.30549 0.0569857
v -0.097094 0.317213 0.0568315
v -0.086246 0.292777 0.0629183
v -0.090931 0.305602 0.0635731
v -0.092582 0.316628 0.0628524
v -0.06011 0.221674 -0.00876556
v -0.068799 0.255002 -0.0092829
v -0.077558 0.274949 -0.00929414
v -0.0625846 0.222104 -0.00256605
v -0.071774 0.255076 -0.00322117
v -0.081125 0.275297 -0.0031365
v -0.0651571 0.222648 0.00388484
v -0.074715 0.255427 0.0035802
v -0.084445 0.275796 0.00400375
v -0.0672976 0.223217 0.0106963
v -0.077118 0.255899 0.011006
v -0.087079 0.27634 0.0119042
v -0.0685623 0.223738 0.0179185
v -0.078559 0.256365 0.0189167
v -0.088658 0.276836 0.0203336
v -0.0688489 0.224209 0.025365
v -0.078944 0.256794 0.0270751
v -0.089122 0.27726 0.0290261
v -0.068141 0.22464 0.0327906
v -0.078264 0.257183 0.0352194
v -0.088482 0.2776 0.0377072
v -0.0664068 0.225052 0.0399458
v -0.076472 0.257543 0.0430768
v -0.086687 0.27787 0.0460833
v -0.0635536 0.225487 0.0465659
v -0.073387 0.257939 0.0503288
v -0.083436 0.27818 0.0537855
v -0.0594734 0.225997 0.0523823
v -0.0687941 0.258454 0.0566459
v -0.078363 0.278666 0.0604258
v -0.0478214 0.0409729 0.00123008
v -0.0505907 0.104917 -0.00179909
v -0.0543858 0.166562 -0.00518818
v -0.0473687 0.0447396 0.00528874
v -0.0509871 0.109737 0.00252305
v -0.0558008 0.170982 -0.000239924
v -0.0479832 0.0471327 0.00976633
v -0.0522146 0.112308 0.00741823
v -0.0577164 0.173173 0.00530513
v -0.0488419 0.0486552 0.0145882
v -0.0535024 0.113619 0.0127656
v -0.0594592 0.174172 0.0113513
v -0.0492528 0.0497432 0.0196656
v -0.0542034 0.114505 0.0184336
v -0.0604645 0.174849 0.0177826
v -0.0490468 0.0505671 0.0248534
v -0.054165 0.115196 0.024247
v -0.0606022 0.175413 0.0244015
v -0.0481857 0.0512308 0.0299925
v -0.0533582 0.115768 0.0300201
v -0.0598508 0.175906 0.0309898
v -0.0466341 0.0518252 0.0349248
v -0.051755 0.116291 0.0355681
v -0.0581843 0.176369 0.0373298
v -0.0443684 0.0523905 0.039497
v -0.0493302 0.1168 0.0407115
v -0.0555592 0.176837 0.0432041
v -0.0413676 0.0529537 0.0435566
v -0.0460596 0.117322 0.0452718
v -0.0519274 0.177344 0.0483951
v -0.0407116 -0.142389 0.00749446
v -0.0429546 -0.0828269 0.00583409
v -0.0453255 -0.0217812 0.00376673
v -0.0387825 -0.138598 0.0113054
v -0.0414615 -0.0797826 0.00969754
v -0.0442761 -0.0187341 0.00769873
v -0.0379856 -0.135249 0.0155931
v -0.0411787 -0.0772499 0.0139142
v -0.0444187 -0.0164508 0.0119639
v -0.0377292 -0.132587 0.0202409
v -0.0413483 -0.0752572 0.0184232
v -0.0449274 -0.0147639 0.0165142
v -0.037491 -0.130765 0.0251263
v -0.0413233 -0.0737997 0.0231494
v -0.0451047 -0.0135134 0.0212854
v -0.0370248 -0.129569 0.0301035
v -0.0409014 -0.0727393 0.0279626
v -0.0447691 -0.0125704 0.0261482
v -0.036154 -0.12869 0.0350208
v -0.0399912 -0.0719043 0.0327186
v -0.043868 -0.0118134 0.030957
v -0.0347259 -0.127869 0.0397278
v -0.038512 -0.0711465 0.0372741
v -0.0423534 -0.0111366 0.0355671
v -0.0326831 -0.127032 0.0440782
v -0.0364245 -0.0704112 0.0414907
v -0.0401966 -0.0104943 0.0398384
v -0.0299927 -0.126151 0.0479269
v -0.0337 -0.0696667 0.045231
v -0.0373738 -0.0098565 0.0436316
v -0.0343494 -0.291093 0.0131408
v -0.0364931 -0.251049 0.0105794
v -0.0385832 -0.199828 0.00890212
v -0.0305641 -0.284314 0.0163443
v -0.0333887 -0.244594 0.014128
v -0.0361125 -0.19466 0.0126299
v -0.0274351 -0.278085 0.0210491
v -0.0310811 -0.238576 0.018718
v -0.0346183 -0.189907 0.017061
v -0.0252676 -0.273275 0.0266816
v -0.0295776 -0.233858 0.0239804
v -0.0337833 -0.186147 0.0219775
v -0.0242052 -0.270464 0.0327297
v -0.0288008 -0.231029 0.0295775
v -0.0332897 -0.183771 0.0271703
v -0.0237449 -0.26909 0.0389265
v -0.0283377 -0.229585 0.0352953
v -0.0328166 -0.18242 0.0324657
v -0.0232221 -0.268302 0.0450665
v -0.0276911 -0.228747 0.0409505
v -0.0320424 -0.181545 0.0376986
v -0.0220678 -0.267394 0.0509408
v -0.0264378 -0.227868 0.0463594
v -0.0306927 -0.180688 0.0427047
v -0.0200943 -0.266242 0.0563271
v -0.024451 -0.226821 0.0513356
v -0.0286828 -0.179746 0.0473225
v -0.0172093 -0.264867 0.0609996
v -0.0216782 -0.22561 0.0556922
v -0.0259752 -0.178705 0.0513908
v -0.0213024 -0.341035 0.0256074
v -0.0279404 -0.331579 0.0213981
v -0.0318608 -0.316721 0.0169537
v -0.0178959 -0.339709 0.0275569
v -0.0235002 -0.328138 0.0235712
v -0.0274762 -0.311154 0.0196308
v -0.0142249 -0.33923 0.0320096
v -0.0193996 -0.325614 0.0282136
v -0.0236584 -0.306346 0.0243568
v -0.0113209 -0.339112 0.0380565
v -0.0163804 -0.323902 0.0343546
v -0.0209369 -0.302757 0.030319
v -0.0099079 -0.338936 0.0448853
v -0.0149199 -0.322853 0.04114
v -0.0196215 -0.300661 0.0368015
v -0.0094786 -0.338544 0.0520691
v -0.0144379 -0.322152 0.0481814
v -0.019144 -0.299576 0.0434748
v -0.0092176 -0.337845 0.0592772
v -0.0140899 -0.321439 0.055207
v -0.0187164 -0.298832 0.0501059
v -0.0083909 -0.336775 0.0661732
v -0.0131304 -0.320423 0.0619354
v -0.0176549 -0.297875 0.0564549
v -0.0065885 -0.335368 0.0723962
v -0.0112099 -0.319082 0.0680473
v -0.0156916 -0.296622 0.0622519
v -0.0034812 -0.333689 0.0775795
v -0.0080779 -0.317458 0.073214
v -0.0126627 -0.295105 0.0672201
v 0.0027128 -0.361845 0.0335564
v -0.0031879 -0.356725 0.031243
v -0.0115331 -0.349139 0.0281917
v 0.0042829 -0.363233 0.0355951
v -0.002645 -0.357546 0.0337293
v -0.0103435 -0.34938 0.0308355
v 0.0058701 -0.363872 0.0386545
v -0.000989701 -0.358217 0.0374815
v -0.0078931 -0.349943 0.0351717
v 0.0070182 -0.36403 0.0431823
v 0.000636699 -0.358634 0.0425214
v -0.0055787 -0.350452 0.0408164
v 0.0074159 -0.363913 0.0493912
v 0.0013723 -0.358702 0.048765
v -0.004449 -0.350596 0.0473785
v 0.0073341 -0.363472 0.0565543
v 0.0014762 -0.358373 0.0557031
v -0.0041575 -0.350314 0.0544385
v 0.0071888 -0.362592 0.0637096
v 0.0014874 -0.357612 0.0627204
v -0.004009 -0.349605 0.0615699
v 0.0073059 -0.361202 0.069999
v 0.0018963 -0.356407 0.0692426
v -0.0033643 -0.348487 0.0683539
v 0.0076503 -0.359398 0.0749791
v 0.0029992 -0.354853 0.0748597
v -0.0018062 -0.347035 0.0744032
v 0.0080962 -0.357319 0.0783099
v 0.0050441 -0.353068 0.0792029
v 0.0010264 -0.345339 0.0793381
v 0.017331 -0.361286 0.0329649
v 0.0114757 -0.362476 0.0330912
v 0.0064463 -0.362685 0.0333447
v 0.0218462 -0.36508 0.0348046
v 0.0158611 -0.366106 0.0353
v 0.0100603 -0.365656 0.0357487
v 0.0246463 -0.366815 0.0369384
v 0.0184354 -0.367642 0.0377389
v 0.0122601 -0.366835 0.0385367
v 0.0260311 -0.36731 0.0414351
v 0.0196271 -0.367978 0.042134
v 0.0133309 -0.367015 0.0428997
v 0.0263242 -0.367217 0.0495885
v 0.01986 -0.367829 0.0495755
v 0.0135731 -0.366832 0.0495819
v 0.0259455 -0.366527 0.0595932
v 0.0195393 -0.367199 0.0586122
v 0.0133489 -0.366285 0.0575372
v 0.0253385 -0.365067 0.0688685
v 0.0190656 -0.365914 0.0671575
v 0.0130359 -0.365214 0.0652722
v 0.0248109 -0.36266 0.075441
v 0.0186981 -0.363792 0.0735891
v 0.0128813 -0.36346 0.071578
v 0.0241258 -0.359131 0.0797649
v 0.0181308 -0.360621 0.0781427
v 0.0126097 -0.360859 0.0763839
v 0.0229099 -0.354306 0.0829014
v 0.0169164 -0.356177 0.0815184
v 0.0118156 -0.357245 0.0799039
v 0.036184 -0.352913 0.0339397
v 0.0299449 -0.356351 0.0334442
v 0.0235804 -0.359195 0.0330941
v 0.0407491 -0.356637 0.0354409
v 0.0344891 -0.360153 0.0349624
v 0.0281109 -0.363022 0.0347017
v 0.0439557 -0.3582 0.0373288
v 0.0375716 -0.361888 0.0368633
v 0.0310674 -0.364819 0.0366654
v 0.0457804 -0.35851 0.0418963
v 0.0392587 -0.362371 0.0414474
v 0.0326169 -0.365367 0.0412293
v 0.0462868 -0.358294 0.0505627
v 0.0396875 -0.36225 0.0501403
v 0.0329774 -0.365287 0.0497878
v 0.045886 -0.357549 0.0612511
v 0.039277 -0.361509 0.0608666
v 0.0325714 -0.364562 0.0603363
v 0.0450758 -0.356089 0.0710111
v 0.0385168 -0.359966 0.0706761
v 0.0318728 -0.363015 0.0700203
v 0.0442532 -0.353726 0.0776094
v 0.0377819 -0.357443 0.077333
v 0.0312292 -0.360474 0.076671
v 0.0434116 -0.350258 0.0816841
v 0.0369893 -0.353782 0.0814598
v 0.0304822 -0.356787 0.0808625
v 0.0424437 -0.345482 0.0845907
v 0.0359414 -0.348826 0.0843941
v 0.0293475 -0.35181 0.0838545
v 0.046851 -0.345194 0.0349766
v 0.0419979 -0.34908 0.0344941
v 0.0513011 -0.347819 0.0363672
v 0.0465735 -0.352576 0.0359788
v 0.0549064 -0.348575 0.0383456
v 0.0499362 -0.353845 0.0378706
v 0.0572504 -0.348362 0.0429371
v 0.0519423 -0.353898 0.0424107
v 0.0580757 -0.347899 0.0513695
v 0.0525568 -0.353548 0.0509825
v 0.0577601 -0.347196 0.0616793
v 0.0521786 -0.352811 0.0615355
v 0.056841 -0.346084 0.0711053
v 0.0513155 -0.351501 0.0711611
v 0.0557735 -0.344393 0.0775427
v 0.0503878 -0.349421 0.0776589
v 0.0546857 -0.341947 0.0815113
v 0.0494667 -0.346323 0.0816612
v 0.0536238 -0.338568 0.0841873
v 0.0485366 -0.341946 0.0845085
v 0.0135729 -0.327268 0.086018
v 0.0177567 -0.339165 0.0869592
v 0.0208355 -0.347895 0.0855496
v 0.0069605 -0.329653 0.084188
v 0.0112091 -0.341505 0.0853432
v 0.0145711 -0.350065 0.0841223
v 0.0011345 -0.331786 0.0814599
v 0.0054854 -0.343545 0.0829
v 0.0091572 -0.351784 0.0820637
v 0.034765 -0.31888 0.0879117
v 0.0388271 -0.330482 0.0887822
v 0.0411329 -0.339105 0.0872423
v 0.0277214 -0.321805 0.0877783
v 0.0318244 -0.33357 0.0885863
v 0.0343824 -0.342315 0.087042
v 0.0205807 -0.324629 0.0871763
v 0.0247202 -0.336497 0.0880034
v 0.0275335 -0.345283 0.0864972
v 0.0475165 -0.313421 0.0862705
v 0.0514102 -0.324653 0.0875676
v 0.0530838 -0.332864 0.0863922
v 0.041466 -0.315983 0.0875574
v 0.0454676 -0.327384 0.0885728
v 0.0475035 -0.335819 0.0870998
v -0.0035933 -0.259653 0.0696882
v 0.0023831 -0.289265 0.0761069
v 0.0082955 -0.311192 0.0820477
v -0.0087598 -0.261544 0.067659
v -0.0033669 -0.291401 0.0740734
v 0.0019939 -0.313501 0.0800758
v -0.0133737 -0.263292 0.0647774
v -0.0084811 -0.293356 0.0711465
v -0.0035875 -0.315593 0.0771915
v 0.0131402 -0.253587 0.0709579
v 0.0209081 -0.282241 0.0776278
v 0.028508 -0.303369 0.0838172
v 0.007547 -0.255611 0.0713223
v 0.0147302 -0.284616 0.0778353
v 0.0217816 -0.306053 0.0838353
v 0.0019069 -0.257656 0.0709033
v 0.0084881 -0.286982 0.0773429
v 0.014972 -0.308687 0.0832701
v 0.0234221 -0.24995 0.0677133
v 0.0322112 -0.27791 0.0748122
v 0.0407523 -0.298413 0.0815984
v 0.0184973 -0.25166 0.0697957
v 0.0268132 -0.279948 0.0767044
v 0.0349233 -0.300745 0.083199
v -0.0184543 -0.123177 0.0555265
v -0.0141236 -0.175017 0.0593243
v -0.0091467 -0.221144 0.0640265
v -0.0227586 -0.12421 0.0536915
v -0.0185635 -0.176321 0.0574235
v -0.0138691 -0.222746 0.0620507
v -0.0266492 -0.125207 0.051148
v -0.0225632 -0.177558 0.0547723
v -0.0181049 -0.224244 0.0592735
v -0.0044902 -0.120106 0.0565598
v 0.0002983 -0.171027 0.0603679
v 0.0061914 -0.216121 0.0651387
v -0.0091674 -0.121091 0.0569734
v -0.0045322 -0.172326 0.0608079
v 0.001057 -0.217777 0.0655744
v -0.0138736 -0.122127 0.0566253
v -0.0093935 -0.173671 0.0604565
v -0.0041134 -0.21947 0.0652021
v 0.0041814 -0.118434 0.0534313
v 0.0092386 -0.168771 0.05708
v 0.0156672 -0.213193 0.0617653
v 6.40072e-006 -0.119206 0.0553768
v 0.0049387 -0.169822 0.059127
v 0.0111175 -0.214566 0.0638829
v -0.0285115 0.0547016 0.0516744
v -0.0253837 -0.00786448 0.0512132
v -0.0221296 -0.0672644 0.0526765
v -0.0333042 0.0541232 0.0496881
v -0.029846 -0.00853187 0.0493641
v -0.0264362 -0.0680835 0.0508683
v -0.0376393 0.0535347 0.0469712
v -0.0338876 -0.00920033 0.0468247
v -0.0303362 -0.0688887 0.0483745
v -0.0129852 0.056204 0.0530024
v -0.0109271 -0.00603334 0.0523624
v -0.0081714 -0.0649148 0.0537379
v -0.018181 0.0557587 0.0533478
v -0.0157673 -0.00659563 0.0527268
v -0.012846 -0.065655 0.0541247
v -0.0234141 0.0552524 0.0529002
v -0.0206391 -0.00721271 0.0523396
v -0.0175498 -0.0664469 0.0537671
v -0.0033734 0.0568527 0.049902
v -0.0019537 -0.0051549 0.049364
v 0.000501 -0.0637006 0.0507212
v -0.0079966 0.0565726 0.051853
v -0.0062745 -0.00554612 0.0512382
v -0.0036761 -0.0642531 0.0525998
v -0.040623 0.227939 0.0637152
v -0.0357269 0.179086 0.058664
v -0.0318278 0.118993 0.0543655
v -0.0477432 0.227281 0.0609417
v -0.041812 0.178506 0.0561452
v -0.0371497 0.118441 0.0521355
v -0.0541263 0.226611 0.0571777
v -0.0472861 0.17791 0.0527215
v -0.0419521 0.117875 0.0490964
v -0.0176342 0.2294 0.0661951
v -0.0160333 0.180428 0.0606764
v -0.0145878 0.12034 0.0559861
v -0.0253092 0.229019 0.0663636
v -0.0226138 0.180065 0.0609506
v -0.0203532 0.119958 0.0563095
v -0.0330574 0.228527 0.0655278
v -0.029253 0.179612 0.0602722
v -0.026165 0.119504 0.0557632
v -0.003585 0.229826 0.062631
v -0.003946 0.180869 0.0571502
v -0.003958 0.120849 0.0526673
v -0.0102953 0.229662 0.064982
v -0.0097356 0.180694 0.0594233
v -0.0090618 0.120638 0.0547759
v -0.0577963 0.295628 0.0750213
v -0.0527995 0.281236 0.0727114
v -0.0466473 0.260695 0.0686713
v -0.068635 0.294578 0.07213
v -0.0625433 0.280321 0.0697439
v -0.0550608 0.259919 0.0657436
v -0.078383 0.293554 0.0681866
v -0.071258 0.279414 0.0657132
v -0.0625817 0.259138 0.0617719
v -0.0242617 0.297645 0.0787573
v -0.0218906 0.283116 0.076151
v -0.0196202 0.262361 0.0716574
v -0.0353093 0.297193 0.0783382
v -0.0321574 0.282662 0.0759284
v -0.0286316 0.261941 0.0716476
v -0.0465726 0.296516 0.0770835
v -0.0425576 0.282029 0.0747711
v -0.0377355 0.26138 0.0706418
v -0.0042955 0.298018 0.0764417
v -0.003225 0.283556 0.0732857
v -0.0031751 0.262801 0.068337
v -0.0137427 0.297883 0.0782457
v -0.0120865 0.283392 0.0753596
v -0.0110063 0.262635 0.0706116
v -0.0619463 0.320429 0.072564
v -0.0606989 0.308713 0.0749583
v -0.073758 0.319167 0.0701334
v -0.072197 0.307548 0.0722545
v -0.084474 0.317818 0.0669543
v -0.082635 0.306413 0.0685627
v -0.0284329 0.322362 0.0762998
v -0.0265326 0.310731 0.0787658
v -0.0391184 0.322045 0.0756369
v -0.037627 0.310335 0.0782047
v -0.0503039 0.321402 0.0743901
v -0.0490702 0.30966 0.0769296
v -0.0096116 0.322165 0.0752999
v -0.0066811 0.310916 0.0770278
v -0.0183999 0.32237 0.0763046
v -0.0160299 0.310872 0.078514
v -0.016311 -0.344105 0.0268678
v -0.0080784 -0.349737 0.0275356
v -4.88006e-005 -0.356761 0.0303034
v -0.0096708 -0.345048 0.0274733
v -0.0025382 -0.349654 0.0274075
v 0.004971 -0.356327 0.0299855
v -0.0021657 -0.344336 0.0274733
v 0.0041304 -0.348681 0.0275074
v 0.0110728 -0.355167 0.0300522
v 0.0055336 -0.342393 0.0269697
v 0.0111025 -0.346673 0.027601
v 0.0175556 -0.3531 0.0303022
v 0.01321 -0.339438 0.0262752
v 0.018082 -0.343744 0.027715
v 0.0241072 -0.350224 0.0306782
v 0.02076 -0.335643 0.0257548
v 0.0249051 -0.340073 0.027941
v 0.0305128 -0.346709 0.0311591
v 0.0280338 -0.331103 0.0256795
v 0.0314547 -0.335877 0.0283766
v 0.0365951 -0.342786 0.0317401
v 0.0346977 -0.325627 0.025944
v 0.0377987 -0.331522 0.0291401
v 0.0423266 -0.338923 0.0324826
v 0.0551778 -0.33128 -0.0444726
v 0.0568674 -0.341114 -0.043156
v 0.0563306 -0.349655 -0.0412714
v 0.0545726 -0.355804 -0.0393915
v 0.0610551 -0.329297 -0.0386562
v 0.062293 -0.339486 -0.0376402
v 0.060546 -0.348962 -0.0363366
v 0.0564343 -0.357034 -0.0353183
v 0.0648189 -0.328175 -0.0317636
v 0.0656585 -0.338828 -0.030976
v 0.0631703 -0.349037 -0.0301016
v 0.0578577 -0.358176 -0.0295857
v 0.0668937 -0.327545 -0.0242048
v 0.0674384 -0.338614 -0.0235955
v 0.0645423 -0.349335 -0.0230591
v 0.0587163 -0.358997 -0.0228544
v 0.0676321 -0.327121 -0.0163511
v 0.0680202 -0.338415 -0.0158867
v 0.0649375 -0.349405 -0.0156442
v 0.0589019 -0.359311 -0.0156962
v 0.0670993 -0.326955 -0.00841801
v 0.067444 -0.338194 -0.00805922
v 0.0643798 -0.349177 -0.00806223
v 0.0583803 -0.35909 -0.00832738
v 0.0652883 -0.327179 -0.000581816
v 0.0656633 -0.338011 -0.000278398
v 0.0628301 -0.348679 -0.000460818
v 0.0571356 -0.358351 -0.000875667
v 0.0620875 -0.327851 0.00693519
v 0.0625774 -0.337975 0.00721036
v 0.0602279 -0.348025 0.0069036
v 0.0551981 -0.357155 0.00638218
v 0.056965 -0.328703 0.0137277
v 0.0578696 -0.338388 0.0138408
v 0.0564276 -0.347692 0.0133393
v 0.0527827 -0.355739 0.0125723
v 0.049284 -0.329392 0.0193447
v 0.0511692 -0.339606 0.0189666
v 0.0512622 -0.348245 0.0180459
v 0.0501504 -0.354388 0.0166717
v 0.0361942 -0.279574 -0.0436686
v 0.0439119 -0.30459 -0.0444096
v 0.0506081 -0.320308 -0.0448111
v 0.0415661 -0.27764 -0.038265
v 0.0496135 -0.302515 -0.0387238
v 0.0565207 -0.318207 -0.0389606
v 0.0453892 -0.276216 -0.0321173
v 0.0535394 -0.301054 -0.0321758
v 0.0604475 -0.316833 -0.032129
v 0.0477519 -0.275201 -0.0254872
v 0.0558813 -0.300052 -0.0250822
v 0.0627025 -0.315947 -0.0246875
v 0.0487762 -0.274583 -0.018621
v 0.056835 -0.299444 -0.017736
v 0.0635634 -0.315392 -0.0169751
v 0.0487174 -0.274693 -0.0117022
v 0.0566121 -0.299511 -0.0103353
v 0.0631624 -0.315341 -0.00920273
v 0.0478642 -0.275951 -0.00489877
v 0.0554281 -0.300625 -0.00305469
v 0.061596 -0.316049 -0.00154887
v 0.0464065 -0.278455 0.00154765
v 0.0534248 -0.302859 0.00384857
v 0.0589064 -0.317556 0.00573222
v 0.0441389 -0.281024 0.00709955
v 0.0504475 -0.305091 0.00978543
v 0.0549198 -0.319045 0.012084
v 0.0407571 -0.282158 0.0111455
v 0.0462679 -0.305901 0.014084
v 0.0494085 -0.319484 0.0168744
v 0.0165017 -0.142662 -0.0424958
v 0.0216821 -0.195125 -0.042498
v 0.0285063 -0.242168 -0.0429545
v 0.0210447 -0.141481 -0.0379896
v 0.0264289 -0.193685 -0.0377334
v 0.0335422 -0.240461 -0.0378754
v 0.0244549 -0.140497 -0.0329608
v 0.0299552 -0.19254 -0.0323947
v 0.0372183 -0.239155 -0.0321489
v 0.0267229 -0.139692 -0.0275818
v 0.0322604 -0.191656 -0.0266721
v 0.0395618 -0.238191 -0.0259945
v 0.0278599 -0.139065 -0.0220211
v 0.0333767 -0.191043 -0.0207503
v 0.0406401 -0.237576 -0.0196221
v 0.0279578 -0.138679 -0.0164333
v 0.0334675 -0.190882 -0.0147914
v 0.0406845 -0.237599 -0.0132032
v 0.0271289 -0.138618 -0.0109694
v 0.0327292 -0.191394 -0.00895201
v 0.0399666 -0.238614 -0.00689967
v 0.025514 -0.138858 -0.00579308
v 0.0313322 -0.192612 -0.00342084
v 0.0386801 -0.240702 -0.000928208
v 0.0233669 -0.138953 -0.0011193
v 0.029343 -0.193799 0.00148405
v 0.0367057 -0.242844 0.00427486
v 0.0209701 -0.138355 0.00282432
v 0.0268021 -0.194027 0.00541241
v 0.0338456 -0.243743 0.00821848
v 0.0168656 0.0225719 -0.0467212
v 0.0136713 -0.0331551 -0.0445046
v 0.0136799 -0.0883446 -0.0431276
v 0.0216152 0.0238697 -0.042504
v 0.0181933 -0.0321693 -0.0402544
v 0.01814 -0.0873541 -0.0387888
v 0.025127 0.0248245 -0.0377859
v 0.0215838 -0.0313338 -0.0355212
v 0.0215 -0.0864908 -0.0339588
v 0.0274347 0.0256326 -0.0327439
v 0.0238444 -0.03058 -0.0304699
v 0.02375 -0.0857344 -0.0288011
v 0.0285697 0.0264761 -0.0275489
v 0.0249817 -0.0298379 -0.0252616
v 0.0248912 -0.0850643 -0.0234763
v 0.0285548 0.0274805 -0.0223487
v 0.0250236 -0.0290308 -0.0200413
v 0.0249714 -0.0844619 -0.0181326
v 0.0274104 0.0287571 -0.0172852
v 0.0240036 -0.0280806 -0.01495
v 0.0240495 -0.0839091 -0.012915
v 0.0252142 0.030433 -0.0124939
v 0.0220237 -0.0268937 -0.010125
v 0.0222456 -0.0833429 -0.00796993
v 0.0222711 0.0326966 -0.00808544
v 0.0194616 -0.0253148 -0.00568746
v 0.0199213 -0.0825202 -0.00344883
v 0.018943 0.0357521 -0.00416408
v 0.0167635 -0.0231734 -0.00175495
v 0.0174992 -0.0811534 0.000495568
v 0.0512325 0.184208 -0.0578125
v 0.0349164 0.132693 -0.0535944
v 0.0237144 0.078301 -0.0498147
v 0.0584469 0.187818 -0.0531479
v 0.0408734 0.135545 -0.0492377
v 0.0288996 0.0802904 -0.0455818
v 0.0631489 0.189768 -0.0478195
v 0.044994 0.137163 -0.0442766
v 0.0326402 0.0815364 -0.0408037
v 0.0658769 0.190924 -0.0420805
v 0.0475312 0.138216 -0.0389378
v 0.0350387 0.0824573 -0.0356796
v 0.0670796 0.192027 -0.0361722
v 0.0486963 0.139285 -0.0334372
v 0.0361818 0.083423 -0.0304001
v 0.0668458 0.193318 -0.0302875
v 0.0485323 0.140589 -0.0279485
v 0.0360947 0.0846107 -0.0251231
v 0.0651745 0.194916 -0.0246076
v 0.0470404 0.142261 -0.0226349
v 0.0347871 0.0861489 -0.0199983
v 0.061948 0.196996 -0.0193074
v 0.0441931 0.144495 -0.0176509
v 0.032295 0.0882058 -0.0151669
v 0.0565821 0.199986 -0.0145371
v 0.0398483 0.147742 -0.0131158
v 0.0287602 0.0911066 -0.0107375
v 0.0483759 0.204372 -0.0104405
v 0.0338352 0.152515 -0.00914
v 0.0243511 0.0952161 -0.00681044
v 0.117996 0.311388 -0.0694031
v 0.0961829 0.274017 -0.0662126
v 0.072665 0.231502 -0.0621763
v 0.127801 0.307129 -0.0629667
v 0.10631 0.275722 -0.060377
v 0.0815648 0.235239 -0.0569813
v 0.133817 0.30625 -0.0558394
v 0.112346 0.277029 -0.0538183
v 0.0870206 0.237272 -0.0510776
v 0.137073 0.306958 -0.0482809
v 0.11551 0.278079 -0.0468139
v 0.0899806 0.238449 -0.0447379
v 0.138431 0.307758 -0.0405469
v 0.116822 0.278997 -0.039632
v 0.091236 0.239487 -0.0382231
v 0.138085 0.308367 -0.0328764
v 0.116498 0.279847 -0.0325022
v 0.0909491 0.240601 -0.0317462
v 0.136061 0.308801 -0.0255042
v 0.114556 0.280679 -0.0256447
v 0.0891254 0.241877 -0.0255083
v 0.132178 0.309477 -0.0185662
v 0.110721 0.281639 -0.0192548
v 0.085541 0.243433 -0.0197067
v 0.125413 0.312411 -0.0118013
v 0.103556 0.283269 -0.0134274
v 0.0790561 0.245528 -0.0145245
v 0.114534 0.32002 -0.00484933
v 0.0913318 0.286206 -0.0082327
v 0.0683015 0.248453 -0.0101407
v 0.141352 0.378517 -0.0693149
v 0.147287 0.366222 -0.068696
v 0.1498 0.352644 -0.0684697
v 0.150538 0.342657 -0.0678343
v 0.146268 0.381847 -0.065104
v 0.152344 0.369163 -0.0643653
v 0.154329 0.354293 -0.0641387
v 0.15382 0.341734 -0.0639452
v 0.149107 0.384182 -0.0591431
v 0.155647 0.371255 -0.0582383
v 0.157864 0.355786 -0.0578249
v 0.15724 0.342176 -0.0576215
v 0.15049 0.385798 -0.0521147
v 0.15752 0.372691 -0.0510416
v 0.16021 0.356999 -0.0503798
v 0.159922 0.34313 -0.0499699
v 0.150935 0.386904 -0.0446392
v 0.158239 0.37363 -0.0434311
v 0.161207 0.357824 -0.0425603
v 0.161142 0.343886 -0.0419564
v 0.150567 0.387456 -0.0370893
v 0.157879 0.374069 -0.0357816
v 0.160848 0.358229 -0.0347453
v 0.160781 0.344294 -0.0339853
v 0.149411 0.387346 -0.0297758
v 0.156469 0.373967 -0.0283974
v 0.159164 0.358197 -0.0272194
v 0.158873 0.344342 -0.02632
v 0.147549 0.38652 -0.0228995
v 0.154102 0.373348 -0.0214778
v 0.15628 0.35781 -0.0201724
v 0.155577 0.344149 -0.0191402
v 0.145284 0.385148 -0.0162212
v 0.151147 0.372504 -0.0148021
v 0.152706 0.357531 -0.0134161
v 0.151555 0.344342 -0.0122895
v 0.142974 0.383451 -0.00939159
v 0.148041 0.371789 -0.0080442
v 0.149047 0.357919 -0.00666772
v 0.147596 0.345677 -0.00552742
v 0.111562 0.389547 -0.0729996
v 0.120037 0.388824 -0.0724059
v 0.131272 0.385788 -0.0708119
v 0.111147 0.391219 -0.0696449
v 0.122455 0.391376 -0.0683932
v 0.135379 0.388934 -0.0666289
v 0.11135 0.39301 -0.0638342
v 0.123839 0.393495 -0.0624309
v 0.137604 0.391254 -0.0606805
v 0.111649 0.394849 -0.0566298
v 0.124452 0.395309 -0.0553129
v 0.138569 0.392996 -0.0536561
v 0.111614 0.396595 -0.0489569
v 0.12452 0.396867 -0.0477457
v 0.138795 0.394323 -0.0461793
v 0.111184 0.397835 -0.041194
v 0.12411 0.397889 -0.040085
v 0.138408 0.395089 -0.0386116
v 0.110392 0.398089 -0.0335824
v 0.123253 0.39801 -0.0325988
v 0.137435 0.395067 -0.0312485
v 0.109393 0.397023 -0.0262776
v 0.12207 0.396977 -0.0254593
v 0.13597 0.394106 -0.0242798
v 0.108823 0.394886 -0.0190915
v 0.121053 0.394971 -0.0184545
v 0.134371 0.392347 -0.0174724
v 0.109441 0.392071 -0.0117497
v 0.120784 0.392285 -0.0112767
v 0.133062 0.390003 -0.010487
v -0.0036121 0.331236 -0.0825879
v 0.0223712 0.341355 -0.0810637
v 0.0512613 0.353913 -0.0791049
v 0.0799613 0.366616 -0.0769333
v -0.0016154 0.339844 -0.0771414
v 0.0252845 0.350694 -0.0754991
v 0.0534703 0.363556 -0.0737323
v 0.0782456 0.37537 -0.0721784
v -0.0012527 0.344083 -0.0706569
v 0.026328 0.355298 -0.0688563
v 0.0544256 0.368297 -0.0671148
v 0.0778255 0.379777 -0.0657788
v -0.0016724 0.345889 -0.0634452
v 0.0263296 0.357372 -0.061503
v 0.0545891 0.370512 -0.0597179
v 0.0778743 0.382004 -0.0584028
v -0.002162 0.346856 -0.0558077
v 0.0259925 0.358716 -0.0537829
v 0.0543591 0.372118 -0.0519654
v 0.0777121 0.383775 -0.0506435
v -0.0025677 0.347219 -0.0480063
v 0.0255198 0.359494 -0.045943
v 0.0538792 0.373195 -0.0441139
v 0.077249 0.385045 -0.0427931
v -0.0028751 0.346871 -0.0402933
v 0.0249902 0.359463 -0.0382058
v 0.0532292 0.373364 -0.0363782
v 0.0765421 0.385327 -0.0350683
v -0.0034326 0.345704 -0.0328661
v 0.0241065 0.358368 -0.0307836
v 0.0522185 0.372254 -0.0289435
v 0.0756716 0.384172 -0.0275598
v -0.0060385 0.34361 -0.025703
v 0.0210705 0.355899 -0.023847
v 0.0495752 0.369528 -0.0218761
v 0.074809 0.381292 -0.0198532
v -0.0128535 0.340479 -0.0187269
v 0.0137086 0.351731 -0.017556
v 0.0437569 0.364859 -0.0152128
v 0.0741486 0.376438 -0.0114081
v -0.0482476 0.318457 -0.0834509
v -0.0389433 0.321564 -0.0837758
v -0.0241507 0.325108 -0.0834969
v -0.0516017 0.32114 -0.0800227
v -0.0398726 0.32788 -0.079318
v -0.0234204 0.332999 -0.0783988
v -0.0551146 0.322532 -0.0748044
v -0.0418175 0.330846 -0.0735998
v -0.0240784 0.336786 -0.0722391
v -0.0578822 0.322946 -0.0683039
v -0.0436999 0.331783 -0.0669107
v -0.0251503 0.338201 -0.065277
v -0.0592106 0.322659 -0.0610109
v -0.044669 0.331806 -0.0595532
v -0.0258455 0.338689 -0.0577797
v -0.0592472 0.32182 -0.053341
v -0.0447814 0.3312 -0.0518814
v -0.0261094 0.338542 -0.0500474
v -0.0583497 0.320544 -0.0456914
v -0.0443208 0.330044 -0.0442623
v -0.0260715 0.337764 -0.0423885
v -0.0570512 0.319021 -0.0383994
v -0.0437546 0.328488 -0.0370107
v -0.0261113 0.336405 -0.0350699
v -0.0565873 0.317744 -0.0315608
v -0.0442852 0.326955 -0.0302317
v -0.0276098 0.334706 -0.0281931
v -0.0583691 0.317281 -0.0252116
v -0.0472991 0.325939 -0.0239784
v -0.0321979 0.332953 -0.0218182
v -0.0558255 0.263039 -0.0835265
v -0.0551178 0.288531 -0.0854833
v -0.052065 0.307306 -0.0850406
v -0.0642737 0.262594 -0.079281
v -0.0634844 0.288374 -0.081365
v -0.0590339 0.308034 -0.0812226
v -0.070789 0.262454 -0.0737082
v -0.0698001 0.288413 -0.0758092
v -0.0644428 0.308524 -0.0758405
v -0.07531 0.26247 -0.0671495
v -0.074048 0.288424 -0.0691718
v -0.0680906 0.308646 -0.0692857
v -0.077788 0.262528 -0.0599347
v -0.076239 0.288235 -0.0618039
v -0.0698582 0.308308 -0.0619472
v -0.078224 0.262658 -0.0523466
v -0.07649 0.287882 -0.0540369
v -0.0699549 0.307584 -0.0542049
v -0.076629 0.262927 -0.0446562
v -0.074948 0.287454 -0.0461974
v -0.0686716 0.306585 -0.0464369
v -0.07331 0.263466 -0.0370992
v -0.072044 0.287108 -0.0385825
v -0.0665256 0.305497 -0.0389742
v -0.0697464 0.264668 -0.0297692
v -0.0693519 0.28729 -0.031372
v -0.0649374 0.30481 -0.0319616
v -0.0677134 0.26699 -0.0227243
v -0.068731 0.288515 -0.024716
v -0.0655535 0.305087 -0.0254972
v -0.0459384 0.154739 -0.0643702
v -0.0491766 0.195363 -0.0714449
v -0.053269 0.23172 -0.0784229
v -0.052537 0.154262 -0.0606968
v -0.0564931 0.194824 -0.067526
v -0.0612648 0.231182 -0.0742729
v -0.0577732 0.154113 -0.0561914
v -0.0622787 0.194628 -0.0626148
v -0.0675371 0.23098 -0.0689512
v -0.0615687 0.15434 -0.0510429
v -0.0664397 0.194784 -0.0569548
v -0.07199 0.231056 -0.0627592
v -0.0638599 0.154999 -0.0454415
v -0.0688939 0.19531 -0.0507836
v -0.074537 0.231368 -0.0559869
v -0.0646442 0.156181 -0.039581
v -0.0696045 0.196274 -0.0443171
v -0.075131 0.231962 -0.0488786
v -0.0639342 0.157987 -0.0336563
v -0.0685457 0.197756 -0.0377652
v -0.073731 0.232902 -0.0416671
v -0.0618787 0.160664 -0.0278874
v -0.0658647 0.199931 -0.0313616
v -0.070526 0.234335 -0.0345966
v -0.0591718 0.165061 -0.0225966
v -0.0623979 0.203351 -0.0254329
v -0.0666094 0.236733 -0.0279564
v -0.0566441 0.172173 -0.0181312
v -0.0591545 0.208667 -0.0203295
v -0.0633018 0.240649 -0.0220468
v -0.0477449 0.011861 -0.0511934
v -0.0463981 0.0628465 -0.0543301
v -0.045296 0.110501 -0.0586374
v -0.0529725 0.011579 -0.04776
v -0.0519409 0.0625427 -0.050893
v -0.0512942 0.110116 -0.0551263
v -0.0571508 0.011526 -0.0436881
v -0.0563651 0.0624987 -0.0467908
v -0.0560687 0.110029 -0.0508905
v -0.0602115 0.0117307 -0.0391155
v -0.0596023 0.0627592 -0.0421643
v -0.0595492 0.110294 -0.0460856
v -0.0621083 0.012235 -0.0341834
v -0.0616054 0.0633819 -0.0371587
v -0.0616844 0.110979 -0.0408712
v -0.0628843 0.0131355 -0.0290476
v -0.0624127 0.0644751 -0.0319375
v -0.0624981 0.112189 -0.035424
v -0.0626044 0.0145422 -0.0238672
v -0.0620835 0.0661604 -0.0266689
v -0.0620328 0.11404 -0.0299245
v -0.0613442 0.0166019 -0.0188036
v -0.0607226 0.0686579 -0.0215277
v -0.0604214 0.116802 -0.0245679
v -0.059221 0.0196074 -0.0140267
v -0.0586151 0.0725827 -0.0167157
v -0.0581576 0.121367 -0.0196076
v -0.0563622 0.0238882 -0.00970893
v -0.0560912 0.078649 -0.0124414
v -0.055825 0.128778 -0.0153113
v -0.0463854 -0.154956 -0.0471411
v -0.0475824 -0.0982014 -0.0476736
v -0.0481378 -0.042176 -0.0490049
v -0.0514833 -0.155659 -0.0433591
v -0.0525879 -0.0987033 -0.0440741
v -0.0531866 -0.0425289 -0.0455188
v -0.055505 -0.156133 -0.0388931
v -0.0565666 -0.0989905 -0.0398268
v -0.0572171 -0.0426677 -0.0413995
v -0.0584062 -0.156349 -0.0339094
v -0.0594604 -0.0990422 -0.0350823
v -0.0601637 -0.0425724 -0.0367883
v -0.060155 -0.156299 -0.0285733
v -0.0612288 -0.0988397 -0.0299919
v -0.0619819 -0.0422138 -0.0318288
v -0.0607691 -0.156061 -0.0230463
v -0.0619029 -0.0983727 -0.024711
v -0.0627115 -0.0415258 -0.0266741
v -0.060279 -0.155735 -0.0174893
v -0.061532 -0.0976325 -0.019396
v -0.0624139 -0.040433 -0.0214795
v -0.0587206 -0.155333 -0.0120786
v -0.0601579 -0.0965772 -0.0142084
v -0.0611434 -0.0388464 -0.0164018
v -0.0561535 -0.154505 -0.0070527
v -0.057794 -0.0950328 -0.00933008
v -0.058928 -0.036624 -0.0116025
v -0.0526428 -0.152812 -0.00266565
v -0.0544465 -0.0927916 -0.00494842
v -0.0557887 -0.03361 -0.00724418
v -0.0430613 -0.30209 -0.0492047
v -0.0436042 -0.261198 -0.0480769
v -0.0448923 -0.210629 -0.0473289
v -0.0490585 -0.30346 -0.0445958
v -0.0492371 -0.262357 -0.0437535
v -0.0502111 -0.211558 -0.0432947
v -0.0535691 -0.304495 -0.0390388
v -0.0535662 -0.263227 -0.0386
v -0.0543623 -0.212234 -0.038517
v -0.0566906 -0.30513 -0.0328098
v -0.0566141 -0.263749 -0.032841
v -0.0573249 -0.212612 -0.0331855
v -0.0584879 -0.305376 -0.0261391
v -0.0583938 -0.263936 -0.026684
v -0.0590824 -0.212696 -0.0274849
v -0.0588937 -0.305546 -0.0190719
v -0.0588788 -0.264084 -0.0202673
v -0.0596348 -0.212683 -0.0215808
v -0.0578079 -0.306028 -0.0116071
v -0.0580334 -0.26456 -0.0137119
v -0.0589869 -0.21282 -0.015634
v -0.0552303 -0.306956 -0.00393476
v -0.0558826 -0.265491 -0.00722741
v -0.0571721 -0.213181 -0.00984256
v -0.0515599 -0.307451 0.0029908
v -0.0526971 -0.266045 -0.0013779
v -0.0543416 -0.213158 -0.0045539
v -0.0472952 -0.306378 0.00802417
v -0.0488088 -0.265154 0.00318395
v -0.050676 -0.211973 -0.000152543
v -0.0431614 -0.360413 -0.0512797
v -0.0439586 -0.348234 -0.0513499
v -0.043502 -0.330191 -0.0504659
v -0.0496514 -0.362205 -0.0463254
v -0.0505239 -0.349919 -0.0463683
v -0.0498536 -0.331737 -0.0456191
v -0.0540507 -0.363631 -0.0400086
v -0.0551605 -0.351195 -0.0401419
v -0.0544957 -0.332896 -0.0396767
v -0.0568634 -0.364558 -0.032804
v -0.0582209 -0.351988 -0.0330881
v -0.0576396 -0.333609 -0.0329841
v -0.0584619 -0.364861 -0.0249846
v -0.0599546 -0.352249 -0.0254719
v -0.0594302 -0.333867 -0.0257913
v -0.0586906 -0.364437 -0.0160154
v -0.0601991 -0.352022 -0.016947
v -0.0597459 -0.33388 -0.0179664
v -0.0572622 -0.363186 -0.00515972
v -0.0586893 -0.351374 -0.00701426
v -0.0583986 -0.333913 -0.00928207
v -0.0538972 -0.361023 0.00778808
v -0.0552812 -0.350293 0.00433467
v -0.0553346 -0.334042 0.000141039
v -0.0483485 -0.357903 0.020908
v -0.0503168 -0.348446 0.015146
v -0.0510384 -0.333596 0.00878985
v -0.0403769 -0.353792 0.0317488
v -0.0442593 -0.345421 0.0229753
v -0.0461286 -0.331716 0.0148033
v -0.0320498 -0.382712 -0.0454156
v -0.0361345 -0.377733 -0.0476998
v -0.0402668 -0.370144 -0.0498948
v -0.0334906 -0.385479 -0.041561
v -0.0405381 -0.379897 -0.0433607
v -0.046185 -0.372044 -0.0451686
v -0.034767 -0.388112 -0.035997
v -0.0433658 -0.381933 -0.0374991
v -0.0500171 -0.373701 -0.0390081
v -0.0358244 -0.390091 -0.0293803
v -0.0451218 -0.383439 -0.0306701
v -0.05238 -0.37486 -0.0319228
v -0.0366151 -0.390969 -0.0220954
v -0.0462065 -0.384056 -0.0231784
v -0.0537502 -0.375282 -0.0241903
v -0.0371171 -0.390589 -0.0134378
v -0.0466046 -0.383609 -0.0143262
v -0.0540413 -0.374797 -0.0151616
v -0.0373152 -0.388872 -0.00243084
v -0.046197 -0.381968 -0.00316484
v -0.0530265 -0.37325 -0.00395574
v -0.0371685 -0.385876 0.0111395
v -0.0448245 -0.379159 0.010591
v -0.0504736 -0.370615 0.00970726
v -0.0365339 -0.382229 0.0244368
v -0.0421662 -0.375831 0.0245745
v -0.0461293 -0.367379 0.023704
v -0.0352427 -0.378698 0.0338621
v -0.037861 -0.372792 0.0357557
v -0.039735 -0.364158 0.0353105
v -0.0044001 -0.381084 -0.0459481
v -0.0155242 -0.382701 -0.0461073
v -0.0251467 -0.383173 -0.0459331
v -0.0030703 -0.387682 -0.0401531
v -0.014207 -0.38885 -0.0405588
v -0.0245843 -0.388107 -0.0409657
v -0.0024856 -0.392685 -0.0336884
v -0.0137702 -0.393548 -0.0342774
v -0.0247204 -0.391983 -0.0349858
v -0.0024118 -0.395989 -0.0267382
v -0.0138642 -0.396666 -0.0274657
v -0.0251996 -0.394598 -0.0283176
v -0.0026637 -0.397502 -0.0193159
v -0.0142087 -0.398089 -0.0201333
v -0.0257329 -0.395773 -0.0210666
v -0.0032518 -0.397183 -0.0107534
v -0.0147986 -0.397763 -0.0115163
v -0.0262982 -0.395433 -0.0124624
v -0.0042358 -0.395 -0.000212058
v -0.015698 -0.395652 -0.000657991
v -0.0269396 -0.393527 -0.00151618
v -0.0056276 -0.390965 0.0125755
v -0.016927 -0.391754 0.0127598
v -0.0276694 -0.390058 0.0120725
v -0.0072474 -0.385258 0.0255917
v -0.0183296 -0.386227 0.0264995
v -0.028373 -0.38525 0.025849
v -0.008868 -0.378099 0.0362476
v -0.0197058 -0.379267 0.0376847
v -0.0289035 -0.37938 0.0366702
v 0.0298212 -0.369617 -0.043593
v 0.0186719 -0.374269 -0.0446761
v 0.0071565 -0.378197 -0.0454662
v 0.0301944 -0.375079 -0.0379001
v 0.0193507 -0.380287 -0.0388421
v 0.008204 -0.384674 -0.0395921
v 0.0302986 -0.378607 -0.031515
v 0.0195851 -0.384457 -0.0323461
v 0.0086611 -0.389429 -0.033062
v 0.0301736 -0.380614 -0.0246211
v 0.0194957 -0.387004 -0.0253648
v 0.0086924 -0.392487 -0.0260554
v 0.029851 -0.381448 -0.0173538
v 0.0191788 -0.388117 -0.017989
v 0.0084276 -0.393868 -0.0186196
v 0.029328 -0.38118 -0.00965779
v 0.0186319 -0.387827 -0.00996436
v 0.0078565 -0.39356 -0.0102739
v 0.0285934 -0.379817 -0.00142954
v 0.0178278 -0.386129 -0.000950143
v 0.0069341 -0.391544 -0.000405416
v 0.0276419 -0.377316 0.00722857
v 0.016754 -0.383007 0.00907178
v 0.0056497 -0.387826 0.0111415
v 0.0264917 -0.373446 0.0153921
v 0.0154574 -0.3784 0.0188298
v 0.0041296 -0.382504 0.0226932
v 0.0251668 -0.367927 0.0219308
v 0.0139996 -0.372232 0.0267301
v 0.0025347 -0.375703 0.0321189
v 0.0487588 -0.359801 -0.0408026
v 0.0401592 -0.364608 -0.0422565
v 0.0494649 -0.363521 -0.0358506
v 0.0404587 -0.369495 -0.0368158
v 0.0501233 -0.365848 -0.0298526
v 0.0406862 -0.372494 -0.0305991
v 0.0505236 -0.367114 -0.023159
v 0.040735 -0.374104 -0.0238245
v 0.0504903 -0.3676 -0.0160783
v 0.0405159 -0.374741 -0.0166799
v 0.0499864 -0.367374 -0.00875346
v 0.0400095 -0.374496 -0.00923319
v 0.0490095 -0.366447 -0.00128616
v 0.0392138 -0.373381 -0.00152202
v 0.047595 -0.364787 0.00610067
v 0.0381451 -0.371339 0.00627781
v 0.0459302 -0.362178 0.0126988
v 0.0368919 -0.368043 0.0134382
v 0.0442407 -0.35836 0.0176785
v 0.0355607 -0.3631 0.019093
v -0.0109386 -0.353537 0.0421868
v -0.0110471 -0.361324 0.0442778
v -0.0102425 -0.369837 0.0424737
v -0.0211271 -0.354511 0.0431932
v -0.0216159 -0.362492 0.0456421
v -0.0209906 -0.37108 0.0439913
v -0.0309778 -0.354578 0.0400263
v -0.0313389 -0.363264 0.0428364
v -0.0304672 -0.371877 0.0418014
v 0.0206445 -0.345086 0.0278214
v 0.0221661 -0.352721 0.0277838
v 0.0237008 -0.360717 0.025986
v 0.0100344 -0.34879 0.0326828
v 0.0110718 -0.356452 0.0333483
v 0.0124703 -0.364623 0.0315245
v -0.0005216 -0.351621 0.0381039
v -6.76003e-005 -0.35933 0.0395571
v 0.0010469 -0.367692 0.0377238
v 0.0408978 -0.335296 0.022561
v 0.042819 -0.343683 0.0219869
v 0.043771 -0.351748 0.0204754
v 0.0311254 -0.340559 0.0248168
v 0.0329378 -0.348277 0.0243544
v 0.0343486 -0.356186 0.0226114
v -0.0342809 -0.35835 -0.0545361
v -0.0316768 -0.368286 -0.0527918
v -0.0282477 -0.376604 -0.0497891
v -0.0235291 -0.355963 -0.0563176
v -0.0210447 -0.366188 -0.0542371
v -0.0180831 -0.375128 -0.050734
v -0.0116296 -0.353167 -0.0569867
v -0.0091734 -0.36364 -0.0546484
v -0.006577 -0.37301 -0.0508713
v 0.000753999 -0.349904 -0.0568497
v 0.0032033 -0.360484 -0.0543779
v 0.0054255 -0.370035 -0.050486
v 0.0131996 -0.346241 -0.0559883
v 0.0156276 -0.356784 -0.0535172
v 0.0174439 -0.366301 -0.0496543
v 0.0253452 -0.342279 -0.0544278
v 0.0277102 -0.352654 -0.0520927
v 0.0290894 -0.361984 -0.0484009
v 0.0367851 -0.338178 -0.0521442
v 0.0390195 -0.348295 -0.0500734
v 0.0399145 -0.357348 -0.0467099
v 0.0469377 -0.334352 -0.0489162
v 0.0489535 -0.344242 -0.0472001
v 0.0492406 -0.353005 -0.0444054
v -0.0355637 -0.300435 -0.0526488
v -0.03535 -0.328308 -0.0539573
v -0.0352753 -0.346196 -0.0547832
v -0.0268879 -0.298493 -0.0549508
v -0.0257883 -0.326088 -0.0561754
v -0.0249362 -0.343798 -0.0568215
v -0.01744 -0.296245 -0.0561932
v -0.0153282 -0.323519 -0.0572879
v -0.0135665 -0.341014 -0.0577326
v -0.0076084 -0.293692 -0.0564489
v -0.0044492 -0.320606 -0.0574385
v -0.0017434 -0.337842 -0.0577434
v 0.0022876 -0.290896 -0.0557522
v 0.0064974 -0.31742 -0.0566762
v 0.0101472 -0.334353 -0.0569195
v 0.0119466 -0.287938 -0.0541276
v 0.0171919 -0.314047 -0.0550258
v 0.0217671 -0.33064 -0.0552856
v 0.0210561 -0.284925 -0.0515902
v 0.0272905 -0.310609 -0.0524905
v 0.0327409 -0.326841 -0.0528312
v 0.0292608 -0.28206 -0.0481153
v 0.0363523 -0.30736 -0.0489868
v 0.0425425 -0.323275 -0.0494027
v -0.040289 -0.154052 -0.0500981
v -0.0384692 -0.209483 -0.0504612
v -0.0367034 -0.259797 -0.0513874
v -0.0334035 -0.152961 -0.0521884
v -0.0311751 -0.208128 -0.0526575
v -0.0288045 -0.258153 -0.05367
v -0.0259716 -0.151696 -0.0533953
v -0.0232863 -0.206562 -0.0539145
v -0.0202357 -0.256251 -0.0549517
v -0.0182363 -0.150276 -0.0537077
v -0.0150762 -0.204793 -0.0542332
v -0.0113173 -0.254092 -0.0552588
v -0.0104416 -0.148746 -0.0531362
v -0.0068074 -0.202871 -0.0536304
v -0.0023381 -0.251733 -0.0546153
v -0.002832 -0.147158 -0.0516969
v 0.0012595 -0.200857 -0.0521267
v 0.0064213 -0.249244 -0.0530448
v 0.0043505 -0.145567 -0.0494118
v 0.0088658 -0.198819 -0.0497458
v 0.0146774 -0.246713 -0.0505687
v 0.0108722 -0.144043 -0.0463273
v 0.0157576 -0.196868 -0.0465234
v 0.0221375 -0.244297 -0.0472012
v -0.0415614 0.0123413 -0.0538711
v -0.0421614 -0.0416307 -0.0517368
v -0.0416359 -0.0975056 -0.0504964
v -0.0346157 0.0129799 -0.0557583
v -0.0354467 -0.0409212 -0.0536743
v -0.0349433 -0.0966376 -0.0524995
v -0.0271263 0.0137344 -0.0568409
v -0.028208 -0.0400775 -0.0547974
v -0.0277269 -0.0956189 -0.0536616
v -0.0193101 0.0145921 -0.0571093
v -0.0206616 -0.039124 -0.0550906
v -0.0202112 -0.0944749 -0.0539666
v -0.0113761 0.0156582 -0.0565719
v -0.0130316 -0.0380616 -0.0545564
v -0.0126295 -0.0932448 -0.0534193
v -0.0035313 0.0170677 -0.055242
v -0.0055443 -0.0368855 -0.053202
v -0.0052173 -0.0919708 -0.0520296
v 0.0039973 0.0188764 -0.0531361
v 0.0015693 -0.0356106 -0.0510426
v 0.0017911 -0.0906969 -0.0498158
v 0.0109046 0.0208242 -0.0502845
v 0.0080593 -0.0343296 -0.0481251
v 0.0081662 -0.0894716 -0.0468287
v -0.0380593 0.1555 -0.0670608
v -0.0381664 0.111125 -0.0612962
v -0.0398317 0.063363 -0.0569842
v -0.0289942 0.156517 -0.0687716
v -0.0300867 0.111928 -0.0630875
v -0.0324433 0.0640356 -0.0588281
v -0.0188404 0.157764 -0.0695443
v -0.0212599 0.112849 -0.0640241
v -0.0244607 0.0648051 -0.0598577
v -0.0077146 0.159335 -0.0694291
v -0.0118831 0.113937 -0.0641268
v -0.0161034 0.0656831 -0.0600745
v 0.0041913 0.161806 -0.068511
v -0.0021276 0.115674 -0.0634478
v -0.0075566 0.0669628 -0.0595043
v 0.0166663 0.165869 -0.066884
v 0.0078415 0.118653 -0.0620474
v 0.0010031 0.069008 -0.0581789
v 0.0293453 0.171835 -0.0646094
v 0.0177681 0.12316 -0.0599663
v 0.009352 0.0719945 -0.0561235
v 0.0412462 0.178483 -0.0616191
v 0.0270307 0.128256 -0.0571675
v 0.0170761 0.0753468 -0.0533378
v -0.0453821 0.263996 -0.0861929
v -0.0435635 0.232685 -0.0811731
v -0.0403877 0.196251 -0.0741829
v -0.0323898 0.265894 -0.0873884
v -0.0318333 0.234285 -0.0825886
v -0.0300439 0.197545 -0.0757699
v -0.0161718 0.269223 -0.0873113
v -0.0176815 0.23676 -0.0828081
v -0.0180275 0.199316 -0.0762904
v 0.0036057 0.274287 -0.0861533
v -0.000897001 0.24033 -0.0819721
v -0.0043011 0.201715 -0.0758361
v 0.0259051 0.280665 -0.0840816
v 0.0179875 0.245146 -0.080231
v 0.0108514 0.205219 -0.0745273
v 0.0493462 0.287755 -0.0812569
v 0.0382532 0.25134 -0.0777373
v 0.0270661 0.210381 -0.0724912
v 0.0727443 0.295104 -0.0778227
v 0.0590345 0.258842 -0.0746044
v 0.0437648 0.217392 -0.0698138
v 0.0956968 0.302877 -0.0738526
v 0.0788779 0.266764 -0.07079
v 0.0595137 0.224979 -0.0664157
v -0.0415501 0.308746 -0.0867397
v -0.0443166 0.289468 -0.0878755
v -0.0270142 0.311412 -0.0871932
v -0.0303782 0.291661 -0.0887822
v -0.0076595 0.316671 -0.086601
v -0.0124328 0.295949 -0.0884478
v 0.0166603 0.32527 -0.0851558
v 0.009855 0.30277 -0.0871009
v 0.0434876 0.335492 -0.0830229
v 0.0346824 0.310943 -0.0849087
v 0.0697137 0.344999 -0.0803606
v 0.0597123 0.318885 -0.0820229
v 0.0972442 0.367001 -0.0760762
v 0.0902315 0.348903 -0.0777729
v 0.0826251 0.325019 -0.0786984
v 0.110284 0.365784 -0.0741743
v 0.107027 0.351019 -0.0749496
v 0.103057 0.330153 -0.0752654
v 0.119165 0.363623 -0.0726351
v 0.120397 0.352644 -0.0727552
v 0.1207 0.335105 -0.0722486
v -0.0556858 0.18531 -0.0149945
v -0.0566135 0.202945 -0.0120809
v -0.0541599 0.140303 -0.0118969
v -0.053527 0.153913 -0.00872146
v -0.0535465 0.0872123 -0.00880904
v -0.0515154 0.0966728 -0.00542392
v -0.053013 0.0295255 -0.00593124
v -0.0498885 0.0356072 -0.00240992
v -0.071326 0.277801 -0.0182132
v -0.077195 0.284193 -0.0137192
v -0.0655235 0.255919 -0.0180788
v -0.070648 0.267664 -0.0140478
v -0.0626852 0.242478 -0.0136064
v -0.059595 0.225431 -0.0169049
v -0.0633026 0.318024 -0.0193154
v -0.070273 0.319666 -0.0135467
v -0.0695867 0.306947 -0.0196691
v -0.075889 0.309468 -0.0140245
v -0.07231 0.293194 -0.0193226
v -0.078298 0.297108 -0.0141226
v -0.0519055 -0.0297792 -0.00340782
v -0.0480932 -0.0256276 0.00015305
v -0.0502841 -0.0897577 -0.00115843
v -0.0461262 -0.086282 0.00231372
v -0.0483875 -0.149974 0.000953391
v -0.0441213 -0.146333 0.00417493
v -0.0464338 -0.209076 0.00316288
v -0.0421864 -0.20483 0.00593741
v -0.0445585 -0.26204 0.00610037
v -0.0403243 -0.257106 0.00819327
v -0.0428769 -0.302925 0.010495
v -0.038512 -0.297565 0.0116325
v 0.0218761 -0.167468 0.0364176
v 0.0223257 -0.16866 0.0311896
v 0.0286972 -0.211092 0.0393223
v 0.0289932 -0.212416 0.0336513
v -0.0303505 0.334964 -0.0144805
v -0.0434461 0.332858 -0.0101642
v -0.0423584 0.331006 -0.0166988
v -0.0524833 0.330594 -0.0116757
v -0.0538201 0.325764 -0.0183166
v -0.0619866 0.326524 -0.012778
v -0.0095245 0.342259 -0.00858836
v -0.0285065 0.336338 -0.00952135
v -0.0087596 0.342448 -0.0135561
v 0.0445639 0.362771 -0.0100296
v 0.013779 0.349663 -0.00736575
v 0.0162925 0.352286 -0.0121794
v 0.0960058 0.360847 -0.00342296
v 0.0704541 0.351979 -0.00409774
v 0.0413773 0.342034 -0.00189282
v 0.0887062 0.367952 -0.00474013
v 0.0627395 0.358686 -0.00538068
v 0.0335919 0.347999 -0.0031528
v 0.0812777 0.372843 -0.00707515
v 0.0541649 0.36219 -0.00723837
v 0.0245427 0.350459 -0.00493817
v 0.04798 0.332398 -0.0010867
v 0.0771584 0.341797 -0.0031663
v 0.102811 0.350718 -0.00247954
v 0.0520026 0.319238 -0.000844166
v 0.0814381 0.327883 -0.00290491
v 0.109004 0.337196 -0.00260974
v 0.051678 0.302782 -0.00132032
v 0.0815624 0.309983 -0.00376771
v 0.0450056 0.282132 -0.00244467
v 0.0682686 0.283786 -0.00548686
v 0.0353104 0.254715 -0.00347994
v 0.0522489 0.251438 -0.00678937
v 0.0257593 0.216743 -0.00362949
v 0.0372685 0.210324 -0.00700991
v 0.0188949 0.165996 -0.00234471
v 0.0263299 0.158992 -0.00571357
v 0.0147613 0.10651 -6.89477e-005
v 0.0193834 0.100648 -0.00338666
v 0.0127783 0.043892 0.00250645
v 0.0156166 0.0396582 -0.000745848
v 0.0124694 -0.0172662 0.00482292
v 0.0143413 -0.0203919 0.0016423
v 0.0137735 -0.0764123 0.00685339
v 0.0153671 -0.0790517 0.00381182
v 0.0167333 -0.134005 0.00870351
v 0.018628 -0.136653 0.00594677
v 0.0212473 -0.189568 0.0105021
v 0.0238776 -0.192576 0.00820945
v 0.0266366 -0.238891 0.0124699
v 0.0301471 -0.242386 0.0106749
v 0.032078 -0.276829 0.014851
v 0.0362875 -0.280695 0.0133963
v 0.0367143 -0.300055 0.0177538
v 0.0411764 -0.304007 0.0163482
v 0.0395536 -0.312515 0.0207458
v 0.0438 -0.316387 0.0191905
v 0.0395701 -0.319975 0.0232592
v 0.0431712 -0.32379 0.0215046
v 0.0345912 -0.32567 0.0240607
v 0.037206 -0.329282 0.0232918
v 0.0274139 -0.330865 0.0246144
v 0.0288731 -0.334409 0.0246508
v 0.0190895 -0.335431 0.0256155
v 0.0193584 -0.33895 0.0267225
v -0.0095909 -0.347455 0.0370853
v -0.0067467 -0.344061 0.0312896
v -6.20007e-006 -0.345568 0.0341493
v 0.0018734 -0.342162 0.0296768
v 0.0096559 -0.342705 0.0302206
v 0.010503 -0.339241 0.0275012
v -0.0413076 -0.327735 0.0167401
v -0.0365655 -0.32245 0.0166283
v -0.0389852 -0.340246 0.0238853
v -0.033659 -0.335344 0.0222862
v -0.0348477 -0.346178 0.0306445
v -0.0288061 -0.341671 0.0273949
v -0.0275915 -0.347895 0.0357501
v -0.0227946 -0.344076 0.0303553
v -0.0189628 -0.348275 0.0377885
v -0.0151855 -0.344782 0.0316042
v 0.146462 0.337701 -0.0686265
v 0.136834 0.328915 -0.0689701
v 0.150525 0.333688 -0.0640897
v 0.14284 0.324181 -0.0637863
v 0.15442 0.332933 -0.0574395
v 0.147501 0.323137 -0.0569326
v 0.157362 0.333658 -0.0496385
v 0.150606 0.323805 -0.0491565
v 0.134157 0.37406 -0.0713903
v 0.126138 0.368906 -0.072131
v 0.140206 0.362089 -0.0708365
v 0.131167 0.357389 -0.0717794
v 0.143864 0.348644 -0.0703418
v 0.134691 0.343167 -0.0712353
v 0.158703 0.334382 -0.041531
v 0.151983 0.324541 -0.0411214
v 0.158342 0.334801 -0.0334866
v 0.151625 0.325012 -0.033155
v 0.156312 0.334908 -0.0257564
v 0.149566 0.325219 -0.0255008
v 0.152783 0.334852 -0.0185129
v 0.145887 0.32539 -0.0183201
v 0.148459 0.335412 -0.0116141
v 0.14087 0.326671 -0.0114445
v 0.14418 0.337525 -0.00483947
v 0.134847 0.330439 -0.00462334
v 0.140091 0.355678 0.0105182
v 0.13816 0.353712 0.0115437
v 0.135893 0.352419 0.0116638
v 0.1338 0.352088 0.0108514
v 0.140062 0.362291 0.0107356
v 0.137095 0.361147 0.0128539
v 0.134096 0.359436 0.0130127
v 0.131499 0.357406 0.0111891
v 0.13899 0.370375 0.0102052
v 0.135364 0.368758 0.0128066
v 0.131615 0.366619 0.0130052
v 0.128208 0.364223 0.0107761
v 0.135819 0.37743 0.00941204
v 0.132207 0.375054 0.0121634
v 0.128114 0.372719 0.0123801
v 0.124038 0.370708 0.0100359
v 0.102249 0.393137 -0.0573148
v 0.0926599 0.389332 -0.0577305
v 0.102171 0.391235 -0.0646007
v 0.0926343 0.387322 -0.0650602
v 0.102978 0.389264 -0.0705356
v 0.0935102 0.38462 -0.0711429
v 0.105941 0.3871 -0.0740824
v 0.0965578 0.380475 -0.0750393
v 0.114405 0.385251 -0.0742507
v 0.106866 0.378664 -0.075116
v 0.124781 0.381446 -0.0728673
v 0.117272 0.37508 -0.0736296
v 0.100958 0.396665 -0.0340726
v 0.0913501 0.392882 -0.0344138
v 0.101715 0.396338 -0.041757
v 0.0920854 0.392548 -0.0421276
v 0.102157 0.394981 -0.0495798
v 0.0925359 0.391183 -0.0499731
v 0.130019 0.38157 0.00870879
v 0.127174 0.378978 0.0114406
v 0.123426 0.376839 0.0116391
v 0.119237 0.375419 0.00927965
v 0.123174 0.383367 0.00791858
v 0.121043 0.38118 0.0101763
v 0.118044 0.379469 0.0103351
v 0.114611 0.378482 0.0083719
v 0.117394 0.384002 0.00673221
v 0.114898 0.382742 0.00766347
v 0.112632 0.381449 0.00778343
v 0.111103 0.380413 0.00706519
v 0.100855 0.390477 -0.011904
v 0.0909441 0.385989 -0.0117752
v 0.0997381 0.393375 -0.0193694
v 0.0901084 0.389388 -0.0195241
v 0.100059 0.395585 -0.0266709
v 0.0904865 0.39178 -0.0269594
v 0.133124 0.347061 0.00730456
v 0.128212 0.33738 0.00169648
v 0.12937 0.353433 0.00705592
v 0.123394 0.347156 0.00190671
v 0.12485 0.361395 0.00634472
v 0.117859 0.357287 0.00128932
v 0.119701 0.368986 0.00544523
v 0.111737 0.366241 0.000286058
v 0.138607 0.379617 0.00431524
v 0.140849 0.381608 -0.00228696
v 0.142176 0.371104 0.00530992
v 0.145102 0.371427 -0.00109236
v 0.142843 0.361041 0.00627066
v 0.145776 0.359297 0.000147358
v 0.141867 0.352301 0.00688128
v 0.144344 0.348597 0.00116004
v 0.139725 0.347571 0.00758846
v 0.141702 0.341958 0.00180964
v 0.136844 0.345862 0.00773074
v 0.136842 0.338663 0.00198464
v 0.114208 0.374663 0.0045727
v 0.105295 0.372858 -0.000779405
v 0.10926 0.378568 0.00370698
v 0.0993594 0.37746 -0.00205557
v 0.105897 0.381263 0.00276898
v 0.0948941 0.380744 -0.00380911
v 0.106785 0.383404 0.00272258
v 0.0997253 0.385209 -0.00415631
v 0.109687 0.385016 0.00258367
v 0.104757 0.387734 -0.00430532
v 0.114722 0.386132 0.00235842
v 0.111686 0.38899 -0.00424556
v 0.122713 0.386129 0.00291674
v 0.121583 0.389221 -0.00385718
v 0.131501 0.384408 0.00353132
v 0.132278 0.387288 -0.00321488

#	               Face list

g Trex_joel3d default L_Knee Trex_Geometry
usemtl blinn1SG
f 5 6 2 1
f 6 7 3 2
f 7 8 4 3
f 9 10 6 5
f 10 11 7 6
f 11 12 8 7
f 13 14 10 9
f 14 15 11 10
f 15 16 12 11
f 17 18 14 13
f 18 19 15 14
f 19 20 16 15
f 21 22 18 17
f 22 23 19 18
f 23 24 20 19
f 25 26 22 21
f 26 27 23 22
f 27 28 24 23
f 29 30 26 25
f 30 31 27 26
f 31 32 28 27
f 33 34 30 29
f 34 35 31 30
f 35 36 32 31
f 37 38 34 33
f 38 39 35 34
f 39 40 36 35
f 44 45 42 41
f 45 46 43 42
f 46 5 1 43
f 47 48 45 44
f 48 49 46 45
f 49 9 5 46
f 50 51 48 47
f 51 52 49 48
f 52 13 9 49
f 53 54 51 50
f 54 55 52 51
f 55 17 13 52
f 56 57 54 53
f 57 58 55 54
f 58 21 17 55
f 59 60 57 56
f 60 61 58 57
f 61 25 21 58
f 62 63 60 59
f 63 64 61 60
f 64 29 25 61
f 65 66 63 62
f 66 67 64 63
f 67 33 29 64
f 68 69 66 65
f 69 70 67 66
f 70 37 33 67
f 74 75 72 71
f 75 76 73 72
f 76 44 41 73
f 77 78 75 74
f 78 79 76 75
f 79 47 44 76
f 80 81 78 77
f 81 82 79 78
f 82 50 47 79
f 86 87 84 83
f 87 88 85 84
f 88 62 59 85
f 89 90 87 86
f 90 91 88 87
f 91 65 62 88
f 92 93 90 89
f 93 94 91 90
f 94 68 65 91
f 98 99 96 95
f 99 100 97 96
f 100 74 71 97
f 101 102 99 98
f 102 103 100 99
f 103 77 74 100
f 104 105 102 101
f 105 106 103 102
f 106 80 77 103
f 107 108 105 104
f 108 109 106 105
f 109 110 80 106
f 111 112 108 107
f 112 113 109 108
f 113 114 110 109
f 115 116 112 111
f 116 117 113 112
f 117 83 114 113
f 118 119 116 115
f 119 120 117 116
f 120 86 83 117
f 121 122 119 118
f 122 123 120 119
f 123 89 86 120
f 124 125 122 121
f 125 126 123 122
f 126 92 89 123
f 130 131 128 127
f 131 132 129 128
f 132 98 95 129
f 133 134 131 130
f 134 135 132 131
f 135 101 98 132
f 136 137 134 133
f 137 138 135 134
f 138 104 101 135
f 139 140 137 136
f 140 141 138 137
f 141 107 104 138
f 142 143 140 139
f 143 144 141 140
f 144 111 107 141
f 145 146 143 142
f 146 147 144 143
f 147 115 111 144
f 148 149 146 145
f 149 150 147 146
f 150 118 115 147
f 151 152 149 148
f 152 153 150 149
f 153 121 118 150
f 154 155 152 151
f 155 156 153 152
f 156 124 121 153
f 160 161 158 157
f 161 162 159 158
f 162 130 127 159
f 163 164 161 160
f 164 165 162 161
f 165 133 130 162
f 166 167 164 163
f 167 168 165 164
f 168 136 133 165
f 169 170 167 166
f 170 171 168 167
f 171 139 136 168
f 172 173 170 169
f 173 174 171 170
f 174 142 139 171
f 175 176 173 172
f 176 177 174 173
f 177 145 142 174
f 178 179 176 175
f 179 180 177 176
f 180 148 145 177
f 181 182 179 178
f 182 183 180 179
f 183 151 148 180
f 184 185 182 181
f 185 186 183 182
f 186 154 151 183
f 190 191 188 187
f 191 192 189 188
f 192 160 157 189
f 193 194 191 190
f 194 195 192 191
f 195 163 160 192
f 196 197 194 193
f 197 198 195 194
f 198 166 163 195
f 199 200 197 196
f 200 201 198 197
f 201 169 166 198
f 202 203 200 199
f 203 204 201 200
f 204 172 169 201
f 205 206 203 202
f 206 207 204 203
f 207 175 172 204
f 208 209 206 205
f 209 210 207 206
f 210 178 175 207
f 211 212 209 208
f 212 213 210 209
f 213 181 178 210
f 214 215 212 211
f 215 216 213 212
f 216 184 181 213
f 220 221 218 217
f 221 222 219 218
f 222 190 187 219
f 223 224 221 220
f 224 225 222 221
f 225 193 190 222
f 226 227 224 223
f 227 228 225 224
f 228 196 193 225
f 229 230 227 226
f 230 231 228 227
f 231 199 196 228
f 232 233 230 229
f 233 234 231 230
f 234 202 199 231
f 235 236 233 232
f 236 237 234 233
f 237 205 202 234
f 238 239 236 235
f 239 240 237 236
f 240 208 205 237
f 241 242 239 238
f 242 243 240 239
f 243 211 208 240
f 244 245 242 241
f 245 246 243 242
f 246 214 211 243
f 250 251 248 247
f 251 252 249 248
f 252 220 217 249
f 253 254 251 250
f 254 255 252 251
f 255 223 220 252
f 256 257 254 253
f 257 258 255 254
f 258 226 223 255
f 259 260 257 256
f 260 261 258 257
f 261 229 226 258
f 262 263 260 259
f 263 264 261 260
f 264 232 229 261
f 265 266 263 262
f 266 267 264 263
f 267 235 232 264
f 268 269 266 265
f 269 270 267 266
f 270 238 235 267
f 271 272 269 268
f 272 273 270 269
f 273 241 238 270
f 274 275 272 271
f 275 276 273 272
f 276 244 241 273
f 280 281 278 277
f 281 282 279 278
f 282 250 247 279
f 283 284 281 280
f 284 285 282 281
f 285 253 250 282
f 286 287 284 283
f 287 288 285 284
f 288 256 253 285
f 289 290 287 286
f 290 291 288 287
f 291 259 256 288
f 292 293 290 289
f 293 294 291 290
f 294 262 259 291
f 295 296 293 292
f 296 297 294 293
f 297 265 262 294
f 298 299 296 295
f 299 300 297 296
f 300 268 265 297
f 301 302 299 298
f 302 303 300 299
f 303 271 268 300
f 304 305 302 301
f 305 306 303 302
f 306 274 271 303
f 310 311 308 307
f 311 312 309 308
f 312 280 277 309
f 313 314 311 310
f 314 315 312 311
f 315 283 280 312
f 316 317 314 313
f 317 318 315 314
f 318 286 283 315
f 319 320 317 316
f 320 321 318 317
f 321 289 286 318
f 322 323 320 319
f 323 324 321 320
f 324 292 289 321
f 325 326 323 322
f 326 327 324 323
f 327 295 292 324
f 328 329 326 325
f 329 330 327 326
f 330 298 295 327
f 331 332 329 328
f 332 333 330 329
f 333 301 298 330
f 334 335 332 331
f 335 336 333 332
f 336 304 301 333
f 340 341 338 337
f 341 342 339 338
f 342 310 307 339
f 343 344 341 340
f 344 345 342 341
f 345 313 310 342
f 346 347 344 343
f 347 348 345 344
f 348 316 313 345
f 349 350 347 346
f 350 351 348 347
f 351 319 316 348
f 352 353 350 349
f 353 354 351 350
f 354 322 319 351
f 355 356 353 352
f 356 357 354 353
f 357 325 322 354
f 358 359 356 355
f 359 360 357 356
f 360 328 325 357
f 361 362 359 358
f 362 363 360 359
f 363 331 328 360
f 364 365 362 361
f 365 366 363 362
f 366 334 331 363
f 370 371 368 367
f 371 372 369 368
f 372 340 337 369
f 373 374 371 370
f 374 375 372 371
f 375 343 340 372
f 376 377 374 373
f 377 378 375 374
f 378 346 343 375
f 379 380 377 376
f 380 381 378 377
f 381 349 346 378
f 382 383 380 379
f 383 384 381 380
f 384 352 349 381
f 385 386 383 382
f 386 387 384 383
f 387 355 352 384
f 388 389 386 385
f 389 390 387 386
f 390 358 355 387
f 391 392 389 388
f 392 393 390 389
f 393 361 358 390
f 394 395 392 391
f 395 396 393 392
f 396 364 361 393
f 400 401 398 397
f 401 402 399 398
f 402 370 367 399
f 403 404 401 400
f 404 405 402 401
f 405 373 370 402
f 406 407 404 403
f 407 408 405 404
f 408 376 373 405
f 409 410 407 406
f 410 411 408 407
f 411 379 376 408
f 412 413 410 409
f 413 414 411 410
f 414 382 379 411
f 415 416 413 412
f 416 417 414 413
f 417 385 382 414
f 418 419 416 415
f 419 420 417 416
f 420 388 385 417
f 421 422 419 418
f 422 423 420 419
f 423 391 388 420
f 424 425 422 421
f 425 426 423 422
f 426 394 391 423
f 430 431 428 427
f 431 432 429 428
f 432 400 397 429
f 433 434 431 430
f 434 435 432 431
f 435 403 400 432
f 436 437 434 433
f 437 438 435 434
f 438 406 403 435
f 439 440 437 436
f 440 441 438 437
f 441 409 406 438
f 442 443 440 439
f 443 444 441 440
f 444 412 409 441
f 445 446 443 442
f 446 447 444 443
f 447 415 412 444
f 448 449 446 445
f 449 450 447 446
f 450 418 415 447
f 451 452 449 448
f 452 453 450 449
f 453 421 418 450
f 454 455 452 451
f 455 456 453 452
f 456 424 421 453
f 460 461 458 457
f 461 462 459 458
f 462 430 427 459
f 463 464 461 460
f 464 465 462 461
f 465 433 430 462
f 466 467 464 463
f 467 468 465 464
f 468 436 433 465
f 469 470 467 466
f 470 471 468 467
f 471 439 436 468
f 472 473 470 469
f 473 474 471 470
f 474 442 439 471
f 475 476 473 472
f 476 477 474 473
f 477 445 442 474
f 478 479 476 475
f 479 480 477 476
f 480 448 445 477
f 481 482 479 478
f 482 483 480 479
f 483 451 448 480
f 484 485 482 481
f 485 486 483 482
f 486 454 451 483
f 490 491 488 487
f 491 492 489 488
f 492 460 457 489
f 493 494 491 490
f 494 495 492 491
f 495 463 460 492
f 496 497 494 493
f 497 498 495 494
f 498 466 463 495
f 499 500 497 496
f 500 501 498 497
f 501 469 466 498
f 502 503 500 499
f 503 504 501 500
f 504 472 469 501
f 505 506 503 502
f 506 507 504 503
f 507 475 472 504
f 508 509 506 505
f 509 510 507 506
f 510 478 475 507
f 511 512 509 508
f 512 513 510 509
f 513 481 478 510
f 514 515 512 511
f 515 516 513 512
f 516 484 481 513
f 520 521 518 517
f 521 522 519 518
f 522 490 487 519
f 523 524 521 520
f 524 525 522 521
f 525 493 490 522
f 526 527 524 523
f 527 528 525 524
f 528 496 493 525
f 529 530 527 526
f 530 531 528 527
f 531 499 496 528
f 532 533 530 529
f 533 534 531 530
f 534 502 499 531
f 535 536 533 532
f 536 537 534 533
f 537 505 502 534
f 538 539 536 535
f 539 540 537 536
f 540 508 505 537
f 541 542 539 538
f 542 543 540 539
f 543 511 508 540
f 544 545 542 541
f 545 546 543 542
f 546 514 511 543
f 550 551 548 547
f 551 552 549 548
f 552 520 517 549
f 553 554 551 550
f 554 555 552 551
f 555 523 520 552
f 556 557 554 553
f 557 558 555 554
f 558 526 523 555
f 559 560 557 556
f 560 561 558 557
f 561 529 526 558
f 562 563 560 559
f 563 564 561 560
f 564 532 529 561
f 565 566 563 562
f 566 567 564 563
f 567 535 532 564
f 568 569 566 565
f 569 570 567 566
f 570 538 535 567
f 571 572 569 568
f 572 573 570 569
f 573 541 538 570
f 574 575 572 571
f 575 576 573 572
f 576 544 541 573
f 8 579 577 4
f 579 580 578 577
f 580 550 547 578
f 12 581 579 8
f 581 582 580 579
f 582 553 550 580
f 16 583 581 12
f 583 584 582 581
f 584 556 553 582
f 20 585 583 16
f 585 586 584 583
f 586 559 556 584
f 24 587 585 20
f 587 588 586 585
f 588 562 559 586
f 28 589 587 24
f 589 590 588 587
f 590 565 562 588
f 32 591 589 28
f 591 592 590 589
f 592 568 565 590
f 36 593 591 32
f 593 594 592 591
f 594 571 568 592
f 40 595 593 36
f 595 596 594 593
f 596 574 571 594
f 600 601 598 597
f 601 602 599 598
f 602 545 544 599
f 603 604 601 600
f 604 605 602 601
f 605 546 545 602
f 484 516 604 603
f 516 515 605 604
f 515 514 546 605
f 609 610 607 606
f 610 611 608 607
f 611 575 574 608
f 612 613 610 609
f 613 614 611 610
f 614 576 575 611
f 597 598 613 612
f 598 599 614 613
f 599 544 576 614
f 615 616 38 37
f 616 617 39 38
f 617 595 40 39
f 618 619 616 615
f 619 620 617 616
f 620 596 595 617
f 606 607 619 618
f 607 608 620 619
f 608 574 596 620
f 624 625 622 621
f 625 626 623 622
f 626 600 597 623
f 627 628 625 624
f 628 629 626 625
f 629 603 600 626
f 454 486 628 627
f 486 485 629 628
f 485 484 603 629
f 633 634 631 630
f 634 635 632 631
f 635 609 606 632
f 636 637 634 633
f 637 638 635 634
f 638 612 609 635
f 621 622 637 636
f 622 623 638 637
f 623 597 612 638
f 639 640 69 68
f 640 641 70 69
f 641 615 37 70
f 642 643 640 639
f 643 644 641 640
f 644 618 615 641
f 630 631 643 642
f 631 632 644 643
f 632 606 618 644
f 648 649 646 645
f 649 650 647 646
f 650 624 621 647
f 651 652 649 648
f 652 653 650 649
f 653 627 624 650
f 424 456 652 651
f 456 455 653 652
f 455 454 627 653
f 657 658 655 654
f 658 659 656 655
f 659 633 630 656
f 660 661 658 657
f 661 662 659 658
f 662 636 633 659
f 645 646 661 660
f 646 647 662 661
f 647 621 636 662
f 663 664 93 92
f 664 665 94 93
f 665 639 68 94
f 666 667 664 663
f 667 668 665 664
f 668 642 639 665
f 654 655 667 666
f 655 656 668 667
f 656 630 642 668
f 672 673 670 669
f 673 674 671 670
f 674 648 645 671
f 675 676 673 672
f 676 677 674 673
f 677 651 648 674
f 394 426 676 675
f 426 425 677 676
f 425 424 651 677
f 681 682 679 678
f 682 683 680 679
f 683 657 654 680
f 684 685 682 681
f 685 686 683 682
f 686 660 657 683
f 669 670 685 684
f 670 671 686 685
f 671 645 660 686
f 687 688 125 124
f 688 689 126 125
f 689 663 92 126
f 690 691 688 687
f 691 692 689 688
f 692 666 663 689
f 678 679 691 690
f 679 680 692 691
f 680 654 666 692
f 696 697 694 693
f 697 698 695 694
f 698 672 669 695
f 699 700 697 696
f 700 701 698 697
f 701 675 672 698
f 364 396 700 699
f 396 395 701 700
f 395 394 675 701
f 705 706 703 702
f 706 707 704 703
f 707 681 678 704
f 708 709 706 705
f 709 710 707 706
f 710 684 681 707
f 693 694 709 708
f 694 695 710 709
f 695 669 684 710
f 711 712 155 154
f 712 713 156 155
f 713 687 124 156
f 714 715 712 711
f 715 716 713 712
f 716 690 687 713
f 702 703 715 714
f 703 704 716 715
f 704 678 690 716
f 720 721 718 717
f 721 722 719 718
f 722 696 693 719
f 723 724 721 720
f 724 725 722 721
f 725 699 696 722
f 334 366 724 723
f 366 365 725 724
f 365 364 699 725
f 729 730 727 726
f 730 731 728 727
f 731 705 702 728
f 732 733 730 729
f 733 734 731 730
f 734 708 705 731
f 717 718 733 732
f 718 719 734 733
f 719 693 708 734
f 735 736 185 184
f 736 737 186 185
f 737 711 154 186
f 738 739 736 735
f 739 740 737 736
f 740 714 711 737
f 726 727 739 738
f 727 728 740 739
f 728 702 714 740
f 306 743 741 274
f 743 744 742 741
f 744 720 717 742
f 305 745 743 306
f 745 746 744 743
f 746 723 720 744
f 304 336 745 305
f 336 335 746 745
f 335 334 723 746
f 276 749 747 244
f 749 750 748 747
f 750 729 726 748
f 275 751 749 276
f 751 752 750 749
f 752 732 729 750
f 274 741 751 275
f 741 742 752 751
f 742 717 732 752
f 246 753 215 214
f 753 754 216 215
f 754 735 184 216
f 245 755 753 246
f 755 756 754 753
f 756 738 735 754
f 244 747 755 245
f 747 748 756 755
f 748 726 738 756
f 757 758 489 457
f 758 759 488 489
f 759 519 487 488
f 760 761 758 757
f 761 762 759 758
f 762 518 519 759
f 763 764 761 760
f 764 765 762 761
f 765 517 518 762
f 766 767 764 763
f 767 768 765 764
f 768 549 517 765
f 769 770 767 766
f 770 771 768 767
f 771 548 549 768
f 772 773 770 769
f 773 774 771 770
f 774 547 548 771
f 775 776 773 772
f 776 777 774 773
f 777 578 547 774
f 778 779 776 775
f 779 780 777 776
f 780 577 578 777
f 1 2 779 778
f 2 3 780 779
f 3 4 577 780
f 785 786 782 781
f 786 787 783 782
f 787 788 784 783
f 789 790 786 785
f 790 791 787 786
f 791 792 788 787
f 793 794 790 789
f 794 795 791 790
f 795 796 792 791
f 797 798 794 793
f 798 799 795 794
f 799 800 796 795
f 801 802 798 797
f 802 803 799 798
f 803 804 800 799
f 805 806 802 801
f 806 807 803 802
f 807 808 804 803
f 809 810 806 805
f 810 811 807 806
f 811 812 808 807
f 813 814 810 809
f 814 815 811 810
f 815 816 812 811
f 817 818 814 813
f 818 819 815 814
f 819 820 816 815
f 824 825 822 821
f 825 826 823 822
f 826 785 781 823
f 827 828 825 824
f 828 829 826 825
f 829 789 785 826
f 830 831 828 827
f 831 832 829 828
f 832 793 789 829
f 833 834 831 830
f 834 835 832 831
f 835 797 793 832
f 836 837 834 833
f 837 838 835 834
f 838 801 797 835
f 839 840 837 836
f 840 841 838 837
f 841 805 801 838
f 842 843 840 839
f 843 844 841 840
f 844 809 805 841
f 845 846 843 842
f 846 847 844 843
f 847 813 809 844
f 848 849 846 845
f 849 850 847 846
f 850 817 813 847
f 854 855 852 851
f 855 856 853 852
f 856 824 821 853
f 857 858 855 854
f 858 859 856 855
f 859 827 824 856
f 860 861 858 857
f 861 862 859 858
f 862 830 827 859
f 863 864 861 860
f 864 865 862 861
f 865 833 830 862
f 866 867 864 863
f 867 868 865 864
f 868 836 833 865
f 869 870 867 866
f 870 871 868 867
f 871 839 836 868
f 872 873 870 869
f 873 874 871 870
f 874 842 839 871
f 875 876 873 872
f 876 877 874 873
f 877 845 842 874
f 878 879 876 875
f 879 880 877 876
f 880 848 845 877
f 884 885 882 881
f 885 886 883 882
f 886 854 851 883
f 887 888 885 884
f 888 889 886 885
f 889 857 854 886
f 890 891 888 887
f 891 892 889 888
f 892 860 857 889
f 893 894 891 890
f 894 895 892 891
f 895 863 860 892
f 896 897 894 893
f 897 898 895 894
f 898 866 863 895
f 899 900 897 896
f 900 901 898 897
f 901 869 866 898
f 902 903 900 899
f 903 904 901 900
f 904 872 869 901
f 905 906 903 902
f 906 907 904 903
f 907 875 872 904
f 908 909 906 905
f 909 910 907 906
f 910 878 875 907
f 914 915 912 911
f 915 916 913 912
f 916 884 881 913
f 917 918 915 914
f 918 919 916 915
f 919 887 884 916
f 920 921 918 917
f 921 922 919 918
f 922 890 887 919
f 923 924 921 920
f 924 925 922 921
f 925 893 890 922
f 926 927 924 923
f 927 928 925 924
f 928 896 893 925
f 929 930 927 926
f 930 931 928 927
f 931 899 896 928
f 932 933 930 929
f 933 934 931 930
f 934 902 899 931
f 935 936 933 932
f 936 937 934 933
f 937 905 902 934
f 938 939 936 935
f 939 940 937 936
f 940 908 905 937
f 944 945 942 941
f 945 946 943 942
f 946 914 911 943
f 947 948 945 944
f 948 949 946 945
f 949 917 914 946
f 950 951 948 947
f 951 952 949 948
f 952 920 917 949
f 953 954 951 950
f 954 955 952 951
f 955 923 920 952
f 956 957 954 953
f 957 958 955 954
f 958 926 923 955
f 959 960 957 956
f 960 961 958 957
f 961 929 926 958
f 962 963 960 959
f 963 964 961 960
f 964 932 929 961
f 965 966 963 962
f 966 967 964 963
f 967 935 932 964
f 968 969 966 965
f 969 970 967 966
f 970 938 935 967
f 975 976 972 971
f 976 977 973 972
f 977 978 974 973
f 979 980 976 975
f 980 981 977 976
f 981 982 978 977
f 983 984 980 979
f 984 985 981 980
f 985 986 982 981
f 987 988 984 983
f 988 989 985 984
f 989 990 986 985
f 991 992 988 987
f 992 993 989 988
f 993 994 990 989
f 995 996 992 991
f 996 997 993 992
f 997 998 994 993
f 999 1000 996 995
f 1000 1001 997 996
f 1001 1002 998 997
f 1003 1004 1000 999
f 1004 1005 1001 1000
f 1005 1006 1002 1001
f 1007 1008 1004 1003
f 1008 1009 1005 1004
f 1009 1010 1006 1005
f 1014 1015 1012 1011
f 1015 1016 1013 1012
f 1016 975 971 1013
f 1017 1018 1015 1014
f 1018 1019 1016 1015
f 1019 979 975 1016
f 1020 1021 1018 1017
f 1021 1022 1019 1018
f 1022 983 979 1019
f 1023 1024 1021 1020
f 1024 1025 1022 1021
f 1025 987 983 1022
f 1026 1027 1024 1023
f 1027 1028 1025 1024
f 1028 991 987 1025
f 1029 1030 1027 1026
f 1030 1031 1028 1027
f 1031 995 991 1028
f 1032 1033 1030 1029
f 1033 1034 1031 1030
f 1034 999 995 1031
f 1035 1036 1033 1032
f 1036 1037 1034 1033
f 1037 1003 999 1034
f 1038 1039 1036 1035
f 1039 1040 1037 1036
f 1040 1007 1003 1037
f 1045 1046 1042 1041
f 1046 1047 1043 1042
f 1047 1048 1044 1043
f 1049 1050 1046 1045
f 1050 1051 1047 1046
f 1051 1052 1048 1047
f 1053 1054 1050 1049
f 1054 1055 1051 1050
f 1055 1056 1052 1051
f 1057 1058 1054 1053
f 1058 1059 1055 1054
f 1059 1060 1056 1055
f 1061 1062 1058 1057
f 1062 1063 1059 1058
f 1063 1064 1060 1059
f 1065 1066 1062 1061
f 1066 1067 1063 1062
f 1067 1068 1064 1063
f 1069 1070 1066 1065
f 1070 1071 1067 1066
f 1071 1072 1068 1067
f 1073 1074 1070 1069
f 1074 1075 1071 1070
f 1075 1076 1072 1071
f 1077 1078 1074 1073
f 1078 1079 1075 1074
f 1079 1080 1076 1075
f 1084 1085 1082 1081
f 1085 1086 1083 1082
f 1086 1045 1041 1083
f 1087 1088 1085 1084
f 1088 1089 1086 1085
f 1089 1049 1045 1086
f 1090 1091 1088 1087
f 1091 1092 1089 1088
f 1092 1053 1049 1089
f 1093 1094 1091 1090
f 1094 1095 1092 1091
f 1095 1057 1053 1092
f 1096 1097 1094 1093
f 1097 1098 1095 1094
f 1098 1061 1057 1095
f 1099 1100 1097 1096
f 1100 1101 1098 1097
f 1101 1065 1061 1098
f 1102 1103 1100 1099
f 1103 1104 1101 1100
f 1104 1069 1065 1101
f 1105 1106 1103 1102
f 1106 1107 1104 1103
f 1107 1073 1069 1104
f 1108 1109 1106 1105
f 1109 1110 1107 1106
f 1110 1077 1073 1107
f 1114 1115 1112 1111
f 1115 1116 1113 1112
f 1116 1084 1081 1113
f 1117 1118 1115 1114
f 1118 1119 1116 1115
f 1119 1087 1084 1116
f 1120 1121 1118 1117
f 1121 1122 1119 1118
f 1122 1090 1087 1119
f 1123 1124 1121 1120
f 1124 1125 1122 1121
f 1125 1093 1090 1122
f 1126 1127 1124 1123
f 1127 1128 1125 1124
f 1128 1096 1093 1125
f 1129 1130 1127 1126
f 1130 1131 1128 1127
f 1131 1099 1096 1128
f 1132 1133 1130 1129
f 1133 1134 1131 1130
f 1134 1102 1099 1131
f 1135 1136 1133 1132
f 1136 1137 1134 1133
f 1137 1105 1102 1134
f 1138 1139 1136 1135
f 1139 1140 1137 1136
f 1140 1108 1105 1137
f 1144 1145 1142 1141
f 1145 1146 1143 1142
f 1146 1114 1111 1143
f 1147 1148 1145 1144
f 1148 1149 1146 1145
f 1149 1117 1114 1146
f 1150 1151 1148 1147
f 1151 1152 1149 1148
f 1152 1120 1117 1149
f 1153 1154 1151 1150
f 1154 1155 1152 1151
f 1155 1123 1120 1152
f 1156 1157 1154 1153
f 1157 1158 1155 1154
f 1158 1126 1123 1155
f 1159 1160 1157 1156
f 1160 1161 1158 1157
f 1161 1129 1126 1158
f 1162 1163 1160 1159
f 1163 1164 1161 1160
f 1164 1132 1129 1161
f 1165 1166 1163 1162
f 1166 1167 1164 1163
f 1167 1135 1132 1164
f 1168 1169 1166 1165
f 1169 1170 1167 1166
f 1170 1138 1135 1167
f 1174 1175 1172 1171
f 1175 1176 1173 1172
f 1176 1144 1141 1173
f 1177 1178 1175 1174
f 1178 1179 1176 1175
f 1179 1147 1144 1176
f 1180 1181 1178 1177
f 1181 1182 1179 1178
f 1182 1150 1147 1179
f 1183 1184 1181 1180
f 1184 1185 1182 1181
f 1185 1153 1150 1182
f 1186 1187 1184 1183
f 1187 1188 1185 1184
f 1188 1156 1153 1185
f 1189 1190 1187 1186
f 1190 1191 1188 1187
f 1191 1159 1156 1188
f 1192 1193 1190 1189
f 1193 1194 1191 1190
f 1194 1162 1159 1191
f 1195 1196 1193 1192
f 1196 1197 1194 1193
f 1197 1165 1162 1194
f 1198 1199 1196 1195
f 1199 1200 1197 1196
f 1200 1168 1165 1197
f 1204 1205 1202 1201
f 1205 1206 1203 1202
f 1206 1174 1171 1203
f 1207 1208 1205 1204
f 1208 1209 1206 1205
f 1209 1177 1174 1206
f 1210 1211 1208 1207
f 1211 1212 1209 1208
f 1212 1180 1177 1209
f 1213 1214 1211 1210
f 1214 1215 1212 1211
f 1215 1183 1180 1212
f 1216 1217 1214 1213
f 1217 1218 1215 1214
f 1218 1186 1183 1215
f 1219 1220 1217 1216
f 1220 1221 1218 1217
f 1221 1189 1186 1218
f 1222 1223 1220 1219
f 1223 1224 1221 1220
f 1224 1192 1189 1221
f 1225 1226 1223 1222
f 1226 1227 1224 1223
f 1227 1195 1192 1224
f 1228 1229 1226 1225
f 1229 1230 1227 1226
f 1230 1198 1195 1227
f 1234 1235 1232 1231
f 1235 1236 1233 1232
f 1236 1204 1201 1233
f 1237 1238 1235 1234
f 1238 1239 1236 1235
f 1239 1207 1204 1236
f 1240 1241 1238 1237
f 1241 1242 1239 1238
f 1242 1210 1207 1239
f 1243 1244 1241 1240
f 1244 1245 1242 1241
f 1245 1213 1210 1242
f 1246 1247 1244 1243
f 1247 1248 1245 1244
f 1248 1216 1213 1245
f 1249 1250 1247 1246
f 1250 1251 1248 1247
f 1251 1219 1216 1248
f 1252 1253 1250 1249
f 1253 1254 1251 1250
f 1254 1222 1219 1251
f 1255 1256 1253 1252
f 1256 1257 1254 1253
f 1257 1225 1222 1254
f 1258 1259 1256 1255
f 1259 1260 1257 1256
f 1260 1228 1225 1257
f 1264 1265 1262 1261
f 1265 1266 1263 1262
f 1266 1234 1231 1263
f 1267 1268 1265 1264
f 1268 1269 1266 1265
f 1269 1237 1234 1266
f 1270 1271 1268 1267
f 1271 1272 1269 1268
f 1272 1240 1237 1269
f 1273 1274 1271 1270
f 1274 1275 1272 1271
f 1275 1243 1240 1272
f 1276 1277 1274 1273
f 1277 1278 1275 1274
f 1278 1246 1243 1275
f 1279 1280 1277 1276
f 1280 1281 1278 1277
f 1281 1249 1246 1278
f 1282 1283 1280 1279
f 1283 1284 1281 1280
f 1284 1252 1249 1281
f 1285 1286 1283 1282
f 1286 1287 1284 1283
f 1287 1255 1252 1284
f 1288 1289 1286 1285
f 1289 1290 1287 1286
f 1290 1258 1255 1287
f 1294 1295 1292 1291
f 1295 1296 1293 1292
f 1296 1264 1261 1293
f 1297 1298 1295 1294
f 1298 1299 1296 1295
f 1299 1267 1264 1296
f 1300 1301 1298 1297
f 1301 1302 1299 1298
f 1302 1270 1267 1299
f 1303 1304 1301 1300
f 1304 1305 1302 1301
f 1305 1273 1270 1302
f 1306 1307 1304 1303
f 1307 1308 1305 1304
f 1308 1276 1273 1305
f 1309 1310 1307 1306
f 1310 1311 1308 1307
f 1311 1279 1276 1308
f 1312 1313 1310 1309
f 1313 1314 1311 1310
f 1314 1282 1279 1311
f 1315 1316 1313 1312
f 1316 1317 1314 1313
f 1317 1285 1282 1314
f 1318 1319 1316 1315
f 1319 1320 1317 1316
f 1320 1288 1285 1317
f 1324 1325 1322 1321
f 1325 1326 1323 1322
f 1326 1294 1291 1323
f 1327 1328 1325 1324
f 1328 1329 1326 1325
f 1329 1297 1294 1326
f 1330 1331 1328 1327
f 1331 1332 1329 1328
f 1332 1300 1297 1329
f 1333 1334 1331 1330
f 1334 1335 1332 1331
f 1335 1303 1300 1332
f 1336 1337 1334 1333
f 1337 1338 1335 1334
f 1338 1306 1303 1335
f 1339 1340 1337 1336
f 1340 1341 1338 1337
f 1341 1309 1306 1338
f 1342 1343 1340 1339
f 1343 1344 1341 1340
f 1344 1312 1309 1341
f 1345 1346 1343 1342
f 1346 1347 1344 1343
f 1347 1315 1312 1344
f 1348 1349 1346 1345
f 1349 1350 1347 1346
f 1350 1318 1315 1347
f 1354 1355 1352 1351
f 1355 1356 1353 1352
f 1356 1324 1321 1353
f 1357 1358 1355 1354
f 1358 1359 1356 1355
f 1359 1327 1324 1356
f 1360 1361 1358 1357
f 1361 1362 1359 1358
f 1362 1330 1327 1359
f 1363 1364 1361 1360
f 1364 1365 1362 1361
f 1365 1333 1330 1362
f 1366 1367 1364 1363
f 1367 1368 1365 1364
f 1368 1336 1333 1365
f 1369 1370 1367 1366
f 1370 1371 1368 1367
f 1371 1339 1336 1368
f 1372 1373 1370 1369
f 1373 1374 1371 1370
f 1374 1342 1339 1371
f 1375 1376 1373 1372
f 1376 1377 1374 1373
f 1377 1345 1342 1374
f 1378 1379 1376 1375
f 1379 1380 1377 1376
f 1380 1348 1345 1377
f 788 1383 1381 784
f 1383 1384 1382 1381
f 1384 1354 1351 1382
f 792 1385 1383 788
f 1385 1386 1384 1383
f 1386 1357 1354 1384
f 796 1387 1385 792
f 1387 1388 1386 1385
f 1388 1360 1357 1386
f 800 1389 1387 796
f 1389 1390 1388 1387
f 1390 1363 1360 1388
f 804 1391 1389 800
f 1391 1392 1390 1389
f 1392 1366 1363 1390
f 808 1393 1391 804
f 1393 1394 1392 1391
f 1394 1369 1366 1392
f 812 1395 1393 808
f 1395 1396 1394 1393
f 1396 1372 1369 1394
f 816 1397 1395 812
f 1397 1398 1396 1395
f 1398 1375 1372 1396
f 820 1399 1397 816
f 1399 1400 1398 1397
f 1400 1378 1375 1398
f 1404 1405 1402 1401
f 1405 1406 1403 1402
f 1406 1349 1348 1403
f 1407 1408 1405 1404
f 1408 1409 1406 1405
f 1409 1350 1349 1406
f 1288 1320 1408 1407
f 1320 1319 1409 1408
f 1319 1318 1350 1409
f 1413 1414 1411 1410
f 1414 1415 1412 1411
f 1415 1379 1378 1412
f 1416 1417 1414 1413
f 1417 1418 1415 1414
f 1418 1380 1379 1415
f 1401 1402 1417 1416
f 1402 1403 1418 1417
f 1403 1348 1380 1418
f 1419 1420 818 817
f 1420 1421 819 818
f 1421 1399 820 819
f 1422 1423 1420 1419
f 1423 1424 1421 1420
f 1424 1400 1399 1421
f 1410 1411 1423 1422
f 1411 1412 1424 1423
f 1412 1378 1400 1424
f 1425 1426 1293 1261
f 1426 1427 1292 1293
f 1427 1323 1291 1292
f 1428 1429 1426 1425
f 1429 1430 1427 1426
f 1430 1322 1323 1427
f 1431 1432 1429 1428
f 1432 1433 1430 1429
f 1433 1321 1322 1430
f 1434 1435 1432 1431
f 1435 1436 1433 1432
f 1436 1353 1321 1433
f 1437 1438 1435 1434
f 1438 1439 1436 1435
f 1439 1352 1353 1436
f 1440 1441 1438 1437
f 1441 1442 1439 1438
f 1442 1351 1352 1439
f 1443 1444 1441 1440
f 1444 1445 1442 1441
f 1445 1382 1351 1442
f 1446 1447 1444 1443
f 1447 1448 1445 1444
f 1448 1381 1382 1445
f 781 782 1447 1446
f 782 783 1448 1447
f 783 784 1381 1448
f 1449 1450 1263 1231
f 1450 1451 1262 1263
f 1451 1425 1261 1262
f 1452 1453 1450 1449
f 1453 1454 1451 1450
f 1454 1428 1425 1451
f 1455 1456 1453 1452
f 1456 1457 1454 1453
f 1457 1431 1428 1454
f 1458 1459 1456 1455
f 1459 1460 1457 1456
f 1460 1434 1431 1457
f 1461 1462 1459 1458
f 1462 1463 1460 1459
f 1463 1437 1434 1460
f 1464 1465 1462 1461
f 1465 1466 1463 1462
f 1466 1440 1437 1463
f 1467 1468 1465 1464
f 1468 1469 1466 1465
f 1469 1443 1440 1466
f 1470 1471 1468 1467
f 1471 1472 1469 1468
f 1472 1446 1443 1469
f 821 822 1471 1470
f 822 823 1472 1471
f 823 781 1446 1472
f 1473 1474 1233 1201
f 1474 1475 1232 1233
f 1475 1449 1231 1232
f 1476 1477 1474 1473
f 1477 1478 1475 1474
f 1478 1452 1449 1475
f 1479 1480 1477 1476
f 1480 1481 1478 1477
f 1481 1455 1452 1478
f 1482 1483 1480 1479
f 1483 1484 1481 1480
f 1484 1458 1455 1481
f 1485 1486 1483 1482
f 1486 1487 1484 1483
f 1487 1461 1458 1484
f 1488 1489 1486 1485
f 1489 1490 1487 1486
f 1490 1464 1461 1487
f 1491 1492 1489 1488
f 1492 1493 1490 1489
f 1493 1467 1464 1490
f 1494 1495 1492 1491
f 1495 1496 1493 1492
f 1496 1470 1467 1493
f 851 852 1495 1494
f 852 853 1496 1495
f 853 821 1470 1496
f 1497 1498 1203 1171
f 1498 1499 1202 1203
f 1499 1473 1201 1202
f 1500 1501 1498 1497
f 1501 1502 1499 1498
f 1502 1476 1473 1499
f 1503 1504 1501 1500
f 1504 1505 1502 1501
f 1505 1479 1476 1502
f 1506 1507 1504 1503
f 1507 1508 1505 1504
f 1508 1482 1479 1505
f 1509 1510 1507 1506
f 1510 1511 1508 1507
f 1511 1485 1482 1508
f 1512 1513 1510 1509
f 1513 1514 1511 1510
f 1514 1488 1485 1511
f 1515 1516 1513 1512
f 1516 1517 1514 1513
f 1517 1491 1488 1514
f 1518 1519 1516 1515
f 1519 1520 1517 1516
f 1520 1494 1491 1517
f 881 882 1519 1518
f 882 883 1520 1519
f 883 851 1494 1520
f 1521 1522 1173 1141
f 1522 1523 1172 1173
f 1523 1497 1171 1172
f 1524 1525 1522 1521
f 1525 1526 1523 1522
f 1526 1500 1497 1523
f 1527 1528 1525 1524
f 1528 1529 1526 1525
f 1529 1503 1500 1526
f 1530 1531 1528 1527
f 1531 1532 1529 1528
f 1532 1506 1503 1529
f 1533 1534 1531 1530
f 1534 1535 1532 1531
f 1535 1509 1506 1532
f 1536 1537 1534 1533
f 1537 1538 1535 1534
f 1538 1512 1509 1535
f 1539 1540 1537 1536
f 1540 1541 1538 1537
f 1541 1515 1512 1538
f 1542 1543 1540 1539
f 1543 1544 1541 1540
f 1544 1518 1515 1541
f 911 912 1543 1542
f 912 913 1544 1543
f 913 881 1518 1544
f 1545 1546 1143 1111
f 1546 1547 1142 1143
f 1547 1521 1141 1142
f 1548 1549 1546 1545
f 1549 1550 1547 1546
f 1550 1524 1521 1547
f 1551 1552 1549 1548
f 1552 1553 1550 1549
f 1553 1527 1524 1550
f 1554 1555 1552 1551
f 1555 1556 1553 1552
f 1556 1530 1527 1553
f 1557 1558 1555 1554
f 1558 1559 1556 1555
f 1559 1533 1530 1556
f 1560 1561 1558 1557
f 1561 1562 1559 1558
f 1562 1536 1533 1559
f 1563 1564 1561 1560
f 1564 1565 1562 1561
f 1565 1539 1536 1562
f 1566 1567 1564 1563
f 1567 1568 1565 1564
f 1568 1542 1539 1565
f 941 942 1567 1566
f 942 943 1568 1567
f 943 911 1542 1568
f 1082 1569 1113 1081
f 1569 1570 1112 1113
f 1570 1545 1111 1112
f 1083 1571 1569 1082
f 1571 1572 1570 1569
f 1572 1548 1545 1570
f 1041 1573 1571 1083
f 1573 1574 1572 1571
f 1574 1551 1548 1572
f 1042 1575 1573 1041
f 1575 1576 1574 1573
f 1576 1554 1551 1574
f 1043 1577 1575 1042
f 1577 1578 1576 1575
f 1578 1557 1554 1576
f 1044 1579 1577 1043
f 1579 1580 1578 1577
f 1580 1560 1557 1578
f 1581 1582 1579 1044
f 1582 1583 1580 1579
f 1583 1563 1560 1580
f 1584 1585 1582 1581
f 1585 1586 1583 1582
f 1586 1566 1563 1583
f 1587 1588 1585 1584
f 1588 1589 1586 1585
f 1589 941 1566 1586
f 1200 1592 1590 1168
f 1592 1593 1591 1590
f 1593 369 337 1591
f 1199 1594 1592 1200
f 1594 1595 1593 1592
f 1595 368 369 1593
f 1198 1596 1594 1199
f 1596 1597 1595 1594
f 1597 367 368 1595
f 1138 1600 1598
f 1598 1600 1601
f 1598 1601 1599
f 1599 1601 339
f 1599 339 307
f 1600 1602 1601
f 1601 1602 338
f 1601 338 339
f 1602 337 338
f 1138 1170 1600
f 1600 1170 1603
f 1600 1603 1602
f 1602 1603 1591
f 1602 1591 337
f 1170 1169 1603
f 1603 1169 1590
f 1603 1590 1591
f 1169 1168 1590
f 1140 1606 1604 1108
f 1606 1607 1605 1604
f 1607 309 277 1605
f 1139 1608 1606 1140
f 1608 1609 1607 1606
f 1609 308 309 1607
f 1138 1598 1608 1139
f 1598 1599 1609 1608
f 1599 307 308 1609
f 1230 1610 1596 1198
f 1610 1611 1597 1596
f 1611 399 367 1597
f 1229 1612 1610 1230
f 1612 1613 1611 1610
f 1613 398 399 1611
f 1228 1614 1612 1229
f 1614 1615 1613 1612
f 1615 397 398 1613
f 1260 1616 1614 1228
f 1616 1617 1615 1614
f 1617 429 397 1615
f 1259 1618 1616 1260
f 1618 1619 1617 1616
f 1619 428 429 1617
f 1258 1620 1618 1259
f 1620 1621 1619 1618
f 1621 427 428 1619
f 84 1622 114 83
f 1622 1623 110 114
f 1623 81 80 110
f 85 1624 1622 84
f 1624 1625 1623 1622
f 1625 82 81 1623
f 59 56 1624 85
f 56 53 1625 1624
f 53 50 82 1625
f 1110 1628 1626 1077
f 1628 1629 1627 1626
f 1629 279 247 1627
f 1109 1630 1628 1110
f 1630 1631 1629 1628
f 1631 278 279 1629
f 1108 1604 1630 1109
f 1604 1605 1631 1630
f 1605 277 278 1631
f 217 1632 249
f 249 1632 1633
f 249 1633 248
f 248 1633 1627
f 248 1627 247
f 1632 1634 1633
f 1633 1634 1626
f 1633 1626 1627
f 1634 1077 1626
f 1080 1079 1635
f 1635 1079 1637
f 1635 1637 1636
f 1636 1637 1632
f 1636 1632 217
f 1079 1078 1637
f 1637 1078 1634
f 1637 1634 1632
f 1078 1077 1634
f 1641 1642 1639 1638
f 1642 1643 1640 1639
f 1643 219 187 1640
f 1644 1645 1642 1641
f 1645 1646 1643 1642
f 1646 218 219 1643
f 1080 1635 1645 1644
f 1635 1636 1646 1645
f 1636 217 218 1646
f 188 1647 1640 187
f 1647 1648 1639 1640
f 1648 1649 1638 1639
f 189 1650 1647 188
f 1650 1651 1648 1647
f 1651 1652 1649 1648
f 157 1653 1650 189
f 1653 1654 1651 1650
f 1654 968 1652 1651
f 158 1655 1653 157
f 1655 1656 1654 1653
f 1656 969 968 1654
f 159 1657 1655 158
f 1657 1658 1656 1655
f 1658 970 969 1656
f 127 1659 1657 159
f 1659 1660 1658 1657
f 1660 938 970 1658
f 128 1661 1659 127
f 1661 1662 1660 1659
f 1662 939 938 1660
f 129 1663 1661 128
f 1663 1664 1662 1661
f 1664 940 939 1662
f 95 1665 1663 129
f 1665 1666 1664 1663
f 1666 908 940 1664
f 96 1667 1665 95
f 1667 1668 1666 1665
f 1668 909 908 1666
f 97 1669 1667 96
f 1669 1670 1668 1667
f 1670 910 909 1668
f 71 1671 1669 97
f 1671 1672 1670 1669
f 1672 878 910 1670
f 72 1673 1671 71
f 1673 1674 1672 1671
f 1674 879 878 1672
f 73 1675 1673 72
f 1675 1676 1674 1673
f 1676 880 879 1674
f 41 1677 1675 73
f 1677 1678 1676 1675
f 1678 848 880 1676
f 42 1679 1677 41
f 1679 1680 1678 1677
f 1680 849 848 1678
f 43 1681 1679 42
f 1681 1682 1680 1679
f 1682 850 849 1680
f 1 1683 1681 43
f 1683 1684 1682 1681
f 1684 817 850 1682
f 778 1685 1683 1
f 1685 1686 1684 1683
f 1686 1419 817 1684
f 775 1687 1685 778
f 1687 1688 1686 1685
f 1688 1422 1419 1686
f 772 1689 1687 775
f 1689 1690 1688 1687
f 1690 1410 1422 1688
f 1416 1693 1691 1401
f 1693 1694 1692 1691
f 1694 766 763 1692
f 1413 1695 1693 1416
f 1695 1696 1694 1693
f 1696 769 766 1694
f 1410 1690 1695 1413
f 1690 1689 1696 1695
f 1689 772 769 1696
f 1290 1697 1620 1258
f 1697 1698 1621 1620
f 1698 459 427 1621
f 1289 1699 1697 1290
f 1699 1700 1698 1697
f 1700 458 459 1698
f 1288 1701 1699 1289
f 1701 1702 1700 1699
f 1702 457 458 1700
f 1407 1703 1701 1288
f 1703 1704 1702 1701
f 1704 757 457 1702
f 1404 1705 1703 1407
f 1705 1706 1704 1703
f 1706 760 757 1704
f 1401 1691 1705 1404
f 1691 1692 1706 1705
f 1692 763 760 1706
f 978 1709 1707 974
f 1709 1710 1708 1707
f 1710 944 941 1708
f 982 1711 1709 978
f 1711 1712 1710 1709
f 1712 947 944 1710
f 986 1713 1711 982
f 1713 1714 1712 1711
f 1714 950 947 1712
f 972 1717 1715 971
f 1717 1718 1716 1715
f 1718 1588 1587 1716
f 973 1719 1717 972
f 1719 1720 1718 1717
f 1720 1589 1588 1718
f 974 1707 1719 973
f 1707 1708 1720 1719
f 1708 941 1589 1720
f 990 1721 1713 986
f 1721 1722 1714 1713
f 1722 953 950 1714
f 994 1723 1721 990
f 1723 1724 1722 1721
f 1724 956 953 1722
f 998 1725 1723 994
f 1725 1726 1724 1723
f 1726 959 956 1724
f 1002 1727 1725 998
f 1727 1728 1726 1725
f 1728 962 959 1726
f 1006 1729 1727 1002
f 1729 1730 1728 1727
f 1730 965 962 1728
f 1010 1731 1729 1006
f 1731 1732 1730 1729
f 1732 968 965 1730
f 1737 1738 1734 1733
f 1738 1739 1735 1734
f 1739 1740 1736 1735
f 1741 1742 1738 1737
f 1742 1743 1739 1738
f 1743 1744 1740 1739
f 1745 1746 1742 1741
f 1746 1747 1743 1742
f 1747 1748 1744 1743
f 1017 1751 1749 1020
f 1751 1752 1750 1749
f 1752 1052 1056 1750
f 1014 1753 1751 1017
f 1753 1754 1752 1751
f 1754 1048 1052 1752
f 1011 1755 1753 1014
f 1755 1756 1754 1753
f 1756 1044 1048 1754
f 1012 1757 1755 1011
f 1757 1758 1756 1755
f 1758 1581 1044 1756
f 1013 1759 1757 1012
f 1759 1760 1758 1757
f 1760 1584 1581 1758
f 971 1715 1759 1013
f 1715 1716 1760 1759
f 1716 1587 1584 1760
f 1026 1763 1761 1029
f 1763 1764 1762 1761
f 1764 1064 1068 1762
f 1023 1765 1763 1026
f 1765 1766 1764 1763
f 1766 1060 1064 1764
f 1020 1749 1765 1023
f 1749 1750 1766 1765
f 1750 1056 1060 1766
f 1767 1768 1746 1745
f 1768 1769 1747 1746
f 1769 1770 1748 1747
f 1771 1772 1768 1767
f 1772 1773 1769 1768
f 1773 1774 1770 1769
f 1775 1776 1772 1771
f 1776 1777 1773 1772
f 1777 1778 1774 1773
f 1035 1781 1779 1038
f 1781 1782 1780 1779
f 1782 1076 1080 1780
f 1032 1783 1781 1035
f 1783 1784 1782 1781
f 1784 1072 1076 1782
f 1029 1761 1783 1032
f 1761 1762 1784 1783
f 1762 1068 1072 1784
f 1740 1787 1785 1736
f 1787 1788 1786 1785
f 1788 1652 968 1786
f 1744 1789 1787 1740
f 1789 1790 1788 1787
f 1790 1649 1652 1788
f 1748 1791 1789 1744
f 1791 1792 1790 1789
f 1792 1638 1649 1790
f 1741 1795 1793 1745
f 1795 1796 1794 1793
f 1796 1008 1007 1794
f 1737 1797 1795 1741
f 1797 1798 1796 1795
f 1798 1009 1008 1796
f 1733 1799 1797 1737
f 1799 1800 1798 1797
f 1800 1010 1009 1798
f 1734 1801 1799 1733
f 1801 1802 1800 1799
f 1802 1731 1010 1800
f 1735 1803 1801 1734
f 1803 1804 1802 1801
f 1804 1732 1731 1802
f 1736 1785 1803 1735
f 1785 1786 1804 1803
f 1786 968 1732 1804
f 1770 1805 1791 1748
f 1805 1806 1792 1791
f 1806 1641 1638 1792
f 1774 1807 1805 1770
f 1807 1808 1806 1805
f 1808 1644 1641 1806
f 1778 1809 1807 1774
f 1809 1810 1808 1807
f 1810 1080 1644 1808
f 1777 1811 1809 1778
f 1811 1812 1810 1809
f 1812 1780 1080 1810
f 1776 1813 1811 1777
f 1813 1814 1812 1811
f 1814 1779 1780 1812
f 1775 1815 1813 1776
f 1815 1816 1814 1813
f 1816 1038 1779 1814
f 1771 1817 1815 1775
f 1817 1818 1816 1815
f 1818 1039 1038 1816
f 1767 1819 1817 1771
f 1819 1820 1818 1817
f 1820 1040 1039 1818
f 1745 1793 1819 1767
f 1793 1794 1820 1819
f 1794 1007 1040 1820

#	             End of file
